EQ_TYPE,SEGMENT,TASK,NEXT_CHANGE,SPEED,PEDESTRIAN,RELEV_VEHICLE,ACTIONS,AGGRESSIVE,FILE_ID,TRACK_ID,TIME,ON_EQ
MAXMIN|BR|GAUSSIAN,prep-left-turn,S_W,>EQ  10-Y/R,LOW  SPEED,PEDESTRIAN,RL  0,acts-1,Y,769,140,180.346833,0.00512199999999996
MAXMIN|BR|GAUSSIAN,prep-left-turn,S_W,>EQ  10-Y/R,LOW  SPEED,PEDESTRIAN,RL  0,acts-1,Y,769,140,181.347833,0.005524000000000084
MAXMIN|BR|GAUSSIAN,prep-left-turn,S_W,>EQ  10-Y/R,LOW  SPEED,PEDESTRIAN,  RL  <EQ  2,acts-1,N,769,58,88.421667,0.06417699999999993
MAXMIN|BR|GAUSSIAN,prep-left-turn,S_W,>EQ  10-Y/R,LOW  SPEED,PEDESTRIAN,  RL  <EQ  2,acts-1,N,769,58,88.421667,0.06435999999999997
MAXMIN|BR|GAUSSIAN,prep-left-turn,S_W,>EQ  10-Y/R,LOW  SPEED,PEDESTRIAN,  RL  <EQ  2,acts-1,N,769,58,89.422667,0
MAXMIN|BR|GAUSSIAN,prep-left-turn,S_W,>EQ  10-Y/R,LOW  SPEED,PEDESTRIAN,  RL  <EQ  2,acts-1,N,769,58,89.422667,0.010862000000000038
MAXMIN|BR|GAUSSIAN,prep-left-turn,S_W,>EQ  10-Y/R,LOW  SPEED,PEDESTRIAN,  RL  <EQ  2,acts-1,N,769,58,92.425667,0.07209300000000007
MAXMIN|BR|GAUSSIAN,prep-left-turn,S_W,>EQ  10-Y/R,LOW  SPEED,PEDESTRIAN,  RL  <EQ  2,acts-1,N,769,58,92.425667,0.07227700000000004
MAXMIN|BR|GAUSSIAN,prep-left-turn,S_W,>EQ  10-Y/R,LOW  SPEED,PEDESTRIAN,  RL  <EQ  2,acts-2,N,769,88,93.426667,0.0002869999999999262
MAXMIN|BR|GAUSSIAN,prep-left-turn,S_W,>EQ  10-Y/R,LOW  SPEED,PEDESTRIAN,  RL  <EQ  2,acts-2,N,769,88,93.426667,0.00027399999999999647
MAXMIN|BR|GAUSSIAN,prep-left-turn,S_W,>EQ  10-Y/R,LOW  SPEED,PEDESTRIAN,  RL  >  2,acts-1,N,769,58,85.418667,0.006541000000000019
MAXMIN|BR|GAUSSIAN,prep-left-turn,S_W,>EQ  10-Y/R,LOW  SPEED,PEDESTRIAN,  RL  >  2,acts-1,N,769,58,86.419667,0.07011599999999996
MAXMIN|BR|GAUSSIAN,prep-left-turn,S_W,>EQ  10-Y/R,LOW  SPEED,PEDESTRIAN,  RL  >  2,acts-1,N,769,58,86.419667,0.07015300000000002
MAXMIN|BR|GAUSSIAN,prep-left-turn,S_W,>EQ  10-Y/R,LOW  SPEED,PEDESTRIAN,  RL  >  2,acts-1,N,769,58,87.420667,0.07292299999999996
MAXMIN|BR|GAUSSIAN,prep-left-turn,S_W,>EQ  10-Y/R,LOW  SPEED,PEDESTRIAN,  RL  >  2,acts-1,N,769,58,87.420667,0.07299599999999995
MAXMIN|BR|GAUSSIAN,prep-left-turn,S_W,>EQ  10-Y/R,LOW  SPEED,PEDESTRIAN,  RL  >  2,acts-2,N,769,88,92.425667,0
MAXMIN|BR|GAUSSIAN,prep-left-turn,S_W,>EQ  10-Y/R,LOW  SPEED,PEDESTRIAN,  RL  >  2,acts-2,N,769,88,92.425667,4.199999999998649e-05
MAXMIN|BR|GAUSSIAN,prep-left-turn,S_W,>EQ  10-Y/R,LOW  SPEED,NO  PEDESTRIAN,  RL  <EQ  2,acts-3,N,769,11,1.001,0.06412200000000001
MAXMIN|BR|GAUSSIAN,prep-left-turn,S_W,>EQ  10-Y/R,LOW  SPEED,NO  PEDESTRIAN,  RL  <EQ  2,acts-3,N,769,119,111.277833,0.06142500000000006
MAXMIN|BR|GAUSSIAN,prep-left-turn,S_W,>EQ  10-Y/R,LOW  SPEED,NO  PEDESTRIAN,  RL  <EQ  2,acts-3,Y,769,119,112.278833,0.274172
MAXMIN|BR|GAUSSIAN,prep-left-turn,S_W,>EQ  10-Y/R,LOW  SPEED,NO  PEDESTRIAN,  RL  <EQ  2,acts-4,Y,769,88,100.433667,0.00018599999999996397
MAXMIN|BR|GAUSSIAN,prep-left-turn,S_W,>EQ  10-Y/R,LOW  SPEED,NO  PEDESTRIAN,  RL  <EQ  2,acts-4,N,769,88,94.427667,0
MAXMIN|BR|GAUSSIAN,prep-left-turn,S_W,>EQ  10-Y/R,LOW  SPEED,NO  PEDESTRIAN,  RL  <EQ  2,acts-4,N,769,119,108.274833,0.0007650000000000157
MAXMIN|BR|GAUSSIAN,prep-left-turn,S_W,>EQ  10-Y/R,LOW  SPEED,NO  PEDESTRIAN,  RL  <EQ  2,acts-4,Y,769,119,109.275833,0
MAXMIN|BR|GAUSSIAN,prep-left-turn,S_W,>EQ  10-Y/R,LOW  SPEED,NO  PEDESTRIAN,  RL  >  2,acts-3,N,769,11,0,0.17146899999999998
MAXMIN|BR|GAUSSIAN,prep-left-turn,S_W,>EQ  10-Y/R,LOW  SPEED,NO  PEDESTRIAN,  RL  >  2,acts-4,N,769,88,95.428667,0
MAXMIN|BR|GAUSSIAN,prep-left-turn,S_W,>EQ  10-Y/R,LOW  SPEED,NO  PEDESTRIAN,  RL  >  2,acts-4,N,769,88,96.429667,3.999999999992898e-05
MAXMIN|BR|GAUSSIAN,prep-left-turn,S_W,>EQ  10-Y/R,LOW  SPEED,NO  PEDESTRIAN,  RL  >  2,acts-4,N,769,88,97.430667,8.20000000000265e-05
MAXMIN|BR|GAUSSIAN,prep-left-turn,S_W,>EQ  10-Y/R,LOW  SPEED,NO  PEDESTRIAN,  RL  >  2,acts-4,Y,769,88,98.431667,0
MAXMIN|BR|GAUSSIAN,prep-left-turn,S_W,>EQ  10-Y/R,LOW  SPEED,NO  PEDESTRIAN,  RL  >  2,acts-4,Y,769,88,99.432667,8.399999999997299e-05
MAXMIN|BR|GAUSSIAN,prep-left-turn,S_W,>EQ  10-Y/R,LOW  SPEED,NO  PEDESTRIAN,  RL  >  2,acts-4,N,769,119,110.276833,0.00014199999999997548
MAXMIN|BR|GAUSSIAN,prep-left-turn,N_E,<10-Y/R,LOW  SPEED,NO  PEDESTRIAN,RL  0,acts-3,Y,769,160,181.181,0
MAXMIN|BR|GAUSSIAN,prep-left-turn,N_E,<10-Y/R,MEDIUM  SPEED,NO  PEDESTRIAN,RL  0,acts-3,Y,769,178,187.520667,0.008415999999999979
MAXMIN|BR|GAUSSIAN,prep-left-turn,N_E,>EQ  10-Y/R,LOW  SPEED,NO  PEDESTRIAN,RL  0,acts-3,Y,769,24,10.176833,0.005849000000000104
MAXMIN|BR|GAUSSIAN,prep-left-turn,N_E,>EQ  10-Y/R,LOW  SPEED,NO  PEDESTRIAN,RL  0,acts-3,N,769,24,9.175833,0.07623799999999992
MAXMIN|BR|GAUSSIAN,prep-left-turn,N_E,>EQ  10-Y/R,LOW  SPEED,NO  PEDESTRIAN,RL  0,acts-3,Y,769,124,109.442667,0.07145000000000001
MAXMIN|BR|GAUSSIAN,prep-left-turn,N_E,>EQ  10-Y/R,LOW  SPEED,NO  PEDESTRIAN,RL  0,acts-3,Y,769,124,110.443667,0
MAXMIN|BR|GAUSSIAN,prep-left-turn,N_E,>EQ  10-Y/R,LOW  SPEED,NO  PEDESTRIAN,RL  0,acts-3,Y,769,124,111.444667,0.07313199999999997
MAXMIN|BR|GAUSSIAN,prep-left-turn,W_N,<10-Y/R,LOW  SPEED,NO  PEDESTRIAN,RL  0,acts-3,N,769,253,267.100167,0.00045799999999995844
MAXMIN|BR|GAUSSIAN,prep-left-turn,W_N,<10-Y/R,LOW  SPEED,NO  PEDESTRIAN,  RL  <EQ  2,acts-3,N,769,53,65.5655,0.007692000000000032
MAXMIN|BR|GAUSSIAN,prep-left-turn,W_N,<10-Y/R,LOW  SPEED,NO  PEDESTRIAN,  RL  <EQ  2,acts-3,Y,769,164,163.997167,0.02632599999999996
MAXMIN|BR|GAUSSIAN,prep-left-turn,W_N,<10-Y/R,LOW  SPEED,NO  PEDESTRIAN,  RL  >  2,acts-3,N,769,53,63.5635,0.024025999999999992
MAXMIN|BR|GAUSSIAN,prep-left-turn,W_N,<10-Y/R,LOW  SPEED,NO  PEDESTRIAN,  RL  >  2,acts-3,N,769,53,64.5645,0.06659400000000004
MAXMIN|BR|GAUSSIAN,prep-left-turn,W_N,<10-Y/R,LOW  SPEED,NO  PEDESTRIAN,  RL  >  2,acts-3,N,769,53,66.5665,0.09811499999999995
MAXMIN|BR|GAUSSIAN,prep-left-turn,W_N,<10-Y/R,LOW  SPEED,NO  PEDESTRIAN,  RL  >  2,acts-3,N,769,53,67.5675,0.02062799999999998
MAXMIN|BR|GAUSSIAN,prep-left-turn,W_N,<10-Y/R,LOW  SPEED,NO  PEDESTRIAN,  RL  >  2,acts-3,N,769,53,68.5685,0.022387999999999963
MAXMIN|BR|GAUSSIAN,prep-left-turn,W_N,<10-Y/R,LOW  SPEED,NO  PEDESTRIAN,  RL  >  2,acts-3,N,769,53,69.5695,0.02413299999999996
MAXMIN|BR|GAUSSIAN,prep-left-turn,W_N,<10-Y/R,LOW  SPEED,NO  PEDESTRIAN,  RL  >  2,acts-3,N,769,53,70.5705,0.06481800000000004
MAXMIN|BR|GAUSSIAN,prep-left-turn,W_N,<10-Y/R,LOW  SPEED,NO  PEDESTRIAN,  RL  >  2,acts-3,N,769,53,71.5715,0.0010000000000000009
MAXMIN|BR|GAUSSIAN,prep-left-turn,W_N,<10-Y/R,LOW  SPEED,NO  PEDESTRIAN,  RL  >  2,acts-3,Y,769,53,72.5725,0
MAXMIN|BR|GAUSSIAN,prep-left-turn,W_N,>EQ  10-Y/R,LOW  SPEED,PEDESTRIAN,RL  0,acts-1,Y,769,116,134.6345,0.008054999999999923
MAXMIN|BR|GAUSSIAN,prep-left-turn,W_N,>EQ  10-Y/R,LOW  SPEED,PEDESTRIAN,RL  0,acts-1,Y,769,116,135.6355,0
MAXMIN|BR|GAUSSIAN,prep-left-turn,W_N,>EQ  10-Y/R,LOW  SPEED,NO  PEDESTRIAN,RL  0,acts-3,Y,769,14,35.035,0
MAXMIN|BR|GAUSSIAN,prep-left-turn,W_N,>EQ  10-Y/R,LOW  SPEED,NO  PEDESTRIAN,RL  0,acts-3,Y,769,14,36.036,0
MAXMIN|BR|GAUSSIAN,prep-left-turn,W_N,>EQ  10-Y/R,LOW  SPEED,NO  PEDESTRIAN,  RL  >  2,acts-3,Y,769,53,50.5505,0.07273300000000005
MAXMIN|BR|GAUSSIAN,prep-left-turn,W_N,>EQ  10-Y/R,LOW  SPEED,NO  PEDESTRIAN,  RL  >  2,acts-3,Y,769,53,51.5515,0.07286999999999999
MAXMIN|BR|GAUSSIAN,prep-left-turn,W_N,>EQ  10-Y/R,LOW  SPEED,NO  PEDESTRIAN,  RL  >  2,acts-3,Y,769,53,52.5525,0.058965000000000045
MAXMIN|BR|GAUSSIAN,prep-left-turn,W_N,>EQ  10-Y/R,LOW  SPEED,NO  PEDESTRIAN,  RL  >  2,acts-3,N,769,53,53.5535,0.05987399999999998
MAXMIN|BR|GAUSSIAN,prep-left-turn,W_N,>EQ  10-Y/R,LOW  SPEED,NO  PEDESTRIAN,  RL  >  2,acts-3,N,769,53,54.5545,0.046876999999999946
MAXMIN|BR|GAUSSIAN,prep-left-turn,W_N,>EQ  10-Y/R,LOW  SPEED,NO  PEDESTRIAN,  RL  >  2,acts-3,N,769,53,55.5555,0.008660000000000001
MAXMIN|BR|GAUSSIAN,prep-left-turn,W_N,>EQ  10-Y/R,LOW  SPEED,NO  PEDESTRIAN,  RL  >  2,acts-3,N,769,53,56.5565,0
MAXMIN|BR|GAUSSIAN,prep-left-turn,W_N,>EQ  10-Y/R,LOW  SPEED,NO  PEDESTRIAN,  RL  >  2,acts-3,N,769,53,57.5575,0
MAXMIN|BR|GAUSSIAN,prep-left-turn,W_N,>EQ  10-Y/R,LOW  SPEED,NO  PEDESTRIAN,  RL  >  2,acts-3,N,769,53,58.5585,0.048633999999999955
MAXMIN|BR|GAUSSIAN,prep-left-turn,W_N,>EQ  10-Y/R,LOW  SPEED,NO  PEDESTRIAN,  RL  >  2,acts-3,N,769,53,59.5595,0.062471000000000054
MAXMIN|BR|GAUSSIAN,prep-left-turn,W_N,>EQ  10-Y/R,LOW  SPEED,NO  PEDESTRIAN,  RL  >  2,acts-3,N,769,53,60.5605,0.05972299999999997
MAXMIN|BR|GAUSSIAN,prep-left-turn,W_N,>EQ  10-Y/R,LOW  SPEED,NO  PEDESTRIAN,  RL  >  2,acts-3,N,769,53,61.5615,0.029718000000000022
MAXMIN|BR|GAUSSIAN,prep-left-turn,W_N,>EQ  10-Y/R,LOW  SPEED,NO  PEDESTRIAN,  RL  >  2,acts-3,N,769,53,62.5625,0.02490199999999998
MAXMIN|BR|GAUSSIAN,prep-left-turn,E_S,<10-Y/R,LOW  SPEED,NO  PEDESTRIAN,RL  0,acts-3,N,769,80,71.905167,0.03275399999999995
MAXMIN|BR|GAUSSIAN,prep-left-turn,E_S,>EQ  10-Y/R,LOW  SPEED,PEDESTRIAN,RL  0,acts-1,Y,769,9,36.036,0.0012879999999999558
MAXMIN|BR|GAUSSIAN,prep-left-turn,E_S,>EQ  10-Y/R,LOW  SPEED,PEDESTRIAN,  RL  <EQ  2,acts-1,Y,769,55,55.221833,0.022272999999999987
MAXMIN|BR|GAUSSIAN,prep-left-turn,E_S,>EQ  10-Y/R,LOW  SPEED,PEDESTRIAN,  RL  <EQ  2,acts-1,N,769,132,144.477667,0.03516600000000003
MAXMIN|BR|GAUSSIAN,prep-left-turn,E_S,>EQ  10-Y/R,LOW  SPEED,PEDESTRIAN,  RL  <EQ  2,acts-1,N,769,132,144.477667,0.035156000000000076
MAXMIN|BR|GAUSSIAN,prep-left-turn,E_S,>EQ  10-Y/R,LOW  SPEED,PEDESTRIAN,  RL  <EQ  2,acts-1,N,769,132,145.478667,0.03505899999999995
MAXMIN|BR|GAUSSIAN,prep-left-turn,E_S,>EQ  10-Y/R,LOW  SPEED,PEDESTRIAN,  RL  <EQ  2,acts-1,N,769,132,145.478667,0.03465999999999991
MAXMIN|BR|GAUSSIAN,prep-left-turn,E_S,>EQ  10-Y/R,LOW  SPEED,PEDESTRIAN,  RL  <EQ  2,acts-1,N,769,132,146.479667,0.033663999999999916
MAXMIN|BR|GAUSSIAN,prep-left-turn,E_S,>EQ  10-Y/R,LOW  SPEED,PEDESTRIAN,  RL  <EQ  2,acts-1,N,769,132,146.479667,0.034802
MAXMIN|BR|GAUSSIAN,prep-left-turn,E_S,>EQ  10-Y/R,LOW  SPEED,PEDESTRIAN,  RL  <EQ  2,acts-1,N,769,132,147.480667,0.09544699999999995
MAXMIN|BR|GAUSSIAN,prep-left-turn,E_S,>EQ  10-Y/R,LOW  SPEED,PEDESTRIAN,  RL  <EQ  2,acts-1,N,769,132,147.480667,0.05542199999999997
MAXMIN|BR|GAUSSIAN,prep-left-turn,E_S,>EQ  10-Y/R,LOW  SPEED,PEDESTRIAN,  RL  <EQ  2,acts-1,N,769,132,148.481667,0.03668799999999994
MAXMIN|BR|GAUSSIAN,prep-left-turn,E_S,>EQ  10-Y/R,LOW  SPEED,PEDESTRIAN,  RL  <EQ  2,acts-1,N,769,132,148.481667,0.035812999999999984
MAXMIN|BR|GAUSSIAN,prep-left-turn,E_S,>EQ  10-Y/R,LOW  SPEED,PEDESTRIAN,  RL  <EQ  2,acts-1,N,769,132,151.484667,0.0024180000000000312
MAXMIN|BR|GAUSSIAN,prep-left-turn,E_S,>EQ  10-Y/R,LOW  SPEED,PEDESTRIAN,  RL  <EQ  2,acts-1,N,769,132,152.485667,0.0012230000000000851
MAXMIN|BR|GAUSSIAN,prep-left-turn,E_S,>EQ  10-Y/R,LOW  SPEED,PEDESTRIAN,  RL  <EQ  2,acts-1,N,769,132,152.485667,0.007653000000000021
MAXMIN|BR|GAUSSIAN,prep-left-turn,E_S,>EQ  10-Y/R,LOW  SPEED,PEDESTRIAN,  RL  >  2,acts-1,Y,769,55,50.216833,0.14003199999999993
MAXMIN|BR|GAUSSIAN,prep-left-turn,E_S,>EQ  10-Y/R,LOW  SPEED,PEDESTRIAN,  RL  >  2,acts-1,Y,769,55,50.216833,0.10548499999999994
MAXMIN|BR|GAUSSIAN,prep-left-turn,E_S,>EQ  10-Y/R,LOW  SPEED,PEDESTRIAN,  RL  >  2,acts-1,Y,769,55,51.217833,0.04564100000000004
MAXMIN|BR|GAUSSIAN,prep-left-turn,E_S,>EQ  10-Y/R,LOW  SPEED,PEDESTRIAN,  RL  >  2,acts-1,Y,769,55,51.217833,0.045379999999999976
MAXMIN|BR|GAUSSIAN,prep-left-turn,E_S,>EQ  10-Y/R,LOW  SPEED,PEDESTRIAN,  RL  >  2,acts-1,N,769,55,52.218833,0.02841400000000005
MAXMIN|BR|GAUSSIAN,prep-left-turn,E_S,>EQ  10-Y/R,LOW  SPEED,PEDESTRIAN,  RL  >  2,acts-1,N,769,55,52.218833,0.028222999999999998
MAXMIN|BR|GAUSSIAN,prep-left-turn,E_S,>EQ  10-Y/R,LOW  SPEED,PEDESTRIAN,  RL  >  2,acts-1,N,769,55,53.219833,0.08752099999999996
MAXMIN|BR|GAUSSIAN,prep-left-turn,E_S,>EQ  10-Y/R,LOW  SPEED,PEDESTRIAN,  RL  >  2,acts-1,N,769,55,53.219833,0.08099999999999996
MAXMIN|BR|GAUSSIAN,prep-left-turn,E_S,>EQ  10-Y/R,LOW  SPEED,PEDESTRIAN,  RL  >  2,acts-1,N,769,55,54.220833,0
MAXMIN|BR|GAUSSIAN,prep-left-turn,E_S,>EQ  10-Y/R,LOW  SPEED,PEDESTRIAN,  RL  >  2,acts-1,N,769,132,149.482667,0.03293999999999997
MAXMIN|BR|GAUSSIAN,prep-left-turn,E_S,>EQ  10-Y/R,LOW  SPEED,PEDESTRIAN,  RL  >  2,acts-1,N,769,132,149.482667,0.03318599999999994
MAXMIN|BR|GAUSSIAN,prep-left-turn,E_S,>EQ  10-Y/R,LOW  SPEED,PEDESTRIAN,  RL  >  2,acts-1,N,769,132,150.483667,0.02783799999999992
MAXMIN|BR|GAUSSIAN,prep-left-turn,E_S,>EQ  10-Y/R,LOW  SPEED,PEDESTRIAN,  RL  >  2,acts-1,N,769,132,150.483667,0.027633999999999936
MAXMIN|BR|GAUSSIAN,exec-left-turn,S_W,<10-Y/R,LOW  SPEED,NO  PEDESTRIAN,RL  0,acts-3,Y,769,119,116.282833,0.0021209999999999285
MAXMIN|BR|GAUSSIAN,exec-left-turn,S_W,<10-Y/R,LOW  SPEED,NO  PEDESTRIAN,RL  0,acts-3,Y,769,119,117.283833,0
MAXMIN|BR|GAUSSIAN,exec-left-turn,S_W,<10-Y/R,LOW  SPEED,NO  PEDESTRIAN,RL  0,acts-3,Y,769,121,119.6195,0
MAXMIN|BR|GAUSSIAN,exec-left-turn,S_W,<10-Y/R,LOW  SPEED,NO  PEDESTRIAN,RL  0,acts-3,Y,769,121,120.6205,0.0009990000000000832
MAXMIN|BR|GAUSSIAN,exec-left-turn,S_W,<10-Y/R,LOW  SPEED,NO  PEDESTRIAN,RL  0,acts-3,N,769,130,122.789333,0.0010040000000000049
MAXMIN|BR|GAUSSIAN,exec-left-turn,S_W,<10-Y/R,LOW  SPEED,NO  PEDESTRIAN,RL  0,acts-3,Y,769,130,123.790333,0.0017970000000000486
MAXMIN|BR|GAUSSIAN,exec-left-turn,S_W,<10-Y/R,LOW  SPEED,NO  PEDESTRIAN,RL  0,acts-3,Y,769,130,124.791333,0.000132000000000021
MAXMIN|BR|GAUSSIAN,exec-left-turn,S_W,<10-Y/R,MEDIUM  SPEED,NO  PEDESTRIAN,RL  0,acts-3,Y,769,119,118.284833,0.002551000000000081
MAXMIN|BR|GAUSSIAN,exec-left-turn,S_W,<10-Y/R,MEDIUM  SPEED,NO  PEDESTRIAN,RL  0,acts-3,Y,769,121,121.6215,0
MAXMIN|BR|GAUSSIAN,exec-left-turn,S_W,>EQ  10-Y/R,LOW  SPEED,PEDESTRIAN,RL  0,acts-1,Y,769,140,182.348833,0.001226999999999978
MAXMIN|BR|GAUSSIAN,exec-left-turn,S_W,>EQ  10-Y/R,LOW  SPEED,NO  PEDESTRIAN,RL  0,acts-3,Y,769,58,101.434667,0.0023839999999999417
MAXMIN|BR|GAUSSIAN,exec-left-turn,S_W,>EQ  10-Y/R,LOW  SPEED,NO  PEDESTRIAN,RL  0,acts-3,Y,769,58,102.435667,0.006502000000000008
MAXMIN|BR|GAUSSIAN,exec-left-turn,S_W,>EQ  10-Y/R,LOW  SPEED,NO  PEDESTRIAN,RL  0,acts-3,Y,769,58,103.436667,0.0007719999999999949
MAXMIN|BR|GAUSSIAN,exec-left-turn,S_W,>EQ  10-Y/R,LOW  SPEED,NO  PEDESTRIAN,RL  0,acts-3,Y,769,88,105.438667,0
MAXMIN|BR|GAUSSIAN,exec-left-turn,S_W,>EQ  10-Y/R,LOW  SPEED,NO  PEDESTRIAN,RL  0,acts-3,Y,769,88,106.439667,0
MAXMIN|BR|GAUSSIAN,exec-left-turn,S_W,>EQ  10-Y/R,LOW  SPEED,NO  PEDESTRIAN,RL  0,acts-3,Y,769,119,115.281833,0
MAXMIN|BR|GAUSSIAN,exec-left-turn,S_W,>EQ  10-Y/R,LOW  SPEED,NO  PEDESTRIAN,  RL  <EQ  2,acts-3,Y,769,11,7.007,0
MAXMIN|BR|GAUSSIAN,exec-left-turn,S_W,>EQ  10-Y/R,LOW  SPEED,NO  PEDESTRIAN,  RL  <EQ  2,acts-3,N,769,58,94.427667,0.03843999999999992
MAXMIN|BR|GAUSSIAN,exec-left-turn,S_W,>EQ  10-Y/R,LOW  SPEED,NO  PEDESTRIAN,  RL  <EQ  2,acts-3,N,769,58,95.428667,0.02756500000000006
MAXMIN|BR|GAUSSIAN,exec-left-turn,S_W,>EQ  10-Y/R,LOW  SPEED,NO  PEDESTRIAN,  RL  <EQ  2,acts-3,N,769,58,98.431667,0.031106999999999996
MAXMIN|BR|GAUSSIAN,exec-left-turn,S_W,>EQ  10-Y/R,LOW  SPEED,NO  PEDESTRIAN,  RL  <EQ  2,acts-3,Y,769,58,99.432667,0
MAXMIN|BR|GAUSSIAN,exec-left-turn,S_W,>EQ  10-Y/R,LOW  SPEED,NO  PEDESTRIAN,  RL  >  2,acts-3,Y,769,58,96.429667,0
MAXMIN|BR|GAUSSIAN,exec-left-turn,S_W,>EQ  10-Y/R,LOW  SPEED,NO  PEDESTRIAN,  RL  >  2,acts-3,N,769,58,97.430667,0.03705700000000001
MAXMIN|BR|GAUSSIAN,exec-left-turn,S_W,>EQ  10-Y/R,MEDIUM  SPEED,PEDESTRIAN,RL  0,acts-1,Y,769,140,183.349833,0.0010000000000000009
MAXMIN|BR|GAUSSIAN,exec-left-turn,S_W,>EQ  10-Y/R,MEDIUM  SPEED,PEDESTRIAN,RL  0,acts-1,Y,769,140,184.350833,0.0019080000000000208
MAXMIN|BR|GAUSSIAN,exec-left-turn,S_W,>EQ  10-Y/R,MEDIUM  SPEED,PEDESTRIAN,RL  0,acts-1,Y,769,177,187.520667,0
MAXMIN|BR|GAUSSIAN,exec-left-turn,S_W,>EQ  10-Y/R,MEDIUM  SPEED,NO  PEDESTRIAN,RL  0,acts-3,Y,769,58,104.437667,0
MAXMIN|BR|GAUSSIAN,exec-left-turn,S_W,>EQ  10-Y/R,MEDIUM  SPEED,NO  PEDESTRIAN,RL  0,acts-3,Y,769,100,110.11,0
MAXMIN|BR|GAUSSIAN,exec-left-turn,N_E,<10-Y/R,LOW  SPEED,NO  PEDESTRIAN,RL  0,acts-3,Y,769,124,116.449667,0.004466999999999999
MAXMIN|BR|GAUSSIAN,exec-left-turn,N_E,<10-Y/R,LOW  SPEED,NO  PEDESTRIAN,RL  0,acts-3,Y,769,124,117.450667,0.0017800000000000038
MAXMIN|BR|GAUSSIAN,exec-left-turn,N_E,<10-Y/R,LOW  SPEED,NO  PEDESTRIAN,RL  0,acts-3,Y,769,160,182.182,0
MAXMIN|BR|GAUSSIAN,exec-left-turn,N_E,<10-Y/R,LOW  SPEED,NO  PEDESTRIAN,RL  0,acts-3,Y,769,194,219.219,0.0020000000000000018
MAXMIN|BR|GAUSSIAN,exec-left-turn,N_E,<10-Y/R,LOW  SPEED,NO  PEDESTRIAN,RL  0,acts-3,Y,769,194,220.22,0.0035279999999999756
MAXMIN|BR|GAUSSIAN,exec-left-turn,N_E,<10-Y/R,LOW  SPEED,NO  PEDESTRIAN,RL  0,acts-3,Y,769,218,225.558667,0
MAXMIN|BR|GAUSSIAN,exec-left-turn,N_E,<10-Y/R,LOW  SPEED,NO  PEDESTRIAN,RL  0,acts-6,Y,769,220,229.896333,0.004778999999999978
MAXMIN|BR|GAUSSIAN,exec-left-turn,N_E,<10-Y/R,LOW  SPEED,NO  PEDESTRIAN,RL  0,acts-6,N,769,220,230.897333,0.005840999999999985
MAXMIN|BR|GAUSSIAN,exec-left-turn,N_E,<10-Y/R,LOW  SPEED,NO  PEDESTRIAN,RL  0,acts-6,N,769,220,231.898333,0.01137100000000002
MAXMIN|BR|GAUSSIAN,exec-left-turn,N_E,<10-Y/R,MEDIUM  SPEED,NO  PEDESTRIAN,RL  0,acts-3,Y,769,160,183.183,0.0006140000000000034
MAXMIN|BR|GAUSSIAN,exec-left-turn,N_E,<10-Y/R,MEDIUM  SPEED,NO  PEDESTRIAN,RL  0,acts-3,Y,769,160,184.184,0.002118999999999982
MAXMIN|BR|GAUSSIAN,exec-left-turn,N_E,<10-Y/R,MEDIUM  SPEED,NO  PEDESTRIAN,RL  0,acts-3,Y,769,160,185.185,0.0014420000000000543
MAXMIN|BR|GAUSSIAN,exec-left-turn,N_E,<10-Y/R,MEDIUM  SPEED,NO  PEDESTRIAN,RL  0,acts-3,Y,769,194,221.221,0.0014060000000000183
MAXMIN|BR|GAUSSIAN,exec-left-turn,N_E,<10-Y/R,MEDIUM  SPEED,NO  PEDESTRIAN,RL  0,acts-3,Y,769,194,222.222,0.001958999999999933
MAXMIN|BR|GAUSSIAN,exec-left-turn,N_E,<10-Y/R,MEDIUM  SPEED,NO  PEDESTRIAN,RL  0,acts-3,Y,769,218,226.559667,0.0019839999999999858
MAXMIN|BR|GAUSSIAN,exec-left-turn,N_E,<10-G,MEDIUM  SPEED,NO  PEDESTRIAN,RL  0,acts-6,Y,769,178,190.523667,0.0021780000000000133
MAXMIN|BR|GAUSSIAN,exec-left-turn,N_E,>EQ  10-Y/R,LOW  SPEED,PEDESTRIAN,RL  0,acts-1,N,769,108,100.266833,0.04910000000000003
MAXMIN|BR|GAUSSIAN,exec-left-turn,N_E,>EQ  10-Y/R,LOW  SPEED,PEDESTRIAN,RL  0,acts-1,N,769,108,100.266833,0.04826200000000003
MAXMIN|BR|GAUSSIAN,exec-left-turn,N_E,>EQ  10-Y/R,LOW  SPEED,PEDESTRIAN,RL  0,acts-1,N,769,108,93.259833,0.03280800000000006
MAXMIN|BR|GAUSSIAN,exec-left-turn,N_E,>EQ  10-Y/R,LOW  SPEED,PEDESTRIAN,RL  0,acts-1,N,769,108,93.259833,0.033984000000000014
MAXMIN|BR|GAUSSIAN,exec-left-turn,N_E,>EQ  10-Y/R,LOW  SPEED,PEDESTRIAN,RL  0,acts-1,Y,769,108,94.260833,0
MAXMIN|BR|GAUSSIAN,exec-left-turn,N_E,>EQ  10-Y/R,LOW  SPEED,PEDESTRIAN,RL  0,acts-1,Y,769,108,95.261833,0.045957000000000026
MAXMIN|BR|GAUSSIAN,exec-left-turn,N_E,>EQ  10-Y/R,LOW  SPEED,PEDESTRIAN,RL  0,acts-1,Y,769,108,95.261833,0.04591900000000004
MAXMIN|BR|GAUSSIAN,exec-left-turn,N_E,>EQ  10-Y/R,LOW  SPEED,PEDESTRIAN,RL  0,acts-1,N,769,108,96.262833,0
MAXMIN|BR|GAUSSIAN,exec-left-turn,N_E,>EQ  10-Y/R,LOW  SPEED,PEDESTRIAN,RL  0,acts-1,Y,769,108,97.263833,0
MAXMIN|BR|GAUSSIAN,exec-left-turn,N_E,>EQ  10-Y/R,LOW  SPEED,PEDESTRIAN,RL  0,acts-1,Y,769,108,98.264833,0.05737800000000004
MAXMIN|BR|GAUSSIAN,exec-left-turn,N_E,>EQ  10-Y/R,LOW  SPEED,PEDESTRIAN,RL  0,acts-1,Y,769,108,98.264833,0.05624600000000002
MAXMIN|BR|GAUSSIAN,exec-left-turn,N_E,>EQ  10-Y/R,LOW  SPEED,PEDESTRIAN,RL  0,acts-1,N,769,108,99.265833,0.05714399999999997
MAXMIN|BR|GAUSSIAN,exec-left-turn,N_E,>EQ  10-Y/R,LOW  SPEED,PEDESTRIAN,RL  0,acts-1,N,769,108,99.265833,0.05668899999999999
MAXMIN|BR|GAUSSIAN,exec-left-turn,N_E,>EQ  10-Y/R,LOW  SPEED,NO  PEDESTRIAN,RL  0,acts-3,Y,769,24,11.177833,0.0020060000000000633
MAXMIN|BR|GAUSSIAN,exec-left-turn,N_E,>EQ  10-Y/R,LOW  SPEED,NO  PEDESTRIAN,RL  0,acts-3,Y,769,24,12.178833,0
MAXMIN|BR|GAUSSIAN,exec-left-turn,N_E,>EQ  10-Y/R,LOW  SPEED,NO  PEDESTRIAN,RL  0,acts-3,Y,769,24,13.179833,0.009213000000000027
MAXMIN|BR|GAUSSIAN,exec-left-turn,N_E,>EQ  10-Y/R,LOW  SPEED,NO  PEDESTRIAN,RL  0,acts-3,Y,769,24,14.180833,0
MAXMIN|BR|GAUSSIAN,exec-left-turn,N_E,>EQ  10-Y/R,LOW  SPEED,NO  PEDESTRIAN,RL  0,acts-3,Y,769,108,101.267833,0.019291000000000058
MAXMIN|BR|GAUSSIAN,exec-left-turn,N_E,>EQ  10-Y/R,LOW  SPEED,NO  PEDESTRIAN,RL  0,acts-3,Y,769,108,102.268833,0
MAXMIN|BR|GAUSSIAN,exec-left-turn,N_E,>EQ  10-Y/R,LOW  SPEED,NO  PEDESTRIAN,RL  0,acts-3,Y,769,108,103.269833,0
MAXMIN|BR|GAUSSIAN,exec-left-turn,N_E,>EQ  10-Y/R,LOW  SPEED,NO  PEDESTRIAN,RL  0,acts-3,Y,769,108,104.270833,0
MAXMIN|BR|GAUSSIAN,exec-left-turn,N_E,>EQ  10-Y/R,LOW  SPEED,NO  PEDESTRIAN,RL  0,acts-3,Y,769,108,105.271833,0.0017650000000000166
MAXMIN|BR|GAUSSIAN,exec-left-turn,N_E,>EQ  10-Y/R,LOW  SPEED,NO  PEDESTRIAN,RL  0,acts-3,Y,769,124,112.445667,0
MAXMIN|BR|GAUSSIAN,exec-left-turn,N_E,>EQ  10-Y/R,LOW  SPEED,NO  PEDESTRIAN,RL  0,acts-3,Y,769,124,113.446667,0.004830999999999919
MAXMIN|BR|GAUSSIAN,exec-left-turn,N_E,>EQ  10-Y/R,LOW  SPEED,NO  PEDESTRIAN,RL  0,acts-3,Y,769,124,114.447667,0.0003830000000000222
MAXMIN|BR|GAUSSIAN,exec-left-turn,N_E,>EQ  10-Y/R,LOW  SPEED,NO  PEDESTRIAN,RL  0,acts-3,N,769,124,115.448667,0
MAXMIN|BR|GAUSSIAN,exec-left-turn,N_E,>EQ  10-Y/R,LOW  SPEED,NO  PEDESTRIAN,RL  0,acts-3,N,769,194,205.205,0.038632
MAXMIN|BR|GAUSSIAN,exec-left-turn,N_E,>EQ  10-Y/R,LOW  SPEED,NO  PEDESTRIAN,RL  0,acts-3,N,769,194,206.206,0.04444300000000001
MAXMIN|BR|GAUSSIAN,exec-left-turn,N_E,>EQ  10-Y/R,LOW  SPEED,NO  PEDESTRIAN,RL  0,acts-3,N,769,194,207.207,0.03622799999999993
MAXMIN|BR|GAUSSIAN,exec-left-turn,N_E,>EQ  10-Y/R,LOW  SPEED,NO  PEDESTRIAN,RL  0,acts-3,N,769,194,208.208,0.028205000000000036
MAXMIN|BR|GAUSSIAN,exec-left-turn,N_E,>EQ  10-Y/R,LOW  SPEED,NO  PEDESTRIAN,RL  0,acts-3,N,769,194,209.209,0.03620100000000004
MAXMIN|BR|GAUSSIAN,exec-left-turn,N_E,>EQ  10-Y/R,LOW  SPEED,NO  PEDESTRIAN,RL  0,acts-3,N,769,194,210.21,0.04183099999999995
MAXMIN|BR|GAUSSIAN,exec-left-turn,N_E,>EQ  10-Y/R,LOW  SPEED,NO  PEDESTRIAN,RL  0,acts-3,N,769,194,211.211,0
MAXMIN|BR|GAUSSIAN,exec-left-turn,N_E,>EQ  10-Y/R,LOW  SPEED,NO  PEDESTRIAN,RL  0,acts-3,Y,769,194,212.212,0
MAXMIN|BR|GAUSSIAN,exec-left-turn,N_E,>EQ  10-Y/R,LOW  SPEED,NO  PEDESTRIAN,RL  0,acts-3,Y,769,194,213.213,0.06298000000000004
MAXMIN|BR|GAUSSIAN,exec-left-turn,N_E,>EQ  10-Y/R,LOW  SPEED,NO  PEDESTRIAN,RL  0,acts-3,Y,769,194,214.214,0.011212999999999917
MAXMIN|BR|GAUSSIAN,exec-left-turn,N_E,>EQ  10-Y/R,LOW  SPEED,NO  PEDESTRIAN,RL  0,acts-3,Y,769,194,215.215,0.054325999999999985
MAXMIN|BR|GAUSSIAN,exec-left-turn,N_E,>EQ  10-Y/R,LOW  SPEED,NO  PEDESTRIAN,RL  0,acts-3,N,769,194,216.216,0.053703999999999974
MAXMIN|BR|GAUSSIAN,exec-left-turn,N_E,>EQ  10-Y/R,LOW  SPEED,NO  PEDESTRIAN,RL  0,acts-3,Y,769,194,217.217,0.0036129999999999773
MAXMIN|BR|GAUSSIAN,exec-left-turn,N_E,>EQ  10-Y/R,LOW  SPEED,NO  PEDESTRIAN,RL  0,acts-3,Y,769,194,218.218,0.005309999999999926
MAXMIN|BR|GAUSSIAN,exec-left-turn,N_E,>EQ  10-Y/R,MEDIUM  SPEED,NO  PEDESTRIAN,RL  0,acts-3,Y,769,24,15.181833,0.0013350000000000861
MAXMIN|BR|GAUSSIAN,exec-left-turn,N_E,>EQ  10-Y/R,MEDIUM  SPEED,NO  PEDESTRIAN,RL  0,acts-3,Y,769,31,16.850167,0.00284300000000004
MAXMIN|BR|GAUSSIAN,exec-left-turn,N_E,>EQ  10-Y/R,MEDIUM  SPEED,NO  PEDESTRIAN,RL  0,acts-3,Y,769,108,106.272833,0.0007770000000000277
MAXMIN|BR|GAUSSIAN,exec-left-turn,N_E,>EQ  10-G,LOW  SPEED,NO  PEDESTRIAN,RL  0,acts-6,N,769,220,232.899333,0
MAXMIN|BR|GAUSSIAN,exec-left-turn,N_E,>EQ  10-G,LOW  SPEED,NO  PEDESTRIAN,RL  0,acts-6,Y,769,220,233.900333,0
MAXMIN|BR|GAUSSIAN,exec-left-turn,N_E,>EQ  10-G,LOW  SPEED,NO  PEDESTRIAN,RL  0,acts-6,Y,769,220,234.901333,0.0016129999999999756
MAXMIN|BR|GAUSSIAN,exec-left-turn,N_E,>EQ  10-G,LOW  SPEED,NO  PEDESTRIAN,RL  0,acts-6,Y,769,220,235.902333,0.0015490000000000226
MAXMIN|BR|GAUSSIAN,exec-left-turn,W_N,<10-Y/R,LOW  SPEED,NO  PEDESTRIAN,RL  0,acts-3,Y,769,164,170.003167,0.0037960000000000216
MAXMIN|BR|GAUSSIAN,exec-left-turn,W_N,<10-Y/R,LOW  SPEED,NO  PEDESTRIAN,RL  0,acts-3,Y,769,164,171.004167,0.0024610000000000465
MAXMIN|BR|GAUSSIAN,exec-left-turn,W_N,<10-Y/R,LOW  SPEED,NO  PEDESTRIAN,RL  0,acts-3,N,769,253,268.101167,0
MAXMIN|BR|GAUSSIAN,exec-left-turn,W_N,<10-Y/R,LOW  SPEED,NO  PEDESTRIAN,RL  0,acts-3,Y,769,253,269.102167,0.011456000000000022
MAXMIN|BR|GAUSSIAN,exec-left-turn,W_N,<10-Y/R,MEDIUM  SPEED,NO  PEDESTRIAN,RL  0,acts-6,Y,769,255,270.7705,0
MAXMIN|BR|GAUSSIAN,exec-left-turn,W_N,<10-Y/R,MEDIUM  SPEED,NO  PEDESTRIAN,RL  0,acts-6,N,769,255,271.7715,0
MAXMIN|BR|GAUSSIAN,exec-left-turn,W_N,>EQ  10-Y/R,LOW  SPEED,PEDESTRIAN,RL  0,acts-1,N,769,116,136.6365,0.0007119999999999349
MAXMIN|BR|GAUSSIAN,exec-left-turn,W_N,>EQ  10-Y/R,LOW  SPEED,PEDESTRIAN,RL  0,acts-1,Y,769,116,137.6375,0.00506300000000004
MAXMIN|BR|GAUSSIAN,exec-left-turn,W_N,>EQ  10-Y/R,LOW  SPEED,NO  PEDESTRIAN,RL  0,acts-3,Y,769,14,37.037,0.004389000000000087
MAXMIN|BR|GAUSSIAN,exec-left-turn,W_N,>EQ  10-Y/R,LOW  SPEED,NO  PEDESTRIAN,RL  0,acts-3,Y,769,14,38.038,0.009261999999999992
MAXMIN|BR|GAUSSIAN,exec-left-turn,W_N,>EQ  10-Y/R,LOW  SPEED,NO  PEDESTRIAN,RL  0,acts-3,Y,769,25,40.373667,0.016144999999999965
MAXMIN|BR|GAUSSIAN,exec-left-turn,W_N,>EQ  10-Y/R,MEDIUM  SPEED,PEDESTRIAN,RL  0,acts-1,Y,769,116,138.6385,0.013002000000000069
MAXMIN|BR|GAUSSIAN,exec-left-turn,W_N,>EQ  10-Y/R,MEDIUM  SPEED,PEDESTRIAN,RL  0,acts-1,Y,769,116,138.6385,0.013139000000000012
MAXMIN|BR|GAUSSIAN,exec-left-turn,W_N,>EQ  10-G,LOW  SPEED,NO  PEDESTRIAN,RL  0,acts-6,Y,769,53,75.5755,0
MAXMIN|BR|GAUSSIAN,exec-left-turn,W_N,>EQ  10-G,LOW  SPEED,NO  PEDESTRIAN,RL  0,acts-6,Y,769,53,76.5765,0
MAXMIN|BR|GAUSSIAN,exec-left-turn,W_N,>EQ  10-G,LOW  SPEED,NO  PEDESTRIAN,RL  0,acts-6,Y,769,53,77.5775,0.0025040000000000617
MAXMIN|BR|GAUSSIAN,exec-left-turn,W_N,>EQ  10-G,LOW  SPEED,NO  PEDESTRIAN,  RL  <EQ  2,acts-6,Y,769,53,74.5745,0.0047800000000000065
MAXMIN|BR|GAUSSIAN,exec-left-turn,E_S,<10-Y/R,LOW  SPEED,NO  PEDESTRIAN,RL  0,acts-3,Y,769,68,64.230833,0.00010499999999991072
MAXMIN|BR|GAUSSIAN,exec-left-turn,E_S,<10-Y/R,LOW  SPEED,NO  PEDESTRIAN,RL  0,acts-3,Y,769,68,65.231833,2.6000000000081513e-05
MAXMIN|BR|GAUSSIAN,exec-left-turn,E_S,>EQ  10-Y/R,LOW  SPEED,PEDESTRIAN,RL  0,acts-1,Y,769,41,40.373667,0.006921999999999984
MAXMIN|BR|GAUSSIAN,exec-left-turn,E_S,>EQ  10-Y/R,LOW  SPEED,PEDESTRIAN,RL  0,acts-1,Y,769,41,41.374667,1.8999999999991246e-05
MAXMIN|BR|GAUSSIAN,exec-left-turn,E_S,>EQ  10-Y/R,LOW  SPEED,PEDESTRIAN,RL  0,acts-1,Y,769,41,41.374667,0
MAXMIN|BR|GAUSSIAN,exec-left-turn,E_S,>EQ  10-Y/R,LOW  SPEED,PEDESTRIAN,  RL  <EQ  2,acts-7,N,769,47,42.876167,1.4999999999987246e-05
MAXMIN|BR|GAUSSIAN,exec-left-turn,E_S,>EQ  10-Y/R,LOW  SPEED,PEDESTRIAN,  RL  <EQ  2,acts-7,N,769,47,42.876167,1.799999999996249e-05
MAXMIN|BR|GAUSSIAN,exec-left-turn,E_S,>EQ  10-Y/R,LOW  SPEED,NO  PEDESTRIAN,RL  0,acts-3,Y,769,55,58.224833,0
MAXMIN|BR|GAUSSIAN,exec-left-turn,E_S,>EQ  10-Y/R,LOW  SPEED,NO  PEDESTRIAN,RL  0,acts-3,Y,769,55,59.225833,0.0016859999999999653
MAXMIN|BR|GAUSSIAN,exec-left-turn,E_S,>EQ  10-Y/R,LOW  SPEED,NO  PEDESTRIAN,RL  0,acts-3,Y,769,55,60.226833,0.00018099999999998673
MAXMIN|BR|GAUSSIAN,exec-left-turn,E_S,>EQ  10-Y/R,LOW  SPEED,NO  PEDESTRIAN,RL  0,acts-3,Y,769,55,61.227833,0
MAXMIN|BR|GAUSSIAN,exec-left-turn,E_S,>EQ  10-Y/R,LOW  SPEED,NO  PEDESTRIAN,RL  0,acts-3,Y,769,132,157.490667,0
MAXMIN|BR|GAUSSIAN,exec-left-turn,E_S,>EQ  10-Y/R,LOW  SPEED,NO  PEDESTRIAN,RL  0,acts-3,Y,769,132,158.491667,0.0007650000000000157
MAXMIN|BR|GAUSSIAN,exec-left-turn,E_S,>EQ  10-Y/R,MEDIUM  SPEED,PEDESTRIAN,RL  0,acts-1,Y,769,9,37.037,0
MAXMIN|BR|GAUSSIAN,exec-left-turn,E_S,>EQ  10-Y/R,MEDIUM  SPEED,PEDESTRIAN,RL  0,acts-1,Y,769,9,38.038,0
MAXMIN|BR|GAUSSIAN,exec-left-turn,E_S,>EQ  10-Y/R,MEDIUM  SPEED,PEDESTRIAN,RL  0,acts-1,Y,769,9,39.039,0
MAXMIN|BR|GAUSSIAN,exec-left-turn,E_S,>EQ  10-Y/R,MEDIUM  SPEED,PEDESTRIAN,RL  0,acts-1,Y,769,9,39.039,2.6999999999999247e-05
MAXMIN|BR|GAUSSIAN,exec-left-turn,E_S,>EQ  10-Y/R,MEDIUM  SPEED,NO  PEDESTRIAN,RL  0,acts-3,N,769,55,62.228833,0
MAXMIN|BR|GAUSSIAN,exec-left-turn,E_S,>EQ  10-Y/R,MEDIUM  SPEED,NO  PEDESTRIAN,RL  0,acts-3,Y,769,132,159.492667,0
MAXMIN|BR|GAUSSIAN,exec-left-turn,E_S,>EQ  10-Y/R,MEDIUM  SPEED,NO  PEDESTRIAN,RL  0,acts-3,N,769,132,160.493667,0
MAXMIN|BR|GAUSSIAN,exec-left-turn,E_S,>EQ  10-G,LOW  SPEED,NO  PEDESTRIAN,RL  0,acts-6,Y,769,80,73.907167,0
MAXMIN|BR|GAUSSIAN,exec-left-turn,E_S,>EQ  10-G,LOW  SPEED,NO  PEDESTRIAN,RL  0,acts-6,Y,769,80,74.908167,0
MAXMIN|BR|GAUSSIAN,exec-left-turn,E_S,>EQ  10-G,LOW  SPEED,NO  PEDESTRIAN,RL  0,acts-6,Y,769,80,75.909167,0
MAXMIN|BR|GAUSSIAN,OTHER  LANES,W_S,<10-Y/R,LOW  SPEED,PEDESTRIAN,RL  0,acts-8,Y,769,165,163.6635,0.03573500000000007
MAXMIN|BR|GAUSSIAN,OTHER  LANES,W_S,<10-G,LOW  SPEED,PEDESTRIAN,RL  0,acts-8,Y,769,134,123.289833,0.04289399999999999
MAXMIN|BR|GAUSSIAN,OTHER  LANES,W_S,<10-G,LOW  SPEED,PEDESTRIAN,RL  0,acts-8,Y,769,134,124.290833,0.036143000000000036
MAXMIN|BR|GAUSSIAN,OTHER  LANES,W_S,<10-G,LOW  SPEED,PEDESTRIAN,  RL  <EQ  2,acts-8,N,769,44,36.870167,0
MAXMIN|BR|GAUSSIAN,OTHER  LANES,W_S,<10-G,LOW  SPEED,PEDESTRIAN,  RL  <EQ  2,acts-8,N,769,44,37.871167,0.031637999999999944
MAXMIN|BR|GAUSSIAN,OTHER  LANES,W_S,<10-G,LOW  SPEED,PEDESTRIAN,  RL  <EQ  2,acts-8,N,769,44,39.873167,0.031318999999999986
MAXMIN|BR|GAUSSIAN,OTHER  LANES,W_S,<10-G,LOW  SPEED,PEDESTRIAN,  RL  <EQ  2,acts-8,N,769,44,40.874167,1.999999999946489e-06
MAXMIN|BR|GAUSSIAN,OTHER  LANES,W_S,<10-G,LOW  SPEED,PEDESTRIAN,  RL  <EQ  2,acts-8,N,769,44,41.875167,0.31577299999999997
MAXMIN|BR|GAUSSIAN,OTHER  LANES,W_S,<10-G,LOW  SPEED,PEDESTRIAN,  RL  >  2,acts-8,N,769,44,38.872167,6.0000000000060005e-05
MAXMIN|BR|GAUSSIAN,OTHER  LANES,W_S,<10-G,LOW  SPEED,NO  PEDESTRIAN,RL  0,acts-9,N,769,221,223.556667,0.022482000000000002
MAXMIN|BR|GAUSSIAN,OTHER  LANES,W_S,<10-G,LOW  SPEED,NO  PEDESTRIAN,RL  0,acts-9,Y,769,221,224.557667,0
MAXMIN|BR|GAUSSIAN,OTHER  LANES,W_S,<10-G,LOW  SPEED,NO  PEDESTRIAN,RL  0,acts-9,Y,769,221,225.558667,0.02771100000000004
MAXMIN|BR|GAUSSIAN,OTHER  LANES,W_S,<10-G,LOW  SPEED,NO  PEDESTRIAN,RL  0,acts-9,Y,769,221,226.559667,0.035443
MAXMIN|BR|GAUSSIAN,OTHER  LANES,W_S,<10-G,LOW  SPEED,NO  PEDESTRIAN,RL  0,acts-9,Y,769,221,227.560667,0.038636000000000004
MAXMIN|BR|GAUSSIAN,OTHER  LANES,W_S,<10-G,LOW  SPEED,NO  PEDESTRIAN,RL  0,acts-9,Y,769,221,228.561667,0.040781999999999985
MAXMIN|BR|GAUSSIAN,OTHER  LANES,W_S,<10-G,LOW  SPEED,NO  PEDESTRIAN,RL  0,acts-9,Y,769,221,229.562667,0.03825999999999996
MAXMIN|BR|GAUSSIAN,OTHER  LANES,W_S,>EQ  10-Y/R,LOW  SPEED,PEDESTRIAN,RL  0,acts-8,Y,769,165,162.6625,0.038005000000000067
MAXMIN|BR|GAUSSIAN,OTHER  LANES,W_S,>EQ  10-Y/R,LOW  SPEED,PEDESTRIAN,  RL  <EQ  2,acts-8,Y,769,44,42.876167,0
MAXMIN|BR|GAUSSIAN,OTHER  LANES,W_S,>EQ  10-Y/R,LOW  SPEED,PEDESTRIAN,  RL  <EQ  2,acts-8,Y,769,44,43.877167,0.007581999999999978
MAXMIN|BR|GAUSSIAN,OTHER  LANES,W_S,>EQ  10-Y/R,LOW  SPEED,PEDESTRIAN,  RL  <EQ  2,acts-8,Y,769,64,53.720333,0.00011099999999997223
MAXMIN|BR|GAUSSIAN,OTHER  LANES,W_S,>EQ  10-Y/R,LOW  SPEED,PEDESTRIAN,  RL  <EQ  2,acts-8,Y,769,64,54.721333,0.012278999999999929
MAXMIN|BR|GAUSSIAN,OTHER  LANES,W_S,>EQ  10-Y/R,LOW  SPEED,PEDESTRIAN,  RL  <EQ  2,acts-8,Y,769,64,58.725333,0
MAXMIN|BR|GAUSSIAN,OTHER  LANES,W_S,>EQ  10-Y/R,LOW  SPEED,PEDESTRIAN,  RL  <EQ  2,acts-8,Y,769,64,59.726333,0.00669300000000006
MAXMIN|BR|GAUSSIAN,OTHER  LANES,W_S,>EQ  10-Y/R,MEDIUM  SPEED,PEDESTRIAN,RL  0,acts-8,Y,769,165,161.6615,0.004017000000000048
MAXMIN|BR|GAUSSIAN,OTHER  LANES,W_S,>EQ  10-G,LOW  SPEED,PEDESTRIAN,RL  0,acts-8,Y,769,122,106.272833,0.02276100000000003
MAXMIN|BR|GAUSSIAN,OTHER  LANES,W_S,>EQ  10-G,LOW  SPEED,PEDESTRIAN,RL  0,acts-8,Y,769,221,222.555667,0.010911999999999922
MAXMIN|BR|GAUSSIAN,OTHER  LANES,W_S,>EQ  10-G,LOW  SPEED,PEDESTRIAN,  RL  <EQ  2,acts-8,N,769,2,10.01,0.037567999999999935
MAXMIN|BR|GAUSSIAN,OTHER  LANES,W_S,>EQ  10-G,LOW  SPEED,PEDESTRIAN,  RL  <EQ  2,acts-8,N,769,2,11.011,0.03587400000000007
MAXMIN|BR|GAUSSIAN,OTHER  LANES,W_S,>EQ  10-G,LOW  SPEED,PEDESTRIAN,  RL  <EQ  2,acts-8,N,769,2,12.012,0.016344000000000025
MAXMIN|BR|GAUSSIAN,OTHER  LANES,W_S,>EQ  10-G,LOW  SPEED,PEDESTRIAN,  RL  <EQ  2,acts-8,N,769,2,13.013,0.005634999999999946
MAXMIN|BR|GAUSSIAN,OTHER  LANES,W_S,>EQ  10-G,LOW  SPEED,PEDESTRIAN,  RL  <EQ  2,acts-8,N,769,2,14.014,0.0021379999999999733
MAXMIN|BR|GAUSSIAN,OTHER  LANES,W_S,>EQ  10-G,LOW  SPEED,PEDESTRIAN,  RL  <EQ  2,acts-8,N,769,2,16.016,0
MAXMIN|BR|GAUSSIAN,OTHER  LANES,W_S,>EQ  10-G,LOW  SPEED,PEDESTRIAN,  RL  <EQ  2,acts-8,Y,769,2,17.017,0.00015500000000001624
MAXMIN|BR|GAUSSIAN,OTHER  LANES,W_S,>EQ  10-G,LOW  SPEED,PEDESTRIAN,  RL  <EQ  2,acts-8,Y,769,122,110.276833,0.041013999999999995
MAXMIN|BR|GAUSSIAN,OTHER  LANES,W_S,>EQ  10-G,LOW  SPEED,PEDESTRIAN,  RL  <EQ  2,acts-8,Y,769,122,111.277833,0.044691000000000036
MAXMIN|BR|GAUSSIAN,OTHER  LANES,W_S,>EQ  10-G,LOW  SPEED,PEDESTRIAN,  RL  <EQ  2,acts-8,N,769,122,112.278833,0.0008399999999999519
MAXMIN|BR|GAUSSIAN,OTHER  LANES,W_S,>EQ  10-G,LOW  SPEED,PEDESTRIAN,  RL  <EQ  2,acts-8,Y,769,202,211.878333,0.03589599999999993
MAXMIN|BR|GAUSSIAN,OTHER  LANES,W_S,>EQ  10-G,LOW  SPEED,PEDESTRIAN,  RL  >  2,acts-8,N,769,2,15.015,0.02696200000000004
MAXMIN|BR|GAUSSIAN,OTHER  LANES,W_S,>EQ  10-G,LOW  SPEED,PEDESTRIAN,  RL  >  2,acts-8,Y,769,202,207.874333,0.04909300000000005
MAXMIN|BR|GAUSSIAN,OTHER  LANES,W_S,>EQ  10-G,LOW  SPEED,PEDESTRIAN,  RL  >  2,acts-8,Y,769,202,208.875333,0
MAXMIN|BR|GAUSSIAN,OTHER  LANES,W_S,>EQ  10-G,LOW  SPEED,PEDESTRIAN,  RL  >  2,acts-8,Y,769,202,209.876333,0.000248000000000026
MAXMIN|BR|GAUSSIAN,OTHER  LANES,W_S,>EQ  10-G,LOW  SPEED,PEDESTRIAN,  RL  >  2,acts-8,Y,769,202,210.877333,0.0051920000000000854
MAXMIN|BR|GAUSSIAN,OTHER  LANES,W_S,>EQ  10-G,MEDIUM  SPEED,PEDESTRIAN,RL  0,acts-8,N,769,134,120.286833,0.013500999999999985
MAXMIN|BR|GAUSSIAN,OTHER  LANES,W_S,>EQ  10-G,MEDIUM  SPEED,PEDESTRIAN,RL  0,acts-8,Y,769,134,121.287833,0.0017690000000000206
MAXMIN|BR|GAUSSIAN,OTHER  LANES,W_S,>EQ  10-G,MEDIUM  SPEED,PEDESTRIAN,RL  0,acts-8,Y,769,134,122.288833,0.030486000000000013
MAXMIN|BR|GAUSSIAN,OTHER  LANES,W_S,>EQ  10-G,MEDIUM  SPEED,PEDESTRIAN,  RL  <EQ  2,acts-8,N,769,44,30.864167,0
MAXMIN|BR|GAUSSIAN,OTHER  LANES,W_S,>EQ  10-G,MEDIUM  SPEED,PEDESTRIAN,  RL  <EQ  2,acts-8,Y,769,44,31.865167,0.0007200000000000539
MAXMIN|BR|GAUSSIAN,OTHER  LANES,S_W,<10-G,LOW  SPEED,PEDESTRIAN,RL  0,acts-10,N,769,58,68.401667,0
MAXMIN|BR|GAUSSIAN,OTHER  LANES,S_W,<10-G,LOW  SPEED,PEDESTRIAN,RL  0,acts-10,N,769,58,69.402667,0.00023499999999998522
MAXMIN|BR|GAUSSIAN,OTHER  LANES,S_W,<10-G,LOW  SPEED,PEDESTRIAN,RL  0,acts-10,N,769,58,70.403667,0.00020699999999995722
MAXMIN|BR|GAUSSIAN,OTHER  LANES,S_W,<10-G,LOW  SPEED,PEDESTRIAN,RL  0,acts-10,N,769,58,71.404667,2.0999999999937735e-05
MAXMIN|BR|GAUSSIAN,OTHER  LANES,S_W,<10-G,LOW  SPEED,PEDESTRIAN,RL  0,acts-10,N,769,58,72.405667,8.500000000000174e-05
MAXMIN|BR|GAUSSIAN,OTHER  LANES,S_W,<10-G,LOW  SPEED,PEDESTRIAN,RL  0,acts-10,N,769,58,73.406667,0.0004210000000000047
MAXMIN|BR|GAUSSIAN,OTHER  LANES,S_W,<10-G,LOW  SPEED,PEDESTRIAN,RL  0,acts-10,N,769,58,74.407667,0.0002649999999999597
MAXMIN|BR|GAUSSIAN,OTHER  LANES,S_W,<10-G,LOW  SPEED,PEDESTRIAN,RL  0,acts-10,N,769,58,75.408667,0.00044800000000000395
MAXMIN|BR|GAUSSIAN,OTHER  LANES,S_W,<10-G,LOW  SPEED,PEDESTRIAN,RL  0,acts-10,N,769,58,76.409667,3.300000000006076e-05
MAXMIN|BR|GAUSSIAN,OTHER  LANES,S_W,<10-G,LOW  SPEED,PEDESTRIAN,RL  0,acts-10,N,769,58,77.410667,0.00034000000000000696
MAXMIN|BR|GAUSSIAN,OTHER  LANES,S_W,<10-G,LOW  SPEED,PEDESTRIAN,RL  0,acts-10,N,769,140,168.334833,2.6000000000081513e-05
MAXMIN|BR|GAUSSIAN,OTHER  LANES,S_W,<10-G,LOW  SPEED,PEDESTRIAN,RL  0,acts-10,N,769,140,169.335833,3.199999999992098e-05
MAXMIN|BR|GAUSSIAN,OTHER  LANES,S_W,<10-G,LOW  SPEED,PEDESTRIAN,RL  0,acts-10,N,769,140,170.336833,0.00012699999999998823
MAXMIN|BR|GAUSSIAN,OTHER  LANES,S_W,<10-G,LOW  SPEED,PEDESTRIAN,RL  0,acts-10,N,769,140,171.337833,2.4999999999941735e-05
MAXMIN|BR|GAUSSIAN,OTHER  LANES,S_W,<10-G,LOW  SPEED,PEDESTRIAN,RL  0,acts-10,N,769,140,172.338833,0
MAXMIN|BR|GAUSSIAN,OTHER  LANES,S_W,<10-G,LOW  SPEED,PEDESTRIAN,RL  0,acts-10,N,769,140,173.339833,0
MAXMIN|BR|GAUSSIAN,OTHER  LANES,S_W,<10-G,LOW  SPEED,PEDESTRIAN,RL  0,acts-10,N,769,140,174.340833,3.2999999999949736e-05
MAXMIN|BR|GAUSSIAN,OTHER  LANES,S_W,<10-G,LOW  SPEED,PEDESTRIAN,RL  0,acts-10,N,769,140,175.341833,0.0002540000000000875
MAXMIN|BR|GAUSSIAN,OTHER  LANES,S_W,<10-G,LOW  SPEED,PEDESTRIAN,RL  0,acts-10,N,769,140,176.342833,5.999999999994898e-05
MAXMIN|BR|GAUSSIAN,OTHER  LANES,S_W,<10-G,LOW  SPEED,PEDESTRIAN,RL  0,acts-10,N,769,140,177.343833,0
MAXMIN|BR|GAUSSIAN,OTHER  LANES,S_W,<10-G,LOW  SPEED,PEDESTRIAN,RL  0,acts-10,N,769,234,264.264,8.800000000008801e-05
MAXMIN|BR|GAUSSIAN,OTHER  LANES,S_W,<10-G,LOW  SPEED,PEDESTRIAN,RL  0,acts-10,N,769,234,265.265,0.00015599999999993397
MAXMIN|BR|GAUSSIAN,OTHER  LANES,S_W,<10-G,LOW  SPEED,PEDESTRIAN,RL  0,acts-10,N,769,234,266.266,9.199999999998099e-05
MAXMIN|BR|GAUSSIAN,OTHER  LANES,S_W,<10-G,LOW  SPEED,PEDESTRIAN,RL  0,acts-10,N,769,234,267.267,0
MAXMIN|BR|GAUSSIAN,OTHER  LANES,S_W,<10-G,LOW  SPEED,PEDESTRIAN,RL  0,acts-10,N,769,234,268.268,0.000124000000000013
MAXMIN|BR|GAUSSIAN,OTHER  LANES,S_W,<10-G,LOW  SPEED,PEDESTRIAN,RL  0,acts-10,N,769,234,269.269,4.199999999998649e-05
MAXMIN|BR|GAUSSIAN,OTHER  LANES,S_W,<10-G,LOW  SPEED,PEDESTRIAN,RL  0,acts-10,N,769,234,270.27,1.399999999995849e-05
MAXMIN|BR|GAUSSIAN,OTHER  LANES,S_W,<10-G,LOW  SPEED,PEDESTRIAN,RL  0,acts-10,N,769,234,271.271,0.0002569999999999517
MAXMIN|BR|GAUSSIAN,OTHER  LANES,S_W,<10-G,LOW  SPEED,PEDESTRIAN,RL  0,acts-10,N,769,234,272.272,0
MAXMIN|BR|GAUSSIAN,OTHER  LANES,S_W,>EQ  10-Y/R,LOW  SPEED,PEDESTRIAN,RL  0,acts-3,Y,769,140,178.344833,0.0012670000000000181
MAXMIN|BR|GAUSSIAN,OTHER  LANES,S_W,>EQ  10-Y/R,LOW  SPEED,PEDESTRIAN,RL  0,acts-3,Y,769,140,179.345833,0.005925999999999987
MAXMIN|BR|GAUSSIAN,OTHER  LANES,S_W,>EQ  10-Y/R,LOW  SPEED,PEDESTRIAN,RL  0,acts-3,Y,769,149,182.348833,0.01109300000000002
MAXMIN|BR|GAUSSIAN,OTHER  LANES,S_W,>EQ  10-Y/R,LOW  SPEED,PEDESTRIAN,  RL  >  2,acts-3,Y,769,58,79.412667,0
MAXMIN|BR|GAUSSIAN,OTHER  LANES,S_W,>EQ  10-Y/R,LOW  SPEED,PEDESTRIAN,  RL  >  2,acts-3,N,769,58,81.414667,0.0048880000000000035
MAXMIN|BR|GAUSSIAN,OTHER  LANES,S_W,>EQ  10-Y/R,LOW  SPEED,PEDESTRIAN,  RL  >  2,acts-3,N,769,58,83.416667,0
MAXMIN|BR|GAUSSIAN,OTHER  LANES,S_W,>EQ  10-Y/R,LOW  SPEED,PEDESTRIAN,  RL  >  2,acts-11,N,769,88,80.413667,0.011908999999999947
MAXMIN|BR|GAUSSIAN,OTHER  LANES,S_W,>EQ  10-Y/R,LOW  SPEED,PEDESTRIAN,  RL  >  2,acts-11,N,769,88,82.415667,0.0
MAXMIN|BR|GAUSSIAN,OTHER  LANES,S_W,>EQ  10-Y/R,LOW  SPEED,PEDESTRIAN,  RL  >  2,acts-11,Y,769,88,83.416667,0.00022400000000000198
MAXMIN|BR|GAUSSIAN,OTHER  LANES,S_W,>EQ  10-Y/R,LOW  SPEED,PEDESTRIAN,  RL  >  2,acts-11,N,769,88,85.418667,0
MAXMIN|BR|GAUSSIAN,OTHER  LANES,S_W,>EQ  10-Y/R,LOW  SPEED,PEDESTRIAN,  RL  >  2,acts-11,N,769,88,87.420667,0.0028520000000000767
MAXMIN|BR|GAUSSIAN,OTHER  LANES,S_W,>EQ  10-Y/R,LOW  SPEED,PEDESTRIAN,  RL  >  2,acts-11,N,769,99,87.420667,0
MAXMIN|BR|GAUSSIAN,OTHER  LANES,S_W,>EQ  10-Y/R,LOW  SPEED,PEDESTRIAN,  RL  >  2,acts-11,N,769,99,88.421667,0.00030600000000002847
MAXMIN|BR|GAUSSIAN,OTHER  LANES,S_W,>EQ  10-Y/R,LOW  SPEED,PEDESTRIAN,  RL  >  2,acts-11,N,769,99,89.422667,0.0010989999999999611
MAXMIN|BR|GAUSSIAN,OTHER  LANES,S_W,>EQ  10-Y/R,LOW  SPEED,NO  PEDESTRIAN,RL  0,acts-3,Y,769,121,115.6155,0
MAXMIN|BR|GAUSSIAN,OTHER  LANES,S_W,>EQ  10-Y/R,LOW  SPEED,NO  PEDESTRIAN,  RL  <EQ  2,acts-11,N,769,99,100.433667,0
MAXMIN|BR|GAUSSIAN,OTHER  LANES,S_W,>EQ  10-Y/R,LOW  SPEED,NO  PEDESTRIAN,  RL  <EQ  2,acts-11,N,769,119,107.273833,0.008083000000000062
MAXMIN|BR|GAUSSIAN,OTHER  LANES,S_W,>EQ  10-Y/R,LOW  SPEED,NO  PEDESTRIAN,  RL  <EQ  2,acts-11,N,769,121,107.6075,0.006372000000000044
MAXMIN|BR|GAUSSIAN,OTHER  LANES,S_W,>EQ  10-Y/R,LOW  SPEED,NO  PEDESTRIAN,  RL  <EQ  2,acts-11,N,769,121,108.6085,0.007836999999999983
MAXMIN|BR|GAUSSIAN,OTHER  LANES,S_W,>EQ  10-Y/R,LOW  SPEED,NO  PEDESTRIAN,  RL  <EQ  2,acts-11,Y,769,121,113.6135,0
MAXMIN|BR|GAUSSIAN,OTHER  LANES,S_W,>EQ  10-Y/R,LOW  SPEED,NO  PEDESTRIAN,  RL  <EQ  2,acts-11,Y,769,121,114.6145,0.002559999999999951
MAXMIN|BR|GAUSSIAN,OTHER  LANES,S_W,>EQ  10-Y/R,LOW  SPEED,NO  PEDESTRIAN,  RL  >  2,acts-11,N,769,99,96.429667,0.14542500000000003
MAXMIN|BR|GAUSSIAN,OTHER  LANES,S_W,>EQ  10-Y/R,LOW  SPEED,NO  PEDESTRIAN,  RL  >  2,acts-11,Y,769,99,98.431667,0.0
MAXMIN|BR|GAUSSIAN,OTHER  LANES,S_W,>EQ  10-Y/R,LOW  SPEED,NO  PEDESTRIAN,  RL  >  2,acts-11,N,769,99,99.432667,0.015839000000000047
MAXMIN|BR|GAUSSIAN,OTHER  LANES,S_W,>EQ  10-G,LOW  SPEED,PEDESTRIAN,RL  0,acts-10,N,769,58,54.387667,0
MAXMIN|BR|GAUSSIAN,OTHER  LANES,S_W,>EQ  10-G,LOW  SPEED,PEDESTRIAN,RL  0,acts-10,N,769,58,55.388667,0.00023500000000009624
MAXMIN|BR|GAUSSIAN,OTHER  LANES,S_W,>EQ  10-G,LOW  SPEED,PEDESTRIAN,RL  0,acts-10,N,769,58,56.389667,0.00032599999999993745
MAXMIN|BR|GAUSSIAN,OTHER  LANES,S_W,>EQ  10-G,LOW  SPEED,PEDESTRIAN,RL  0,acts-10,N,769,58,57.390667,0
MAXMIN|BR|GAUSSIAN,OTHER  LANES,S_W,>EQ  10-G,LOW  SPEED,PEDESTRIAN,RL  0,acts-10,N,769,58,58.391667,2.2999999999995246e-05
MAXMIN|BR|GAUSSIAN,OTHER  LANES,S_W,>EQ  10-G,LOW  SPEED,PEDESTRIAN,RL  0,acts-10,N,769,58,59.392667,0
MAXMIN|BR|GAUSSIAN,OTHER  LANES,S_W,>EQ  10-G,LOW  SPEED,PEDESTRIAN,RL  0,acts-10,N,769,58,60.393667,0.00016499999999997073
MAXMIN|BR|GAUSSIAN,OTHER  LANES,S_W,>EQ  10-G,LOW  SPEED,PEDESTRIAN,RL  0,acts-10,N,769,58,61.394667,0.000124000000000013
MAXMIN|BR|GAUSSIAN,OTHER  LANES,S_W,>EQ  10-G,LOW  SPEED,PEDESTRIAN,RL  0,acts-10,N,769,58,62.395667,0.00033199999999999896
MAXMIN|BR|GAUSSIAN,OTHER  LANES,S_W,>EQ  10-G,LOW  SPEED,PEDESTRIAN,RL  0,acts-10,N,769,58,63.396667,0
MAXMIN|BR|GAUSSIAN,OTHER  LANES,S_W,>EQ  10-G,LOW  SPEED,PEDESTRIAN,RL  0,acts-10,N,769,58,64.397667,7.999999999996898e-05
MAXMIN|BR|GAUSSIAN,OTHER  LANES,S_W,>EQ  10-G,LOW  SPEED,PEDESTRIAN,RL  0,acts-10,N,769,58,65.398667,0.0
MAXMIN|BR|GAUSSIAN,OTHER  LANES,S_W,>EQ  10-G,LOW  SPEED,PEDESTRIAN,RL  0,acts-10,N,769,58,66.399667,0.00015100000000001224
MAXMIN|BR|GAUSSIAN,OTHER  LANES,S_W,>EQ  10-G,LOW  SPEED,PEDESTRIAN,RL  0,acts-10,N,769,58,67.400667,0.00018099999999998673
MAXMIN|BR|GAUSSIAN,OTHER  LANES,S_W,>EQ  10-G,LOW  SPEED,PEDESTRIAN,RL  0,acts-10,N,769,140,150.316833,0.000156000000000045
MAXMIN|BR|GAUSSIAN,OTHER  LANES,S_W,>EQ  10-G,LOW  SPEED,PEDESTRIAN,RL  0,acts-10,N,769,140,151.317833,1.7000000000044757e-05
MAXMIN|BR|GAUSSIAN,OTHER  LANES,S_W,>EQ  10-G,LOW  SPEED,PEDESTRIAN,RL  0,acts-10,N,769,140,152.318833,0
MAXMIN|BR|GAUSSIAN,OTHER  LANES,S_W,>EQ  10-G,LOW  SPEED,PEDESTRIAN,RL  0,acts-10,N,769,140,153.319833,0.00022299999999997322
MAXMIN|BR|GAUSSIAN,OTHER  LANES,S_W,>EQ  10-G,LOW  SPEED,PEDESTRIAN,RL  0,acts-10,N,769,140,154.320833,4.000000000004e-06
MAXMIN|BR|GAUSSIAN,OTHER  LANES,S_W,>EQ  10-G,LOW  SPEED,PEDESTRIAN,RL  0,acts-10,N,769,140,155.321833,0.00039000000000000146
MAXMIN|BR|GAUSSIAN,OTHER  LANES,S_W,>EQ  10-G,LOW  SPEED,PEDESTRIAN,RL  0,acts-10,N,769,140,156.322833,8.399999999997299e-05
MAXMIN|BR|GAUSSIAN,OTHER  LANES,S_W,>EQ  10-G,LOW  SPEED,PEDESTRIAN,RL  0,acts-10,N,769,140,157.323833,0
MAXMIN|BR|GAUSSIAN,OTHER  LANES,S_W,>EQ  10-G,LOW  SPEED,PEDESTRIAN,RL  0,acts-10,N,769,140,158.324833,0.00017999999999995797
MAXMIN|BR|GAUSSIAN,OTHER  LANES,S_W,>EQ  10-G,LOW  SPEED,PEDESTRIAN,RL  0,acts-10,N,769,140,159.325833,0
MAXMIN|BR|GAUSSIAN,OTHER  LANES,S_W,>EQ  10-G,LOW  SPEED,PEDESTRIAN,RL  0,acts-10,N,769,140,160.326833,0
MAXMIN|BR|GAUSSIAN,OTHER  LANES,S_W,>EQ  10-G,LOW  SPEED,PEDESTRIAN,RL  0,acts-10,N,769,140,161.327833,6.099999999997774e-05
MAXMIN|BR|GAUSSIAN,OTHER  LANES,S_W,>EQ  10-G,LOW  SPEED,PEDESTRIAN,RL  0,acts-10,N,769,140,162.328833,6.60000000000105e-05
MAXMIN|BR|GAUSSIAN,OTHER  LANES,S_W,>EQ  10-G,LOW  SPEED,PEDESTRIAN,RL  0,acts-10,N,769,140,163.329833,3.6000000000036e-05
MAXMIN|BR|GAUSSIAN,OTHER  LANES,S_W,>EQ  10-G,LOW  SPEED,PEDESTRIAN,RL  0,acts-10,N,769,140,164.330833,0.00016699999999991721
MAXMIN|BR|GAUSSIAN,OTHER  LANES,S_W,>EQ  10-G,LOW  SPEED,PEDESTRIAN,RL  0,acts-10,N,769,140,165.331833,0.0003030000000000532
MAXMIN|BR|GAUSSIAN,OTHER  LANES,S_W,>EQ  10-G,LOW  SPEED,PEDESTRIAN,RL  0,acts-10,N,769,140,166.332833,0.00026199999999998447
MAXMIN|BR|GAUSSIAN,OTHER  LANES,S_W,>EQ  10-G,LOW  SPEED,PEDESTRIAN,RL  0,acts-10,N,769,140,167.333833,0.00035999999999991594
MAXMIN|BR|GAUSSIAN,OTHER  LANES,S_W,>EQ  10-G,LOW  SPEED,PEDESTRIAN,RL  0,acts-10,N,769,234,251.251,0
MAXMIN|BR|GAUSSIAN,OTHER  LANES,S_W,>EQ  10-G,LOW  SPEED,PEDESTRIAN,RL  0,acts-10,N,769,234,252.252,0.00030799999999997496
MAXMIN|BR|GAUSSIAN,OTHER  LANES,S_W,>EQ  10-G,LOW  SPEED,PEDESTRIAN,RL  0,acts-10,N,769,234,253.253,0.00013900000000000023
MAXMIN|BR|GAUSSIAN,OTHER  LANES,S_W,>EQ  10-G,LOW  SPEED,PEDESTRIAN,RL  0,acts-10,N,769,234,254.254,0.00020600000000003948
MAXMIN|BR|GAUSSIAN,OTHER  LANES,S_W,>EQ  10-G,LOW  SPEED,PEDESTRIAN,RL  0,acts-10,N,769,234,255.255,0
MAXMIN|BR|GAUSSIAN,OTHER  LANES,S_W,>EQ  10-G,LOW  SPEED,PEDESTRIAN,RL  0,acts-10,N,769,234,256.256,0.00018799999999996597
MAXMIN|BR|GAUSSIAN,OTHER  LANES,S_W,>EQ  10-G,LOW  SPEED,PEDESTRIAN,RL  0,acts-10,N,769,234,257.257,0.00020900000000001473
MAXMIN|BR|GAUSSIAN,OTHER  LANES,S_W,>EQ  10-G,LOW  SPEED,PEDESTRIAN,RL  0,acts-10,N,769,234,258.258,0.00020200000000003548
MAXMIN|BR|GAUSSIAN,OTHER  LANES,S_W,>EQ  10-G,LOW  SPEED,PEDESTRIAN,RL  0,acts-10,N,769,234,259.259,0
MAXMIN|BR|GAUSSIAN,OTHER  LANES,S_W,>EQ  10-G,LOW  SPEED,PEDESTRIAN,RL  0,acts-10,N,769,234,260.26,5.6000000000056005e-05
MAXMIN|BR|GAUSSIAN,OTHER  LANES,S_W,>EQ  10-G,LOW  SPEED,PEDESTRIAN,RL  0,acts-10,N,769,234,261.261,7.2000000000072e-05
MAXMIN|BR|GAUSSIAN,OTHER  LANES,S_W,>EQ  10-G,LOW  SPEED,PEDESTRIAN,RL  0,acts-10,N,769,234,262.262,0.00035199999999990794
MAXMIN|BR|GAUSSIAN,OTHER  LANES,S_W,>EQ  10-G,LOW  SPEED,PEDESTRIAN,RL  0,acts-10,N,769,234,263.263,0.00028600000000000847
MAXMIN|BR|GAUSSIAN,OTHER  LANES,S_W,>EQ  10-G,LOW  SPEED,NO  PEDESTRIAN,RL  0,acts-10,N,769,58,48.381667,0.0009320000000000439
MAXMIN|BR|GAUSSIAN,OTHER  LANES,S_W,>EQ  10-G,LOW  SPEED,NO  PEDESTRIAN,RL  0,acts-10,N,769,58,49.382667,4.700000000001925e-05
MAXMIN|BR|GAUSSIAN,OTHER  LANES,S_W,>EQ  10-G,LOW  SPEED,NO  PEDESTRIAN,RL  0,acts-10,N,769,58,50.383667,0.00030600000000002847
MAXMIN|BR|GAUSSIAN,OTHER  LANES,S_W,>EQ  10-G,LOW  SPEED,NO  PEDESTRIAN,RL  0,acts-10,N,769,58,51.384667,0
MAXMIN|BR|GAUSSIAN,OTHER  LANES,S_W,>EQ  10-G,LOW  SPEED,NO  PEDESTRIAN,RL  0,acts-10,N,769,58,52.385667,0.00010599999999993948
MAXMIN|BR|GAUSSIAN,OTHER  LANES,S_W,>EQ  10-G,LOW  SPEED,NO  PEDESTRIAN,RL  0,acts-10,N,769,58,53.386667,7.00000000000145e-05
MAXMIN|BR|GAUSSIAN,OTHER  LANES,S_W,>EQ  10-G,LOW  SPEED,NO  PEDESTRIAN,RL  0,acts-10,N,769,140,130.296833,0.00019099999999994122
MAXMIN|BR|GAUSSIAN,OTHER  LANES,S_W,>EQ  10-G,LOW  SPEED,NO  PEDESTRIAN,RL  0,acts-10,N,769,140,131.297833,0.00014899999999995472
MAXMIN|BR|GAUSSIAN,OTHER  LANES,S_W,>EQ  10-G,LOW  SPEED,NO  PEDESTRIAN,RL  0,acts-10,N,769,140,132.298833,0.0003869999999999152
MAXMIN|BR|GAUSSIAN,OTHER  LANES,S_W,>EQ  10-G,LOW  SPEED,NO  PEDESTRIAN,RL  0,acts-10,N,769,140,133.299833,0.0002749999999999142
MAXMIN|BR|GAUSSIAN,OTHER  LANES,S_W,>EQ  10-G,LOW  SPEED,NO  PEDESTRIAN,RL  0,acts-10,N,769,140,134.300833,0.00010900000000002574
MAXMIN|BR|GAUSSIAN,OTHER  LANES,S_W,>EQ  10-G,LOW  SPEED,NO  PEDESTRIAN,RL  0,acts-10,N,769,140,135.301833,0
MAXMIN|BR|GAUSSIAN,OTHER  LANES,S_W,>EQ  10-G,LOW  SPEED,NO  PEDESTRIAN,RL  0,acts-10,N,769,140,136.302833,5.100000000002325e-05
MAXMIN|BR|GAUSSIAN,OTHER  LANES,S_W,>EQ  10-G,LOW  SPEED,NO  PEDESTRIAN,RL  0,acts-10,N,769,140,137.303833,0.00030600000000002847
MAXMIN|BR|GAUSSIAN,OTHER  LANES,S_W,>EQ  10-G,LOW  SPEED,NO  PEDESTRIAN,RL  0,acts-10,N,769,140,138.304833,0
MAXMIN|BR|GAUSSIAN,OTHER  LANES,S_W,>EQ  10-G,LOW  SPEED,NO  PEDESTRIAN,RL  0,acts-10,N,769,140,139.305833,9.40000000000385e-05
MAXMIN|BR|GAUSSIAN,OTHER  LANES,S_W,>EQ  10-G,LOW  SPEED,NO  PEDESTRIAN,RL  0,acts-10,N,769,140,140.306833,4.499999999996174e-05
MAXMIN|BR|GAUSSIAN,OTHER  LANES,S_W,>EQ  10-G,LOW  SPEED,NO  PEDESTRIAN,RL  0,acts-10,N,769,140,141.307833,0.00025199999999991896
MAXMIN|BR|GAUSSIAN,OTHER  LANES,S_W,>EQ  10-G,LOW  SPEED,NO  PEDESTRIAN,RL  0,acts-10,N,769,140,142.308833,0
MAXMIN|BR|GAUSSIAN,OTHER  LANES,S_W,>EQ  10-G,LOW  SPEED,NO  PEDESTRIAN,RL  0,acts-10,N,769,140,143.309833,0.00037199999999992794
MAXMIN|BR|GAUSSIAN,OTHER  LANES,S_W,>EQ  10-G,LOW  SPEED,NO  PEDESTRIAN,RL  0,acts-10,N,769,140,144.310833,0
MAXMIN|BR|GAUSSIAN,OTHER  LANES,S_W,>EQ  10-G,LOW  SPEED,NO  PEDESTRIAN,RL  0,acts-10,N,769,140,145.311833,0
MAXMIN|BR|GAUSSIAN,OTHER  LANES,S_W,>EQ  10-G,LOW  SPEED,NO  PEDESTRIAN,RL  0,acts-10,N,769,140,146.312833,0.00024799999999991496
MAXMIN|BR|GAUSSIAN,OTHER  LANES,S_W,>EQ  10-G,LOW  SPEED,NO  PEDESTRIAN,RL  0,acts-10,N,769,140,147.313833,0
MAXMIN|BR|GAUSSIAN,OTHER  LANES,S_W,>EQ  10-G,LOW  SPEED,NO  PEDESTRIAN,RL  0,acts-10,N,769,140,148.314833,7.499999999993623e-05
MAXMIN|BR|GAUSSIAN,OTHER  LANES,S_W,>EQ  10-G,LOW  SPEED,NO  PEDESTRIAN,RL  0,acts-10,N,769,140,149.315833,0.00017999999999995797
MAXMIN|BR|GAUSSIAN,OTHER  LANES,S_W,>EQ  10-G,LOW  SPEED,NO  PEDESTRIAN,RL  0,acts-10,Y,769,234,241.241,0.0002469999999999972
MAXMIN|BR|GAUSSIAN,OTHER  LANES,S_W,>EQ  10-G,LOW  SPEED,NO  PEDESTRIAN,RL  0,acts-10,N,769,234,242.242,0.0004450000000000287
MAXMIN|BR|GAUSSIAN,OTHER  LANES,S_W,>EQ  10-G,LOW  SPEED,NO  PEDESTRIAN,RL  0,acts-10,Y,769,234,243.243,6.899999999998574e-05
MAXMIN|BR|GAUSSIAN,OTHER  LANES,S_W,>EQ  10-G,LOW  SPEED,NO  PEDESTRIAN,RL  0,acts-10,Y,769,234,244.244,9.899999999996023e-05
MAXMIN|BR|GAUSSIAN,OTHER  LANES,S_W,>EQ  10-G,LOW  SPEED,NO  PEDESTRIAN,RL  0,acts-10,N,769,234,245.245,0.00014100000000005775
MAXMIN|BR|GAUSSIAN,OTHER  LANES,S_W,>EQ  10-G,LOW  SPEED,NO  PEDESTRIAN,RL  0,acts-10,N,769,234,246.246,0.0005610000000000337
MAXMIN|BR|GAUSSIAN,OTHER  LANES,S_W,>EQ  10-G,LOW  SPEED,NO  PEDESTRIAN,RL  0,acts-10,N,769,234,247.247,8.099999999999774e-05
MAXMIN|BR|GAUSSIAN,OTHER  LANES,S_W,>EQ  10-G,LOW  SPEED,NO  PEDESTRIAN,RL  0,acts-10,N,769,234,248.248,5.3999999999998494e-05
MAXMIN|BR|GAUSSIAN,OTHER  LANES,S_W,>EQ  10-G,LOW  SPEED,NO  PEDESTRIAN,RL  0,acts-10,N,769,234,249.249,0
MAXMIN|BR|GAUSSIAN,OTHER  LANES,S_W,>EQ  10-G,LOW  SPEED,NO  PEDESTRIAN,RL  0,acts-10,N,769,234,250.25,0.00014199999999997548
MAXMIN|BR|GAUSSIAN,OTHER  LANES,N_E,<10-Y/R,LOW  SPEED,NO  PEDESTRIAN,RL  0,acts-3,Y,769,160,180.18,0.005547999999999997
MAXMIN|BR|GAUSSIAN,OTHER  LANES,N_E,<10-Y/R,LOW  SPEED,NO  PEDESTRIAN,RL  0,acts-3,Y,769,176,182.515667,0
MAXMIN|BR|GAUSSIAN,OTHER  LANES,N_E,<10-Y/R,LOW  SPEED,NO  PEDESTRIAN,RL  0,acts-3,Y,769,220,221.888333,0
MAXMIN|BR|GAUSSIAN,OTHER  LANES,N_E,<10-Y/R,MEDIUM  SPEED,NO  PEDESTRIAN,RL  0,acts-3,Y,769,178,186.519667,0.0014680000000000248
MAXMIN|BR|GAUSSIAN,OTHER  LANES,N_E,<10-Y/R,MEDIUM  SPEED,NO  PEDESTRIAN,RL  0,acts-3,Y,769,179,188.855333,0
MAXMIN|BR|GAUSSIAN,OTHER  LANES,N_E,<10-G,LOW  SPEED,NO  PEDESTRIAN,RL  0,acts-10,N,769,160,168.168,0.0002329999999999277
MAXMIN|BR|GAUSSIAN,OTHER  LANES,N_E,<10-G,LOW  SPEED,NO  PEDESTRIAN,RL  0,acts-10,N,769,160,169.169,0.00019299999999999873
MAXMIN|BR|GAUSSIAN,OTHER  LANES,N_E,<10-G,LOW  SPEED,NO  PEDESTRIAN,RL  0,acts-10,N,769,160,170.17,0.00017199999999994997
MAXMIN|BR|GAUSSIAN,OTHER  LANES,N_E,<10-G,LOW  SPEED,NO  PEDESTRIAN,RL  0,acts-10,N,769,160,171.171,0
MAXMIN|BR|GAUSSIAN,OTHER  LANES,N_E,<10-G,LOW  SPEED,NO  PEDESTRIAN,RL  0,acts-10,N,769,160,172.172,5.8000000000002494e-05
MAXMIN|BR|GAUSSIAN,OTHER  LANES,N_E,<10-G,LOW  SPEED,NO  PEDESTRIAN,RL  0,acts-10,N,769,160,173.173,0.000284000000000062
MAXMIN|BR|GAUSSIAN,OTHER  LANES,N_E,<10-G,LOW  SPEED,NO  PEDESTRIAN,RL  0,acts-10,N,769,160,174.174,0.00036000000000002697
MAXMIN|BR|GAUSSIAN,OTHER  LANES,N_E,<10-G,LOW  SPEED,NO  PEDESTRIAN,RL  0,acts-10,N,769,160,175.175,0.00019599999999997397
MAXMIN|BR|GAUSSIAN,OTHER  LANES,N_E,<10-G,LOW  SPEED,NO  PEDESTRIAN,RL  0,acts-10,N,769,160,176.176,7.80000000000225e-05
MAXMIN|BR|GAUSSIAN,OTHER  LANES,N_E,<10-G,LOW  SPEED,NO  PEDESTRIAN,RL  0,acts-10,N,769,160,177.177,0.00028600000000000847
MAXMIN|BR|GAUSSIAN,OTHER  LANES,N_E,<10-G,LOW  SPEED,NO  PEDESTRIAN,RL  0,acts-10,N,769,249,263.596667,0.0
MAXMIN|BR|GAUSSIAN,OTHER  LANES,N_E,<10-G,LOW  SPEED,NO  PEDESTRIAN,RL  0,acts-10,N,769,249,264.597667,0.0
MAXMIN|BR|GAUSSIAN,OTHER  LANES,N_E,<10-G,LOW  SPEED,NO  PEDESTRIAN,RL  0,acts-10,N,769,249,265.598667,0.0
MAXMIN|BR|GAUSSIAN,OTHER  LANES,N_E,<10-G,LOW  SPEED,NO  PEDESTRIAN,RL  0,acts-10,N,769,249,266.599667,0
MAXMIN|BR|GAUSSIAN,OTHER  LANES,N_E,<10-G,LOW  SPEED,NO  PEDESTRIAN,RL  0,acts-10,N,769,249,267.600667,0
MAXMIN|BR|GAUSSIAN,OTHER  LANES,N_E,<10-G,LOW  SPEED,NO  PEDESTRIAN,RL  0,acts-10,N,769,249,268.601667,0
MAXMIN|BR|GAUSSIAN,OTHER  LANES,N_E,<10-G,LOW  SPEED,NO  PEDESTRIAN,RL  0,acts-10,N,769,249,269.602667,0
MAXMIN|BR|GAUSSIAN,OTHER  LANES,N_E,<10-G,LOW  SPEED,NO  PEDESTRIAN,RL  0,acts-10,N,769,249,270.603667,0.0
MAXMIN|BR|GAUSSIAN,OTHER  LANES,N_E,<10-G,LOW  SPEED,NO  PEDESTRIAN,RL  0,acts-10,N,769,249,271.604667,0
MAXMIN|BR|GAUSSIAN,OTHER  LANES,N_E,<10-G,LOW  SPEED,NO  PEDESTRIAN,RL  0,acts-10,N,769,249,272.605667,0
MAXMIN|BR|GAUSSIAN,OTHER  LANES,N_E,>EQ  10-Y/R,LOW  SPEED,NO  PEDESTRIAN,RL  0,acts-3,N,769,129,114.781333,0
MAXMIN|BR|GAUSSIAN,OTHER  LANES,N_E,>EQ  10-Y/R,LOW  SPEED,NO  PEDESTRIAN,RL  0,acts-3,Y,769,160,178.178,0.003730000000000011
MAXMIN|BR|GAUSSIAN,OTHER  LANES,N_E,>EQ  10-Y/R,LOW  SPEED,NO  PEDESTRIAN,RL  0,acts-3,Y,769,160,179.179,0.003410999999999942
MAXMIN|BR|GAUSSIAN,OTHER  LANES,N_E,>EQ  10-Y/R,MEDIUM  SPEED,NO  PEDESTRIAN,RL  0,acts-3,Y,769,31,12.846167,0
MAXMIN|BR|GAUSSIAN,OTHER  LANES,N_E,>EQ  10-G,LOW  SPEED,NO  PEDESTRIAN,RL  0,acts-10,N,769,160,156.156,0.00014999999999998348
MAXMIN|BR|GAUSSIAN,OTHER  LANES,N_E,>EQ  10-G,LOW  SPEED,NO  PEDESTRIAN,RL  0,acts-10,N,769,160,157.157,0
MAXMIN|BR|GAUSSIAN,OTHER  LANES,N_E,>EQ  10-G,LOW  SPEED,NO  PEDESTRIAN,RL  0,acts-10,N,769,160,158.158,2.199999999996649e-05
MAXMIN|BR|GAUSSIAN,OTHER  LANES,N_E,>EQ  10-G,LOW  SPEED,NO  PEDESTRIAN,RL  0,acts-10,N,769,160,159.159,0
MAXMIN|BR|GAUSSIAN,OTHER  LANES,N_E,>EQ  10-G,LOW  SPEED,NO  PEDESTRIAN,RL  0,acts-10,N,769,160,160.16,0.00014700000000000824
MAXMIN|BR|GAUSSIAN,OTHER  LANES,N_E,>EQ  10-G,LOW  SPEED,NO  PEDESTRIAN,RL  0,acts-10,N,769,160,161.161,9.00000000000345e-05
MAXMIN|BR|GAUSSIAN,OTHER  LANES,N_E,>EQ  10-G,LOW  SPEED,NO  PEDESTRIAN,RL  0,acts-10,N,769,160,162.162,0.00042400000000009097
MAXMIN|BR|GAUSSIAN,OTHER  LANES,N_E,>EQ  10-G,LOW  SPEED,NO  PEDESTRIAN,RL  0,acts-10,N,769,160,163.163,0.00014499999999995072
MAXMIN|BR|GAUSSIAN,OTHER  LANES,N_E,>EQ  10-G,LOW  SPEED,NO  PEDESTRIAN,RL  0,acts-10,N,769,160,164.164,0
MAXMIN|BR|GAUSSIAN,OTHER  LANES,N_E,>EQ  10-G,LOW  SPEED,NO  PEDESTRIAN,RL  0,acts-10,N,769,160,165.165,8.900000000000574e-05
MAXMIN|BR|GAUSSIAN,OTHER  LANES,N_E,>EQ  10-G,LOW  SPEED,NO  PEDESTRIAN,RL  0,acts-10,N,769,160,166.166,0
MAXMIN|BR|GAUSSIAN,OTHER  LANES,N_E,>EQ  10-G,LOW  SPEED,NO  PEDESTRIAN,RL  0,acts-10,N,769,160,167.167,0
MAXMIN|BR|GAUSSIAN,OTHER  LANES,N_E,>EQ  10-G,LOW  SPEED,NO  PEDESTRIAN,RL  0,acts-10,N,769,249,256.589667,0.0
MAXMIN|BR|GAUSSIAN,OTHER  LANES,N_E,>EQ  10-G,LOW  SPEED,NO  PEDESTRIAN,RL  0,acts-10,N,769,249,257.590667,0.0
MAXMIN|BR|GAUSSIAN,OTHER  LANES,N_E,>EQ  10-G,LOW  SPEED,NO  PEDESTRIAN,RL  0,acts-10,N,769,249,258.591667,0
MAXMIN|BR|GAUSSIAN,OTHER  LANES,N_E,>EQ  10-G,LOW  SPEED,NO  PEDESTRIAN,RL  0,acts-10,N,769,249,259.592667,0.0
MAXMIN|BR|GAUSSIAN,OTHER  LANES,N_E,>EQ  10-G,LOW  SPEED,NO  PEDESTRIAN,RL  0,acts-10,N,769,249,260.593667,0.0
MAXMIN|BR|GAUSSIAN,OTHER  LANES,N_E,>EQ  10-G,LOW  SPEED,NO  PEDESTRIAN,RL  0,acts-10,N,769,249,261.594667,0.0
MAXMIN|BR|GAUSSIAN,OTHER  LANES,N_E,>EQ  10-G,LOW  SPEED,NO  PEDESTRIAN,RL  0,acts-10,N,769,249,262.595667,0.0
MAXMIN|BR|GAUSSIAN,OTHER  LANES,W_N,<10-Y/R,LOW  SPEED,NO  PEDESTRIAN,RL  0,acts-3,Y,769,253,262.095167,0
MAXMIN|BR|GAUSSIAN,OTHER  LANES,W_N,<10-Y/R,MEDIUM  SPEED,NO  PEDESTRIAN,RL  0,acts-3,Y,769,253,263.096167,0.005542999999999965
MAXMIN|BR|GAUSSIAN,OTHER  LANES,W_N,<10-G,LOW  SPEED,PEDESTRIAN,RL  0,acts-10,N,769,116,126.6265,0.0006960000000000299
MAXMIN|BR|GAUSSIAN,OTHER  LANES,W_N,<10-G,LOW  SPEED,PEDESTRIAN,RL  0,acts-10,N,769,116,127.6275,0.0008380000000000054
MAXMIN|BR|GAUSSIAN,OTHER  LANES,W_N,<10-G,LOW  SPEED,PEDESTRIAN,RL  0,acts-10,N,769,116,128.6285,0.0005549999999999722
MAXMIN|BR|GAUSSIAN,OTHER  LANES,W_N,<10-G,LOW  SPEED,PEDESTRIAN,RL  0,acts-10,N,769,116,129.6295,0.0007789999999999742
MAXMIN|BR|GAUSSIAN,OTHER  LANES,W_N,<10-G,LOW  SPEED,PEDESTRIAN,RL  0,acts-10,N,769,116,130.6305,0.0003929999999999767
MAXMIN|BR|GAUSSIAN,OTHER  LANES,W_N,<10-G,LOW  SPEED,PEDESTRIAN,RL  0,acts-10,Y,769,116,131.6315,0.0006750000000000922
MAXMIN|BR|GAUSSIAN,OTHER  LANES,W_N,<10-G,LOW  SPEED,NO  PEDESTRIAN,RL  0,acts-10,N,769,14,23.023,0.0003950000000000342
MAXMIN|BR|GAUSSIAN,OTHER  LANES,W_N,<10-G,LOW  SPEED,NO  PEDESTRIAN,RL  0,acts-10,N,769,14,24.024,0.0006190000000000362
MAXMIN|BR|GAUSSIAN,OTHER  LANES,W_N,<10-G,LOW  SPEED,NO  PEDESTRIAN,RL  0,acts-10,N,769,14,25.025,0.00042399999999997995
MAXMIN|BR|GAUSSIAN,OTHER  LANES,W_N,<10-G,LOW  SPEED,NO  PEDESTRIAN,RL  0,acts-10,N,769,14,26.026,0.0005619999999999514
MAXMIN|BR|GAUSSIAN,OTHER  LANES,W_N,<10-G,LOW  SPEED,NO  PEDESTRIAN,RL  0,acts-10,N,769,14,27.027,4.199999999998649e-05
MAXMIN|BR|GAUSSIAN,OTHER  LANES,W_N,<10-G,LOW  SPEED,NO  PEDESTRIAN,RL  0,acts-10,N,769,14,28.028,0.00044800000000000395
MAXMIN|BR|GAUSSIAN,OTHER  LANES,W_N,<10-G,LOW  SPEED,NO  PEDESTRIAN,RL  0,acts-10,N,769,14,29.029,0.00024299999999999322
MAXMIN|BR|GAUSSIAN,OTHER  LANES,W_N,<10-G,LOW  SPEED,NO  PEDESTRIAN,RL  0,acts-10,N,769,14,30.03,0.000500000000000056
MAXMIN|BR|GAUSSIAN,OTHER  LANES,W_N,<10-G,LOW  SPEED,NO  PEDESTRIAN,RL  0,acts-10,N,769,14,31.031,0.0008019999999999694
MAXMIN|BR|GAUSSIAN,OTHER  LANES,W_N,<10-G,LOW  SPEED,NO  PEDESTRIAN,RL  0,acts-10,Y,769,14,32.032,0
MAXMIN|BR|GAUSSIAN,OTHER  LANES,W_N,<10-G,LOW  SPEED,NO  PEDESTRIAN,RL  0,acts-10,N,769,116,122.6225,0.0005740000000000745
MAXMIN|BR|GAUSSIAN,OTHER  LANES,W_N,<10-G,LOW  SPEED,NO  PEDESTRIAN,RL  0,acts-10,N,769,116,123.6235,0.00014199999999997548
MAXMIN|BR|GAUSSIAN,OTHER  LANES,W_N,<10-G,LOW  SPEED,NO  PEDESTRIAN,RL  0,acts-10,N,769,116,124.6245,0.0008909999999999751
MAXMIN|BR|GAUSSIAN,OTHER  LANES,W_N,<10-G,LOW  SPEED,NO  PEDESTRIAN,RL  0,acts-10,N,769,116,125.6255,0
MAXMIN|BR|GAUSSIAN,OTHER  LANES,W_N,>EQ  10-Y/R,LOW  SPEED,PEDESTRIAN,RL  0,acts-3,Y,769,116,132.6325,0
MAXMIN|BR|GAUSSIAN,OTHER  LANES,W_N,>EQ  10-Y/R,LOW  SPEED,PEDESTRIAN,RL  0,acts-3,Y,769,116,133.6335,0.00455899999999998
MAXMIN|BR|GAUSSIAN,OTHER  LANES,W_N,>EQ  10-Y/R,LOW  SPEED,PEDESTRIAN,RL  0,acts-3,N,769,141,136.469667,0
MAXMIN|BR|GAUSSIAN,OTHER  LANES,W_N,>EQ  10-Y/R,LOW  SPEED,NO  PEDESTRIAN,RL  0,acts-3,Y,769,14,33.033,0
MAXMIN|BR|GAUSSIAN,OTHER  LANES,W_N,>EQ  10-Y/R,LOW  SPEED,NO  PEDESTRIAN,RL  0,acts-3,Y,769,14,34.034,0
MAXMIN|BR|GAUSSIAN,OTHER  LANES,W_N,>EQ  10-Y/R,LOW  SPEED,NO  PEDESTRIAN,RL  0,acts-3,Y,769,25,36.369667,0.008010000000000073
MAXMIN|BR|GAUSSIAN,OTHER  LANES,W_N,>EQ  10-Y/R,LOW  SPEED,NO  PEDESTRIAN,  RL  >  2,acts-3,Y,769,53,44.5445,0.004699000000000009
MAXMIN|BR|GAUSSIAN,OTHER  LANES,W_N,>EQ  10-Y/R,MEDIUM  SPEED,NO  PEDESTRIAN,  RL  <EQ  2,acts-3,Y,769,164,158.992167,0
MAXMIN|BR|GAUSSIAN,OTHER  LANES,W_N,>EQ  10-G,LOW  SPEED,NO  PEDESTRIAN,RL  0,acts-10,N,769,14,0,0.0006469999999999532
MAXMIN|BR|GAUSSIAN,OTHER  LANES,W_N,>EQ  10-G,LOW  SPEED,NO  PEDESTRIAN,RL  0,acts-10,N,769,14,1.001,0.00036000000000002697
MAXMIN|BR|GAUSSIAN,OTHER  LANES,W_N,>EQ  10-G,LOW  SPEED,NO  PEDESTRIAN,RL  0,acts-10,N,769,14,10.01,0
MAXMIN|BR|GAUSSIAN,OTHER  LANES,W_N,>EQ  10-G,LOW  SPEED,NO  PEDESTRIAN,RL  0,acts-10,N,769,14,11.011,0.0002260000000000595
MAXMIN|BR|GAUSSIAN,OTHER  LANES,W_N,>EQ  10-G,LOW  SPEED,NO  PEDESTRIAN,RL  0,acts-10,N,769,14,12.012,0.0003309999999999702
MAXMIN|BR|GAUSSIAN,OTHER  LANES,W_N,>EQ  10-G,LOW  SPEED,NO  PEDESTRIAN,RL  0,acts-10,N,769,14,13.013,0
MAXMIN|BR|GAUSSIAN,OTHER  LANES,W_N,>EQ  10-G,LOW  SPEED,NO  PEDESTRIAN,RL  0,acts-10,N,769,14,14.014,0
MAXMIN|BR|GAUSSIAN,OTHER  LANES,W_N,>EQ  10-G,LOW  SPEED,NO  PEDESTRIAN,RL  0,acts-10,N,769,14,15.015,0.0003300000000000525
MAXMIN|BR|GAUSSIAN,OTHER  LANES,W_N,>EQ  10-G,LOW  SPEED,NO  PEDESTRIAN,RL  0,acts-10,N,769,14,16.016,0.0008720000000000949
MAXMIN|BR|GAUSSIAN,OTHER  LANES,W_N,>EQ  10-G,LOW  SPEED,NO  PEDESTRIAN,RL  0,acts-10,N,769,14,17.017,1.399999999995849e-05
MAXMIN|BR|GAUSSIAN,OTHER  LANES,W_N,>EQ  10-G,LOW  SPEED,NO  PEDESTRIAN,RL  0,acts-10,N,769,14,18.018,0.00048199999999998244
MAXMIN|BR|GAUSSIAN,OTHER  LANES,W_N,>EQ  10-G,LOW  SPEED,NO  PEDESTRIAN,RL  0,acts-10,N,769,14,19.019,0.0001060000000000505
MAXMIN|BR|GAUSSIAN,OTHER  LANES,W_N,>EQ  10-G,LOW  SPEED,NO  PEDESTRIAN,RL  0,acts-10,N,769,14,2.002,0
MAXMIN|BR|GAUSSIAN,OTHER  LANES,W_N,>EQ  10-G,LOW  SPEED,NO  PEDESTRIAN,RL  0,acts-10,N,769,14,20.02,0.0005970000000000697
MAXMIN|BR|GAUSSIAN,OTHER  LANES,W_N,>EQ  10-G,LOW  SPEED,NO  PEDESTRIAN,RL  0,acts-10,N,769,14,21.021,0.0006700000000000594
MAXMIN|BR|GAUSSIAN,OTHER  LANES,W_N,>EQ  10-G,LOW  SPEED,NO  PEDESTRIAN,RL  0,acts-10,N,769,14,22.022,0.0007599999999999829
MAXMIN|BR|GAUSSIAN,OTHER  LANES,W_N,>EQ  10-G,LOW  SPEED,NO  PEDESTRIAN,RL  0,acts-10,N,769,14,3.003,0.0009600000000000719
MAXMIN|BR|GAUSSIAN,OTHER  LANES,W_N,>EQ  10-G,LOW  SPEED,NO  PEDESTRIAN,RL  0,acts-10,N,769,14,4.004,0.0010729999999999906
MAXMIN|BR|GAUSSIAN,OTHER  LANES,W_N,>EQ  10-G,LOW  SPEED,NO  PEDESTRIAN,RL  0,acts-10,N,769,14,5.005,0.0007949999999999902
MAXMIN|BR|GAUSSIAN,OTHER  LANES,W_N,>EQ  10-G,LOW  SPEED,NO  PEDESTRIAN,RL  0,acts-10,N,769,14,6.006,0.0009230000000000071
MAXMIN|BR|GAUSSIAN,OTHER  LANES,W_N,>EQ  10-G,LOW  SPEED,NO  PEDESTRIAN,RL  0,acts-10,N,769,14,7.007,0.0009310000000000151
MAXMIN|BR|GAUSSIAN,OTHER  LANES,W_N,>EQ  10-G,LOW  SPEED,NO  PEDESTRIAN,RL  0,acts-10,N,769,14,8.008,0
MAXMIN|BR|GAUSSIAN,OTHER  LANES,W_N,>EQ  10-G,LOW  SPEED,NO  PEDESTRIAN,RL  0,acts-10,N,769,14,9.009,0
MAXMIN|BR|GAUSSIAN,OTHER  LANES,W_N,>EQ  10-G,LOW  SPEED,NO  PEDESTRIAN,RL  0,acts-10,Y,769,116,101.6015,0
MAXMIN|BR|GAUSSIAN,OTHER  LANES,W_N,>EQ  10-G,LOW  SPEED,NO  PEDESTRIAN,RL  0,acts-10,N,769,116,102.6025,0.0040200000000000236
MAXMIN|BR|GAUSSIAN,OTHER  LANES,W_N,>EQ  10-G,LOW  SPEED,NO  PEDESTRIAN,RL  0,acts-10,Y,769,116,103.6035,0.00019499999999994522
MAXMIN|BR|GAUSSIAN,OTHER  LANES,W_N,>EQ  10-G,LOW  SPEED,NO  PEDESTRIAN,RL  0,acts-10,Y,769,116,104.6045,0.0003149999999999542
MAXMIN|BR|GAUSSIAN,OTHER  LANES,W_N,>EQ  10-G,LOW  SPEED,NO  PEDESTRIAN,RL  0,acts-10,Y,769,116,105.6055,0.0020729999999999915
MAXMIN|BR|GAUSSIAN,OTHER  LANES,W_N,>EQ  10-G,LOW  SPEED,NO  PEDESTRIAN,RL  0,acts-10,Y,769,116,106.6065,0.002495000000000025
MAXMIN|BR|GAUSSIAN,OTHER  LANES,W_N,>EQ  10-G,LOW  SPEED,NO  PEDESTRIAN,RL  0,acts-10,Y,769,116,107.6075,0
MAXMIN|BR|GAUSSIAN,OTHER  LANES,W_N,>EQ  10-G,LOW  SPEED,NO  PEDESTRIAN,RL  0,acts-10,N,769,116,108.6085,0.0016890000000000516
MAXMIN|BR|GAUSSIAN,OTHER  LANES,W_N,>EQ  10-G,LOW  SPEED,NO  PEDESTRIAN,RL  0,acts-10,N,769,116,109.6095,2.2999999999995246e-05
MAXMIN|BR|GAUSSIAN,OTHER  LANES,W_N,>EQ  10-G,LOW  SPEED,NO  PEDESTRIAN,RL  0,acts-10,N,769,116,110.6105,0.0002790000000000292
MAXMIN|BR|GAUSSIAN,OTHER  LANES,W_N,>EQ  10-G,LOW  SPEED,NO  PEDESTRIAN,RL  0,acts-10,N,769,116,111.6115,0
MAXMIN|BR|GAUSSIAN,OTHER  LANES,W_N,>EQ  10-G,LOW  SPEED,NO  PEDESTRIAN,RL  0,acts-10,N,769,116,112.6125,0.0003910000000000302
MAXMIN|BR|GAUSSIAN,OTHER  LANES,W_N,>EQ  10-G,LOW  SPEED,NO  PEDESTRIAN,RL  0,acts-10,N,769,116,113.6135,0
MAXMIN|BR|GAUSSIAN,OTHER  LANES,W_N,>EQ  10-G,LOW  SPEED,NO  PEDESTRIAN,RL  0,acts-10,N,769,116,114.6145,7.599999999996498e-05
MAXMIN|BR|GAUSSIAN,OTHER  LANES,W_N,>EQ  10-G,LOW  SPEED,NO  PEDESTRIAN,RL  0,acts-10,N,769,116,115.6155,8.599999999991947e-05
MAXMIN|BR|GAUSSIAN,OTHER  LANES,W_N,>EQ  10-G,LOW  SPEED,NO  PEDESTRIAN,RL  0,acts-10,N,769,116,116.6165,0
MAXMIN|BR|GAUSSIAN,OTHER  LANES,W_N,>EQ  10-G,LOW  SPEED,NO  PEDESTRIAN,RL  0,acts-10,N,769,116,117.6175,0.0009709999999999441
MAXMIN|BR|GAUSSIAN,OTHER  LANES,W_N,>EQ  10-G,LOW  SPEED,NO  PEDESTRIAN,RL  0,acts-10,N,769,116,118.6185,0
MAXMIN|BR|GAUSSIAN,OTHER  LANES,W_N,>EQ  10-G,LOW  SPEED,NO  PEDESTRIAN,RL  0,acts-10,N,769,116,119.6195,0.0010809999999999986
MAXMIN|BR|GAUSSIAN,OTHER  LANES,W_N,>EQ  10-G,LOW  SPEED,NO  PEDESTRIAN,RL  0,acts-10,N,769,116,120.6205,7.699999999999374e-05
MAXMIN|BR|GAUSSIAN,OTHER  LANES,W_N,>EQ  10-G,LOW  SPEED,NO  PEDESTRIAN,RL  0,acts-10,N,769,116,121.6215,0.0007989999999999942
MAXMIN|BR|GAUSSIAN,OTHER  LANES,S_E,<10-Y/R,LOW  SPEED,PEDESTRIAN,RL  0,acts-8,Y,769,43,30.697333,0
MAXMIN|BR|GAUSSIAN,OTHER  LANES,S_E,<10-Y/R,LOW  SPEED,PEDESTRIAN,RL  0,acts-8,Y,769,43,31.698333,0.0065429999999999655
MAXMIN|BR|GAUSSIAN,OTHER  LANES,S_E,<10-Y/R,LOW  SPEED,PEDESTRIAN,RL  0,acts-8,Y,769,43,32.699333,0.017531999999999992
MAXMIN|BR|GAUSSIAN,OTHER  LANES,S_E,<10-Y/R,LOW  SPEED,NO  PEDESTRIAN,  RL  <EQ  2,acts-9,N,769,225,226.392833,0
MAXMIN|BR|GAUSSIAN,OTHER  LANES,S_E,<10-Y/R,LOW  SPEED,NO  PEDESTRIAN,  RL  <EQ  2,acts-9,Y,769,225,227.393833,0
MAXMIN|BR|GAUSSIAN,OTHER  LANES,S_E,<10-Y/R,LOW  SPEED,NO  PEDESTRIAN,  RL  >  2,acts-9,Y,769,219,220.553667,0.00013799999999997148
MAXMIN|BR|GAUSSIAN,OTHER  LANES,S_E,<10-Y/R,LOW  SPEED,NO  PEDESTRIAN,  RL  >  2,acts-9,N,769,219,221.554667,0.002927000000000013
MAXMIN|BR|GAUSSIAN,OTHER  LANES,S_E,<10-G,LOW  SPEED,NO  PEDESTRIAN,RL  0,acts-9,N,769,233,267.100167,0.01585099999999995
MAXMIN|BR|GAUSSIAN,OTHER  LANES,S_E,<10-G,LOW  SPEED,NO  PEDESTRIAN,RL  0,acts-9,Y,769,233,268.101167,0
MAXMIN|BR|GAUSSIAN,OTHER  LANES,S_E,<10-G,LOW  SPEED,NO  PEDESTRIAN,RL  0,acts-9,Y,769,233,269.102167,0
MAXMIN|BR|GAUSSIAN,OTHER  LANES,S_E,<10-G,LOW  SPEED,NO  PEDESTRIAN,RL  0,acts-9,N,769,238,272.272,0.018584999999999963
MAXMIN|BR|GAUSSIAN,OTHER  LANES,S_E,<10-G,LOW  SPEED,NO  PEDESTRIAN,  RL  <EQ  2,acts-9,N,769,233,264.097167,0.0014720000000000288
MAXMIN|BR|GAUSSIAN,OTHER  LANES,S_E,>EQ  10-Y/R,LOW  SPEED,PEDESTRIAN,RL  0,acts-8,Y,769,91,81.5815,0
MAXMIN|BR|GAUSSIAN,OTHER  LANES,S_E,>EQ  10-Y/R,LOW  SPEED,PEDESTRIAN,RL  0,acts-8,N,769,91,82.5825,0.013692999999999955
MAXMIN|BR|GAUSSIAN,OTHER  LANES,S_E,>EQ  10-Y/R,LOW  SPEED,PEDESTRIAN,RL  0,acts-8,N,769,91,83.5835,0.02056199999999997
MAXMIN|BR|GAUSSIAN,OTHER  LANES,S_E,>EQ  10-Y/R,LOW  SPEED,PEDESTRIAN,RL  0,acts-8,N,769,96,85.418667,0.011282000000000014
MAXMIN|BR|GAUSSIAN,OTHER  LANES,S_E,>EQ  10-Y/R,LOW  SPEED,PEDESTRIAN,RL  0,acts-8,N,769,96,86.419667,0.021253999999999995
MAXMIN|BR|GAUSSIAN,OTHER  LANES,S_E,>EQ  10-Y/R,LOW  SPEED,PEDESTRIAN,  RL  <EQ  2,acts-8,N,769,115,101.768333,0
MAXMIN|BR|GAUSSIAN,OTHER  LANES,S_E,>EQ  10-Y/R,LOW  SPEED,PEDESTRIAN,  RL  <EQ  2,acts-8,N,769,115,102.769333,0.010849999999999915
MAXMIN|BR|GAUSSIAN,OTHER  LANES,S_E,>EQ  10-Y/R,LOW  SPEED,PEDESTRIAN,  RL  <EQ  2,acts-8,N,769,115,103.770333,0.01759300000000008
MAXMIN|BR|GAUSSIAN,OTHER  LANES,S_E,>EQ  10-G,LOW  SPEED,PEDESTRIAN,RL  0,acts-8,N,769,43,33.700333,0.016534999999999966
MAXMIN|BR|GAUSSIAN,OTHER  LANES,S_E,>EQ  10-G,LOW  SPEED,PEDESTRIAN,RL  0,acts-8,N,769,43,34.701333,0.010275999999999952
MAXMIN|BR|GAUSSIAN,OTHER  LANES,S_E,>EQ  10-G,LOW  SPEED,PEDESTRIAN,RL  0,acts-8,N,769,43,35.702333,0.013994000000000062
MAXMIN|BR|GAUSSIAN,OTHER  LANES,S_E,>EQ  10-G,LOW  SPEED,PEDESTRIAN,RL  0,acts-8,N,769,43,36.703333,0.012441999999999953
MAXMIN|BR|GAUSSIAN,OTHER  LANES,S_E,>EQ  10-G,LOW  SPEED,PEDESTRIAN,RL  0,acts-8,N,769,43,37.704333,0.01589000000000007
MAXMIN|BR|GAUSSIAN,OTHER  LANES,S_E,>EQ  10-G,LOW  SPEED,PEDESTRIAN,RL  0,acts-8,N,769,43,38.705333,0.012195999999999985
MAXMIN|BR|GAUSSIAN,OTHER  LANES,S_E,>EQ  10-G,LOW  SPEED,PEDESTRIAN,RL  0,acts-8,N,769,43,39.706333,0.005188999999999999
MAXMIN|BR|GAUSSIAN,OTHER  LANES,S_E,>EQ  10-G,LOW  SPEED,PEDESTRIAN,RL  0,acts-8,N,769,43,40.707333,0.01037599999999994
MAXMIN|BR|GAUSSIAN,OTHER  LANES,S_E,>EQ  10-G,LOW  SPEED,PEDESTRIAN,RL  0,acts-8,N,769,43,41.708333,0.013869999999999938
MAXMIN|BR|GAUSSIAN,OTHER  LANES,S_E,>EQ  10-G,LOW  SPEED,PEDESTRIAN,  RL  <EQ  2,acts-8,N,769,43,43.710333,0.014027000000000012
MAXMIN|BR|GAUSSIAN,OTHER  LANES,S_E,>EQ  10-G,LOW  SPEED,PEDESTRIAN,  RL  <EQ  2,acts-8,N,769,43,48.715333,0.0024569999999999315
MAXMIN|BR|GAUSSIAN,OTHER  LANES,S_E,>EQ  10-G,LOW  SPEED,PEDESTRIAN,  RL  <EQ  2,acts-8,N,769,43,54.721333,0.001811000000000007
MAXMIN|BR|GAUSSIAN,OTHER  LANES,S_E,>EQ  10-G,LOW  SPEED,PEDESTRIAN,  RL  <EQ  2,acts-8,N,769,43,55.722333,0.004161000000000081
MAXMIN|BR|GAUSSIAN,OTHER  LANES,S_E,>EQ  10-G,LOW  SPEED,PEDESTRIAN,  RL  <EQ  2,acts-8,N,769,43,57.724333,0.0009480000000000599
MAXMIN|BR|GAUSSIAN,OTHER  LANES,S_E,>EQ  10-G,LOW  SPEED,PEDESTRIAN,  RL  <EQ  2,acts-8,N,769,151,142.475667,0
MAXMIN|BR|GAUSSIAN,OTHER  LANES,S_E,>EQ  10-G,LOW  SPEED,PEDESTRIAN,  RL  <EQ  2,acts-8,Y,769,151,144.477667,0.017866999999999966
MAXMIN|BR|GAUSSIAN,OTHER  LANES,S_E,>EQ  10-G,LOW  SPEED,PEDESTRIAN,  RL  >  2,acts-8,N,769,43,44.711333,0.010077000000000003
MAXMIN|BR|GAUSSIAN,OTHER  LANES,S_E,>EQ  10-G,LOW  SPEED,PEDESTRIAN,  RL  >  2,acts-8,N,769,43,45.712333,0.003210000000000046
MAXMIN|BR|GAUSSIAN,OTHER  LANES,S_E,>EQ  10-G,LOW  SPEED,PEDESTRIAN,  RL  >  2,acts-8,N,769,43,46.713333,0.0015659999999999563
MAXMIN|BR|GAUSSIAN,OTHER  LANES,S_E,>EQ  10-G,LOW  SPEED,PEDESTRIAN,  RL  >  2,acts-8,N,769,43,47.714333,0.010514000000000023
MAXMIN|BR|GAUSSIAN,OTHER  LANES,S_E,>EQ  10-G,LOW  SPEED,PEDESTRIAN,  RL  >  2,acts-8,N,769,43,49.716333,0.006257999999999986
MAXMIN|BR|GAUSSIAN,OTHER  LANES,S_E,>EQ  10-G,LOW  SPEED,PEDESTRIAN,  RL  >  2,acts-8,N,769,43,50.717333,0.002362999999999893
MAXMIN|BR|GAUSSIAN,OTHER  LANES,S_E,>EQ  10-G,LOW  SPEED,PEDESTRIAN,  RL  >  2,acts-8,N,769,43,51.718333,0.006531999999999982
MAXMIN|BR|GAUSSIAN,OTHER  LANES,S_E,>EQ  10-G,LOW  SPEED,PEDESTRIAN,  RL  >  2,acts-8,N,769,43,52.719333,0.0025009999999999755
MAXMIN|BR|GAUSSIAN,OTHER  LANES,S_E,>EQ  10-G,LOW  SPEED,PEDESTRIAN,  RL  >  2,acts-8,N,769,43,53.720333,0.0009529999999999816
MAXMIN|BR|GAUSSIAN,OTHER  LANES,S_E,>EQ  10-G,LOW  SPEED,PEDESTRIAN,  RL  >  2,acts-8,N,769,43,56.723333,0.0023919999999999497
MAXMIN|BR|GAUSSIAN,OTHER  LANES,S_E,>EQ  10-G,LOW  SPEED,PEDESTRIAN,  RL  >  2,acts-8,Y,769,151,143.476667,0.009195999999999982
MAXMIN|BR|GAUSSIAN,OTHER  LANES,S_E,>EQ  10-G,LOW  SPEED,NO  PEDESTRIAN,  RL  <EQ  2,acts-9,Y,769,158,154.154,0.00803799999999999
MAXMIN|BR|GAUSSIAN,OTHER  LANES,S_E,>EQ  10-G,LOW  SPEED,NO  PEDESTRIAN,  RL  <EQ  2,acts-9,Y,769,158,155.155,0.014468000000000036
MAXMIN|BR|GAUSSIAN,OTHER  LANES,S_E,>EQ  10-G,LOW  SPEED,NO  PEDESTRIAN,  RL  <EQ  2,acts-9,Y,769,175,177.6775,0.00759999999999994
MAXMIN|BR|GAUSSIAN,OTHER  LANES,S_E,>EQ  10-G,LOW  SPEED,NO  PEDESTRIAN,  RL  <EQ  2,acts-9,Y,769,175,178.6785,0.007682000000000078
MAXMIN|BR|GAUSSIAN,OTHER  LANES,S_E,>EQ  10-G,LOW  SPEED,NO  PEDESTRIAN,  RL  <EQ  2,acts-9,N,769,233,253.086167,0
MAXMIN|BR|GAUSSIAN,OTHER  LANES,S_E,>EQ  10-G,LOW  SPEED,NO  PEDESTRIAN,  RL  <EQ  2,acts-9,N,769,233,255.088167,0.002266999999999908
MAXMIN|BR|GAUSSIAN,OTHER  LANES,S_E,>EQ  10-G,LOW  SPEED,NO  PEDESTRIAN,  RL  <EQ  2,acts-9,N,769,233,256.089167,0.007189999999999919
MAXMIN|BR|GAUSSIAN,OTHER  LANES,S_E,>EQ  10-G,LOW  SPEED,NO  PEDESTRIAN,  RL  <EQ  2,acts-9,N,769,233,257.090167,0.005371999999999932
MAXMIN|BR|GAUSSIAN,OTHER  LANES,S_E,>EQ  10-G,LOW  SPEED,NO  PEDESTRIAN,  RL  >  2,acts-9,N,769,233,241.074167,0.0009280000000000399
MAXMIN|BR|GAUSSIAN,OTHER  LANES,S_E,>EQ  10-G,LOW  SPEED,NO  PEDESTRIAN,  RL  >  2,acts-9,Y,769,233,242.075167,0.005124000000000017
MAXMIN|BR|GAUSSIAN,OTHER  LANES,S_E,>EQ  10-G,LOW  SPEED,NO  PEDESTRIAN,  RL  >  2,acts-9,Y,769,233,243.076167,0.007600000000000051
MAXMIN|BR|GAUSSIAN,OTHER  LANES,S_E,>EQ  10-G,LOW  SPEED,NO  PEDESTRIAN,  RL  >  2,acts-9,N,769,233,244.077167,0.00562600000000002
MAXMIN|BR|GAUSSIAN,OTHER  LANES,S_E,>EQ  10-G,LOW  SPEED,NO  PEDESTRIAN,  RL  >  2,acts-9,N,769,233,245.078167,0.0043640000000000345
MAXMIN|BR|GAUSSIAN,OTHER  LANES,E_S,<10-G,LOW  SPEED,PEDESTRIAN,RL  0,acts-10,N,769,9,23.023,0
MAXMIN|BR|GAUSSIAN,OTHER  LANES,E_S,<10-G,LOW  SPEED,PEDESTRIAN,RL  0,acts-10,N,769,9,24.024,0.0009259999999999824
MAXMIN|BR|GAUSSIAN,OTHER  LANES,E_S,<10-G,LOW  SPEED,PEDESTRIAN,RL  0,acts-10,N,769,9,25.025,0.00035200000000001896
MAXMIN|BR|GAUSSIAN,OTHER  LANES,E_S,<10-G,LOW  SPEED,PEDESTRIAN,RL  0,acts-10,N,769,9,26.026,0.0004049999999999887
MAXMIN|BR|GAUSSIAN,OTHER  LANES,E_S,<10-G,LOW  SPEED,PEDESTRIAN,RL  0,acts-10,N,769,9,27.027,0.00046999999999997044
MAXMIN|BR|GAUSSIAN,OTHER  LANES,E_S,<10-G,LOW  SPEED,PEDESTRIAN,RL  0,acts-10,N,769,9,28.028,0
MAXMIN|BR|GAUSSIAN,OTHER  LANES,E_S,<10-G,LOW  SPEED,PEDESTRIAN,RL  0,acts-10,N,769,9,29.029,0.000492000000000048
MAXMIN|BR|GAUSSIAN,OTHER  LANES,E_S,<10-G,LOW  SPEED,PEDESTRIAN,RL  0,acts-10,N,769,9,30.03,9.999999999177334e-07
MAXMIN|BR|GAUSSIAN,OTHER  LANES,E_S,<10-G,LOW  SPEED,PEDESTRIAN,RL  0,acts-10,N,769,9,31.031,0
MAXMIN|BR|GAUSSIAN,OTHER  LANES,E_S,<10-G,LOW  SPEED,PEDESTRIAN,RL  0,acts-10,N,769,9,32.032,0.0005169999999999897
MAXMIN|BR|GAUSSIAN,OTHER  LANES,E_S,<10-G,LOW  SPEED,PEDESTRIAN,RL  0,acts-10,N,769,132,132.465667,0.00013900000000000023
MAXMIN|BR|GAUSSIAN,OTHER  LANES,E_S,<10-G,LOW  SPEED,PEDESTRIAN,RL  0,acts-10,N,769,132,133.466667,0.0004669999999999952
MAXMIN|BR|GAUSSIAN,OTHER  LANES,E_S,<10-G,LOW  SPEED,PEDESTRIAN,RL  0,acts-10,N,769,132,134.467667,0.0011010000000000186
MAXMIN|BR|GAUSSIAN,OTHER  LANES,E_S,<10-G,LOW  SPEED,PEDESTRIAN,RL  0,acts-10,N,769,132,135.468667,6.500000000009276e-05
MAXMIN|BR|GAUSSIAN,OTHER  LANES,E_S,<10-G,LOW  SPEED,PEDESTRIAN,RL  0,acts-10,N,769,132,136.469667,0.0003729999999999567
MAXMIN|BR|GAUSSIAN,OTHER  LANES,E_S,<10-G,LOW  SPEED,PEDESTRIAN,RL  0,acts-10,N,769,132,137.470667,0.0006089999999999707
MAXMIN|BR|GAUSSIAN,OTHER  LANES,E_S,<10-G,LOW  SPEED,PEDESTRIAN,RL  0,acts-10,N,769,132,138.471667,0
MAXMIN|BR|GAUSSIAN,OTHER  LANES,E_S,<10-G,LOW  SPEED,PEDESTRIAN,RL  0,acts-10,N,769,132,139.472667,0
MAXMIN|BR|GAUSSIAN,OTHER  LANES,E_S,<10-G,LOW  SPEED,PEDESTRIAN,RL  0,acts-10,N,769,132,140.473667,9.00000000000345e-05
MAXMIN|BR|GAUSSIAN,OTHER  LANES,E_S,>EQ  10-Y/R,LOW  SPEED,PEDESTRIAN,RL  0,acts-3,Y,769,9,33.033,0
MAXMIN|BR|GAUSSIAN,OTHER  LANES,E_S,>EQ  10-Y/R,LOW  SPEED,PEDESTRIAN,RL  0,acts-3,Y,769,9,34.034,0.0019639999999999658
MAXMIN|BR|GAUSSIAN,OTHER  LANES,E_S,>EQ  10-Y/R,LOW  SPEED,PEDESTRIAN,RL  0,acts-3,Y,769,9,35.035,0.0043840000000000545
MAXMIN|BR|GAUSSIAN,OTHER  LANES,E_S,>EQ  10-Y/R,LOW  SPEED,PEDESTRIAN,RL  0,acts-3,N,769,41,37.370667,0
MAXMIN|BR|GAUSSIAN,OTHER  LANES,E_S,>EQ  10-Y/R,LOW  SPEED,PEDESTRIAN,  RL  <EQ  2,acts-3,Y,769,132,141.474667,0
MAXMIN|BR|GAUSSIAN,OTHER  LANES,E_S,>EQ  10-Y/R,LOW  SPEED,PEDESTRIAN,  RL  <EQ  2,acts-3,Y,769,132,142.475667,0
MAXMIN|BR|GAUSSIAN,OTHER  LANES,E_S,>EQ  10-Y/R,LOW  SPEED,PEDESTRIAN,  RL  >  2,acts-11,Y,769,68,55.221833,0.045713000000000004
MAXMIN|BR|GAUSSIAN,OTHER  LANES,E_S,>EQ  10-Y/R,MEDIUM  SPEED,PEDESTRIAN,  RL  >  2,acts-3,Y,769,55,45.211833,0
MAXMIN|BR|GAUSSIAN,OTHER  LANES,E_S,>EQ  10-G,LOW  SPEED,PEDESTRIAN,RL  0,acts-10,N,769,9,0,0.00014900000000006575
MAXMIN|BR|GAUSSIAN,OTHER  LANES,E_S,>EQ  10-G,LOW  SPEED,PEDESTRIAN,RL  0,acts-10,N,769,9,1.001,0.00024299999999999322
MAXMIN|BR|GAUSSIAN,OTHER  LANES,E_S,>EQ  10-G,LOW  SPEED,PEDESTRIAN,RL  0,acts-10,N,769,9,10.01,0.00019700000000000273
MAXMIN|BR|GAUSSIAN,OTHER  LANES,E_S,>EQ  10-G,LOW  SPEED,PEDESTRIAN,RL  0,acts-10,N,769,9,11.011,0.0008129999999999526
MAXMIN|BR|GAUSSIAN,OTHER  LANES,E_S,>EQ  10-G,LOW  SPEED,PEDESTRIAN,RL  0,acts-10,N,769,9,12.012,6.299999999992423e-05
MAXMIN|BR|GAUSSIAN,OTHER  LANES,E_S,>EQ  10-G,LOW  SPEED,PEDESTRIAN,RL  0,acts-10,N,769,9,13.013,0.0006850000000000467
MAXMIN|BR|GAUSSIAN,OTHER  LANES,E_S,>EQ  10-G,LOW  SPEED,PEDESTRIAN,RL  0,acts-10,N,769,9,14.014,0.0004669999999999952
MAXMIN|BR|GAUSSIAN,OTHER  LANES,E_S,>EQ  10-G,LOW  SPEED,PEDESTRIAN,RL  0,acts-10,N,769,9,15.015,0
MAXMIN|BR|GAUSSIAN,OTHER  LANES,E_S,>EQ  10-G,LOW  SPEED,PEDESTRIAN,RL  0,acts-10,N,769,9,16.016,0.0008439999999999559
MAXMIN|BR|GAUSSIAN,OTHER  LANES,E_S,>EQ  10-G,LOW  SPEED,PEDESTRIAN,RL  0,acts-10,N,769,9,17.017,0.0006920000000000259
MAXMIN|BR|GAUSSIAN,OTHER  LANES,E_S,>EQ  10-G,LOW  SPEED,PEDESTRIAN,RL  0,acts-10,N,769,9,18.018,0
MAXMIN|BR|GAUSSIAN,OTHER  LANES,E_S,>EQ  10-G,LOW  SPEED,PEDESTRIAN,RL  0,acts-10,N,769,9,19.019,0.00044399999999999995
MAXMIN|BR|GAUSSIAN,OTHER  LANES,E_S,>EQ  10-G,LOW  SPEED,PEDESTRIAN,RL  0,acts-10,N,769,9,2.002,0.00015599999999993397
MAXMIN|BR|GAUSSIAN,OTHER  LANES,E_S,>EQ  10-G,LOW  SPEED,PEDESTRIAN,RL  0,acts-10,N,769,9,20.02,0.00027300000000007874
MAXMIN|BR|GAUSSIAN,OTHER  LANES,E_S,>EQ  10-G,LOW  SPEED,PEDESTRIAN,RL  0,acts-10,N,769,9,21.021,0.0005889999999999507
MAXMIN|BR|GAUSSIAN,OTHER  LANES,E_S,>EQ  10-G,LOW  SPEED,PEDESTRIAN,RL  0,acts-10,N,769,9,22.022,0.00023200000000000998
MAXMIN|BR|GAUSSIAN,OTHER  LANES,E_S,>EQ  10-G,LOW  SPEED,PEDESTRIAN,RL  0,acts-10,N,769,9,3.003,0.0010139999999999594
MAXMIN|BR|GAUSSIAN,OTHER  LANES,E_S,>EQ  10-G,LOW  SPEED,PEDESTRIAN,RL  0,acts-10,N,769,9,4.004,0
MAXMIN|BR|GAUSSIAN,OTHER  LANES,E_S,>EQ  10-G,LOW  SPEED,PEDESTRIAN,RL  0,acts-10,N,769,9,5.005,0.0007339999999999014
MAXMIN|BR|GAUSSIAN,OTHER  LANES,E_S,>EQ  10-G,LOW  SPEED,PEDESTRIAN,RL  0,acts-10,N,769,9,6.006,2.599999999997049e-05
MAXMIN|BR|GAUSSIAN,OTHER  LANES,E_S,>EQ  10-G,LOW  SPEED,PEDESTRIAN,RL  0,acts-10,N,769,9,7.007,0
MAXMIN|BR|GAUSSIAN,OTHER  LANES,E_S,>EQ  10-G,LOW  SPEED,PEDESTRIAN,RL  0,acts-10,N,769,9,8.008,0
MAXMIN|BR|GAUSSIAN,OTHER  LANES,E_S,>EQ  10-G,LOW  SPEED,PEDESTRIAN,RL  0,acts-10,N,769,9,9.009,0.00028100000000008674
MAXMIN|BR|GAUSSIAN,OTHER  LANES,E_S,>EQ  10-G,LOW  SPEED,PEDESTRIAN,RL  0,acts-10,Y,769,132,121.454667,0
MAXMIN|BR|GAUSSIAN,OTHER  LANES,E_S,>EQ  10-G,LOW  SPEED,PEDESTRIAN,RL  0,acts-10,Y,769,132,122.455667,0.0021330000000000515
MAXMIN|BR|GAUSSIAN,OTHER  LANES,E_S,>EQ  10-G,LOW  SPEED,PEDESTRIAN,RL  0,acts-10,Y,769,132,123.456667,0.00018099999999998673
MAXMIN|BR|GAUSSIAN,OTHER  LANES,E_S,>EQ  10-G,LOW  SPEED,PEDESTRIAN,RL  0,acts-10,Y,769,132,124.457667,0
MAXMIN|BR|GAUSSIAN,OTHER  LANES,E_S,>EQ  10-G,LOW  SPEED,PEDESTRIAN,RL  0,acts-10,N,769,132,125.458667,0
MAXMIN|BR|GAUSSIAN,OTHER  LANES,E_S,>EQ  10-G,LOW  SPEED,PEDESTRIAN,RL  0,acts-10,N,769,132,126.459667,0.00018600000000001948
MAXMIN|BR|GAUSSIAN,OTHER  LANES,E_S,>EQ  10-G,LOW  SPEED,PEDESTRIAN,RL  0,acts-10,N,769,132,127.460667,0.0006599999999999939
MAXMIN|BR|GAUSSIAN,OTHER  LANES,E_S,>EQ  10-G,LOW  SPEED,PEDESTRIAN,RL  0,acts-10,N,769,132,128.461667,0.00031799999999992945
MAXMIN|BR|GAUSSIAN,OTHER  LANES,E_S,>EQ  10-G,LOW  SPEED,PEDESTRIAN,RL  0,acts-10,N,769,132,129.462667,0.0003009999999999957
MAXMIN|BR|GAUSSIAN,OTHER  LANES,E_S,>EQ  10-G,LOW  SPEED,PEDESTRIAN,RL  0,acts-10,N,769,132,130.463667,0.0007260000000000044
MAXMIN|BR|GAUSSIAN,OTHER  LANES,E_S,>EQ  10-G,LOW  SPEED,PEDESTRIAN,RL  0,acts-10,N,769,132,131.464667,0.0006490000000000107
MAXMIN|BR|GAUSSIAN,OTHER  LANES,E_S,>EQ  10-G,MEDIUM  SPEED,PEDESTRIAN,RL  0,acts-10,N,769,132,119.452667,0.004705999999999988
MAXMIN|BR|GAUSSIAN,OTHER  LANES,E_S,>EQ  10-G,MEDIUM  SPEED,PEDESTRIAN,RL  0,acts-10,Y,769,132,120.453667,0.0007909999999999862
MAXMIN|BR|GAUSSIAN,prep-right-turn,W_S,<10-Y/R,LOW  SPEED,PEDESTRIAN,RL  0,acts-8,N,769,165,164.6645,0.02487499999999998
MAXMIN|BR|GAUSSIAN,prep-right-turn,W_S,<10-G,LOW  SPEED,PEDESTRIAN,RL  0,acts-8,Y,769,134,125.291833,0.002674000000000065
MAXMIN|BR|GAUSSIAN,prep-right-turn,W_S,<10-G,LOW  SPEED,PEDESTRIAN,RL  0,acts-8,Y,769,134,126.292833,0
MAXMIN|BR|GAUSSIAN,prep-right-turn,W_S,<10-G,LOW  SPEED,NO  PEDESTRIAN,RL  0,acts-3,N,769,221,230.563667,0.035646999999999984
MAXMIN|BR|GAUSSIAN,prep-right-turn,W_S,<10-G,LOW  SPEED,NO  PEDESTRIAN,RL  0,acts-3,N,769,221,231.564667,0.030055000000000054
MAXMIN|BR|GAUSSIAN,prep-right-turn,W_S,>EQ  10-Y/R,LOW  SPEED,PEDESTRIAN,  RL  <EQ  2,acts-12,Y,769,51,48.5485,0.00019899999999994922
MAXMIN|BR|GAUSSIAN,prep-right-turn,W_S,>EQ  10-Y/R,LOW  SPEED,PEDESTRIAN,  RL  <EQ  2,acts-8,Y,769,64,60.727333,0
MAXMIN|BR|GAUSSIAN,prep-right-turn,W_S,>EQ  10-Y/R,LOW  SPEED,NO  PEDESTRIAN,  RL  <EQ  2,acts-4,Y,769,224,236.402833,0.0004469999999999752
MAXMIN|BR|GAUSSIAN,prep-right-turn,W_S,>EQ  10-G,LOW  SPEED,PEDESTRIAN,  RL  <EQ  2,acts-8,Y,769,2,18.018,0.01731400000000005
MAXMIN|BR|GAUSSIAN,prep-right-turn,W_S,>EQ  10-G,LOW  SPEED,PEDESTRIAN,  RL  <EQ  2,acts-8,Y,769,2,19.019,0.0007629999999999582
MAXMIN|BR|GAUSSIAN,prep-right-turn,W_S,>EQ  10-G,LOW  SPEED,PEDESTRIAN,  RL  <EQ  2,acts-8,Y,769,8,1.001,0.011585000000000067
MAXMIN|BR|GAUSSIAN,prep-right-turn,W_S,>EQ  10-G,LOW  SPEED,PEDESTRIAN,  RL  <EQ  2,acts-8,N,769,8,3.003,0.03281500000000004
MAXMIN|BR|GAUSSIAN,prep-right-turn,W_S,>EQ  10-G,LOW  SPEED,PEDESTRIAN,  RL  <EQ  2,acts-8,Y,769,8,7.007,0
MAXMIN|BR|GAUSSIAN,prep-right-turn,W_S,>EQ  10-G,LOW  SPEED,PEDESTRIAN,  RL  <EQ  2,acts-8,Y,769,202,215.882333,0.033121999999999985
MAXMIN|BR|GAUSSIAN,prep-right-turn,W_S,>EQ  10-G,LOW  SPEED,PEDESTRIAN,  RL  >  2,acts-8,N,769,8,0,0.010786999999999991
MAXMIN|BR|GAUSSIAN,prep-right-turn,S_E,<10-Y/R,LOW  SPEED,NO  PEDESTRIAN,  RL  <EQ  2,acts-3,Y,769,225,228.394833,0.006622000000000017
MAXMIN|BR|GAUSSIAN,prep-right-turn,S_E,<10-Y/R,LOW  SPEED,NO  PEDESTRIAN,  RL  >  2,acts-3,N,769,219,222.555667,0.026282000000000028
MAXMIN|BR|GAUSSIAN,prep-right-turn,S_E,<10-Y/R,LOW  SPEED,NO  PEDESTRIAN,  RL  >  2,acts-3,N,769,219,223.556667,0.0006279999999999619
MAXMIN|BR|GAUSSIAN,prep-right-turn,S_E,<10-G,LOW  SPEED,NO  PEDESTRIAN,RL  0,acts-3,Y,769,233,270.103167,0.0003029999999999422
MAXMIN|BR|GAUSSIAN,prep-right-turn,S_E,<10-G,LOW  SPEED,NO  PEDESTRIAN,RL  0,acts-3,Y,769,233,271.104167,0.003005999999999953
MAXMIN|BR|GAUSSIAN,prep-right-turn,S_E,<10-G,LOW  SPEED,NO  PEDESTRIAN,  RL  <EQ  2,acts-3,N,769,175,181.6815,0.019697999999999993
MAXMIN|BR|GAUSSIAN,prep-right-turn,S_E,<10-G,LOW  SPEED,NO  PEDESTRIAN,  RL  <EQ  2,acts-3,N,769,175,182.6825,0.021492999999999984
MAXMIN|BR|GAUSSIAN,prep-right-turn,S_E,<10-G,LOW  SPEED,NO  PEDESTRIAN,  RL  <EQ  2,acts-3,N,769,175,187.6875,0.0019639999999999658
MAXMIN|BR|GAUSSIAN,prep-right-turn,S_E,<10-G,LOW  SPEED,NO  PEDESTRIAN,  RL  >  2,acts-3,N,769,175,186.6865,0.01032999999999995
MAXMIN|BR|GAUSSIAN,prep-right-turn,S_E,<10-G,LOW  SPEED,NO  PEDESTRIAN,  RL  >  2,acts-3,N,769,175,188.6885,0.0012099999999999334
MAXMIN|BR|GAUSSIAN,prep-right-turn,S_E,>EQ  10-Y/R,LOW  SPEED,PEDESTRIAN,RL  0,acts-8,N,769,91,84.5845,0.004177999999999904
MAXMIN|BR|GAUSSIAN,prep-right-turn,S_E,>EQ  10-Y/R,LOW  SPEED,PEDESTRIAN,  RL  <EQ  2,acts-8,N,769,115,104.771333,0.02258899999999997
MAXMIN|BR|GAUSSIAN,prep-right-turn,S_E,>EQ  10-Y/R,LOW  SPEED,PEDESTRIAN,  RL  <EQ  2,acts-8,Y,769,115,105.772333,0
MAXMIN|BR|GAUSSIAN,prep-right-turn,S_E,>EQ  10-Y/R,LOW  SPEED,NO  PEDESTRIAN,RL  0,acts-3,N,769,175,189.6895,0.022287000000000057
MAXMIN|BR|GAUSSIAN,prep-right-turn,S_E,>EQ  10-Y/R,LOW  SPEED,NO  PEDESTRIAN,RL  0,acts-3,N,769,175,190.6905,0
MAXMIN|BR|GAUSSIAN,prep-right-turn,S_E,>EQ  10-Y/R,LOW  SPEED,NO  PEDESTRIAN,RL  0,acts-3,Y,769,175,191.6915,0.00506899999999999
MAXMIN|BR|GAUSSIAN,prep-right-turn,S_E,>EQ  10-Y/R,LOW  SPEED,NO  PEDESTRIAN,RL  0,acts-3,Y,769,175,192.6925,0
MAXMIN|BR|GAUSSIAN,prep-right-turn,S_E,>EQ  10-Y/R,LOW  SPEED,NO  PEDESTRIAN,RL  0,acts-3,Y,769,175,193.6935,0.0024239999999999817
MAXMIN|BR|GAUSSIAN,prep-right-turn,S_E,>EQ  10-G,LOW  SPEED,PEDESTRIAN,  RL  <EQ  2,acts-8,Y,769,151,146.479667,0
MAXMIN|BR|GAUSSIAN,prep-right-turn,S_E,>EQ  10-G,LOW  SPEED,PEDESTRIAN,  RL  >  2,acts-8,Y,769,151,145.478667,0.0023479999999999057
MAXMIN|BR|GAUSSIAN,prep-right-turn,S_E,>EQ  10-G,LOW  SPEED,NO  PEDESTRIAN,RL  0,acts-3,Y,769,43,60.727333,0.0017239999999999478
MAXMIN|BR|GAUSSIAN,prep-right-turn,S_E,>EQ  10-G,LOW  SPEED,NO  PEDESTRIAN,RL  0,acts-3,Y,769,43,61.728333,0.007659000000000082
MAXMIN|BR|GAUSSIAN,exec-right-turn,W_S,<10-Y/R,LOW  SPEED,PEDESTRIAN,RL  0,acts-3,N,769,165,165.6655,0.0009400000000000519
MAXMIN|BR|GAUSSIAN,exec-right-turn,W_S,<10-Y/R,LOW  SPEED,PEDESTRIAN,RL  0,acts-3,Y,769,165,166.6665,0.0019200000000000328
MAXMIN|BR|GAUSSIAN,exec-right-turn,W_S,<10-Y/R,LOW  SPEED,PEDESTRIAN,RL  0,acts-3,Y,769,165,167.6675,0
MAXMIN|BR|GAUSSIAN,exec-right-turn,W_S,<10-Y/R,LOW  SPEED,PEDESTRIAN,RL  0,acts-3,Y,769,252,266.599667,1.0000000000287557e-06
MAXMIN|BR|GAUSSIAN,exec-right-turn,W_S,<10-G,LOW  SPEED,PEDESTRIAN,RL  0,acts-3,Y,769,134,127.293833,0
MAXMIN|BR|GAUSSIAN,exec-right-turn,W_S,<10-G,MEDIUM  SPEED,PEDESTRIAN,RL  0,acts-3,Y,769,202,222.889333,1.399999999995849e-05
MAXMIN|BR|GAUSSIAN,exec-right-turn,W_S,>EQ  10-Y/R,LOW  SPEED,PEDESTRIAN,RL  0,acts-3,N,769,44,48.882167,0
MAXMIN|BR|GAUSSIAN,exec-right-turn,W_S,>EQ  10-Y/R,LOW  SPEED,PEDESTRIAN,RL  0,acts-3,Y,769,64,62.729333,0.0014240000000000919
MAXMIN|BR|GAUSSIAN,exec-right-turn,W_S,>EQ  10-Y/R,LOW  SPEED,PEDESTRIAN,RL  0,acts-3,N,769,246,255.7555,0.002159000000000022
MAXMIN|BR|GAUSSIAN,exec-right-turn,W_S,>EQ  10-Y/R,LOW  SPEED,PEDESTRIAN,  RL  <EQ  2,acts-3,Y,769,64,61.728333,0.0030080000000000107
MAXMIN|BR|GAUSSIAN,exec-right-turn,W_S,>EQ  10-Y/R,MEDIUM  SPEED,PEDESTRIAN,RL  0,acts-3,N,769,51,50.5505,0.00042599999999992644
MAXMIN|BR|GAUSSIAN,exec-right-turn,W_S,>EQ  10-Y/R,MEDIUM  SPEED,PEDESTRIAN,RL  0,acts-3,N,769,56,52.886167,0
MAXMIN|BR|GAUSSIAN,exec-right-turn,W_S,>EQ  10-G,LOW  SPEED,PEDESTRIAN,RL  0,acts-3,N,769,2,21.021,0
MAXMIN|BR|GAUSSIAN,exec-right-turn,W_S,>EQ  10-G,LOW  SPEED,PEDESTRIAN,RL  0,acts-3,Y,769,8,10.01,2.9999999999752447e-06
MAXMIN|BR|GAUSSIAN,exec-right-turn,W_S,>EQ  10-G,LOW  SPEED,PEDESTRIAN,RL  0,acts-3,Y,769,122,116.282833,0.0020639999999999548
MAXMIN|BR|GAUSSIAN,exec-right-turn,W_S,>EQ  10-G,LOW  SPEED,PEDESTRIAN,RL  0,acts-3,Y,769,122,117.283833,0
MAXMIN|BR|GAUSSIAN,exec-right-turn,S_E,<10-Y/R,LOW  SPEED,NO  PEDESTRIAN,RL  0,acts-3,Y,769,219,225.558667,0.0014760000000000328
MAXMIN|BR|GAUSSIAN,exec-right-turn,S_E,<10-Y/R,LOW  SPEED,NO  PEDESTRIAN,RL  0,acts-3,N,769,225,231.397833,0.006839999999999957
MAXMIN|BR|GAUSSIAN,exec-right-turn,S_E,<10-Y/R,LOW  SPEED,NO  PEDESTRIAN,RL  0,acts-3,Y,769,225,232.398833,0.0026400000000000867
MAXMIN|BR|GAUSSIAN,exec-right-turn,S_E,<10-Y/R,LOW  SPEED,NO  PEDESTRIAN,  RL  <EQ  2,acts-3,Y,769,219,224.557667,0.006052999999999975
MAXMIN|BR|GAUSSIAN,exec-right-turn,S_E,<10-G,LOW  SPEED,NO  PEDESTRIAN,RL  0,acts-3,Y,769,233,272.105167,0
MAXMIN|BR|GAUSSIAN,exec-right-turn,S_E,<10-G,LOW  SPEED,NO  PEDESTRIAN,RL  0,acts-3,Y,769,233,273.106167,0
MAXMIN|BR|GAUSSIAN,exec-right-turn,S_E,>EQ  10-Y/R,LOW  SPEED,PEDESTRIAN,RL  0,acts-3,Y,769,91,85.5855,0
MAXMIN|BR|GAUSSIAN,exec-right-turn,S_E,>EQ  10-Y/R,LOW  SPEED,PEDESTRIAN,RL  0,acts-3,Y,769,91,86.5865,0.0029519999999999547
MAXMIN|BR|GAUSSIAN,exec-right-turn,S_E,>EQ  10-Y/R,LOW  SPEED,PEDESTRIAN,RL  0,acts-3,Y,769,106,95.929167,0.0011050000000000226
MAXMIN|BR|GAUSSIAN,exec-right-turn,S_E,>EQ  10-Y/R,LOW  SPEED,PEDESTRIAN,RL  0,acts-3,Y,769,109,103.937167,0.0009529999999999816
MAXMIN|BR|GAUSSIAN,exec-right-turn,S_E,>EQ  10-Y/R,LOW  SPEED,PEDESTRIAN,RL  0,acts-3,Y,769,115,108.775333,0
MAXMIN|BR|GAUSSIAN,exec-right-turn,S_E,>EQ  10-Y/R,LOW  SPEED,PEDESTRIAN,  RL  <EQ  2,acts-3,Y,769,115,107.774333,0
MAXMIN|BR|GAUSSIAN,exec-right-turn,S_E,>EQ  10-Y/R,LOW  SPEED,NO  PEDESTRIAN,RL  0,acts-3,Y,769,175,194.6945,0
MAXMIN|BR|GAUSSIAN,exec-right-turn,S_E,>EQ  10-Y/R,LOW  SPEED,NO  PEDESTRIAN,RL  0,acts-3,Y,769,175,195.6955,0.0044480000000000075
MAXMIN|BR|GAUSSIAN,exec-right-turn,S_E,>EQ  10-G,LOW  SPEED,PEDESTRIAN,  RL  <EQ  2,acts-3,Y,769,151,147.480667,0.0021399999999999197
MAXMIN|BR|GAUSSIAN,exec-right-turn,S_E,>EQ  10-G,LOW  SPEED,PEDESTRIAN,  RL  <EQ  2,acts-3,Y,769,151,148.481667,0.0028560000000000807
MAXMIN|BR|GAUSSIAN,exec-right-turn,S_E,>EQ  10-G,LOW  SPEED,NO  PEDESTRIAN,RL  0,acts-3,Y,769,43,62.729333,0
MAXMIN|BR|GAUSSIAN,exec-right-turn,S_E,>EQ  10-G,LOW  SPEED,NO  PEDESTRIAN,RL  0,acts-3,Y,769,43,63.730333,0
MAXMIN|BR|GAUSSIAN,exec-right-turn,S_E,>EQ  10-G,LOW  SPEED,NO  PEDESTRIAN,RL  0,acts-3,Y,769,158,160.16,0.007360999999999951
MAXMIN|BR|GAUSSIAN,exec-right-turn,S_E,>EQ  10-G,LOW  SPEED,NO  PEDESTRIAN,RL  0,acts-3,Y,769,158,161.161,0.000136000000000025
