EQ_TYPE,SEGMENT,TASK,NEXT_CHANGE,SPEED,PEDESTRIAN,RELEV_VEHICLE,ACTIONS,AGGRESSIVE,FILE_ID,TRACK_ID,TIME,ON_EQ
MAXMIN|MAXMIN|BOUNDARY,prep-left-turn,S_W,>EQ  10-Y/R,LOW  SPEED,PEDESTRIAN,RL  0,acts-1,Y,769,140,180.346833,0
MAXMIN|MAXMIN|BOUNDARY,prep-left-turn,S_W,>EQ  10-Y/R,LOW  SPEED,PEDESTRIAN,RL  0,acts-1,Y,769,140,181.347833,0.004610999999999921
MAXMIN|MAXMIN|BOUNDARY,prep-left-turn,S_W,>EQ  10-Y/R,LOW  SPEED,PEDESTRIAN,  RL  <EQ  2,acts-1,N,769,58,88.421667,0.015118999999999994
MAXMIN|MAXMIN|BOUNDARY,prep-left-turn,S_W,>EQ  10-Y/R,LOW  SPEED,PEDESTRIAN,  RL  <EQ  2,acts-1,N,769,58,88.421667,0.015118999999999994
MAXMIN|MAXMIN|BOUNDARY,prep-left-turn,S_W,>EQ  10-Y/R,LOW  SPEED,PEDESTRIAN,  RL  <EQ  2,acts-1,N,769,58,89.422667,0.007574999999999998
MAXMIN|MAXMIN|BOUNDARY,prep-left-turn,S_W,>EQ  10-Y/R,LOW  SPEED,PEDESTRIAN,  RL  <EQ  2,acts-1,N,769,58,89.422667,0.007574999999999998
MAXMIN|MAXMIN|BOUNDARY,prep-left-turn,S_W,>EQ  10-Y/R,LOW  SPEED,PEDESTRIAN,  RL  <EQ  2,acts-1,N,769,58,92.425667,0.011948999999999987
MAXMIN|MAXMIN|BOUNDARY,prep-left-turn,S_W,>EQ  10-Y/R,LOW  SPEED,PEDESTRIAN,  RL  <EQ  2,acts-1,N,769,58,92.425667,0.011948999999999987
MAXMIN|MAXMIN|BOUNDARY,prep-left-turn,S_W,>EQ  10-Y/R,LOW  SPEED,PEDESTRIAN,  RL  <EQ  2,acts-2,N,769,88,93.426667,0.0
MAXMIN|MAXMIN|BOUNDARY,prep-left-turn,S_W,>EQ  10-Y/R,LOW  SPEED,PEDESTRIAN,  RL  <EQ  2,acts-2,N,769,88,93.426667,0.0
MAXMIN|MAXMIN|BOUNDARY,prep-left-turn,S_W,>EQ  10-Y/R,LOW  SPEED,PEDESTRIAN,  RL  >  2,acts-1,N,769,58,85.418667,0.015237
MAXMIN|MAXMIN|BOUNDARY,prep-left-turn,S_W,>EQ  10-Y/R,LOW  SPEED,PEDESTRIAN,  RL  >  2,acts-1,N,769,58,86.419667,0.004680999999999991
MAXMIN|MAXMIN|BOUNDARY,prep-left-turn,S_W,>EQ  10-Y/R,LOW  SPEED,PEDESTRIAN,  RL  >  2,acts-1,N,769,58,86.419667,0.004680999999999991
MAXMIN|MAXMIN|BOUNDARY,prep-left-turn,S_W,>EQ  10-Y/R,LOW  SPEED,PEDESTRIAN,  RL  >  2,acts-1,N,769,58,87.420667,0.17265200000000003
MAXMIN|MAXMIN|BOUNDARY,prep-left-turn,S_W,>EQ  10-Y/R,LOW  SPEED,PEDESTRIAN,  RL  >  2,acts-1,N,769,58,87.420667,0.165315
MAXMIN|MAXMIN|BOUNDARY,prep-left-turn,S_W,>EQ  10-Y/R,LOW  SPEED,PEDESTRIAN,  RL  >  2,acts-2,N,769,88,92.425667,0.0
MAXMIN|MAXMIN|BOUNDARY,prep-left-turn,S_W,>EQ  10-Y/R,LOW  SPEED,PEDESTRIAN,  RL  >  2,acts-2,N,769,88,92.425667,0.0
MAXMIN|MAXMIN|BOUNDARY,prep-left-turn,S_W,>EQ  10-Y/R,LOW  SPEED,NO  PEDESTRIAN,  RL  <EQ  2,acts-3,N,769,11,1.001,0.006552000000000002
MAXMIN|MAXMIN|BOUNDARY,prep-left-turn,S_W,>EQ  10-Y/R,LOW  SPEED,NO  PEDESTRIAN,  RL  <EQ  2,acts-3,N,769,119,111.277833,0.06065899999999996
MAXMIN|MAXMIN|BOUNDARY,prep-left-turn,S_W,>EQ  10-Y/R,LOW  SPEED,NO  PEDESTRIAN,  RL  <EQ  2,acts-3,Y,769,119,112.278833,0
MAXMIN|MAXMIN|BOUNDARY,prep-left-turn,S_W,>EQ  10-Y/R,LOW  SPEED,NO  PEDESTRIAN,  RL  <EQ  2,acts-4,Y,769,88,100.433667,0
MAXMIN|MAXMIN|BOUNDARY,prep-left-turn,S_W,>EQ  10-Y/R,LOW  SPEED,NO  PEDESTRIAN,  RL  <EQ  2,acts-4,N,769,88,94.427667,0.0
MAXMIN|MAXMIN|BOUNDARY,prep-left-turn,S_W,>EQ  10-Y/R,LOW  SPEED,NO  PEDESTRIAN,  RL  <EQ  2,acts-4,N,769,119,108.274833,0.0
MAXMIN|MAXMIN|BOUNDARY,prep-left-turn,S_W,>EQ  10-Y/R,LOW  SPEED,NO  PEDESTRIAN,  RL  <EQ  2,acts-4,Y,769,119,109.275833,0.002018999999999993
MAXMIN|MAXMIN|BOUNDARY,prep-left-turn,S_W,>EQ  10-Y/R,LOW  SPEED,NO  PEDESTRIAN,  RL  >  2,acts-3,N,769,11,0,0.027422000000000002
MAXMIN|MAXMIN|BOUNDARY,prep-left-turn,S_W,>EQ  10-Y/R,LOW  SPEED,NO  PEDESTRIAN,  RL  >  2,acts-4,N,769,88,95.428667,0
MAXMIN|MAXMIN|BOUNDARY,prep-left-turn,S_W,>EQ  10-Y/R,LOW  SPEED,NO  PEDESTRIAN,  RL  >  2,acts-4,N,769,88,96.429667,0
MAXMIN|MAXMIN|BOUNDARY,prep-left-turn,S_W,>EQ  10-Y/R,LOW  SPEED,NO  PEDESTRIAN,  RL  >  2,acts-4,N,769,88,97.430667,0.0
MAXMIN|MAXMIN|BOUNDARY,prep-left-turn,S_W,>EQ  10-Y/R,LOW  SPEED,NO  PEDESTRIAN,  RL  >  2,acts-4,Y,769,88,98.431667,0.0
MAXMIN|MAXMIN|BOUNDARY,prep-left-turn,S_W,>EQ  10-Y/R,LOW  SPEED,NO  PEDESTRIAN,  RL  >  2,acts-4,Y,769,88,99.432667,0.0020300000000000318
MAXMIN|MAXMIN|BOUNDARY,prep-left-turn,S_W,>EQ  10-Y/R,LOW  SPEED,NO  PEDESTRIAN,  RL  >  2,acts-4,N,769,119,110.276833,0.002027000000000001
MAXMIN|MAXMIN|BOUNDARY,prep-left-turn,N_E,<10-Y/R,LOW  SPEED,NO  PEDESTRIAN,RL  0,acts-3,Y,769,160,181.181,0.009467000000000003
MAXMIN|MAXMIN|BOUNDARY,prep-left-turn,N_E,<10-Y/R,MEDIUM  SPEED,NO  PEDESTRIAN,RL  0,acts-3,Y,769,178,187.520667,0.010106999999999977
MAXMIN|MAXMIN|BOUNDARY,prep-left-turn,N_E,>EQ  10-Y/R,LOW  SPEED,NO  PEDESTRIAN,RL  0,acts-3,Y,769,24,10.176833,0.007522000000000029
MAXMIN|MAXMIN|BOUNDARY,prep-left-turn,N_E,>EQ  10-Y/R,LOW  SPEED,NO  PEDESTRIAN,RL  0,acts-3,N,769,24,9.175833,0.08463500000000002
MAXMIN|MAXMIN|BOUNDARY,prep-left-turn,N_E,>EQ  10-Y/R,LOW  SPEED,NO  PEDESTRIAN,RL  0,acts-3,Y,769,124,109.442667,0.07516499999999993
MAXMIN|MAXMIN|BOUNDARY,prep-left-turn,N_E,>EQ  10-Y/R,LOW  SPEED,NO  PEDESTRIAN,RL  0,acts-3,Y,769,124,110.443667,0
MAXMIN|MAXMIN|BOUNDARY,prep-left-turn,N_E,>EQ  10-Y/R,LOW  SPEED,NO  PEDESTRIAN,RL  0,acts-3,Y,769,124,111.444667,0.07407199999999992
MAXMIN|MAXMIN|BOUNDARY,prep-left-turn,W_N,<10-Y/R,LOW  SPEED,NO  PEDESTRIAN,RL  0,acts-3,N,769,253,267.100167,0.0010339999999999794
MAXMIN|MAXMIN|BOUNDARY,prep-left-turn,W_N,<10-Y/R,LOW  SPEED,NO  PEDESTRIAN,  RL  <EQ  2,acts-3,N,769,53,65.5655,0.04447899999999999
MAXMIN|MAXMIN|BOUNDARY,prep-left-turn,W_N,<10-Y/R,LOW  SPEED,NO  PEDESTRIAN,  RL  <EQ  2,acts-3,Y,769,164,163.997167,0.07533700000000004
MAXMIN|MAXMIN|BOUNDARY,prep-left-turn,W_N,<10-Y/R,LOW  SPEED,NO  PEDESTRIAN,  RL  >  2,acts-3,N,769,53,63.5635,0.095949
MAXMIN|MAXMIN|BOUNDARY,prep-left-turn,W_N,<10-Y/R,LOW  SPEED,NO  PEDESTRIAN,  RL  >  2,acts-3,N,769,53,64.5645,0.376084
MAXMIN|MAXMIN|BOUNDARY,prep-left-turn,W_N,<10-Y/R,LOW  SPEED,NO  PEDESTRIAN,  RL  >  2,acts-3,N,769,53,66.5665,0.025619999999999976
MAXMIN|MAXMIN|BOUNDARY,prep-left-turn,W_N,<10-Y/R,LOW  SPEED,NO  PEDESTRIAN,  RL  >  2,acts-3,N,769,53,67.5675,0.01660299999999998
MAXMIN|MAXMIN|BOUNDARY,prep-left-turn,W_N,<10-Y/R,LOW  SPEED,NO  PEDESTRIAN,  RL  >  2,acts-3,N,769,53,68.5685,0.014015
MAXMIN|MAXMIN|BOUNDARY,prep-left-turn,W_N,<10-Y/R,LOW  SPEED,NO  PEDESTRIAN,  RL  >  2,acts-3,N,769,53,69.5695,0.061618000000000006
MAXMIN|MAXMIN|BOUNDARY,prep-left-turn,W_N,<10-Y/R,LOW  SPEED,NO  PEDESTRIAN,  RL  >  2,acts-3,N,769,53,70.5705,0.020772999999999986
MAXMIN|MAXMIN|BOUNDARY,prep-left-turn,W_N,<10-Y/R,LOW  SPEED,NO  PEDESTRIAN,  RL  >  2,acts-3,N,769,53,71.5715,0
MAXMIN|MAXMIN|BOUNDARY,prep-left-turn,W_N,<10-Y/R,LOW  SPEED,NO  PEDESTRIAN,  RL  >  2,acts-3,Y,769,53,72.5725,0
MAXMIN|MAXMIN|BOUNDARY,prep-left-turn,W_N,>EQ  10-Y/R,LOW  SPEED,PEDESTRIAN,RL  0,acts-1,Y,769,116,134.6345,0.0018039999999999168
MAXMIN|MAXMIN|BOUNDARY,prep-left-turn,W_N,>EQ  10-Y/R,LOW  SPEED,PEDESTRIAN,RL  0,acts-1,Y,769,116,135.6355,0
MAXMIN|MAXMIN|BOUNDARY,prep-left-turn,W_N,>EQ  10-Y/R,LOW  SPEED,NO  PEDESTRIAN,RL  0,acts-3,Y,769,14,35.035,0
MAXMIN|MAXMIN|BOUNDARY,prep-left-turn,W_N,>EQ  10-Y/R,LOW  SPEED,NO  PEDESTRIAN,RL  0,acts-3,Y,769,14,36.036,0
MAXMIN|MAXMIN|BOUNDARY,prep-left-turn,W_N,>EQ  10-Y/R,LOW  SPEED,NO  PEDESTRIAN,  RL  >  2,acts-3,Y,769,53,50.5505,0.03286499999999998
MAXMIN|MAXMIN|BOUNDARY,prep-left-turn,W_N,>EQ  10-Y/R,LOW  SPEED,NO  PEDESTRIAN,  RL  >  2,acts-3,Y,769,53,51.5515,0.02556999999999998
MAXMIN|MAXMIN|BOUNDARY,prep-left-turn,W_N,>EQ  10-Y/R,LOW  SPEED,NO  PEDESTRIAN,  RL  >  2,acts-3,Y,769,53,52.5525,0.015154999999999974
MAXMIN|MAXMIN|BOUNDARY,prep-left-turn,W_N,>EQ  10-Y/R,LOW  SPEED,NO  PEDESTRIAN,  RL  >  2,acts-3,N,769,53,53.5535,0.026868000000000003
MAXMIN|MAXMIN|BOUNDARY,prep-left-turn,W_N,>EQ  10-Y/R,LOW  SPEED,NO  PEDESTRIAN,  RL  >  2,acts-3,N,769,53,54.5545,0.025689000000000017
MAXMIN|MAXMIN|BOUNDARY,prep-left-turn,W_N,>EQ  10-Y/R,LOW  SPEED,NO  PEDESTRIAN,  RL  >  2,acts-3,N,769,53,55.5555,0.045682
MAXMIN|MAXMIN|BOUNDARY,prep-left-turn,W_N,>EQ  10-Y/R,LOW  SPEED,NO  PEDESTRIAN,  RL  >  2,acts-3,N,769,53,56.5565,0.027942999999999996
MAXMIN|MAXMIN|BOUNDARY,prep-left-turn,W_N,>EQ  10-Y/R,LOW  SPEED,NO  PEDESTRIAN,  RL  >  2,acts-3,N,769,53,57.5575,0.076212
MAXMIN|MAXMIN|BOUNDARY,prep-left-turn,W_N,>EQ  10-Y/R,LOW  SPEED,NO  PEDESTRIAN,  RL  >  2,acts-3,N,769,53,58.5585,0
MAXMIN|MAXMIN|BOUNDARY,prep-left-turn,W_N,>EQ  10-Y/R,LOW  SPEED,NO  PEDESTRIAN,  RL  >  2,acts-3,N,769,53,59.5595,0.08136500000000002
MAXMIN|MAXMIN|BOUNDARY,prep-left-turn,W_N,>EQ  10-Y/R,LOW  SPEED,NO  PEDESTRIAN,  RL  >  2,acts-3,N,769,53,60.5605,0.232165
MAXMIN|MAXMIN|BOUNDARY,prep-left-turn,W_N,>EQ  10-Y/R,LOW  SPEED,NO  PEDESTRIAN,  RL  >  2,acts-3,N,769,53,61.5615,0.016944000000000015
MAXMIN|MAXMIN|BOUNDARY,prep-left-turn,W_N,>EQ  10-Y/R,LOW  SPEED,NO  PEDESTRIAN,  RL  >  2,acts-3,N,769,53,62.5625,0
MAXMIN|MAXMIN|BOUNDARY,prep-left-turn,E_S,<10-Y/R,LOW  SPEED,NO  PEDESTRIAN,RL  0,acts-3,N,769,80,71.905167,0.038060000000000094
MAXMIN|MAXMIN|BOUNDARY,prep-left-turn,E_S,>EQ  10-Y/R,LOW  SPEED,PEDESTRIAN,RL  0,acts-1,Y,769,9,36.036,0
MAXMIN|MAXMIN|BOUNDARY,prep-left-turn,E_S,>EQ  10-Y/R,LOW  SPEED,PEDESTRIAN,  RL  <EQ  2,acts-1,Y,769,55,55.221833,0
MAXMIN|MAXMIN|BOUNDARY,prep-left-turn,E_S,>EQ  10-Y/R,LOW  SPEED,PEDESTRIAN,  RL  <EQ  2,acts-1,N,769,132,144.477667,0.03092800000000001
MAXMIN|MAXMIN|BOUNDARY,prep-left-turn,E_S,>EQ  10-Y/R,LOW  SPEED,PEDESTRIAN,  RL  <EQ  2,acts-1,N,769,132,144.477667,0.03092800000000001
MAXMIN|MAXMIN|BOUNDARY,prep-left-turn,E_S,>EQ  10-Y/R,LOW  SPEED,PEDESTRIAN,  RL  <EQ  2,acts-1,N,769,132,145.478667,0.498794
MAXMIN|MAXMIN|BOUNDARY,prep-left-turn,E_S,>EQ  10-Y/R,LOW  SPEED,PEDESTRIAN,  RL  <EQ  2,acts-1,N,769,132,145.478667,0.37711000000000006
MAXMIN|MAXMIN|BOUNDARY,prep-left-turn,E_S,>EQ  10-Y/R,LOW  SPEED,PEDESTRIAN,  RL  <EQ  2,acts-1,N,769,132,146.479667,0.50535
MAXMIN|MAXMIN|BOUNDARY,prep-left-turn,E_S,>EQ  10-Y/R,LOW  SPEED,PEDESTRIAN,  RL  <EQ  2,acts-1,N,769,132,146.479667,0.5109469999999999
MAXMIN|MAXMIN|BOUNDARY,prep-left-turn,E_S,>EQ  10-Y/R,LOW  SPEED,PEDESTRIAN,  RL  <EQ  2,acts-1,N,769,132,147.480667,0.14459
MAXMIN|MAXMIN|BOUNDARY,prep-left-turn,E_S,>EQ  10-Y/R,LOW  SPEED,PEDESTRIAN,  RL  <EQ  2,acts-1,N,769,132,147.480667,0.144324
MAXMIN|MAXMIN|BOUNDARY,prep-left-turn,E_S,>EQ  10-Y/R,LOW  SPEED,PEDESTRIAN,  RL  <EQ  2,acts-1,N,769,132,148.481667,0.202422
MAXMIN|MAXMIN|BOUNDARY,prep-left-turn,E_S,>EQ  10-Y/R,LOW  SPEED,PEDESTRIAN,  RL  <EQ  2,acts-1,N,769,132,148.481667,0.20231899999999997
MAXMIN|MAXMIN|BOUNDARY,prep-left-turn,E_S,>EQ  10-Y/R,LOW  SPEED,PEDESTRIAN,  RL  <EQ  2,acts-1,N,769,132,151.484667,0
MAXMIN|MAXMIN|BOUNDARY,prep-left-turn,E_S,>EQ  10-Y/R,LOW  SPEED,PEDESTRIAN,  RL  <EQ  2,acts-1,N,769,132,152.485667,0.13339999999999996
MAXMIN|MAXMIN|BOUNDARY,prep-left-turn,E_S,>EQ  10-Y/R,LOW  SPEED,PEDESTRIAN,  RL  <EQ  2,acts-1,N,769,132,152.485667,0.13339999999999996
MAXMIN|MAXMIN|BOUNDARY,prep-left-turn,E_S,>EQ  10-Y/R,LOW  SPEED,PEDESTRIAN,  RL  >  2,acts-1,Y,769,55,50.216833,0.11126999999999998
MAXMIN|MAXMIN|BOUNDARY,prep-left-turn,E_S,>EQ  10-Y/R,LOW  SPEED,PEDESTRIAN,  RL  >  2,acts-1,Y,769,55,50.216833,0.11126999999999998
MAXMIN|MAXMIN|BOUNDARY,prep-left-turn,E_S,>EQ  10-Y/R,LOW  SPEED,PEDESTRIAN,  RL  >  2,acts-1,Y,769,55,51.217833,0.05498700000000001
MAXMIN|MAXMIN|BOUNDARY,prep-left-turn,E_S,>EQ  10-Y/R,LOW  SPEED,PEDESTRIAN,  RL  >  2,acts-1,Y,769,55,51.217833,0.05498700000000001
MAXMIN|MAXMIN|BOUNDARY,prep-left-turn,E_S,>EQ  10-Y/R,LOW  SPEED,PEDESTRIAN,  RL  >  2,acts-1,N,769,55,52.218833,0.06317400000000001
MAXMIN|MAXMIN|BOUNDARY,prep-left-turn,E_S,>EQ  10-Y/R,LOW  SPEED,PEDESTRIAN,  RL  >  2,acts-1,N,769,55,52.218833,0.06317400000000001
MAXMIN|MAXMIN|BOUNDARY,prep-left-turn,E_S,>EQ  10-Y/R,LOW  SPEED,PEDESTRIAN,  RL  >  2,acts-1,N,769,55,53.219833,0.03856000000000004
MAXMIN|MAXMIN|BOUNDARY,prep-left-turn,E_S,>EQ  10-Y/R,LOW  SPEED,PEDESTRIAN,  RL  >  2,acts-1,N,769,55,53.219833,0.03856000000000004
MAXMIN|MAXMIN|BOUNDARY,prep-left-turn,E_S,>EQ  10-Y/R,LOW  SPEED,PEDESTRIAN,  RL  >  2,acts-1,N,769,55,54.220833,0.00032999999999999696
MAXMIN|MAXMIN|BOUNDARY,prep-left-turn,E_S,>EQ  10-Y/R,LOW  SPEED,PEDESTRIAN,  RL  >  2,acts-1,N,769,132,149.482667,0.04663400000000001
MAXMIN|MAXMIN|BOUNDARY,prep-left-turn,E_S,>EQ  10-Y/R,LOW  SPEED,PEDESTRIAN,  RL  >  2,acts-1,N,769,132,149.482667,0.04669899999999999
MAXMIN|MAXMIN|BOUNDARY,prep-left-turn,E_S,>EQ  10-Y/R,LOW  SPEED,PEDESTRIAN,  RL  >  2,acts-1,N,769,132,150.483667,0.018654000000000004
MAXMIN|MAXMIN|BOUNDARY,prep-left-turn,E_S,>EQ  10-Y/R,LOW  SPEED,PEDESTRIAN,  RL  >  2,acts-1,N,769,132,150.483667,0.018401
MAXMIN|MAXMIN|BOUNDARY,exec-left-turn,S_W,<10-Y/R,LOW  SPEED,NO  PEDESTRIAN,RL  0,acts-3,Y,769,119,116.282833,0
MAXMIN|MAXMIN|BOUNDARY,exec-left-turn,S_W,<10-Y/R,LOW  SPEED,NO  PEDESTRIAN,RL  0,acts-3,Y,769,119,117.283833,0
MAXMIN|MAXMIN|BOUNDARY,exec-left-turn,S_W,<10-Y/R,LOW  SPEED,NO  PEDESTRIAN,RL  0,acts-3,Y,769,121,119.6195,0
MAXMIN|MAXMIN|BOUNDARY,exec-left-turn,S_W,<10-Y/R,LOW  SPEED,NO  PEDESTRIAN,RL  0,acts-3,Y,769,121,120.6205,0
MAXMIN|MAXMIN|BOUNDARY,exec-left-turn,S_W,<10-Y/R,LOW  SPEED,NO  PEDESTRIAN,RL  0,acts-3,N,769,130,122.789333,0
MAXMIN|MAXMIN|BOUNDARY,exec-left-turn,S_W,<10-Y/R,LOW  SPEED,NO  PEDESTRIAN,RL  0,acts-3,Y,769,130,123.790333,0
MAXMIN|MAXMIN|BOUNDARY,exec-left-turn,S_W,<10-Y/R,LOW  SPEED,NO  PEDESTRIAN,RL  0,acts-3,Y,769,130,124.791333,0
MAXMIN|MAXMIN|BOUNDARY,exec-left-turn,S_W,<10-Y/R,MEDIUM  SPEED,NO  PEDESTRIAN,RL  0,acts-3,Y,769,119,118.284833,0.0008720000000000949
MAXMIN|MAXMIN|BOUNDARY,exec-left-turn,S_W,<10-Y/R,MEDIUM  SPEED,NO  PEDESTRIAN,RL  0,acts-3,Y,769,121,121.6215,0.0004309999999999592
MAXMIN|MAXMIN|BOUNDARY,exec-left-turn,S_W,>EQ  10-Y/R,LOW  SPEED,PEDESTRIAN,RL  0,acts-1,Y,769,140,182.348833,0.002834999999999921
MAXMIN|MAXMIN|BOUNDARY,exec-left-turn,S_W,>EQ  10-Y/R,LOW  SPEED,NO  PEDESTRIAN,RL  0,acts-3,Y,769,58,101.434667,0
MAXMIN|MAXMIN|BOUNDARY,exec-left-turn,S_W,>EQ  10-Y/R,LOW  SPEED,NO  PEDESTRIAN,RL  0,acts-3,Y,769,58,102.435667,0
MAXMIN|MAXMIN|BOUNDARY,exec-left-turn,S_W,>EQ  10-Y/R,LOW  SPEED,NO  PEDESTRIAN,RL  0,acts-3,Y,769,58,103.436667,0
MAXMIN|MAXMIN|BOUNDARY,exec-left-turn,S_W,>EQ  10-Y/R,LOW  SPEED,NO  PEDESTRIAN,RL  0,acts-3,Y,769,88,105.438667,0
MAXMIN|MAXMIN|BOUNDARY,exec-left-turn,S_W,>EQ  10-Y/R,LOW  SPEED,NO  PEDESTRIAN,RL  0,acts-3,Y,769,88,106.439667,0
MAXMIN|MAXMIN|BOUNDARY,exec-left-turn,S_W,>EQ  10-Y/R,LOW  SPEED,NO  PEDESTRIAN,RL  0,acts-3,Y,769,119,115.281833,0
MAXMIN|MAXMIN|BOUNDARY,exec-left-turn,S_W,>EQ  10-Y/R,LOW  SPEED,NO  PEDESTRIAN,  RL  <EQ  2,acts-3,Y,769,11,7.007,0.0015399999999999858
MAXMIN|MAXMIN|BOUNDARY,exec-left-turn,S_W,>EQ  10-Y/R,LOW  SPEED,NO  PEDESTRIAN,  RL  <EQ  2,acts-3,N,769,58,94.427667,0.0
MAXMIN|MAXMIN|BOUNDARY,exec-left-turn,S_W,>EQ  10-Y/R,LOW  SPEED,NO  PEDESTRIAN,  RL  <EQ  2,acts-3,N,769,58,95.428667,0.129172
MAXMIN|MAXMIN|BOUNDARY,exec-left-turn,S_W,>EQ  10-Y/R,LOW  SPEED,NO  PEDESTRIAN,  RL  <EQ  2,acts-3,N,769,58,98.431667,0.11857599999999996
MAXMIN|MAXMIN|BOUNDARY,exec-left-turn,S_W,>EQ  10-Y/R,LOW  SPEED,NO  PEDESTRIAN,  RL  <EQ  2,acts-3,Y,769,58,99.432667,0
MAXMIN|MAXMIN|BOUNDARY,exec-left-turn,S_W,>EQ  10-Y/R,LOW  SPEED,NO  PEDESTRIAN,  RL  >  2,acts-3,Y,769,58,96.429667,0.05160399999999998
MAXMIN|MAXMIN|BOUNDARY,exec-left-turn,S_W,>EQ  10-Y/R,LOW  SPEED,NO  PEDESTRIAN,  RL  >  2,acts-3,N,769,58,97.430667,0.0022230000000000305
MAXMIN|MAXMIN|BOUNDARY,exec-left-turn,S_W,>EQ  10-Y/R,MEDIUM  SPEED,PEDESTRIAN,RL  0,acts-1,Y,769,140,183.349833,0.0005349999999999522
MAXMIN|MAXMIN|BOUNDARY,exec-left-turn,S_W,>EQ  10-Y/R,MEDIUM  SPEED,PEDESTRIAN,RL  0,acts-1,Y,769,140,184.350833,0.001403000000000043
MAXMIN|MAXMIN|BOUNDARY,exec-left-turn,S_W,>EQ  10-Y/R,MEDIUM  SPEED,PEDESTRIAN,RL  0,acts-1,Y,769,177,187.520667,0.0020130000000000425
MAXMIN|MAXMIN|BOUNDARY,exec-left-turn,S_W,>EQ  10-Y/R,MEDIUM  SPEED,NO  PEDESTRIAN,RL  0,acts-3,Y,769,58,104.437667,0
MAXMIN|MAXMIN|BOUNDARY,exec-left-turn,S_W,>EQ  10-Y/R,MEDIUM  SPEED,NO  PEDESTRIAN,RL  0,acts-3,Y,769,100,110.11,0
MAXMIN|MAXMIN|BOUNDARY,exec-left-turn,N_E,<10-Y/R,LOW  SPEED,NO  PEDESTRIAN,RL  0,acts-3,Y,769,124,116.449667,0
MAXMIN|MAXMIN|BOUNDARY,exec-left-turn,N_E,<10-Y/R,LOW  SPEED,NO  PEDESTRIAN,RL  0,acts-3,Y,769,124,117.450667,0.00010999999999994348
MAXMIN|MAXMIN|BOUNDARY,exec-left-turn,N_E,<10-Y/R,LOW  SPEED,NO  PEDESTRIAN,RL  0,acts-3,Y,769,160,182.182,0
MAXMIN|MAXMIN|BOUNDARY,exec-left-turn,N_E,<10-Y/R,LOW  SPEED,NO  PEDESTRIAN,RL  0,acts-3,Y,769,194,219.219,0.0014210000000000056
MAXMIN|MAXMIN|BOUNDARY,exec-left-turn,N_E,<10-Y/R,LOW  SPEED,NO  PEDESTRIAN,RL  0,acts-3,Y,769,194,220.22,0.006985999999999937
MAXMIN|MAXMIN|BOUNDARY,exec-left-turn,N_E,<10-Y/R,LOW  SPEED,NO  PEDESTRIAN,RL  0,acts-3,Y,769,218,225.558667,0
MAXMIN|MAXMIN|BOUNDARY,exec-left-turn,N_E,<10-Y/R,LOW  SPEED,NO  PEDESTRIAN,RL  0,acts-6,Y,769,220,229.896333,0.001427000000000067
MAXMIN|MAXMIN|BOUNDARY,exec-left-turn,N_E,<10-Y/R,LOW  SPEED,NO  PEDESTRIAN,RL  0,acts-6,N,769,220,230.897333,0.0030999999999999917
MAXMIN|MAXMIN|BOUNDARY,exec-left-turn,N_E,<10-Y/R,LOW  SPEED,NO  PEDESTRIAN,RL  0,acts-6,N,769,220,231.898333,0.0010120000000000129
MAXMIN|MAXMIN|BOUNDARY,exec-left-turn,N_E,<10-Y/R,MEDIUM  SPEED,NO  PEDESTRIAN,RL  0,acts-3,Y,769,160,183.183,0.003957999999999906
MAXMIN|MAXMIN|BOUNDARY,exec-left-turn,N_E,<10-Y/R,MEDIUM  SPEED,NO  PEDESTRIAN,RL  0,acts-3,Y,769,160,184.184,0.0004959999999999409
MAXMIN|MAXMIN|BOUNDARY,exec-left-turn,N_E,<10-Y/R,MEDIUM  SPEED,NO  PEDESTRIAN,RL  0,acts-3,Y,769,160,185.185,0
MAXMIN|MAXMIN|BOUNDARY,exec-left-turn,N_E,<10-Y/R,MEDIUM  SPEED,NO  PEDESTRIAN,RL  0,acts-3,Y,769,194,221.221,4.100000000006876e-05
MAXMIN|MAXMIN|BOUNDARY,exec-left-turn,N_E,<10-Y/R,MEDIUM  SPEED,NO  PEDESTRIAN,RL  0,acts-3,Y,769,194,222.222,0
MAXMIN|MAXMIN|BOUNDARY,exec-left-turn,N_E,<10-Y/R,MEDIUM  SPEED,NO  PEDESTRIAN,RL  0,acts-3,Y,769,218,226.559667,0.0004770000000000607
MAXMIN|MAXMIN|BOUNDARY,exec-left-turn,N_E,<10-G,MEDIUM  SPEED,NO  PEDESTRIAN,RL  0,acts-6,Y,769,178,190.523667,0
MAXMIN|MAXMIN|BOUNDARY,exec-left-turn,N_E,>EQ  10-Y/R,LOW  SPEED,PEDESTRIAN,RL  0,acts-1,N,769,108,100.266833,0.069102
MAXMIN|MAXMIN|BOUNDARY,exec-left-turn,N_E,>EQ  10-Y/R,LOW  SPEED,PEDESTRIAN,RL  0,acts-1,N,769,108,100.266833,0.069102
MAXMIN|MAXMIN|BOUNDARY,exec-left-turn,N_E,>EQ  10-Y/R,LOW  SPEED,PEDESTRIAN,RL  0,acts-1,N,769,108,93.259833,0.061039000000000065
MAXMIN|MAXMIN|BOUNDARY,exec-left-turn,N_E,>EQ  10-Y/R,LOW  SPEED,PEDESTRIAN,RL  0,acts-1,N,769,108,93.259833,0.061039000000000065
MAXMIN|MAXMIN|BOUNDARY,exec-left-turn,N_E,>EQ  10-Y/R,LOW  SPEED,PEDESTRIAN,RL  0,acts-1,Y,769,108,94.260833,0
MAXMIN|MAXMIN|BOUNDARY,exec-left-turn,N_E,>EQ  10-Y/R,LOW  SPEED,PEDESTRIAN,RL  0,acts-1,Y,769,108,95.261833,0.06745600000000007
MAXMIN|MAXMIN|BOUNDARY,exec-left-turn,N_E,>EQ  10-Y/R,LOW  SPEED,PEDESTRIAN,RL  0,acts-1,Y,769,108,95.261833,0.06745600000000007
MAXMIN|MAXMIN|BOUNDARY,exec-left-turn,N_E,>EQ  10-Y/R,LOW  SPEED,PEDESTRIAN,RL  0,acts-1,N,769,108,96.262833,0
MAXMIN|MAXMIN|BOUNDARY,exec-left-turn,N_E,>EQ  10-Y/R,LOW  SPEED,PEDESTRIAN,RL  0,acts-1,Y,769,108,97.263833,0.005937999999999999
MAXMIN|MAXMIN|BOUNDARY,exec-left-turn,N_E,>EQ  10-Y/R,LOW  SPEED,PEDESTRIAN,RL  0,acts-1,Y,769,108,98.264833,0.061960000000000015
MAXMIN|MAXMIN|BOUNDARY,exec-left-turn,N_E,>EQ  10-Y/R,LOW  SPEED,PEDESTRIAN,RL  0,acts-1,Y,769,108,98.264833,0.061960000000000015
MAXMIN|MAXMIN|BOUNDARY,exec-left-turn,N_E,>EQ  10-Y/R,LOW  SPEED,PEDESTRIAN,RL  0,acts-1,N,769,108,99.265833,0.06250100000000003
MAXMIN|MAXMIN|BOUNDARY,exec-left-turn,N_E,>EQ  10-Y/R,LOW  SPEED,PEDESTRIAN,RL  0,acts-1,N,769,108,99.265833,0.06250100000000003
MAXMIN|MAXMIN|BOUNDARY,exec-left-turn,N_E,>EQ  10-Y/R,LOW  SPEED,NO  PEDESTRIAN,RL  0,acts-3,Y,769,24,11.177833,0.0037519999999999776
MAXMIN|MAXMIN|BOUNDARY,exec-left-turn,N_E,>EQ  10-Y/R,LOW  SPEED,NO  PEDESTRIAN,RL  0,acts-3,Y,769,24,12.178833,0.007182000000000022
MAXMIN|MAXMIN|BOUNDARY,exec-left-turn,N_E,>EQ  10-Y/R,LOW  SPEED,NO  PEDESTRIAN,RL  0,acts-3,Y,769,24,13.179833,0
MAXMIN|MAXMIN|BOUNDARY,exec-left-turn,N_E,>EQ  10-Y/R,LOW  SPEED,NO  PEDESTRIAN,RL  0,acts-3,Y,769,24,14.180833,0
MAXMIN|MAXMIN|BOUNDARY,exec-left-turn,N_E,>EQ  10-Y/R,LOW  SPEED,NO  PEDESTRIAN,RL  0,acts-3,Y,769,108,101.267833,0.006620999999999988
MAXMIN|MAXMIN|BOUNDARY,exec-left-turn,N_E,>EQ  10-Y/R,LOW  SPEED,NO  PEDESTRIAN,RL  0,acts-3,Y,769,108,102.268833,0
MAXMIN|MAXMIN|BOUNDARY,exec-left-turn,N_E,>EQ  10-Y/R,LOW  SPEED,NO  PEDESTRIAN,RL  0,acts-3,Y,769,108,103.269833,0.003854000000000024
MAXMIN|MAXMIN|BOUNDARY,exec-left-turn,N_E,>EQ  10-Y/R,LOW  SPEED,NO  PEDESTRIAN,RL  0,acts-3,Y,769,108,104.270833,0
MAXMIN|MAXMIN|BOUNDARY,exec-left-turn,N_E,>EQ  10-Y/R,LOW  SPEED,NO  PEDESTRIAN,RL  0,acts-3,Y,769,108,105.271833,0
MAXMIN|MAXMIN|BOUNDARY,exec-left-turn,N_E,>EQ  10-Y/R,LOW  SPEED,NO  PEDESTRIAN,RL  0,acts-3,Y,769,124,112.445667,0.0011499999999999844
MAXMIN|MAXMIN|BOUNDARY,exec-left-turn,N_E,>EQ  10-Y/R,LOW  SPEED,NO  PEDESTRIAN,RL  0,acts-3,Y,769,124,113.446667,0
MAXMIN|MAXMIN|BOUNDARY,exec-left-turn,N_E,>EQ  10-Y/R,LOW  SPEED,NO  PEDESTRIAN,RL  0,acts-3,Y,769,124,114.447667,0
MAXMIN|MAXMIN|BOUNDARY,exec-left-turn,N_E,>EQ  10-Y/R,LOW  SPEED,NO  PEDESTRIAN,RL  0,acts-3,N,769,124,115.448667,0
MAXMIN|MAXMIN|BOUNDARY,exec-left-turn,N_E,>EQ  10-Y/R,LOW  SPEED,NO  PEDESTRIAN,RL  0,acts-3,N,769,194,205.205,0.06447400000000003
MAXMIN|MAXMIN|BOUNDARY,exec-left-turn,N_E,>EQ  10-Y/R,LOW  SPEED,NO  PEDESTRIAN,RL  0,acts-3,N,769,194,206.206,0.06803500000000007
MAXMIN|MAXMIN|BOUNDARY,exec-left-turn,N_E,>EQ  10-Y/R,LOW  SPEED,NO  PEDESTRIAN,RL  0,acts-3,N,769,194,207.207,0.044030000000000014
MAXMIN|MAXMIN|BOUNDARY,exec-left-turn,N_E,>EQ  10-Y/R,LOW  SPEED,NO  PEDESTRIAN,RL  0,acts-3,N,769,194,208.208,0.05248600000000003
MAXMIN|MAXMIN|BOUNDARY,exec-left-turn,N_E,>EQ  10-Y/R,LOW  SPEED,NO  PEDESTRIAN,RL  0,acts-3,N,769,194,209.209,0.06597700000000006
MAXMIN|MAXMIN|BOUNDARY,exec-left-turn,N_E,>EQ  10-Y/R,LOW  SPEED,NO  PEDESTRIAN,RL  0,acts-3,N,769,194,210.21,0.06296599999999997
MAXMIN|MAXMIN|BOUNDARY,exec-left-turn,N_E,>EQ  10-Y/R,LOW  SPEED,NO  PEDESTRIAN,RL  0,acts-3,N,769,194,211.211,0
MAXMIN|MAXMIN|BOUNDARY,exec-left-turn,N_E,>EQ  10-Y/R,LOW  SPEED,NO  PEDESTRIAN,RL  0,acts-3,Y,769,194,212.212,0.010983999999999994
MAXMIN|MAXMIN|BOUNDARY,exec-left-turn,N_E,>EQ  10-Y/R,LOW  SPEED,NO  PEDESTRIAN,RL  0,acts-3,Y,769,194,213.213,0.06150099999999992
MAXMIN|MAXMIN|BOUNDARY,exec-left-turn,N_E,>EQ  10-Y/R,LOW  SPEED,NO  PEDESTRIAN,RL  0,acts-3,Y,769,194,214.214,0.004954000000000014
MAXMIN|MAXMIN|BOUNDARY,exec-left-turn,N_E,>EQ  10-Y/R,LOW  SPEED,NO  PEDESTRIAN,RL  0,acts-3,Y,769,194,215.215,0.06287500000000001
MAXMIN|MAXMIN|BOUNDARY,exec-left-turn,N_E,>EQ  10-Y/R,LOW  SPEED,NO  PEDESTRIAN,RL  0,acts-3,N,769,194,216.216,0.06358799999999998
MAXMIN|MAXMIN|BOUNDARY,exec-left-turn,N_E,>EQ  10-Y/R,LOW  SPEED,NO  PEDESTRIAN,RL  0,acts-3,Y,769,194,217.217,0.001363000000000003
MAXMIN|MAXMIN|BOUNDARY,exec-left-turn,N_E,>EQ  10-Y/R,LOW  SPEED,NO  PEDESTRIAN,RL  0,acts-3,Y,769,194,218.218,0
MAXMIN|MAXMIN|BOUNDARY,exec-left-turn,N_E,>EQ  10-Y/R,MEDIUM  SPEED,NO  PEDESTRIAN,RL  0,acts-3,Y,769,24,15.181833,0.00021700000000002273
MAXMIN|MAXMIN|BOUNDARY,exec-left-turn,N_E,>EQ  10-Y/R,MEDIUM  SPEED,NO  PEDESTRIAN,RL  0,acts-3,Y,769,31,16.850167,0
MAXMIN|MAXMIN|BOUNDARY,exec-left-turn,N_E,>EQ  10-Y/R,MEDIUM  SPEED,NO  PEDESTRIAN,RL  0,acts-3,Y,769,108,106.272833,0.0003149999999999542
MAXMIN|MAXMIN|BOUNDARY,exec-left-turn,N_E,>EQ  10-G,LOW  SPEED,NO  PEDESTRIAN,RL  0,acts-6,N,769,220,232.899333,0
MAXMIN|MAXMIN|BOUNDARY,exec-left-turn,N_E,>EQ  10-G,LOW  SPEED,NO  PEDESTRIAN,RL  0,acts-6,Y,769,220,233.900333,0.0006099999999999994
MAXMIN|MAXMIN|BOUNDARY,exec-left-turn,N_E,>EQ  10-G,LOW  SPEED,NO  PEDESTRIAN,RL  0,acts-6,Y,769,220,234.901333,0
MAXMIN|MAXMIN|BOUNDARY,exec-left-turn,N_E,>EQ  10-G,LOW  SPEED,NO  PEDESTRIAN,RL  0,acts-6,Y,769,220,235.902333,0
MAXMIN|MAXMIN|BOUNDARY,exec-left-turn,W_N,<10-Y/R,LOW  SPEED,NO  PEDESTRIAN,RL  0,acts-3,Y,769,164,170.003167,0
MAXMIN|MAXMIN|BOUNDARY,exec-left-turn,W_N,<10-Y/R,LOW  SPEED,NO  PEDESTRIAN,RL  0,acts-3,Y,769,164,171.004167,0.0002870000000000372
MAXMIN|MAXMIN|BOUNDARY,exec-left-turn,W_N,<10-Y/R,LOW  SPEED,NO  PEDESTRIAN,RL  0,acts-3,N,769,253,268.101167,0
MAXMIN|MAXMIN|BOUNDARY,exec-left-turn,W_N,<10-Y/R,LOW  SPEED,NO  PEDESTRIAN,RL  0,acts-3,Y,769,253,269.102167,0.012232999999999938
MAXMIN|MAXMIN|BOUNDARY,exec-left-turn,W_N,<10-Y/R,MEDIUM  SPEED,NO  PEDESTRIAN,RL  0,acts-6,Y,769,255,270.7705,0.0009590000000000432
MAXMIN|MAXMIN|BOUNDARY,exec-left-turn,W_N,<10-Y/R,MEDIUM  SPEED,NO  PEDESTRIAN,RL  0,acts-6,N,769,255,271.7715,0.0003769999999999607
MAXMIN|MAXMIN|BOUNDARY,exec-left-turn,W_N,>EQ  10-Y/R,LOW  SPEED,PEDESTRIAN,RL  0,acts-1,N,769,116,136.6365,0
MAXMIN|MAXMIN|BOUNDARY,exec-left-turn,W_N,>EQ  10-Y/R,LOW  SPEED,PEDESTRIAN,RL  0,acts-1,Y,769,116,137.6375,0.0006599999999999939
MAXMIN|MAXMIN|BOUNDARY,exec-left-turn,W_N,>EQ  10-Y/R,LOW  SPEED,NO  PEDESTRIAN,RL  0,acts-3,Y,769,14,37.037,0.0012289999999999246
MAXMIN|MAXMIN|BOUNDARY,exec-left-turn,W_N,>EQ  10-Y/R,LOW  SPEED,NO  PEDESTRIAN,RL  0,acts-3,Y,769,14,38.038,0.0006479999999999819
MAXMIN|MAXMIN|BOUNDARY,exec-left-turn,W_N,>EQ  10-Y/R,LOW  SPEED,NO  PEDESTRIAN,RL  0,acts-3,Y,769,25,40.373667,0.02022899999999994
MAXMIN|MAXMIN|BOUNDARY,exec-left-turn,W_N,>EQ  10-Y/R,MEDIUM  SPEED,PEDESTRIAN,RL  0,acts-1,Y,769,116,138.6385,0.017607999999999957
MAXMIN|MAXMIN|BOUNDARY,exec-left-turn,W_N,>EQ  10-Y/R,MEDIUM  SPEED,PEDESTRIAN,RL  0,acts-1,Y,769,116,138.6385,0.017607999999999957
MAXMIN|MAXMIN|BOUNDARY,exec-left-turn,W_N,>EQ  10-G,LOW  SPEED,NO  PEDESTRIAN,RL  0,acts-6,Y,769,53,75.5755,0.00010599999999993948
MAXMIN|MAXMIN|BOUNDARY,exec-left-turn,W_N,>EQ  10-G,LOW  SPEED,NO  PEDESTRIAN,RL  0,acts-6,Y,769,53,76.5765,0.0014080000000000759
MAXMIN|MAXMIN|BOUNDARY,exec-left-turn,W_N,>EQ  10-G,LOW  SPEED,NO  PEDESTRIAN,RL  0,acts-6,Y,769,53,77.5775,0
MAXMIN|MAXMIN|BOUNDARY,exec-left-turn,W_N,>EQ  10-G,LOW  SPEED,NO  PEDESTRIAN,  RL  <EQ  2,acts-6,Y,769,53,74.5745,0.009321999999999941
MAXMIN|MAXMIN|BOUNDARY,exec-left-turn,E_S,<10-Y/R,LOW  SPEED,NO  PEDESTRIAN,RL  0,acts-3,Y,769,68,64.230833,0
MAXMIN|MAXMIN|BOUNDARY,exec-left-turn,E_S,<10-Y/R,LOW  SPEED,NO  PEDESTRIAN,RL  0,acts-3,Y,769,68,65.231833,0
MAXMIN|MAXMIN|BOUNDARY,exec-left-turn,E_S,>EQ  10-Y/R,LOW  SPEED,PEDESTRIAN,RL  0,acts-1,Y,769,41,40.373667,0
MAXMIN|MAXMIN|BOUNDARY,exec-left-turn,E_S,>EQ  10-Y/R,LOW  SPEED,PEDESTRIAN,RL  0,acts-1,Y,769,41,41.374667,0.004600999999999966
MAXMIN|MAXMIN|BOUNDARY,exec-left-turn,E_S,>EQ  10-Y/R,LOW  SPEED,PEDESTRIAN,RL  0,acts-1,Y,769,41,41.374667,0.004600999999999966
MAXMIN|MAXMIN|BOUNDARY,exec-left-turn,E_S,>EQ  10-Y/R,LOW  SPEED,PEDESTRIAN,  RL  <EQ  2,acts-7,N,769,47,42.876167,0.0023079999999999767
MAXMIN|MAXMIN|BOUNDARY,exec-left-turn,E_S,>EQ  10-Y/R,LOW  SPEED,PEDESTRIAN,  RL  <EQ  2,acts-7,N,769,47,42.876167,0.0023079999999999767
MAXMIN|MAXMIN|BOUNDARY,exec-left-turn,E_S,>EQ  10-Y/R,LOW  SPEED,NO  PEDESTRIAN,RL  0,acts-3,Y,769,55,58.224833,0
MAXMIN|MAXMIN|BOUNDARY,exec-left-turn,E_S,>EQ  10-Y/R,LOW  SPEED,NO  PEDESTRIAN,RL  0,acts-3,Y,769,55,59.225833,5.100000000002325e-05
MAXMIN|MAXMIN|BOUNDARY,exec-left-turn,E_S,>EQ  10-Y/R,LOW  SPEED,NO  PEDESTRIAN,RL  0,acts-3,Y,769,55,60.226833,0.0007070000000000132
MAXMIN|MAXMIN|BOUNDARY,exec-left-turn,E_S,>EQ  10-Y/R,LOW  SPEED,NO  PEDESTRIAN,RL  0,acts-3,Y,769,55,61.227833,0.00014599999999997948
MAXMIN|MAXMIN|BOUNDARY,exec-left-turn,E_S,>EQ  10-Y/R,LOW  SPEED,NO  PEDESTRIAN,RL  0,acts-3,Y,769,132,157.490667,0
MAXMIN|MAXMIN|BOUNDARY,exec-left-turn,E_S,>EQ  10-Y/R,LOW  SPEED,NO  PEDESTRIAN,RL  0,acts-3,Y,769,132,158.491667,0.0010710000000000441
MAXMIN|MAXMIN|BOUNDARY,exec-left-turn,E_S,>EQ  10-Y/R,MEDIUM  SPEED,PEDESTRIAN,RL  0,acts-1,Y,769,9,37.037,0
MAXMIN|MAXMIN|BOUNDARY,exec-left-turn,E_S,>EQ  10-Y/R,MEDIUM  SPEED,PEDESTRIAN,RL  0,acts-1,Y,769,9,38.038,0
MAXMIN|MAXMIN|BOUNDARY,exec-left-turn,E_S,>EQ  10-Y/R,MEDIUM  SPEED,PEDESTRIAN,RL  0,acts-1,Y,769,9,39.039,0
MAXMIN|MAXMIN|BOUNDARY,exec-left-turn,E_S,>EQ  10-Y/R,MEDIUM  SPEED,PEDESTRIAN,RL  0,acts-1,Y,769,9,39.039,0.0
MAXMIN|MAXMIN|BOUNDARY,exec-left-turn,E_S,>EQ  10-Y/R,MEDIUM  SPEED,NO  PEDESTRIAN,RL  0,acts-3,N,769,55,62.228833,0.0011139999999999484
MAXMIN|MAXMIN|BOUNDARY,exec-left-turn,E_S,>EQ  10-Y/R,MEDIUM  SPEED,NO  PEDESTRIAN,RL  0,acts-3,Y,769,132,159.492667,0
MAXMIN|MAXMIN|BOUNDARY,exec-left-turn,E_S,>EQ  10-Y/R,MEDIUM  SPEED,NO  PEDESTRIAN,RL  0,acts-3,N,769,132,160.493667,0
MAXMIN|MAXMIN|BOUNDARY,exec-left-turn,E_S,>EQ  10-G,LOW  SPEED,NO  PEDESTRIAN,RL  0,acts-6,Y,769,80,73.907167,0
MAXMIN|MAXMIN|BOUNDARY,exec-left-turn,E_S,>EQ  10-G,LOW  SPEED,NO  PEDESTRIAN,RL  0,acts-6,Y,769,80,74.908167,0.001539000000000068
MAXMIN|MAXMIN|BOUNDARY,exec-left-turn,E_S,>EQ  10-G,LOW  SPEED,NO  PEDESTRIAN,RL  0,acts-6,Y,769,80,75.909167,0.00012999999999996348
MAXMIN|MAXMIN|BOUNDARY,OTHER  LANES,W_S,<10-Y/R,LOW  SPEED,PEDESTRIAN,RL  0,acts-8,Y,769,165,163.6635,0.04094900000000001
MAXMIN|MAXMIN|BOUNDARY,OTHER  LANES,W_S,<10-G,LOW  SPEED,PEDESTRIAN,RL  0,acts-8,Y,769,134,123.289833,0.047104000000000035
MAXMIN|MAXMIN|BOUNDARY,OTHER  LANES,W_S,<10-G,LOW  SPEED,PEDESTRIAN,RL  0,acts-8,Y,769,134,124.290833,0.039628
MAXMIN|MAXMIN|BOUNDARY,OTHER  LANES,W_S,<10-G,LOW  SPEED,PEDESTRIAN,  RL  <EQ  2,acts-8,N,769,44,36.870167,0.0
MAXMIN|MAXMIN|BOUNDARY,OTHER  LANES,W_S,<10-G,LOW  SPEED,PEDESTRIAN,  RL  <EQ  2,acts-8,N,769,44,37.871167,0
MAXMIN|MAXMIN|BOUNDARY,OTHER  LANES,W_S,<10-G,LOW  SPEED,PEDESTRIAN,  RL  <EQ  2,acts-8,N,769,44,39.873167,0
MAXMIN|MAXMIN|BOUNDARY,OTHER  LANES,W_S,<10-G,LOW  SPEED,PEDESTRIAN,  RL  <EQ  2,acts-8,N,769,44,40.874167,0.0
MAXMIN|MAXMIN|BOUNDARY,OTHER  LANES,W_S,<10-G,LOW  SPEED,PEDESTRIAN,  RL  <EQ  2,acts-8,N,769,44,41.875167,0.29308900000000004
MAXMIN|MAXMIN|BOUNDARY,OTHER  LANES,W_S,<10-G,LOW  SPEED,PEDESTRIAN,  RL  >  2,acts-8,N,769,44,38.872167,0.0
MAXMIN|MAXMIN|BOUNDARY,OTHER  LANES,W_S,<10-G,LOW  SPEED,NO  PEDESTRIAN,RL  0,acts-9,N,769,221,223.556667,0.034553000000000056
MAXMIN|MAXMIN|BOUNDARY,OTHER  LANES,W_S,<10-G,LOW  SPEED,NO  PEDESTRIAN,RL  0,acts-9,Y,769,221,224.557667,0.0005469999999999642
MAXMIN|MAXMIN|BOUNDARY,OTHER  LANES,W_S,<10-G,LOW  SPEED,NO  PEDESTRIAN,RL  0,acts-9,Y,769,221,225.558667,0.03311900000000001
MAXMIN|MAXMIN|BOUNDARY,OTHER  LANES,W_S,<10-G,LOW  SPEED,NO  PEDESTRIAN,RL  0,acts-9,Y,769,221,226.559667,0.04248299999999994
MAXMIN|MAXMIN|BOUNDARY,OTHER  LANES,W_S,<10-G,LOW  SPEED,NO  PEDESTRIAN,RL  0,acts-9,Y,769,221,227.560667,0.04719899999999999
MAXMIN|MAXMIN|BOUNDARY,OTHER  LANES,W_S,<10-G,LOW  SPEED,NO  PEDESTRIAN,RL  0,acts-9,Y,769,221,228.561667,0.04334899999999997
MAXMIN|MAXMIN|BOUNDARY,OTHER  LANES,W_S,<10-G,LOW  SPEED,NO  PEDESTRIAN,RL  0,acts-9,Y,769,221,229.562667,0.03877900000000001
MAXMIN|MAXMIN|BOUNDARY,OTHER  LANES,W_S,>EQ  10-Y/R,LOW  SPEED,PEDESTRIAN,RL  0,acts-8,Y,769,165,162.6625,0.04930699999999999
MAXMIN|MAXMIN|BOUNDARY,OTHER  LANES,W_S,>EQ  10-Y/R,LOW  SPEED,PEDESTRIAN,  RL  <EQ  2,acts-8,Y,769,44,42.876167,0.08784499999999995
MAXMIN|MAXMIN|BOUNDARY,OTHER  LANES,W_S,>EQ  10-Y/R,LOW  SPEED,PEDESTRIAN,  RL  <EQ  2,acts-8,Y,769,44,43.877167,2.6999999999999247e-05
MAXMIN|MAXMIN|BOUNDARY,OTHER  LANES,W_S,>EQ  10-Y/R,LOW  SPEED,PEDESTRIAN,  RL  <EQ  2,acts-8,Y,769,64,53.720333,0.0
MAXMIN|MAXMIN|BOUNDARY,OTHER  LANES,W_S,>EQ  10-Y/R,LOW  SPEED,PEDESTRIAN,  RL  <EQ  2,acts-8,Y,769,64,54.721333,0.010788999999999938
MAXMIN|MAXMIN|BOUNDARY,OTHER  LANES,W_S,>EQ  10-Y/R,LOW  SPEED,PEDESTRIAN,  RL  <EQ  2,acts-8,Y,769,64,58.725333,0.13341600000000003
MAXMIN|MAXMIN|BOUNDARY,OTHER  LANES,W_S,>EQ  10-Y/R,LOW  SPEED,PEDESTRIAN,  RL  <EQ  2,acts-8,Y,769,64,59.726333,0.120008
MAXMIN|MAXMIN|BOUNDARY,OTHER  LANES,W_S,>EQ  10-Y/R,MEDIUM  SPEED,PEDESTRIAN,RL  0,acts-8,Y,769,165,161.6615,0.007291999999999965
MAXMIN|MAXMIN|BOUNDARY,OTHER  LANES,W_S,>EQ  10-G,LOW  SPEED,PEDESTRIAN,RL  0,acts-8,Y,769,122,106.272833,0.014264999999999972
MAXMIN|MAXMIN|BOUNDARY,OTHER  LANES,W_S,>EQ  10-G,LOW  SPEED,PEDESTRIAN,RL  0,acts-8,Y,769,221,222.555667,0.06479499999999994
MAXMIN|MAXMIN|BOUNDARY,OTHER  LANES,W_S,>EQ  10-G,LOW  SPEED,PEDESTRIAN,  RL  <EQ  2,acts-8,N,769,2,10.01,0.0
MAXMIN|MAXMIN|BOUNDARY,OTHER  LANES,W_S,>EQ  10-G,LOW  SPEED,PEDESTRIAN,  RL  <EQ  2,acts-8,N,769,2,11.011,0
MAXMIN|MAXMIN|BOUNDARY,OTHER  LANES,W_S,>EQ  10-G,LOW  SPEED,PEDESTRIAN,  RL  <EQ  2,acts-8,N,769,2,12.012,0.0
MAXMIN|MAXMIN|BOUNDARY,OTHER  LANES,W_S,>EQ  10-G,LOW  SPEED,PEDESTRIAN,  RL  <EQ  2,acts-8,N,769,2,13.013,0.005546999999999969
MAXMIN|MAXMIN|BOUNDARY,OTHER  LANES,W_S,>EQ  10-G,LOW  SPEED,PEDESTRIAN,  RL  <EQ  2,acts-8,N,769,2,14.014,0.0015939999999999843
MAXMIN|MAXMIN|BOUNDARY,OTHER  LANES,W_S,>EQ  10-G,LOW  SPEED,PEDESTRIAN,  RL  <EQ  2,acts-8,N,769,2,16.016,0.258024
MAXMIN|MAXMIN|BOUNDARY,OTHER  LANES,W_S,>EQ  10-G,LOW  SPEED,PEDESTRIAN,  RL  <EQ  2,acts-8,Y,769,2,17.017,0.01066800000000001
MAXMIN|MAXMIN|BOUNDARY,OTHER  LANES,W_S,>EQ  10-G,LOW  SPEED,PEDESTRIAN,  RL  <EQ  2,acts-8,Y,769,122,110.276833,0.017700999999999967
MAXMIN|MAXMIN|BOUNDARY,OTHER  LANES,W_S,>EQ  10-G,LOW  SPEED,PEDESTRIAN,  RL  <EQ  2,acts-8,Y,769,122,111.277833,0.06379699999999999
MAXMIN|MAXMIN|BOUNDARY,OTHER  LANES,W_S,>EQ  10-G,LOW  SPEED,PEDESTRIAN,  RL  <EQ  2,acts-8,N,769,122,112.278833,0
MAXMIN|MAXMIN|BOUNDARY,OTHER  LANES,W_S,>EQ  10-G,LOW  SPEED,PEDESTRIAN,  RL  <EQ  2,acts-8,Y,769,202,211.878333,0.00041799999999991844
MAXMIN|MAXMIN|BOUNDARY,OTHER  LANES,W_S,>EQ  10-G,LOW  SPEED,PEDESTRIAN,  RL  >  2,acts-8,N,769,2,15.015,0.0005960000000000409
MAXMIN|MAXMIN|BOUNDARY,OTHER  LANES,W_S,>EQ  10-G,LOW  SPEED,PEDESTRIAN,  RL  >  2,acts-8,Y,769,202,207.874333,0.009255000000000013
MAXMIN|MAXMIN|BOUNDARY,OTHER  LANES,W_S,>EQ  10-G,LOW  SPEED,PEDESTRIAN,  RL  >  2,acts-8,Y,769,202,208.875333,0.0
MAXMIN|MAXMIN|BOUNDARY,OTHER  LANES,W_S,>EQ  10-G,LOW  SPEED,PEDESTRIAN,  RL  >  2,acts-8,Y,769,202,209.876333,0.0
MAXMIN|MAXMIN|BOUNDARY,OTHER  LANES,W_S,>EQ  10-G,LOW  SPEED,PEDESTRIAN,  RL  >  2,acts-8,Y,769,202,210.877333,2.4000000000024002e-05
MAXMIN|MAXMIN|BOUNDARY,OTHER  LANES,W_S,>EQ  10-G,MEDIUM  SPEED,PEDESTRIAN,RL  0,acts-8,N,769,134,120.286833,0.032831000000000055
MAXMIN|MAXMIN|BOUNDARY,OTHER  LANES,W_S,>EQ  10-G,MEDIUM  SPEED,PEDESTRIAN,RL  0,acts-8,Y,769,134,121.287833,0
MAXMIN|MAXMIN|BOUNDARY,OTHER  LANES,W_S,>EQ  10-G,MEDIUM  SPEED,PEDESTRIAN,RL  0,acts-8,Y,769,134,122.288833,0.03128500000000001
MAXMIN|MAXMIN|BOUNDARY,OTHER  LANES,W_S,>EQ  10-G,MEDIUM  SPEED,PEDESTRIAN,  RL  <EQ  2,acts-8,N,769,44,30.864167,0
MAXMIN|MAXMIN|BOUNDARY,OTHER  LANES,W_S,>EQ  10-G,MEDIUM  SPEED,PEDESTRIAN,  RL  <EQ  2,acts-8,Y,769,44,31.865167,0.0
MAXMIN|MAXMIN|BOUNDARY,OTHER  LANES,S_W,<10-G,LOW  SPEED,PEDESTRIAN,RL  0,acts-10,N,769,58,68.401667,0
MAXMIN|MAXMIN|BOUNDARY,OTHER  LANES,S_W,<10-G,LOW  SPEED,PEDESTRIAN,RL  0,acts-10,N,769,58,69.402667,0.0
MAXMIN|MAXMIN|BOUNDARY,OTHER  LANES,S_W,<10-G,LOW  SPEED,PEDESTRIAN,RL  0,acts-10,N,769,58,70.403667,0
MAXMIN|MAXMIN|BOUNDARY,OTHER  LANES,S_W,<10-G,LOW  SPEED,PEDESTRIAN,RL  0,acts-10,N,769,58,71.404667,0.0
MAXMIN|MAXMIN|BOUNDARY,OTHER  LANES,S_W,<10-G,LOW  SPEED,PEDESTRIAN,RL  0,acts-10,N,769,58,72.405667,0
MAXMIN|MAXMIN|BOUNDARY,OTHER  LANES,S_W,<10-G,LOW  SPEED,PEDESTRIAN,RL  0,acts-10,N,769,58,73.406667,0
MAXMIN|MAXMIN|BOUNDARY,OTHER  LANES,S_W,<10-G,LOW  SPEED,PEDESTRIAN,RL  0,acts-10,N,769,58,74.407667,0
MAXMIN|MAXMIN|BOUNDARY,OTHER  LANES,S_W,<10-G,LOW  SPEED,PEDESTRIAN,RL  0,acts-10,N,769,58,75.408667,0.0
MAXMIN|MAXMIN|BOUNDARY,OTHER  LANES,S_W,<10-G,LOW  SPEED,PEDESTRIAN,RL  0,acts-10,N,769,58,76.409667,0.0
MAXMIN|MAXMIN|BOUNDARY,OTHER  LANES,S_W,<10-G,LOW  SPEED,PEDESTRIAN,RL  0,acts-10,N,769,58,77.410667,0
MAXMIN|MAXMIN|BOUNDARY,OTHER  LANES,S_W,<10-G,LOW  SPEED,PEDESTRIAN,RL  0,acts-10,N,769,140,168.334833,0.0
MAXMIN|MAXMIN|BOUNDARY,OTHER  LANES,S_W,<10-G,LOW  SPEED,PEDESTRIAN,RL  0,acts-10,N,769,140,169.335833,0.0
MAXMIN|MAXMIN|BOUNDARY,OTHER  LANES,S_W,<10-G,LOW  SPEED,PEDESTRIAN,RL  0,acts-10,N,769,140,170.336833,0.0
MAXMIN|MAXMIN|BOUNDARY,OTHER  LANES,S_W,<10-G,LOW  SPEED,PEDESTRIAN,RL  0,acts-10,N,769,140,171.337833,0
MAXMIN|MAXMIN|BOUNDARY,OTHER  LANES,S_W,<10-G,LOW  SPEED,PEDESTRIAN,RL  0,acts-10,N,769,140,172.338833,0.0
MAXMIN|MAXMIN|BOUNDARY,OTHER  LANES,S_W,<10-G,LOW  SPEED,PEDESTRIAN,RL  0,acts-10,N,769,140,173.339833,0
MAXMIN|MAXMIN|BOUNDARY,OTHER  LANES,S_W,<10-G,LOW  SPEED,PEDESTRIAN,RL  0,acts-10,N,769,140,174.340833,0.0
MAXMIN|MAXMIN|BOUNDARY,OTHER  LANES,S_W,<10-G,LOW  SPEED,PEDESTRIAN,RL  0,acts-10,N,769,140,175.341833,0.0
MAXMIN|MAXMIN|BOUNDARY,OTHER  LANES,S_W,<10-G,LOW  SPEED,PEDESTRIAN,RL  0,acts-10,N,769,140,176.342833,0.0
MAXMIN|MAXMIN|BOUNDARY,OTHER  LANES,S_W,<10-G,LOW  SPEED,PEDESTRIAN,RL  0,acts-10,N,769,140,177.343833,0
MAXMIN|MAXMIN|BOUNDARY,OTHER  LANES,S_W,<10-G,LOW  SPEED,PEDESTRIAN,RL  0,acts-10,N,769,234,264.264,0.0
MAXMIN|MAXMIN|BOUNDARY,OTHER  LANES,S_W,<10-G,LOW  SPEED,PEDESTRIAN,RL  0,acts-10,N,769,234,265.265,0.0
MAXMIN|MAXMIN|BOUNDARY,OTHER  LANES,S_W,<10-G,LOW  SPEED,PEDESTRIAN,RL  0,acts-10,N,769,234,266.266,0
MAXMIN|MAXMIN|BOUNDARY,OTHER  LANES,S_W,<10-G,LOW  SPEED,PEDESTRIAN,RL  0,acts-10,N,769,234,267.267,0
MAXMIN|MAXMIN|BOUNDARY,OTHER  LANES,S_W,<10-G,LOW  SPEED,PEDESTRIAN,RL  0,acts-10,N,769,234,268.268,0
MAXMIN|MAXMIN|BOUNDARY,OTHER  LANES,S_W,<10-G,LOW  SPEED,PEDESTRIAN,RL  0,acts-10,N,769,234,269.269,0.0
MAXMIN|MAXMIN|BOUNDARY,OTHER  LANES,S_W,<10-G,LOW  SPEED,PEDESTRIAN,RL  0,acts-10,N,769,234,270.27,0.0
MAXMIN|MAXMIN|BOUNDARY,OTHER  LANES,S_W,<10-G,LOW  SPEED,PEDESTRIAN,RL  0,acts-10,N,769,234,271.271,0.0
MAXMIN|MAXMIN|BOUNDARY,OTHER  LANES,S_W,<10-G,LOW  SPEED,PEDESTRIAN,RL  0,acts-10,N,769,234,272.272,0.0
MAXMIN|MAXMIN|BOUNDARY,OTHER  LANES,S_W,>EQ  10-Y/R,LOW  SPEED,PEDESTRIAN,RL  0,acts-3,Y,769,140,178.344833,0
MAXMIN|MAXMIN|BOUNDARY,OTHER  LANES,S_W,>EQ  10-Y/R,LOW  SPEED,PEDESTRIAN,RL  0,acts-3,Y,769,140,179.345833,0.007232000000000016
MAXMIN|MAXMIN|BOUNDARY,OTHER  LANES,S_W,>EQ  10-Y/R,LOW  SPEED,PEDESTRIAN,RL  0,acts-3,Y,769,149,182.348833,0.0010610000000000896
MAXMIN|MAXMIN|BOUNDARY,OTHER  LANES,S_W,>EQ  10-Y/R,LOW  SPEED,PEDESTRIAN,  RL  >  2,acts-3,Y,769,58,79.412667,0.05506899999999998
MAXMIN|MAXMIN|BOUNDARY,OTHER  LANES,S_W,>EQ  10-Y/R,LOW  SPEED,PEDESTRIAN,  RL  >  2,acts-3,N,769,58,81.414667,0
MAXMIN|MAXMIN|BOUNDARY,OTHER  LANES,S_W,>EQ  10-Y/R,LOW  SPEED,PEDESTRIAN,  RL  >  2,acts-3,N,769,58,83.416667,0
MAXMIN|MAXMIN|BOUNDARY,OTHER  LANES,S_W,>EQ  10-Y/R,LOW  SPEED,PEDESTRIAN,  RL  >  2,acts-11,N,769,88,80.413667,0.006948999999999983
MAXMIN|MAXMIN|BOUNDARY,OTHER  LANES,S_W,>EQ  10-Y/R,LOW  SPEED,PEDESTRIAN,  RL  >  2,acts-11,N,769,88,82.415667,0
MAXMIN|MAXMIN|BOUNDARY,OTHER  LANES,S_W,>EQ  10-Y/R,LOW  SPEED,PEDESTRIAN,  RL  >  2,acts-11,Y,769,88,83.416667,0.0
MAXMIN|MAXMIN|BOUNDARY,OTHER  LANES,S_W,>EQ  10-Y/R,LOW  SPEED,PEDESTRIAN,  RL  >  2,acts-11,N,769,88,85.418667,0
MAXMIN|MAXMIN|BOUNDARY,OTHER  LANES,S_W,>EQ  10-Y/R,LOW  SPEED,PEDESTRIAN,  RL  >  2,acts-11,N,769,88,87.420667,0
MAXMIN|MAXMIN|BOUNDARY,OTHER  LANES,S_W,>EQ  10-Y/R,LOW  SPEED,PEDESTRIAN,  RL  >  2,acts-11,N,769,99,87.420667,0.013616000000000017
MAXMIN|MAXMIN|BOUNDARY,OTHER  LANES,S_W,>EQ  10-Y/R,LOW  SPEED,PEDESTRIAN,  RL  >  2,acts-11,N,769,99,88.421667,0.025387999999999966
MAXMIN|MAXMIN|BOUNDARY,OTHER  LANES,S_W,>EQ  10-Y/R,LOW  SPEED,PEDESTRIAN,  RL  >  2,acts-11,N,769,99,89.422667,0.009073999999999971
MAXMIN|MAXMIN|BOUNDARY,OTHER  LANES,S_W,>EQ  10-Y/R,LOW  SPEED,NO  PEDESTRIAN,RL  0,acts-3,Y,769,121,115.6155,0
MAXMIN|MAXMIN|BOUNDARY,OTHER  LANES,S_W,>EQ  10-Y/R,LOW  SPEED,NO  PEDESTRIAN,  RL  <EQ  2,acts-11,N,769,99,100.433667,0
MAXMIN|MAXMIN|BOUNDARY,OTHER  LANES,S_W,>EQ  10-Y/R,LOW  SPEED,NO  PEDESTRIAN,  RL  <EQ  2,acts-11,N,769,119,107.273833,5.299999999996974e-05
MAXMIN|MAXMIN|BOUNDARY,OTHER  LANES,S_W,>EQ  10-Y/R,LOW  SPEED,NO  PEDESTRIAN,  RL  <EQ  2,acts-11,N,769,121,107.6075,0.00023000000000000798
MAXMIN|MAXMIN|BOUNDARY,OTHER  LANES,S_W,>EQ  10-Y/R,LOW  SPEED,NO  PEDESTRIAN,  RL  <EQ  2,acts-11,N,769,121,108.6085,0.04155199999999998
MAXMIN|MAXMIN|BOUNDARY,OTHER  LANES,S_W,>EQ  10-Y/R,LOW  SPEED,NO  PEDESTRIAN,  RL  <EQ  2,acts-11,Y,769,121,113.6135,0
MAXMIN|MAXMIN|BOUNDARY,OTHER  LANES,S_W,>EQ  10-Y/R,LOW  SPEED,NO  PEDESTRIAN,  RL  <EQ  2,acts-11,Y,769,121,114.6145,0
MAXMIN|MAXMIN|BOUNDARY,OTHER  LANES,S_W,>EQ  10-Y/R,LOW  SPEED,NO  PEDESTRIAN,  RL  >  2,acts-11,N,769,99,96.429667,0.0
MAXMIN|MAXMIN|BOUNDARY,OTHER  LANES,S_W,>EQ  10-Y/R,LOW  SPEED,NO  PEDESTRIAN,  RL  >  2,acts-11,Y,769,99,98.431667,0
MAXMIN|MAXMIN|BOUNDARY,OTHER  LANES,S_W,>EQ  10-Y/R,LOW  SPEED,NO  PEDESTRIAN,  RL  >  2,acts-11,N,769,99,99.432667,0
MAXMIN|MAXMIN|BOUNDARY,OTHER  LANES,S_W,>EQ  10-G,LOW  SPEED,PEDESTRIAN,RL  0,acts-10,N,769,58,54.387667,0.0
MAXMIN|MAXMIN|BOUNDARY,OTHER  LANES,S_W,>EQ  10-G,LOW  SPEED,PEDESTRIAN,RL  0,acts-10,N,769,58,55.388667,0.0
MAXMIN|MAXMIN|BOUNDARY,OTHER  LANES,S_W,>EQ  10-G,LOW  SPEED,PEDESTRIAN,RL  0,acts-10,N,769,58,56.389667,0.0
MAXMIN|MAXMIN|BOUNDARY,OTHER  LANES,S_W,>EQ  10-G,LOW  SPEED,PEDESTRIAN,RL  0,acts-10,N,769,58,57.390667,0
MAXMIN|MAXMIN|BOUNDARY,OTHER  LANES,S_W,>EQ  10-G,LOW  SPEED,PEDESTRIAN,RL  0,acts-10,N,769,58,58.391667,0.0
MAXMIN|MAXMIN|BOUNDARY,OTHER  LANES,S_W,>EQ  10-G,LOW  SPEED,PEDESTRIAN,RL  0,acts-10,N,769,58,59.392667,0.0
MAXMIN|MAXMIN|BOUNDARY,OTHER  LANES,S_W,>EQ  10-G,LOW  SPEED,PEDESTRIAN,RL  0,acts-10,N,769,58,60.393667,0.0
MAXMIN|MAXMIN|BOUNDARY,OTHER  LANES,S_W,>EQ  10-G,LOW  SPEED,PEDESTRIAN,RL  0,acts-10,N,769,58,61.394667,0.0
MAXMIN|MAXMIN|BOUNDARY,OTHER  LANES,S_W,>EQ  10-G,LOW  SPEED,PEDESTRIAN,RL  0,acts-10,N,769,58,62.395667,0.0
MAXMIN|MAXMIN|BOUNDARY,OTHER  LANES,S_W,>EQ  10-G,LOW  SPEED,PEDESTRIAN,RL  0,acts-10,N,769,58,63.396667,0.0
MAXMIN|MAXMIN|BOUNDARY,OTHER  LANES,S_W,>EQ  10-G,LOW  SPEED,PEDESTRIAN,RL  0,acts-10,N,769,58,64.397667,0
MAXMIN|MAXMIN|BOUNDARY,OTHER  LANES,S_W,>EQ  10-G,LOW  SPEED,PEDESTRIAN,RL  0,acts-10,N,769,58,65.398667,0.0
MAXMIN|MAXMIN|BOUNDARY,OTHER  LANES,S_W,>EQ  10-G,LOW  SPEED,PEDESTRIAN,RL  0,acts-10,N,769,58,66.399667,0
MAXMIN|MAXMIN|BOUNDARY,OTHER  LANES,S_W,>EQ  10-G,LOW  SPEED,PEDESTRIAN,RL  0,acts-10,N,769,58,67.400667,0
MAXMIN|MAXMIN|BOUNDARY,OTHER  LANES,S_W,>EQ  10-G,LOW  SPEED,PEDESTRIAN,RL  0,acts-10,N,769,140,150.316833,0
MAXMIN|MAXMIN|BOUNDARY,OTHER  LANES,S_W,>EQ  10-G,LOW  SPEED,PEDESTRIAN,RL  0,acts-10,N,769,140,151.317833,0.0
MAXMIN|MAXMIN|BOUNDARY,OTHER  LANES,S_W,>EQ  10-G,LOW  SPEED,PEDESTRIAN,RL  0,acts-10,N,769,140,152.318833,0
MAXMIN|MAXMIN|BOUNDARY,OTHER  LANES,S_W,>EQ  10-G,LOW  SPEED,PEDESTRIAN,RL  0,acts-10,N,769,140,153.319833,0
MAXMIN|MAXMIN|BOUNDARY,OTHER  LANES,S_W,>EQ  10-G,LOW  SPEED,PEDESTRIAN,RL  0,acts-10,N,769,140,154.320833,0
MAXMIN|MAXMIN|BOUNDARY,OTHER  LANES,S_W,>EQ  10-G,LOW  SPEED,PEDESTRIAN,RL  0,acts-10,N,769,140,155.321833,0.0
MAXMIN|MAXMIN|BOUNDARY,OTHER  LANES,S_W,>EQ  10-G,LOW  SPEED,PEDESTRIAN,RL  0,acts-10,N,769,140,156.322833,0
MAXMIN|MAXMIN|BOUNDARY,OTHER  LANES,S_W,>EQ  10-G,LOW  SPEED,PEDESTRIAN,RL  0,acts-10,N,769,140,157.323833,0
MAXMIN|MAXMIN|BOUNDARY,OTHER  LANES,S_W,>EQ  10-G,LOW  SPEED,PEDESTRIAN,RL  0,acts-10,N,769,140,158.324833,0.0
MAXMIN|MAXMIN|BOUNDARY,OTHER  LANES,S_W,>EQ  10-G,LOW  SPEED,PEDESTRIAN,RL  0,acts-10,N,769,140,159.325833,0
MAXMIN|MAXMIN|BOUNDARY,OTHER  LANES,S_W,>EQ  10-G,LOW  SPEED,PEDESTRIAN,RL  0,acts-10,N,769,140,160.326833,0
MAXMIN|MAXMIN|BOUNDARY,OTHER  LANES,S_W,>EQ  10-G,LOW  SPEED,PEDESTRIAN,RL  0,acts-10,N,769,140,161.327833,0.0
MAXMIN|MAXMIN|BOUNDARY,OTHER  LANES,S_W,>EQ  10-G,LOW  SPEED,PEDESTRIAN,RL  0,acts-10,N,769,140,162.328833,0.0
MAXMIN|MAXMIN|BOUNDARY,OTHER  LANES,S_W,>EQ  10-G,LOW  SPEED,PEDESTRIAN,RL  0,acts-10,N,769,140,163.329833,0.0
MAXMIN|MAXMIN|BOUNDARY,OTHER  LANES,S_W,>EQ  10-G,LOW  SPEED,PEDESTRIAN,RL  0,acts-10,N,769,140,164.330833,0.0
MAXMIN|MAXMIN|BOUNDARY,OTHER  LANES,S_W,>EQ  10-G,LOW  SPEED,PEDESTRIAN,RL  0,acts-10,N,769,140,165.331833,0.0
MAXMIN|MAXMIN|BOUNDARY,OTHER  LANES,S_W,>EQ  10-G,LOW  SPEED,PEDESTRIAN,RL  0,acts-10,N,769,140,166.332833,0.0
MAXMIN|MAXMIN|BOUNDARY,OTHER  LANES,S_W,>EQ  10-G,LOW  SPEED,PEDESTRIAN,RL  0,acts-10,N,769,140,167.333833,0.0
MAXMIN|MAXMIN|BOUNDARY,OTHER  LANES,S_W,>EQ  10-G,LOW  SPEED,PEDESTRIAN,RL  0,acts-10,N,769,234,251.251,0.0
MAXMIN|MAXMIN|BOUNDARY,OTHER  LANES,S_W,>EQ  10-G,LOW  SPEED,PEDESTRIAN,RL  0,acts-10,N,769,234,252.252,0.0
MAXMIN|MAXMIN|BOUNDARY,OTHER  LANES,S_W,>EQ  10-G,LOW  SPEED,PEDESTRIAN,RL  0,acts-10,N,769,234,253.253,0.0
MAXMIN|MAXMIN|BOUNDARY,OTHER  LANES,S_W,>EQ  10-G,LOW  SPEED,PEDESTRIAN,RL  0,acts-10,N,769,234,254.254,0.0
MAXMIN|MAXMIN|BOUNDARY,OTHER  LANES,S_W,>EQ  10-G,LOW  SPEED,PEDESTRIAN,RL  0,acts-10,N,769,234,255.255,0.0
MAXMIN|MAXMIN|BOUNDARY,OTHER  LANES,S_W,>EQ  10-G,LOW  SPEED,PEDESTRIAN,RL  0,acts-10,N,769,234,256.256,0.0
MAXMIN|MAXMIN|BOUNDARY,OTHER  LANES,S_W,>EQ  10-G,LOW  SPEED,PEDESTRIAN,RL  0,acts-10,N,769,234,257.257,0.0
MAXMIN|MAXMIN|BOUNDARY,OTHER  LANES,S_W,>EQ  10-G,LOW  SPEED,PEDESTRIAN,RL  0,acts-10,N,769,234,258.258,0
MAXMIN|MAXMIN|BOUNDARY,OTHER  LANES,S_W,>EQ  10-G,LOW  SPEED,PEDESTRIAN,RL  0,acts-10,N,769,234,259.259,0.0
MAXMIN|MAXMIN|BOUNDARY,OTHER  LANES,S_W,>EQ  10-G,LOW  SPEED,PEDESTRIAN,RL  0,acts-10,N,769,234,260.26,0
MAXMIN|MAXMIN|BOUNDARY,OTHER  LANES,S_W,>EQ  10-G,LOW  SPEED,PEDESTRIAN,RL  0,acts-10,N,769,234,261.261,0.0
MAXMIN|MAXMIN|BOUNDARY,OTHER  LANES,S_W,>EQ  10-G,LOW  SPEED,PEDESTRIAN,RL  0,acts-10,N,769,234,262.262,0.0
MAXMIN|MAXMIN|BOUNDARY,OTHER  LANES,S_W,>EQ  10-G,LOW  SPEED,PEDESTRIAN,RL  0,acts-10,N,769,234,263.263,0
MAXMIN|MAXMIN|BOUNDARY,OTHER  LANES,S_W,>EQ  10-G,LOW  SPEED,NO  PEDESTRIAN,RL  0,acts-10,N,769,58,48.381667,0.0
MAXMIN|MAXMIN|BOUNDARY,OTHER  LANES,S_W,>EQ  10-G,LOW  SPEED,NO  PEDESTRIAN,RL  0,acts-10,N,769,58,49.382667,0
MAXMIN|MAXMIN|BOUNDARY,OTHER  LANES,S_W,>EQ  10-G,LOW  SPEED,NO  PEDESTRIAN,RL  0,acts-10,N,769,58,50.383667,0.0
MAXMIN|MAXMIN|BOUNDARY,OTHER  LANES,S_W,>EQ  10-G,LOW  SPEED,NO  PEDESTRIAN,RL  0,acts-10,N,769,58,51.384667,0.0
MAXMIN|MAXMIN|BOUNDARY,OTHER  LANES,S_W,>EQ  10-G,LOW  SPEED,NO  PEDESTRIAN,RL  0,acts-10,N,769,58,52.385667,0.0
MAXMIN|MAXMIN|BOUNDARY,OTHER  LANES,S_W,>EQ  10-G,LOW  SPEED,NO  PEDESTRIAN,RL  0,acts-10,N,769,58,53.386667,0.0
MAXMIN|MAXMIN|BOUNDARY,OTHER  LANES,S_W,>EQ  10-G,LOW  SPEED,NO  PEDESTRIAN,RL  0,acts-10,N,769,140,130.296833,0.0
MAXMIN|MAXMIN|BOUNDARY,OTHER  LANES,S_W,>EQ  10-G,LOW  SPEED,NO  PEDESTRIAN,RL  0,acts-10,N,769,140,131.297833,0.0
MAXMIN|MAXMIN|BOUNDARY,OTHER  LANES,S_W,>EQ  10-G,LOW  SPEED,NO  PEDESTRIAN,RL  0,acts-10,N,769,140,132.298833,0
MAXMIN|MAXMIN|BOUNDARY,OTHER  LANES,S_W,>EQ  10-G,LOW  SPEED,NO  PEDESTRIAN,RL  0,acts-10,N,769,140,133.299833,0.0
MAXMIN|MAXMIN|BOUNDARY,OTHER  LANES,S_W,>EQ  10-G,LOW  SPEED,NO  PEDESTRIAN,RL  0,acts-10,N,769,140,134.300833,0.0
MAXMIN|MAXMIN|BOUNDARY,OTHER  LANES,S_W,>EQ  10-G,LOW  SPEED,NO  PEDESTRIAN,RL  0,acts-10,N,769,140,135.301833,0.0
MAXMIN|MAXMIN|BOUNDARY,OTHER  LANES,S_W,>EQ  10-G,LOW  SPEED,NO  PEDESTRIAN,RL  0,acts-10,N,769,140,136.302833,0
MAXMIN|MAXMIN|BOUNDARY,OTHER  LANES,S_W,>EQ  10-G,LOW  SPEED,NO  PEDESTRIAN,RL  0,acts-10,N,769,140,137.303833,0.0
MAXMIN|MAXMIN|BOUNDARY,OTHER  LANES,S_W,>EQ  10-G,LOW  SPEED,NO  PEDESTRIAN,RL  0,acts-10,N,769,140,138.304833,0.0
MAXMIN|MAXMIN|BOUNDARY,OTHER  LANES,S_W,>EQ  10-G,LOW  SPEED,NO  PEDESTRIAN,RL  0,acts-10,N,769,140,139.305833,0
MAXMIN|MAXMIN|BOUNDARY,OTHER  LANES,S_W,>EQ  10-G,LOW  SPEED,NO  PEDESTRIAN,RL  0,acts-10,N,769,140,140.306833,0.0
MAXMIN|MAXMIN|BOUNDARY,OTHER  LANES,S_W,>EQ  10-G,LOW  SPEED,NO  PEDESTRIAN,RL  0,acts-10,N,769,140,141.307833,0
MAXMIN|MAXMIN|BOUNDARY,OTHER  LANES,S_W,>EQ  10-G,LOW  SPEED,NO  PEDESTRIAN,RL  0,acts-10,N,769,140,142.308833,0
MAXMIN|MAXMIN|BOUNDARY,OTHER  LANES,S_W,>EQ  10-G,LOW  SPEED,NO  PEDESTRIAN,RL  0,acts-10,N,769,140,143.309833,0.0
MAXMIN|MAXMIN|BOUNDARY,OTHER  LANES,S_W,>EQ  10-G,LOW  SPEED,NO  PEDESTRIAN,RL  0,acts-10,N,769,140,144.310833,0
MAXMIN|MAXMIN|BOUNDARY,OTHER  LANES,S_W,>EQ  10-G,LOW  SPEED,NO  PEDESTRIAN,RL  0,acts-10,N,769,140,145.311833,0.0
MAXMIN|MAXMIN|BOUNDARY,OTHER  LANES,S_W,>EQ  10-G,LOW  SPEED,NO  PEDESTRIAN,RL  0,acts-10,N,769,140,146.312833,0.0
MAXMIN|MAXMIN|BOUNDARY,OTHER  LANES,S_W,>EQ  10-G,LOW  SPEED,NO  PEDESTRIAN,RL  0,acts-10,N,769,140,147.313833,0
MAXMIN|MAXMIN|BOUNDARY,OTHER  LANES,S_W,>EQ  10-G,LOW  SPEED,NO  PEDESTRIAN,RL  0,acts-10,N,769,140,148.314833,0
MAXMIN|MAXMIN|BOUNDARY,OTHER  LANES,S_W,>EQ  10-G,LOW  SPEED,NO  PEDESTRIAN,RL  0,acts-10,N,769,140,149.315833,0.0
MAXMIN|MAXMIN|BOUNDARY,OTHER  LANES,S_W,>EQ  10-G,LOW  SPEED,NO  PEDESTRIAN,RL  0,acts-10,Y,769,234,241.241,0.0
MAXMIN|MAXMIN|BOUNDARY,OTHER  LANES,S_W,>EQ  10-G,LOW  SPEED,NO  PEDESTRIAN,RL  0,acts-10,N,769,234,242.242,0.0
MAXMIN|MAXMIN|BOUNDARY,OTHER  LANES,S_W,>EQ  10-G,LOW  SPEED,NO  PEDESTRIAN,RL  0,acts-10,Y,769,234,243.243,0
MAXMIN|MAXMIN|BOUNDARY,OTHER  LANES,S_W,>EQ  10-G,LOW  SPEED,NO  PEDESTRIAN,RL  0,acts-10,Y,769,234,244.244,0.0
MAXMIN|MAXMIN|BOUNDARY,OTHER  LANES,S_W,>EQ  10-G,LOW  SPEED,NO  PEDESTRIAN,RL  0,acts-10,N,769,234,245.245,0.0
MAXMIN|MAXMIN|BOUNDARY,OTHER  LANES,S_W,>EQ  10-G,LOW  SPEED,NO  PEDESTRIAN,RL  0,acts-10,N,769,234,246.246,0.0
MAXMIN|MAXMIN|BOUNDARY,OTHER  LANES,S_W,>EQ  10-G,LOW  SPEED,NO  PEDESTRIAN,RL  0,acts-10,N,769,234,247.247,0
MAXMIN|MAXMIN|BOUNDARY,OTHER  LANES,S_W,>EQ  10-G,LOW  SPEED,NO  PEDESTRIAN,RL  0,acts-10,N,769,234,248.248,0.0
MAXMIN|MAXMIN|BOUNDARY,OTHER  LANES,S_W,>EQ  10-G,LOW  SPEED,NO  PEDESTRIAN,RL  0,acts-10,N,769,234,249.249,0.0
MAXMIN|MAXMIN|BOUNDARY,OTHER  LANES,S_W,>EQ  10-G,LOW  SPEED,NO  PEDESTRIAN,RL  0,acts-10,N,769,234,250.25,0.0
MAXMIN|MAXMIN|BOUNDARY,OTHER  LANES,N_E,<10-Y/R,LOW  SPEED,NO  PEDESTRIAN,RL  0,acts-3,Y,769,160,180.18,0.003454000000000068
MAXMIN|MAXMIN|BOUNDARY,OTHER  LANES,N_E,<10-Y/R,LOW  SPEED,NO  PEDESTRIAN,RL  0,acts-3,Y,769,176,182.515667,0.0071430000000000105
MAXMIN|MAXMIN|BOUNDARY,OTHER  LANES,N_E,<10-Y/R,LOW  SPEED,NO  PEDESTRIAN,RL  0,acts-3,Y,769,220,221.888333,0.01439299999999999
MAXMIN|MAXMIN|BOUNDARY,OTHER  LANES,N_E,<10-Y/R,MEDIUM  SPEED,NO  PEDESTRIAN,RL  0,acts-3,Y,769,178,186.519667,0.011032000000000042
MAXMIN|MAXMIN|BOUNDARY,OTHER  LANES,N_E,<10-Y/R,MEDIUM  SPEED,NO  PEDESTRIAN,RL  0,acts-3,Y,769,179,188.855333,0.013210999999999973
MAXMIN|MAXMIN|BOUNDARY,OTHER  LANES,N_E,<10-G,LOW  SPEED,NO  PEDESTRIAN,RL  0,acts-10,N,769,160,168.168,0.0
MAXMIN|MAXMIN|BOUNDARY,OTHER  LANES,N_E,<10-G,LOW  SPEED,NO  PEDESTRIAN,RL  0,acts-10,N,769,160,169.169,0.0
MAXMIN|MAXMIN|BOUNDARY,OTHER  LANES,N_E,<10-G,LOW  SPEED,NO  PEDESTRIAN,RL  0,acts-10,N,769,160,170.17,0.0
MAXMIN|MAXMIN|BOUNDARY,OTHER  LANES,N_E,<10-G,LOW  SPEED,NO  PEDESTRIAN,RL  0,acts-10,N,769,160,171.171,0.0
MAXMIN|MAXMIN|BOUNDARY,OTHER  LANES,N_E,<10-G,LOW  SPEED,NO  PEDESTRIAN,RL  0,acts-10,N,769,160,172.172,0
MAXMIN|MAXMIN|BOUNDARY,OTHER  LANES,N_E,<10-G,LOW  SPEED,NO  PEDESTRIAN,RL  0,acts-10,N,769,160,173.173,0.0
MAXMIN|MAXMIN|BOUNDARY,OTHER  LANES,N_E,<10-G,LOW  SPEED,NO  PEDESTRIAN,RL  0,acts-10,N,769,160,174.174,0.0
MAXMIN|MAXMIN|BOUNDARY,OTHER  LANES,N_E,<10-G,LOW  SPEED,NO  PEDESTRIAN,RL  0,acts-10,N,769,160,175.175,0.0
MAXMIN|MAXMIN|BOUNDARY,OTHER  LANES,N_E,<10-G,LOW  SPEED,NO  PEDESTRIAN,RL  0,acts-10,N,769,160,176.176,0.0
MAXMIN|MAXMIN|BOUNDARY,OTHER  LANES,N_E,<10-G,LOW  SPEED,NO  PEDESTRIAN,RL  0,acts-10,N,769,160,177.177,0.0
MAXMIN|MAXMIN|BOUNDARY,OTHER  LANES,N_E,<10-G,LOW  SPEED,NO  PEDESTRIAN,RL  0,acts-10,N,769,249,263.596667,0.0
MAXMIN|MAXMIN|BOUNDARY,OTHER  LANES,N_E,<10-G,LOW  SPEED,NO  PEDESTRIAN,RL  0,acts-10,N,769,249,264.597667,0.0
MAXMIN|MAXMIN|BOUNDARY,OTHER  LANES,N_E,<10-G,LOW  SPEED,NO  PEDESTRIAN,RL  0,acts-10,N,769,249,265.598667,0
MAXMIN|MAXMIN|BOUNDARY,OTHER  LANES,N_E,<10-G,LOW  SPEED,NO  PEDESTRIAN,RL  0,acts-10,N,769,249,266.599667,0.0
MAXMIN|MAXMIN|BOUNDARY,OTHER  LANES,N_E,<10-G,LOW  SPEED,NO  PEDESTRIAN,RL  0,acts-10,N,769,249,267.600667,0.0
MAXMIN|MAXMIN|BOUNDARY,OTHER  LANES,N_E,<10-G,LOW  SPEED,NO  PEDESTRIAN,RL  0,acts-10,N,769,249,268.601667,0.0
MAXMIN|MAXMIN|BOUNDARY,OTHER  LANES,N_E,<10-G,LOW  SPEED,NO  PEDESTRIAN,RL  0,acts-10,N,769,249,269.602667,0
MAXMIN|MAXMIN|BOUNDARY,OTHER  LANES,N_E,<10-G,LOW  SPEED,NO  PEDESTRIAN,RL  0,acts-10,N,769,249,270.603667,0.0
MAXMIN|MAXMIN|BOUNDARY,OTHER  LANES,N_E,<10-G,LOW  SPEED,NO  PEDESTRIAN,RL  0,acts-10,N,769,249,271.604667,0.0
MAXMIN|MAXMIN|BOUNDARY,OTHER  LANES,N_E,<10-G,LOW  SPEED,NO  PEDESTRIAN,RL  0,acts-10,N,769,249,272.605667,0.0
MAXMIN|MAXMIN|BOUNDARY,OTHER  LANES,N_E,>EQ  10-Y/R,LOW  SPEED,NO  PEDESTRIAN,RL  0,acts-3,N,769,129,114.781333,0.00268999999999997
MAXMIN|MAXMIN|BOUNDARY,OTHER  LANES,N_E,>EQ  10-Y/R,LOW  SPEED,NO  PEDESTRIAN,RL  0,acts-3,Y,769,160,178.178,0.008147000000000015
MAXMIN|MAXMIN|BOUNDARY,OTHER  LANES,N_E,>EQ  10-Y/R,LOW  SPEED,NO  PEDESTRIAN,RL  0,acts-3,Y,769,160,179.179,0.014436000000000004
MAXMIN|MAXMIN|BOUNDARY,OTHER  LANES,N_E,>EQ  10-Y/R,MEDIUM  SPEED,NO  PEDESTRIAN,RL  0,acts-3,Y,769,31,12.846167,0.010911000000000004
MAXMIN|MAXMIN|BOUNDARY,OTHER  LANES,N_E,>EQ  10-G,LOW  SPEED,NO  PEDESTRIAN,RL  0,acts-10,N,769,160,156.156,0.0
MAXMIN|MAXMIN|BOUNDARY,OTHER  LANES,N_E,>EQ  10-G,LOW  SPEED,NO  PEDESTRIAN,RL  0,acts-10,N,769,160,157.157,0.0
MAXMIN|MAXMIN|BOUNDARY,OTHER  LANES,N_E,>EQ  10-G,LOW  SPEED,NO  PEDESTRIAN,RL  0,acts-10,N,769,160,158.158,0.0
MAXMIN|MAXMIN|BOUNDARY,OTHER  LANES,N_E,>EQ  10-G,LOW  SPEED,NO  PEDESTRIAN,RL  0,acts-10,N,769,160,159.159,0.0
MAXMIN|MAXMIN|BOUNDARY,OTHER  LANES,N_E,>EQ  10-G,LOW  SPEED,NO  PEDESTRIAN,RL  0,acts-10,N,769,160,160.16,0.0
MAXMIN|MAXMIN|BOUNDARY,OTHER  LANES,N_E,>EQ  10-G,LOW  SPEED,NO  PEDESTRIAN,RL  0,acts-10,N,769,160,161.161,0.0
MAXMIN|MAXMIN|BOUNDARY,OTHER  LANES,N_E,>EQ  10-G,LOW  SPEED,NO  PEDESTRIAN,RL  0,acts-10,N,769,160,162.162,0
MAXMIN|MAXMIN|BOUNDARY,OTHER  LANES,N_E,>EQ  10-G,LOW  SPEED,NO  PEDESTRIAN,RL  0,acts-10,N,769,160,163.163,0
MAXMIN|MAXMIN|BOUNDARY,OTHER  LANES,N_E,>EQ  10-G,LOW  SPEED,NO  PEDESTRIAN,RL  0,acts-10,N,769,160,164.164,0.0
MAXMIN|MAXMIN|BOUNDARY,OTHER  LANES,N_E,>EQ  10-G,LOW  SPEED,NO  PEDESTRIAN,RL  0,acts-10,N,769,160,165.165,0.0
MAXMIN|MAXMIN|BOUNDARY,OTHER  LANES,N_E,>EQ  10-G,LOW  SPEED,NO  PEDESTRIAN,RL  0,acts-10,N,769,160,166.166,0.0
MAXMIN|MAXMIN|BOUNDARY,OTHER  LANES,N_E,>EQ  10-G,LOW  SPEED,NO  PEDESTRIAN,RL  0,acts-10,N,769,160,167.167,0.0
MAXMIN|MAXMIN|BOUNDARY,OTHER  LANES,N_E,>EQ  10-G,LOW  SPEED,NO  PEDESTRIAN,RL  0,acts-10,N,769,249,256.589667,0.0
MAXMIN|MAXMIN|BOUNDARY,OTHER  LANES,N_E,>EQ  10-G,LOW  SPEED,NO  PEDESTRIAN,RL  0,acts-10,N,769,249,257.590667,0
MAXMIN|MAXMIN|BOUNDARY,OTHER  LANES,N_E,>EQ  10-G,LOW  SPEED,NO  PEDESTRIAN,RL  0,acts-10,N,769,249,258.591667,0.0
MAXMIN|MAXMIN|BOUNDARY,OTHER  LANES,N_E,>EQ  10-G,LOW  SPEED,NO  PEDESTRIAN,RL  0,acts-10,N,769,249,259.592667,0
MAXMIN|MAXMIN|BOUNDARY,OTHER  LANES,N_E,>EQ  10-G,LOW  SPEED,NO  PEDESTRIAN,RL  0,acts-10,N,769,249,260.593667,0
MAXMIN|MAXMIN|BOUNDARY,OTHER  LANES,N_E,>EQ  10-G,LOW  SPEED,NO  PEDESTRIAN,RL  0,acts-10,N,769,249,261.594667,0.0
MAXMIN|MAXMIN|BOUNDARY,OTHER  LANES,N_E,>EQ  10-G,LOW  SPEED,NO  PEDESTRIAN,RL  0,acts-10,N,769,249,262.595667,0.0
MAXMIN|MAXMIN|BOUNDARY,OTHER  LANES,W_N,<10-Y/R,LOW  SPEED,NO  PEDESTRIAN,RL  0,acts-3,Y,769,253,262.095167,0
MAXMIN|MAXMIN|BOUNDARY,OTHER  LANES,W_N,<10-Y/R,MEDIUM  SPEED,NO  PEDESTRIAN,RL  0,acts-3,Y,769,253,263.096167,0.00017299999999997873
MAXMIN|MAXMIN|BOUNDARY,OTHER  LANES,W_N,<10-G,LOW  SPEED,PEDESTRIAN,RL  0,acts-10,N,769,116,126.6265,0.0
MAXMIN|MAXMIN|BOUNDARY,OTHER  LANES,W_N,<10-G,LOW  SPEED,PEDESTRIAN,RL  0,acts-10,N,769,116,127.6275,0
MAXMIN|MAXMIN|BOUNDARY,OTHER  LANES,W_N,<10-G,LOW  SPEED,PEDESTRIAN,RL  0,acts-10,N,769,116,128.6285,0
MAXMIN|MAXMIN|BOUNDARY,OTHER  LANES,W_N,<10-G,LOW  SPEED,PEDESTRIAN,RL  0,acts-10,N,769,116,129.6295,0.0
MAXMIN|MAXMIN|BOUNDARY,OTHER  LANES,W_N,<10-G,LOW  SPEED,PEDESTRIAN,RL  0,acts-10,N,769,116,130.6305,0.0
MAXMIN|MAXMIN|BOUNDARY,OTHER  LANES,W_N,<10-G,LOW  SPEED,PEDESTRIAN,RL  0,acts-10,Y,769,116,131.6315,0
MAXMIN|MAXMIN|BOUNDARY,OTHER  LANES,W_N,<10-G,LOW  SPEED,NO  PEDESTRIAN,RL  0,acts-10,N,769,14,23.023,0
MAXMIN|MAXMIN|BOUNDARY,OTHER  LANES,W_N,<10-G,LOW  SPEED,NO  PEDESTRIAN,RL  0,acts-10,N,769,14,24.024,0
MAXMIN|MAXMIN|BOUNDARY,OTHER  LANES,W_N,<10-G,LOW  SPEED,NO  PEDESTRIAN,RL  0,acts-10,N,769,14,25.025,0
MAXMIN|MAXMIN|BOUNDARY,OTHER  LANES,W_N,<10-G,LOW  SPEED,NO  PEDESTRIAN,RL  0,acts-10,N,769,14,26.026,0
MAXMIN|MAXMIN|BOUNDARY,OTHER  LANES,W_N,<10-G,LOW  SPEED,NO  PEDESTRIAN,RL  0,acts-10,N,769,14,27.027,0.0
MAXMIN|MAXMIN|BOUNDARY,OTHER  LANES,W_N,<10-G,LOW  SPEED,NO  PEDESTRIAN,RL  0,acts-10,N,769,14,28.028,0.0
MAXMIN|MAXMIN|BOUNDARY,OTHER  LANES,W_N,<10-G,LOW  SPEED,NO  PEDESTRIAN,RL  0,acts-10,N,769,14,29.029,0.0
MAXMIN|MAXMIN|BOUNDARY,OTHER  LANES,W_N,<10-G,LOW  SPEED,NO  PEDESTRIAN,RL  0,acts-10,N,769,14,30.03,0
MAXMIN|MAXMIN|BOUNDARY,OTHER  LANES,W_N,<10-G,LOW  SPEED,NO  PEDESTRIAN,RL  0,acts-10,N,769,14,31.031,0.0
MAXMIN|MAXMIN|BOUNDARY,OTHER  LANES,W_N,<10-G,LOW  SPEED,NO  PEDESTRIAN,RL  0,acts-10,Y,769,14,32.032,0
MAXMIN|MAXMIN|BOUNDARY,OTHER  LANES,W_N,<10-G,LOW  SPEED,NO  PEDESTRIAN,RL  0,acts-10,N,769,116,122.6225,0.0
MAXMIN|MAXMIN|BOUNDARY,OTHER  LANES,W_N,<10-G,LOW  SPEED,NO  PEDESTRIAN,RL  0,acts-10,N,769,116,123.6235,0.0
MAXMIN|MAXMIN|BOUNDARY,OTHER  LANES,W_N,<10-G,LOW  SPEED,NO  PEDESTRIAN,RL  0,acts-10,N,769,116,124.6245,0.0
MAXMIN|MAXMIN|BOUNDARY,OTHER  LANES,W_N,<10-G,LOW  SPEED,NO  PEDESTRIAN,RL  0,acts-10,N,769,116,125.6255,0
MAXMIN|MAXMIN|BOUNDARY,OTHER  LANES,W_N,>EQ  10-Y/R,LOW  SPEED,PEDESTRIAN,RL  0,acts-3,Y,769,116,132.6325,0
MAXMIN|MAXMIN|BOUNDARY,OTHER  LANES,W_N,>EQ  10-Y/R,LOW  SPEED,PEDESTRIAN,RL  0,acts-3,Y,769,116,133.6335,0.008125000000000049
MAXMIN|MAXMIN|BOUNDARY,OTHER  LANES,W_N,>EQ  10-Y/R,LOW  SPEED,PEDESTRIAN,RL  0,acts-3,N,769,141,136.469667,0
MAXMIN|MAXMIN|BOUNDARY,OTHER  LANES,W_N,>EQ  10-Y/R,LOW  SPEED,NO  PEDESTRIAN,RL  0,acts-3,Y,769,14,33.033,0
MAXMIN|MAXMIN|BOUNDARY,OTHER  LANES,W_N,>EQ  10-Y/R,LOW  SPEED,NO  PEDESTRIAN,RL  0,acts-3,Y,769,14,34.034,0.00034599999999995745
MAXMIN|MAXMIN|BOUNDARY,OTHER  LANES,W_N,>EQ  10-Y/R,LOW  SPEED,NO  PEDESTRIAN,RL  0,acts-3,Y,769,25,36.369667,0
MAXMIN|MAXMIN|BOUNDARY,OTHER  LANES,W_N,>EQ  10-Y/R,LOW  SPEED,NO  PEDESTRIAN,  RL  >  2,acts-3,Y,769,53,44.5445,0.033453999999999984
MAXMIN|MAXMIN|BOUNDARY,OTHER  LANES,W_N,>EQ  10-Y/R,MEDIUM  SPEED,NO  PEDESTRIAN,  RL  <EQ  2,acts-3,Y,769,164,158.992167,0
MAXMIN|MAXMIN|BOUNDARY,OTHER  LANES,W_N,>EQ  10-G,LOW  SPEED,NO  PEDESTRIAN,RL  0,acts-10,N,769,14,0,0.0
MAXMIN|MAXMIN|BOUNDARY,OTHER  LANES,W_N,>EQ  10-G,LOW  SPEED,NO  PEDESTRIAN,RL  0,acts-10,N,769,14,1.001,0
MAXMIN|MAXMIN|BOUNDARY,OTHER  LANES,W_N,>EQ  10-G,LOW  SPEED,NO  PEDESTRIAN,RL  0,acts-10,N,769,14,10.01,0.0
MAXMIN|MAXMIN|BOUNDARY,OTHER  LANES,W_N,>EQ  10-G,LOW  SPEED,NO  PEDESTRIAN,RL  0,acts-10,N,769,14,11.011,0.0
MAXMIN|MAXMIN|BOUNDARY,OTHER  LANES,W_N,>EQ  10-G,LOW  SPEED,NO  PEDESTRIAN,RL  0,acts-10,N,769,14,12.012,0
MAXMIN|MAXMIN|BOUNDARY,OTHER  LANES,W_N,>EQ  10-G,LOW  SPEED,NO  PEDESTRIAN,RL  0,acts-10,N,769,14,13.013,0
MAXMIN|MAXMIN|BOUNDARY,OTHER  LANES,W_N,>EQ  10-G,LOW  SPEED,NO  PEDESTRIAN,RL  0,acts-10,N,769,14,14.014,0.0
MAXMIN|MAXMIN|BOUNDARY,OTHER  LANES,W_N,>EQ  10-G,LOW  SPEED,NO  PEDESTRIAN,RL  0,acts-10,N,769,14,15.015,0.0
MAXMIN|MAXMIN|BOUNDARY,OTHER  LANES,W_N,>EQ  10-G,LOW  SPEED,NO  PEDESTRIAN,RL  0,acts-10,N,769,14,16.016,0.0
MAXMIN|MAXMIN|BOUNDARY,OTHER  LANES,W_N,>EQ  10-G,LOW  SPEED,NO  PEDESTRIAN,RL  0,acts-10,N,769,14,17.017,0.0
MAXMIN|MAXMIN|BOUNDARY,OTHER  LANES,W_N,>EQ  10-G,LOW  SPEED,NO  PEDESTRIAN,RL  0,acts-10,N,769,14,18.018,0.0
MAXMIN|MAXMIN|BOUNDARY,OTHER  LANES,W_N,>EQ  10-G,LOW  SPEED,NO  PEDESTRIAN,RL  0,acts-10,N,769,14,19.019,0.0
MAXMIN|MAXMIN|BOUNDARY,OTHER  LANES,W_N,>EQ  10-G,LOW  SPEED,NO  PEDESTRIAN,RL  0,acts-10,N,769,14,2.002,0.0
MAXMIN|MAXMIN|BOUNDARY,OTHER  LANES,W_N,>EQ  10-G,LOW  SPEED,NO  PEDESTRIAN,RL  0,acts-10,N,769,14,20.02,0
MAXMIN|MAXMIN|BOUNDARY,OTHER  LANES,W_N,>EQ  10-G,LOW  SPEED,NO  PEDESTRIAN,RL  0,acts-10,N,769,14,21.021,0.0
MAXMIN|MAXMIN|BOUNDARY,OTHER  LANES,W_N,>EQ  10-G,LOW  SPEED,NO  PEDESTRIAN,RL  0,acts-10,N,769,14,22.022,0
MAXMIN|MAXMIN|BOUNDARY,OTHER  LANES,W_N,>EQ  10-G,LOW  SPEED,NO  PEDESTRIAN,RL  0,acts-10,N,769,14,3.003,0.0
MAXMIN|MAXMIN|BOUNDARY,OTHER  LANES,W_N,>EQ  10-G,LOW  SPEED,NO  PEDESTRIAN,RL  0,acts-10,N,769,14,4.004,0.0
MAXMIN|MAXMIN|BOUNDARY,OTHER  LANES,W_N,>EQ  10-G,LOW  SPEED,NO  PEDESTRIAN,RL  0,acts-10,N,769,14,5.005,0.0
MAXMIN|MAXMIN|BOUNDARY,OTHER  LANES,W_N,>EQ  10-G,LOW  SPEED,NO  PEDESTRIAN,RL  0,acts-10,N,769,14,6.006,0
MAXMIN|MAXMIN|BOUNDARY,OTHER  LANES,W_N,>EQ  10-G,LOW  SPEED,NO  PEDESTRIAN,RL  0,acts-10,N,769,14,7.007,0.0
MAXMIN|MAXMIN|BOUNDARY,OTHER  LANES,W_N,>EQ  10-G,LOW  SPEED,NO  PEDESTRIAN,RL  0,acts-10,N,769,14,8.008,0.0
MAXMIN|MAXMIN|BOUNDARY,OTHER  LANES,W_N,>EQ  10-G,LOW  SPEED,NO  PEDESTRIAN,RL  0,acts-10,N,769,14,9.009,0.0
MAXMIN|MAXMIN|BOUNDARY,OTHER  LANES,W_N,>EQ  10-G,LOW  SPEED,NO  PEDESTRIAN,RL  0,acts-10,Y,769,116,101.6015,0
MAXMIN|MAXMIN|BOUNDARY,OTHER  LANES,W_N,>EQ  10-G,LOW  SPEED,NO  PEDESTRIAN,RL  0,acts-10,N,769,116,102.6025,0.0
MAXMIN|MAXMIN|BOUNDARY,OTHER  LANES,W_N,>EQ  10-G,LOW  SPEED,NO  PEDESTRIAN,RL  0,acts-10,Y,769,116,103.6035,0.0
MAXMIN|MAXMIN|BOUNDARY,OTHER  LANES,W_N,>EQ  10-G,LOW  SPEED,NO  PEDESTRIAN,RL  0,acts-10,Y,769,116,104.6045,0.0
MAXMIN|MAXMIN|BOUNDARY,OTHER  LANES,W_N,>EQ  10-G,LOW  SPEED,NO  PEDESTRIAN,RL  0,acts-10,Y,769,116,105.6055,0.0
MAXMIN|MAXMIN|BOUNDARY,OTHER  LANES,W_N,>EQ  10-G,LOW  SPEED,NO  PEDESTRIAN,RL  0,acts-10,Y,769,116,106.6065,0
MAXMIN|MAXMIN|BOUNDARY,OTHER  LANES,W_N,>EQ  10-G,LOW  SPEED,NO  PEDESTRIAN,RL  0,acts-10,Y,769,116,107.6075,0.0
MAXMIN|MAXMIN|BOUNDARY,OTHER  LANES,W_N,>EQ  10-G,LOW  SPEED,NO  PEDESTRIAN,RL  0,acts-10,N,769,116,108.6085,0.0
MAXMIN|MAXMIN|BOUNDARY,OTHER  LANES,W_N,>EQ  10-G,LOW  SPEED,NO  PEDESTRIAN,RL  0,acts-10,N,769,116,109.6095,0.0
MAXMIN|MAXMIN|BOUNDARY,OTHER  LANES,W_N,>EQ  10-G,LOW  SPEED,NO  PEDESTRIAN,RL  0,acts-10,N,769,116,110.6105,0.0
MAXMIN|MAXMIN|BOUNDARY,OTHER  LANES,W_N,>EQ  10-G,LOW  SPEED,NO  PEDESTRIAN,RL  0,acts-10,N,769,116,111.6115,0.0
MAXMIN|MAXMIN|BOUNDARY,OTHER  LANES,W_N,>EQ  10-G,LOW  SPEED,NO  PEDESTRIAN,RL  0,acts-10,N,769,116,112.6125,0
MAXMIN|MAXMIN|BOUNDARY,OTHER  LANES,W_N,>EQ  10-G,LOW  SPEED,NO  PEDESTRIAN,RL  0,acts-10,N,769,116,113.6135,0
MAXMIN|MAXMIN|BOUNDARY,OTHER  LANES,W_N,>EQ  10-G,LOW  SPEED,NO  PEDESTRIAN,RL  0,acts-10,N,769,116,114.6145,0.0
MAXMIN|MAXMIN|BOUNDARY,OTHER  LANES,W_N,>EQ  10-G,LOW  SPEED,NO  PEDESTRIAN,RL  0,acts-10,N,769,116,115.6155,0.0
MAXMIN|MAXMIN|BOUNDARY,OTHER  LANES,W_N,>EQ  10-G,LOW  SPEED,NO  PEDESTRIAN,RL  0,acts-10,N,769,116,116.6165,0.0
MAXMIN|MAXMIN|BOUNDARY,OTHER  LANES,W_N,>EQ  10-G,LOW  SPEED,NO  PEDESTRIAN,RL  0,acts-10,N,769,116,117.6175,0.0
MAXMIN|MAXMIN|BOUNDARY,OTHER  LANES,W_N,>EQ  10-G,LOW  SPEED,NO  PEDESTRIAN,RL  0,acts-10,N,769,116,118.6185,0
MAXMIN|MAXMIN|BOUNDARY,OTHER  LANES,W_N,>EQ  10-G,LOW  SPEED,NO  PEDESTRIAN,RL  0,acts-10,N,769,116,119.6195,0.0
MAXMIN|MAXMIN|BOUNDARY,OTHER  LANES,W_N,>EQ  10-G,LOW  SPEED,NO  PEDESTRIAN,RL  0,acts-10,N,769,116,120.6205,0
MAXMIN|MAXMIN|BOUNDARY,OTHER  LANES,W_N,>EQ  10-G,LOW  SPEED,NO  PEDESTRIAN,RL  0,acts-10,N,769,116,121.6215,0.0
MAXMIN|MAXMIN|BOUNDARY,OTHER  LANES,S_E,<10-Y/R,LOW  SPEED,PEDESTRIAN,RL  0,acts-8,Y,769,43,30.697333,0
MAXMIN|MAXMIN|BOUNDARY,OTHER  LANES,S_E,<10-Y/R,LOW  SPEED,PEDESTRIAN,RL  0,acts-8,Y,769,43,31.698333,0.013063000000000047
MAXMIN|MAXMIN|BOUNDARY,OTHER  LANES,S_E,<10-Y/R,LOW  SPEED,PEDESTRIAN,RL  0,acts-8,Y,769,43,32.699333,0.019881000000000038
MAXMIN|MAXMIN|BOUNDARY,OTHER  LANES,S_E,<10-Y/R,LOW  SPEED,NO  PEDESTRIAN,  RL  <EQ  2,acts-9,N,769,225,226.392833,0
MAXMIN|MAXMIN|BOUNDARY,OTHER  LANES,S_E,<10-Y/R,LOW  SPEED,NO  PEDESTRIAN,  RL  <EQ  2,acts-9,Y,769,225,227.393833,0
MAXMIN|MAXMIN|BOUNDARY,OTHER  LANES,S_E,<10-Y/R,LOW  SPEED,NO  PEDESTRIAN,  RL  >  2,acts-9,Y,769,219,220.553667,0.005090000000000039
MAXMIN|MAXMIN|BOUNDARY,OTHER  LANES,S_E,<10-Y/R,LOW  SPEED,NO  PEDESTRIAN,  RL  >  2,acts-9,N,769,219,221.554667,0.18228500000000003
MAXMIN|MAXMIN|BOUNDARY,OTHER  LANES,S_E,<10-G,LOW  SPEED,NO  PEDESTRIAN,RL  0,acts-9,N,769,233,267.100167,0.019724999999999993
MAXMIN|MAXMIN|BOUNDARY,OTHER  LANES,S_E,<10-G,LOW  SPEED,NO  PEDESTRIAN,RL  0,acts-9,Y,769,233,268.101167,0.001915
MAXMIN|MAXMIN|BOUNDARY,OTHER  LANES,S_E,<10-G,LOW  SPEED,NO  PEDESTRIAN,RL  0,acts-9,Y,769,233,269.102167,0
MAXMIN|MAXMIN|BOUNDARY,OTHER  LANES,S_E,<10-G,LOW  SPEED,NO  PEDESTRIAN,RL  0,acts-9,N,769,238,272.272,0.021549999999999958
MAXMIN|MAXMIN|BOUNDARY,OTHER  LANES,S_E,<10-G,LOW  SPEED,NO  PEDESTRIAN,  RL  <EQ  2,acts-9,N,769,233,264.097167,0.0010180000000000744
MAXMIN|MAXMIN|BOUNDARY,OTHER  LANES,S_E,>EQ  10-Y/R,LOW  SPEED,PEDESTRIAN,RL  0,acts-8,Y,769,91,81.5815,0.00016100000000007775
MAXMIN|MAXMIN|BOUNDARY,OTHER  LANES,S_E,>EQ  10-Y/R,LOW  SPEED,PEDESTRIAN,RL  0,acts-8,N,769,91,82.5825,0.01482400000000006
MAXMIN|MAXMIN|BOUNDARY,OTHER  LANES,S_E,>EQ  10-Y/R,LOW  SPEED,PEDESTRIAN,RL  0,acts-8,N,769,91,83.5835,0.02556999999999998
MAXMIN|MAXMIN|BOUNDARY,OTHER  LANES,S_E,>EQ  10-Y/R,LOW  SPEED,PEDESTRIAN,RL  0,acts-8,N,769,96,85.418667,0.013877999999999946
MAXMIN|MAXMIN|BOUNDARY,OTHER  LANES,S_E,>EQ  10-Y/R,LOW  SPEED,PEDESTRIAN,RL  0,acts-8,N,769,96,86.419667,0.022843999999999975
MAXMIN|MAXMIN|BOUNDARY,OTHER  LANES,S_E,>EQ  10-Y/R,LOW  SPEED,PEDESTRIAN,  RL  <EQ  2,acts-8,N,769,115,101.768333,0.12895
MAXMIN|MAXMIN|BOUNDARY,OTHER  LANES,S_E,>EQ  10-Y/R,LOW  SPEED,PEDESTRIAN,  RL  <EQ  2,acts-8,N,769,115,102.769333,0.00010599999999993948
MAXMIN|MAXMIN|BOUNDARY,OTHER  LANES,S_E,>EQ  10-Y/R,LOW  SPEED,PEDESTRIAN,  RL  <EQ  2,acts-8,N,769,115,103.770333,0.00013399999999996748
MAXMIN|MAXMIN|BOUNDARY,OTHER  LANES,S_E,>EQ  10-G,LOW  SPEED,PEDESTRIAN,RL  0,acts-8,N,769,43,33.700333,0.017679
MAXMIN|MAXMIN|BOUNDARY,OTHER  LANES,S_E,>EQ  10-G,LOW  SPEED,PEDESTRIAN,RL  0,acts-8,N,769,43,34.701333,0.018299000000000065
MAXMIN|MAXMIN|BOUNDARY,OTHER  LANES,S_E,>EQ  10-G,LOW  SPEED,PEDESTRIAN,RL  0,acts-8,N,769,43,35.702333,0.01668499999999995
MAXMIN|MAXMIN|BOUNDARY,OTHER  LANES,S_E,>EQ  10-G,LOW  SPEED,PEDESTRIAN,RL  0,acts-8,N,769,43,36.703333,0.01824199999999998
MAXMIN|MAXMIN|BOUNDARY,OTHER  LANES,S_E,>EQ  10-G,LOW  SPEED,PEDESTRIAN,RL  0,acts-8,N,769,43,37.704333,0.017781000000000047
MAXMIN|MAXMIN|BOUNDARY,OTHER  LANES,S_E,>EQ  10-G,LOW  SPEED,PEDESTRIAN,RL  0,acts-8,N,769,43,38.705333,0.019527000000000072
MAXMIN|MAXMIN|BOUNDARY,OTHER  LANES,S_E,>EQ  10-G,LOW  SPEED,PEDESTRIAN,RL  0,acts-8,N,769,43,39.706333,0.017405000000000004
MAXMIN|MAXMIN|BOUNDARY,OTHER  LANES,S_E,>EQ  10-G,LOW  SPEED,PEDESTRIAN,RL  0,acts-8,N,769,43,40.707333,0.018579000000000012
MAXMIN|MAXMIN|BOUNDARY,OTHER  LANES,S_E,>EQ  10-G,LOW  SPEED,PEDESTRIAN,RL  0,acts-8,N,769,43,41.708333,0.01768599999999998
MAXMIN|MAXMIN|BOUNDARY,OTHER  LANES,S_E,>EQ  10-G,LOW  SPEED,PEDESTRIAN,  RL  <EQ  2,acts-8,N,769,43,43.710333,0.0023650000000000615
MAXMIN|MAXMIN|BOUNDARY,OTHER  LANES,S_E,>EQ  10-G,LOW  SPEED,PEDESTRIAN,  RL  <EQ  2,acts-8,N,769,43,48.715333,0.0006019999999999914
MAXMIN|MAXMIN|BOUNDARY,OTHER  LANES,S_E,>EQ  10-G,LOW  SPEED,PEDESTRIAN,  RL  <EQ  2,acts-8,N,769,43,54.721333,0.0032680000000000486
MAXMIN|MAXMIN|BOUNDARY,OTHER  LANES,S_E,>EQ  10-G,LOW  SPEED,PEDESTRIAN,  RL  <EQ  2,acts-8,N,769,43,55.722333,0.0019689999999999985
MAXMIN|MAXMIN|BOUNDARY,OTHER  LANES,S_E,>EQ  10-G,LOW  SPEED,PEDESTRIAN,  RL  <EQ  2,acts-8,N,769,43,57.724333,0.000152000000000041
MAXMIN|MAXMIN|BOUNDARY,OTHER  LANES,S_E,>EQ  10-G,LOW  SPEED,PEDESTRIAN,  RL  <EQ  2,acts-8,N,769,151,142.475667,0
MAXMIN|MAXMIN|BOUNDARY,OTHER  LANES,S_E,>EQ  10-G,LOW  SPEED,PEDESTRIAN,  RL  <EQ  2,acts-8,Y,769,151,144.477667,0.0023260000000000502
MAXMIN|MAXMIN|BOUNDARY,OTHER  LANES,S_E,>EQ  10-G,LOW  SPEED,PEDESTRIAN,  RL  >  2,acts-8,N,769,43,44.711333,0.0012349999999999861
MAXMIN|MAXMIN|BOUNDARY,OTHER  LANES,S_E,>EQ  10-G,LOW  SPEED,PEDESTRIAN,  RL  >  2,acts-8,N,769,43,45.712333,0
MAXMIN|MAXMIN|BOUNDARY,OTHER  LANES,S_E,>EQ  10-G,LOW  SPEED,PEDESTRIAN,  RL  >  2,acts-8,N,769,43,46.713333,0.42634400000000006
MAXMIN|MAXMIN|BOUNDARY,OTHER  LANES,S_E,>EQ  10-G,LOW  SPEED,PEDESTRIAN,  RL  >  2,acts-8,N,769,43,47.714333,0.0
MAXMIN|MAXMIN|BOUNDARY,OTHER  LANES,S_E,>EQ  10-G,LOW  SPEED,PEDESTRIAN,  RL  >  2,acts-8,N,769,43,49.716333,0.0003509999999999902
MAXMIN|MAXMIN|BOUNDARY,OTHER  LANES,S_E,>EQ  10-G,LOW  SPEED,PEDESTRIAN,  RL  >  2,acts-8,N,769,43,50.717333,0.0006840000000000179
MAXMIN|MAXMIN|BOUNDARY,OTHER  LANES,S_E,>EQ  10-G,LOW  SPEED,PEDESTRIAN,  RL  >  2,acts-8,N,769,43,51.718333,0
MAXMIN|MAXMIN|BOUNDARY,OTHER  LANES,S_E,>EQ  10-G,LOW  SPEED,PEDESTRIAN,  RL  >  2,acts-8,N,769,43,52.719333,0.0010010000000000296
MAXMIN|MAXMIN|BOUNDARY,OTHER  LANES,S_E,>EQ  10-G,LOW  SPEED,PEDESTRIAN,  RL  >  2,acts-8,N,769,43,53.720333,0.0012090000000000156
MAXMIN|MAXMIN|BOUNDARY,OTHER  LANES,S_E,>EQ  10-G,LOW  SPEED,PEDESTRIAN,  RL  >  2,acts-8,N,769,43,56.723333,0.0006710000000000882
MAXMIN|MAXMIN|BOUNDARY,OTHER  LANES,S_E,>EQ  10-G,LOW  SPEED,PEDESTRIAN,  RL  >  2,acts-8,Y,769,151,143.476667,0.004593999999999987
MAXMIN|MAXMIN|BOUNDARY,OTHER  LANES,S_E,>EQ  10-G,LOW  SPEED,NO  PEDESTRIAN,  RL  <EQ  2,acts-9,Y,769,158,154.154,0.005593999999999988
MAXMIN|MAXMIN|BOUNDARY,OTHER  LANES,S_E,>EQ  10-G,LOW  SPEED,NO  PEDESTRIAN,  RL  <EQ  2,acts-9,Y,769,158,155.155,0.0023579999999999712
MAXMIN|MAXMIN|BOUNDARY,OTHER  LANES,S_E,>EQ  10-G,LOW  SPEED,NO  PEDESTRIAN,  RL  <EQ  2,acts-9,Y,769,175,177.6775,0.0
MAXMIN|MAXMIN|BOUNDARY,OTHER  LANES,S_E,>EQ  10-G,LOW  SPEED,NO  PEDESTRIAN,  RL  <EQ  2,acts-9,Y,769,175,178.6785,0
MAXMIN|MAXMIN|BOUNDARY,OTHER  LANES,S_E,>EQ  10-G,LOW  SPEED,NO  PEDESTRIAN,  RL  <EQ  2,acts-9,N,769,233,253.086167,0
MAXMIN|MAXMIN|BOUNDARY,OTHER  LANES,S_E,>EQ  10-G,LOW  SPEED,NO  PEDESTRIAN,  RL  <EQ  2,acts-9,N,769,233,255.088167,6.500000000009276e-05
MAXMIN|MAXMIN|BOUNDARY,OTHER  LANES,S_E,>EQ  10-G,LOW  SPEED,NO  PEDESTRIAN,  RL  <EQ  2,acts-9,N,769,233,256.089167,0.00042200000000003346
MAXMIN|MAXMIN|BOUNDARY,OTHER  LANES,S_E,>EQ  10-G,LOW  SPEED,NO  PEDESTRIAN,  RL  <EQ  2,acts-9,N,769,233,257.090167,0.00257099999999999
MAXMIN|MAXMIN|BOUNDARY,OTHER  LANES,S_E,>EQ  10-G,LOW  SPEED,NO  PEDESTRIAN,  RL  >  2,acts-9,N,769,233,241.074167,0.0022130000000000205
MAXMIN|MAXMIN|BOUNDARY,OTHER  LANES,S_E,>EQ  10-G,LOW  SPEED,NO  PEDESTRIAN,  RL  >  2,acts-9,Y,769,233,242.075167,0.0014440000000000008
MAXMIN|MAXMIN|BOUNDARY,OTHER  LANES,S_E,>EQ  10-G,LOW  SPEED,NO  PEDESTRIAN,  RL  >  2,acts-9,Y,769,233,243.076167,0.00371100000000002
MAXMIN|MAXMIN|BOUNDARY,OTHER  LANES,S_E,>EQ  10-G,LOW  SPEED,NO  PEDESTRIAN,  RL  >  2,acts-9,N,769,233,244.077167,0.00019399999999991646
MAXMIN|MAXMIN|BOUNDARY,OTHER  LANES,S_E,>EQ  10-G,LOW  SPEED,NO  PEDESTRIAN,  RL  >  2,acts-9,N,769,233,245.078167,0.0007900000000000684
MAXMIN|MAXMIN|BOUNDARY,OTHER  LANES,E_S,<10-G,LOW  SPEED,PEDESTRIAN,RL  0,acts-10,N,769,9,23.023,0.0
MAXMIN|MAXMIN|BOUNDARY,OTHER  LANES,E_S,<10-G,LOW  SPEED,PEDESTRIAN,RL  0,acts-10,N,769,9,24.024,0.0
MAXMIN|MAXMIN|BOUNDARY,OTHER  LANES,E_S,<10-G,LOW  SPEED,PEDESTRIAN,RL  0,acts-10,N,769,9,25.025,0.0
MAXMIN|MAXMIN|BOUNDARY,OTHER  LANES,E_S,<10-G,LOW  SPEED,PEDESTRIAN,RL  0,acts-10,N,769,9,26.026,0
MAXMIN|MAXMIN|BOUNDARY,OTHER  LANES,E_S,<10-G,LOW  SPEED,PEDESTRIAN,RL  0,acts-10,N,769,9,27.027,0.0
MAXMIN|MAXMIN|BOUNDARY,OTHER  LANES,E_S,<10-G,LOW  SPEED,PEDESTRIAN,RL  0,acts-10,N,769,9,28.028,0.0
MAXMIN|MAXMIN|BOUNDARY,OTHER  LANES,E_S,<10-G,LOW  SPEED,PEDESTRIAN,RL  0,acts-10,N,769,9,29.029,0
MAXMIN|MAXMIN|BOUNDARY,OTHER  LANES,E_S,<10-G,LOW  SPEED,PEDESTRIAN,RL  0,acts-10,N,769,9,30.03,0.0
MAXMIN|MAXMIN|BOUNDARY,OTHER  LANES,E_S,<10-G,LOW  SPEED,PEDESTRIAN,RL  0,acts-10,N,769,9,31.031,0.0
MAXMIN|MAXMIN|BOUNDARY,OTHER  LANES,E_S,<10-G,LOW  SPEED,PEDESTRIAN,RL  0,acts-10,N,769,9,32.032,0.0
MAXMIN|MAXMIN|BOUNDARY,OTHER  LANES,E_S,<10-G,LOW  SPEED,PEDESTRIAN,RL  0,acts-10,N,769,132,132.465667,0
MAXMIN|MAXMIN|BOUNDARY,OTHER  LANES,E_S,<10-G,LOW  SPEED,PEDESTRIAN,RL  0,acts-10,N,769,132,133.466667,0.0
MAXMIN|MAXMIN|BOUNDARY,OTHER  LANES,E_S,<10-G,LOW  SPEED,PEDESTRIAN,RL  0,acts-10,N,769,132,134.467667,0.0
MAXMIN|MAXMIN|BOUNDARY,OTHER  LANES,E_S,<10-G,LOW  SPEED,PEDESTRIAN,RL  0,acts-10,N,769,132,135.468667,0.0
MAXMIN|MAXMIN|BOUNDARY,OTHER  LANES,E_S,<10-G,LOW  SPEED,PEDESTRIAN,RL  0,acts-10,N,769,132,136.469667,0.0
MAXMIN|MAXMIN|BOUNDARY,OTHER  LANES,E_S,<10-G,LOW  SPEED,PEDESTRIAN,RL  0,acts-10,N,769,132,137.470667,0
MAXMIN|MAXMIN|BOUNDARY,OTHER  LANES,E_S,<10-G,LOW  SPEED,PEDESTRIAN,RL  0,acts-10,N,769,132,138.471667,0.0
MAXMIN|MAXMIN|BOUNDARY,OTHER  LANES,E_S,<10-G,LOW  SPEED,PEDESTRIAN,RL  0,acts-10,N,769,132,139.472667,0
MAXMIN|MAXMIN|BOUNDARY,OTHER  LANES,E_S,<10-G,LOW  SPEED,PEDESTRIAN,RL  0,acts-10,N,769,132,140.473667,0.0
MAXMIN|MAXMIN|BOUNDARY,OTHER  LANES,E_S,>EQ  10-Y/R,LOW  SPEED,PEDESTRIAN,RL  0,acts-3,Y,769,9,33.033,0
MAXMIN|MAXMIN|BOUNDARY,OTHER  LANES,E_S,>EQ  10-Y/R,LOW  SPEED,PEDESTRIAN,RL  0,acts-3,Y,769,9,34.034,0
MAXMIN|MAXMIN|BOUNDARY,OTHER  LANES,E_S,>EQ  10-Y/R,LOW  SPEED,PEDESTRIAN,RL  0,acts-3,Y,769,9,35.035,0
MAXMIN|MAXMIN|BOUNDARY,OTHER  LANES,E_S,>EQ  10-Y/R,LOW  SPEED,PEDESTRIAN,RL  0,acts-3,N,769,41,37.370667,0
MAXMIN|MAXMIN|BOUNDARY,OTHER  LANES,E_S,>EQ  10-Y/R,LOW  SPEED,PEDESTRIAN,  RL  <EQ  2,acts-3,Y,769,132,141.474667,0.13291599999999998
MAXMIN|MAXMIN|BOUNDARY,OTHER  LANES,E_S,>EQ  10-Y/R,LOW  SPEED,PEDESTRIAN,  RL  <EQ  2,acts-3,Y,769,132,142.475667,0
MAXMIN|MAXMIN|BOUNDARY,OTHER  LANES,E_S,>EQ  10-Y/R,LOW  SPEED,PEDESTRIAN,  RL  >  2,acts-11,Y,769,68,55.221833,0
MAXMIN|MAXMIN|BOUNDARY,OTHER  LANES,E_S,>EQ  10-Y/R,MEDIUM  SPEED,PEDESTRIAN,  RL  >  2,acts-3,Y,769,55,45.211833,0.024233000000000005
MAXMIN|MAXMIN|BOUNDARY,OTHER  LANES,E_S,>EQ  10-G,LOW  SPEED,PEDESTRIAN,RL  0,acts-10,N,769,9,0,0
MAXMIN|MAXMIN|BOUNDARY,OTHER  LANES,E_S,>EQ  10-G,LOW  SPEED,PEDESTRIAN,RL  0,acts-10,N,769,9,1.001,0
MAXMIN|MAXMIN|BOUNDARY,OTHER  LANES,E_S,>EQ  10-G,LOW  SPEED,PEDESTRIAN,RL  0,acts-10,N,769,9,10.01,0
MAXMIN|MAXMIN|BOUNDARY,OTHER  LANES,E_S,>EQ  10-G,LOW  SPEED,PEDESTRIAN,RL  0,acts-10,N,769,9,11.011,0
MAXMIN|MAXMIN|BOUNDARY,OTHER  LANES,E_S,>EQ  10-G,LOW  SPEED,PEDESTRIAN,RL  0,acts-10,N,769,9,12.012,0.0
MAXMIN|MAXMIN|BOUNDARY,OTHER  LANES,E_S,>EQ  10-G,LOW  SPEED,PEDESTRIAN,RL  0,acts-10,N,769,9,13.013,0.0
MAXMIN|MAXMIN|BOUNDARY,OTHER  LANES,E_S,>EQ  10-G,LOW  SPEED,PEDESTRIAN,RL  0,acts-10,N,769,9,14.014,0.0
MAXMIN|MAXMIN|BOUNDARY,OTHER  LANES,E_S,>EQ  10-G,LOW  SPEED,PEDESTRIAN,RL  0,acts-10,N,769,9,15.015,0
MAXMIN|MAXMIN|BOUNDARY,OTHER  LANES,E_S,>EQ  10-G,LOW  SPEED,PEDESTRIAN,RL  0,acts-10,N,769,9,16.016,0.0
MAXMIN|MAXMIN|BOUNDARY,OTHER  LANES,E_S,>EQ  10-G,LOW  SPEED,PEDESTRIAN,RL  0,acts-10,N,769,9,17.017,0
MAXMIN|MAXMIN|BOUNDARY,OTHER  LANES,E_S,>EQ  10-G,LOW  SPEED,PEDESTRIAN,RL  0,acts-10,N,769,9,18.018,0.0
MAXMIN|MAXMIN|BOUNDARY,OTHER  LANES,E_S,>EQ  10-G,LOW  SPEED,PEDESTRIAN,RL  0,acts-10,N,769,9,19.019,0.0
MAXMIN|MAXMIN|BOUNDARY,OTHER  LANES,E_S,>EQ  10-G,LOW  SPEED,PEDESTRIAN,RL  0,acts-10,N,769,9,2.002,0
MAXMIN|MAXMIN|BOUNDARY,OTHER  LANES,E_S,>EQ  10-G,LOW  SPEED,PEDESTRIAN,RL  0,acts-10,N,769,9,20.02,0
MAXMIN|MAXMIN|BOUNDARY,OTHER  LANES,E_S,>EQ  10-G,LOW  SPEED,PEDESTRIAN,RL  0,acts-10,N,769,9,21.021,0
MAXMIN|MAXMIN|BOUNDARY,OTHER  LANES,E_S,>EQ  10-G,LOW  SPEED,PEDESTRIAN,RL  0,acts-10,N,769,9,22.022,0.0
MAXMIN|MAXMIN|BOUNDARY,OTHER  LANES,E_S,>EQ  10-G,LOW  SPEED,PEDESTRIAN,RL  0,acts-10,N,769,9,3.003,0
MAXMIN|MAXMIN|BOUNDARY,OTHER  LANES,E_S,>EQ  10-G,LOW  SPEED,PEDESTRIAN,RL  0,acts-10,N,769,9,4.004,0.0
MAXMIN|MAXMIN|BOUNDARY,OTHER  LANES,E_S,>EQ  10-G,LOW  SPEED,PEDESTRIAN,RL  0,acts-10,N,769,9,5.005,0.0
MAXMIN|MAXMIN|BOUNDARY,OTHER  LANES,E_S,>EQ  10-G,LOW  SPEED,PEDESTRIAN,RL  0,acts-10,N,769,9,6.006,0.0
MAXMIN|MAXMIN|BOUNDARY,OTHER  LANES,E_S,>EQ  10-G,LOW  SPEED,PEDESTRIAN,RL  0,acts-10,N,769,9,7.007,0.0
MAXMIN|MAXMIN|BOUNDARY,OTHER  LANES,E_S,>EQ  10-G,LOW  SPEED,PEDESTRIAN,RL  0,acts-10,N,769,9,8.008,0
MAXMIN|MAXMIN|BOUNDARY,OTHER  LANES,E_S,>EQ  10-G,LOW  SPEED,PEDESTRIAN,RL  0,acts-10,N,769,9,9.009,0
MAXMIN|MAXMIN|BOUNDARY,OTHER  LANES,E_S,>EQ  10-G,LOW  SPEED,PEDESTRIAN,RL  0,acts-10,Y,769,132,121.454667,0.0
MAXMIN|MAXMIN|BOUNDARY,OTHER  LANES,E_S,>EQ  10-G,LOW  SPEED,PEDESTRIAN,RL  0,acts-10,Y,769,132,122.455667,0
MAXMIN|MAXMIN|BOUNDARY,OTHER  LANES,E_S,>EQ  10-G,LOW  SPEED,PEDESTRIAN,RL  0,acts-10,Y,769,132,123.456667,0.0
MAXMIN|MAXMIN|BOUNDARY,OTHER  LANES,E_S,>EQ  10-G,LOW  SPEED,PEDESTRIAN,RL  0,acts-10,Y,769,132,124.457667,0.0
MAXMIN|MAXMIN|BOUNDARY,OTHER  LANES,E_S,>EQ  10-G,LOW  SPEED,PEDESTRIAN,RL  0,acts-10,N,769,132,125.458667,0
MAXMIN|MAXMIN|BOUNDARY,OTHER  LANES,E_S,>EQ  10-G,LOW  SPEED,PEDESTRIAN,RL  0,acts-10,N,769,132,126.459667,0.0
MAXMIN|MAXMIN|BOUNDARY,OTHER  LANES,E_S,>EQ  10-G,LOW  SPEED,PEDESTRIAN,RL  0,acts-10,N,769,132,127.460667,0
MAXMIN|MAXMIN|BOUNDARY,OTHER  LANES,E_S,>EQ  10-G,LOW  SPEED,PEDESTRIAN,RL  0,acts-10,N,769,132,128.461667,0
MAXMIN|MAXMIN|BOUNDARY,OTHER  LANES,E_S,>EQ  10-G,LOW  SPEED,PEDESTRIAN,RL  0,acts-10,N,769,132,129.462667,0
MAXMIN|MAXMIN|BOUNDARY,OTHER  LANES,E_S,>EQ  10-G,LOW  SPEED,PEDESTRIAN,RL  0,acts-10,N,769,132,130.463667,0.0
MAXMIN|MAXMIN|BOUNDARY,OTHER  LANES,E_S,>EQ  10-G,LOW  SPEED,PEDESTRIAN,RL  0,acts-10,N,769,132,131.464667,0
MAXMIN|MAXMIN|BOUNDARY,OTHER  LANES,E_S,>EQ  10-G,MEDIUM  SPEED,PEDESTRIAN,RL  0,acts-10,N,769,132,119.452667,0.0
MAXMIN|MAXMIN|BOUNDARY,OTHER  LANES,E_S,>EQ  10-G,MEDIUM  SPEED,PEDESTRIAN,RL  0,acts-10,Y,769,132,120.453667,0
MAXMIN|MAXMIN|BOUNDARY,prep-right-turn,W_S,<10-Y/R,LOW  SPEED,PEDESTRIAN,RL  0,acts-8,N,769,165,164.6645,0.026993000000000045
MAXMIN|MAXMIN|BOUNDARY,prep-right-turn,W_S,<10-G,LOW  SPEED,PEDESTRIAN,RL  0,acts-8,Y,769,134,125.291833,0
MAXMIN|MAXMIN|BOUNDARY,prep-right-turn,W_S,<10-G,LOW  SPEED,PEDESTRIAN,RL  0,acts-8,Y,769,134,126.292833,0
MAXMIN|MAXMIN|BOUNDARY,prep-right-turn,W_S,<10-G,LOW  SPEED,NO  PEDESTRIAN,RL  0,acts-3,N,769,221,230.563667,0.037614999999999954
MAXMIN|MAXMIN|BOUNDARY,prep-right-turn,W_S,<10-G,LOW  SPEED,NO  PEDESTRIAN,RL  0,acts-3,N,769,221,231.564667,0.03558500000000009
MAXMIN|MAXMIN|BOUNDARY,prep-right-turn,W_S,>EQ  10-Y/R,LOW  SPEED,PEDESTRIAN,  RL  <EQ  2,acts-12,Y,769,51,48.5485,0.0
MAXMIN|MAXMIN|BOUNDARY,prep-right-turn,W_S,>EQ  10-Y/R,LOW  SPEED,PEDESTRIAN,  RL  <EQ  2,acts-8,Y,769,64,60.727333,0.009481000000000017
MAXMIN|MAXMIN|BOUNDARY,prep-right-turn,W_S,>EQ  10-Y/R,LOW  SPEED,NO  PEDESTRIAN,  RL  <EQ  2,acts-4,Y,769,224,236.402833,0.0006659999999999999
MAXMIN|MAXMIN|BOUNDARY,prep-right-turn,W_S,>EQ  10-G,LOW  SPEED,PEDESTRIAN,  RL  <EQ  2,acts-8,Y,769,2,18.018,0.26045299999999993
MAXMIN|MAXMIN|BOUNDARY,prep-right-turn,W_S,>EQ  10-G,LOW  SPEED,PEDESTRIAN,  RL  <EQ  2,acts-8,Y,769,2,19.019,0.013517000000000001
MAXMIN|MAXMIN|BOUNDARY,prep-right-turn,W_S,>EQ  10-G,LOW  SPEED,PEDESTRIAN,  RL  <EQ  2,acts-8,Y,769,8,1.001,0
MAXMIN|MAXMIN|BOUNDARY,prep-right-turn,W_S,>EQ  10-G,LOW  SPEED,PEDESTRIAN,  RL  <EQ  2,acts-8,N,769,8,3.003,0.000140000000000029
MAXMIN|MAXMIN|BOUNDARY,prep-right-turn,W_S,>EQ  10-G,LOW  SPEED,PEDESTRIAN,  RL  <EQ  2,acts-8,Y,769,8,7.007,0
MAXMIN|MAXMIN|BOUNDARY,prep-right-turn,W_S,>EQ  10-G,LOW  SPEED,PEDESTRIAN,  RL  <EQ  2,acts-8,Y,769,202,215.882333,0
MAXMIN|MAXMIN|BOUNDARY,prep-right-turn,W_S,>EQ  10-G,LOW  SPEED,PEDESTRIAN,  RL  >  2,acts-8,N,769,8,0,0.0
MAXMIN|MAXMIN|BOUNDARY,prep-right-turn,S_E,<10-Y/R,LOW  SPEED,NO  PEDESTRIAN,  RL  <EQ  2,acts-3,Y,769,225,228.394833,0.0
MAXMIN|MAXMIN|BOUNDARY,prep-right-turn,S_E,<10-Y/R,LOW  SPEED,NO  PEDESTRIAN,  RL  >  2,acts-3,N,769,219,222.555667,0.0
MAXMIN|MAXMIN|BOUNDARY,prep-right-turn,S_E,<10-Y/R,LOW  SPEED,NO  PEDESTRIAN,  RL  >  2,acts-3,N,769,219,223.556667,0
MAXMIN|MAXMIN|BOUNDARY,prep-right-turn,S_E,<10-G,LOW  SPEED,NO  PEDESTRIAN,RL  0,acts-3,Y,769,233,270.103167,0
MAXMIN|MAXMIN|BOUNDARY,prep-right-turn,S_E,<10-G,LOW  SPEED,NO  PEDESTRIAN,RL  0,acts-3,Y,769,233,271.104167,0
MAXMIN|MAXMIN|BOUNDARY,prep-right-turn,S_E,<10-G,LOW  SPEED,NO  PEDESTRIAN,  RL  <EQ  2,acts-3,N,769,175,181.6815,0
MAXMIN|MAXMIN|BOUNDARY,prep-right-turn,S_E,<10-G,LOW  SPEED,NO  PEDESTRIAN,  RL  <EQ  2,acts-3,N,769,175,182.6825,0
MAXMIN|MAXMIN|BOUNDARY,prep-right-turn,S_E,<10-G,LOW  SPEED,NO  PEDESTRIAN,  RL  <EQ  2,acts-3,N,769,175,187.6875,0
MAXMIN|MAXMIN|BOUNDARY,prep-right-turn,S_E,<10-G,LOW  SPEED,NO  PEDESTRIAN,  RL  >  2,acts-3,N,769,175,186.6865,0
MAXMIN|MAXMIN|BOUNDARY,prep-right-turn,S_E,<10-G,LOW  SPEED,NO  PEDESTRIAN,  RL  >  2,acts-3,N,769,175,188.6885,0.0
MAXMIN|MAXMIN|BOUNDARY,prep-right-turn,S_E,>EQ  10-Y/R,LOW  SPEED,PEDESTRIAN,RL  0,acts-8,N,769,91,84.5845,0
MAXMIN|MAXMIN|BOUNDARY,prep-right-turn,S_E,>EQ  10-Y/R,LOW  SPEED,PEDESTRIAN,  RL  <EQ  2,acts-8,N,769,115,104.771333,0
MAXMIN|MAXMIN|BOUNDARY,prep-right-turn,S_E,>EQ  10-Y/R,LOW  SPEED,PEDESTRIAN,  RL  <EQ  2,acts-8,Y,769,115,105.772333,0.22213399999999994
MAXMIN|MAXMIN|BOUNDARY,prep-right-turn,S_E,>EQ  10-Y/R,LOW  SPEED,NO  PEDESTRIAN,RL  0,acts-3,N,769,175,189.6895,0.02453700000000003
MAXMIN|MAXMIN|BOUNDARY,prep-right-turn,S_E,>EQ  10-Y/R,LOW  SPEED,NO  PEDESTRIAN,RL  0,acts-3,N,769,175,190.6905,0.0047159999999999425
MAXMIN|MAXMIN|BOUNDARY,prep-right-turn,S_E,>EQ  10-Y/R,LOW  SPEED,NO  PEDESTRIAN,RL  0,acts-3,Y,769,175,191.6915,0
MAXMIN|MAXMIN|BOUNDARY,prep-right-turn,S_E,>EQ  10-Y/R,LOW  SPEED,NO  PEDESTRIAN,RL  0,acts-3,Y,769,175,192.6925,0.0065990000000000215
MAXMIN|MAXMIN|BOUNDARY,prep-right-turn,S_E,>EQ  10-Y/R,LOW  SPEED,NO  PEDESTRIAN,RL  0,acts-3,Y,769,175,193.6935,0.007882999999999973
MAXMIN|MAXMIN|BOUNDARY,prep-right-turn,S_E,>EQ  10-G,LOW  SPEED,PEDESTRIAN,  RL  <EQ  2,acts-8,Y,769,151,146.479667,0.10228100000000007
MAXMIN|MAXMIN|BOUNDARY,prep-right-turn,S_E,>EQ  10-G,LOW  SPEED,PEDESTRIAN,  RL  >  2,acts-8,Y,769,151,145.478667,0
MAXMIN|MAXMIN|BOUNDARY,prep-right-turn,S_E,>EQ  10-G,LOW  SPEED,NO  PEDESTRIAN,RL  0,acts-3,Y,769,43,60.727333,0
MAXMIN|MAXMIN|BOUNDARY,prep-right-turn,S_E,>EQ  10-G,LOW  SPEED,NO  PEDESTRIAN,RL  0,acts-3,Y,769,43,61.728333,0
MAXMIN|MAXMIN|BOUNDARY,exec-right-turn,W_S,<10-Y/R,LOW  SPEED,PEDESTRIAN,RL  0,acts-3,N,769,165,165.6655,0
MAXMIN|MAXMIN|BOUNDARY,exec-right-turn,W_S,<10-Y/R,LOW  SPEED,PEDESTRIAN,RL  0,acts-3,Y,769,165,166.6665,0.0005529999999999147
MAXMIN|MAXMIN|BOUNDARY,exec-right-turn,W_S,<10-Y/R,LOW  SPEED,PEDESTRIAN,RL  0,acts-3,Y,769,165,167.6675,0
MAXMIN|MAXMIN|BOUNDARY,exec-right-turn,W_S,<10-Y/R,LOW  SPEED,PEDESTRIAN,RL  0,acts-3,Y,769,252,266.599667,0.0005430000000000712
MAXMIN|MAXMIN|BOUNDARY,exec-right-turn,W_S,<10-G,LOW  SPEED,PEDESTRIAN,RL  0,acts-3,Y,769,134,127.293833,0
MAXMIN|MAXMIN|BOUNDARY,exec-right-turn,W_S,<10-G,MEDIUM  SPEED,PEDESTRIAN,RL  0,acts-3,Y,769,202,222.889333,0
MAXMIN|MAXMIN|BOUNDARY,exec-right-turn,W_S,>EQ  10-Y/R,LOW  SPEED,PEDESTRIAN,RL  0,acts-3,N,769,44,48.882167,0
MAXMIN|MAXMIN|BOUNDARY,exec-right-turn,W_S,>EQ  10-Y/R,LOW  SPEED,PEDESTRIAN,RL  0,acts-3,Y,769,64,62.729333,0
MAXMIN|MAXMIN|BOUNDARY,exec-right-turn,W_S,>EQ  10-Y/R,LOW  SPEED,PEDESTRIAN,RL  0,acts-3,N,769,246,255.7555,0.0006160000000000609
MAXMIN|MAXMIN|BOUNDARY,exec-right-turn,W_S,>EQ  10-Y/R,LOW  SPEED,PEDESTRIAN,  RL  <EQ  2,acts-3,Y,769,64,61.728333,0.009678999999999993
MAXMIN|MAXMIN|BOUNDARY,exec-right-turn,W_S,>EQ  10-Y/R,MEDIUM  SPEED,PEDESTRIAN,RL  0,acts-3,N,769,51,50.5505,0.0005720000000000169
MAXMIN|MAXMIN|BOUNDARY,exec-right-turn,W_S,>EQ  10-Y/R,MEDIUM  SPEED,PEDESTRIAN,RL  0,acts-3,N,769,56,52.886167,0
MAXMIN|MAXMIN|BOUNDARY,exec-right-turn,W_S,>EQ  10-G,LOW  SPEED,PEDESTRIAN,RL  0,acts-3,N,769,2,21.021,0
MAXMIN|MAXMIN|BOUNDARY,exec-right-turn,W_S,>EQ  10-G,LOW  SPEED,PEDESTRIAN,RL  0,acts-3,Y,769,8,10.01,0
MAXMIN|MAXMIN|BOUNDARY,exec-right-turn,W_S,>EQ  10-G,LOW  SPEED,PEDESTRIAN,RL  0,acts-3,Y,769,122,116.282833,0.0008190000000000142
MAXMIN|MAXMIN|BOUNDARY,exec-right-turn,W_S,>EQ  10-G,LOW  SPEED,PEDESTRIAN,RL  0,acts-3,Y,769,122,117.283833,0.0010090000000000376
MAXMIN|MAXMIN|BOUNDARY,exec-right-turn,S_E,<10-Y/R,LOW  SPEED,NO  PEDESTRIAN,RL  0,acts-3,Y,769,219,225.558667,0
MAXMIN|MAXMIN|BOUNDARY,exec-right-turn,S_E,<10-Y/R,LOW  SPEED,NO  PEDESTRIAN,RL  0,acts-3,N,769,225,231.397833,0.005852999999999997
MAXMIN|MAXMIN|BOUNDARY,exec-right-turn,S_E,<10-Y/R,LOW  SPEED,NO  PEDESTRIAN,RL  0,acts-3,Y,769,225,232.398833,0
MAXMIN|MAXMIN|BOUNDARY,exec-right-turn,S_E,<10-Y/R,LOW  SPEED,NO  PEDESTRIAN,  RL  <EQ  2,acts-3,Y,769,219,224.557667,0
MAXMIN|MAXMIN|BOUNDARY,exec-right-turn,S_E,<10-G,LOW  SPEED,NO  PEDESTRIAN,RL  0,acts-3,Y,769,233,272.105167,0.012051999999999952
MAXMIN|MAXMIN|BOUNDARY,exec-right-turn,S_E,<10-G,LOW  SPEED,NO  PEDESTRIAN,RL  0,acts-3,Y,769,233,273.106167,0.0013640000000000319
MAXMIN|MAXMIN|BOUNDARY,exec-right-turn,S_E,>EQ  10-Y/R,LOW  SPEED,PEDESTRIAN,RL  0,acts-3,Y,769,91,85.5855,0.004139000000000004
MAXMIN|MAXMIN|BOUNDARY,exec-right-turn,S_E,>EQ  10-Y/R,LOW  SPEED,PEDESTRIAN,RL  0,acts-3,Y,769,91,86.5865,0
MAXMIN|MAXMIN|BOUNDARY,exec-right-turn,S_E,>EQ  10-Y/R,LOW  SPEED,PEDESTRIAN,RL  0,acts-3,Y,769,106,95.929167,0.0003389999999999782
MAXMIN|MAXMIN|BOUNDARY,exec-right-turn,S_E,>EQ  10-Y/R,LOW  SPEED,PEDESTRIAN,RL  0,acts-3,Y,769,109,103.937167,0.0018020000000000813
MAXMIN|MAXMIN|BOUNDARY,exec-right-turn,S_E,>EQ  10-Y/R,LOW  SPEED,PEDESTRIAN,RL  0,acts-3,Y,769,115,108.775333,0.0006319999999999659
MAXMIN|MAXMIN|BOUNDARY,exec-right-turn,S_E,>EQ  10-Y/R,LOW  SPEED,PEDESTRIAN,  RL  <EQ  2,acts-3,Y,769,115,107.774333,0.0025290000000000035
MAXMIN|MAXMIN|BOUNDARY,exec-right-turn,S_E,>EQ  10-Y/R,LOW  SPEED,NO  PEDESTRIAN,RL  0,acts-3,Y,769,175,194.6945,0.0033410000000000384
MAXMIN|MAXMIN|BOUNDARY,exec-right-turn,S_E,>EQ  10-Y/R,LOW  SPEED,NO  PEDESTRIAN,RL  0,acts-3,Y,769,175,195.6955,7.100000000004325e-05
MAXMIN|MAXMIN|BOUNDARY,exec-right-turn,S_E,>EQ  10-G,LOW  SPEED,PEDESTRIAN,  RL  <EQ  2,acts-3,Y,769,151,147.480667,0
MAXMIN|MAXMIN|BOUNDARY,exec-right-turn,S_E,>EQ  10-G,LOW  SPEED,PEDESTRIAN,  RL  <EQ  2,acts-3,Y,769,151,148.481667,0
MAXMIN|MAXMIN|BOUNDARY,exec-right-turn,S_E,>EQ  10-G,LOW  SPEED,NO  PEDESTRIAN,RL  0,acts-3,Y,769,43,62.729333,0.0011500000000000954
MAXMIN|MAXMIN|BOUNDARY,exec-right-turn,S_E,>EQ  10-G,LOW  SPEED,NO  PEDESTRIAN,RL  0,acts-3,Y,769,43,63.730333,0
MAXMIN|MAXMIN|BOUNDARY,exec-right-turn,S_E,>EQ  10-G,LOW  SPEED,NO  PEDESTRIAN,RL  0,acts-3,Y,769,158,160.16,0.010554999999999981
MAXMIN|MAXMIN|BOUNDARY,exec-right-turn,S_E,>EQ  10-G,LOW  SPEED,NO  PEDESTRIAN,RL  0,acts-3,Y,769,158,161.161,8.500000000000174e-05
