EQ_TYPE,SEGMENT,TASK,NEXT_CHANGE,SPEED,PEDESTRIAN,RELEV_VEHICLE,ACTIONS,AGGRESSIVE,FILE_ID,TRACK_ID,TIME,ON_EQ
L1BR|BR|BOUNDARY,prep-left-turn,S_W,<10-Y/R,LOW  SPEED,NO  PEDESTRIAN,  RL  <EQ  2,acts-1,N,771,62,42.5425,0
L1BR|BR|BOUNDARY,prep-left-turn,S_W,<10-Y/R,LOW  SPEED,NO  PEDESTRIAN,  RL  <EQ  2,acts-1,N,771,52,37.704333,0.0
L1BR|BR|BOUNDARY,prep-left-turn,S_W,<10-Y/R,LOW  SPEED,NO  PEDESTRIAN,  RL  <EQ  2,acts-1,Y,771,52,39.706333,0.0
L1BR|BR|BOUNDARY,prep-left-turn,S_W,<10-Y/R,LOW  SPEED,NO  PEDESTRIAN,  RL  <EQ  2,acts-1,N,771,130,134.801333,0
L1BR|BR|BOUNDARY,prep-left-turn,S_W,<10-Y/R,LOW  SPEED,NO  PEDESTRIAN,  RL  <EQ  2,acts-1,Y,771,130,135.802333,0
L1BR|BR|BOUNDARY,prep-left-turn,S_W,<10-Y/R,LOW  SPEED,NO  PEDESTRIAN,  RL  >  2,acts-1,Y,771,130,133.800333,0
L1BR|BR|BOUNDARY,prep-left-turn,S_W,>EQ  10-Y/R,LOW  SPEED,PEDESTRIAN,  RL  >  2,acts-2,N,771,113,130.463667,0.07990600000000003
L1BR|BR|BOUNDARY,prep-left-turn,S_W,>EQ  10-Y/R,LOW  SPEED,PEDESTRIAN,  RL  >  2,acts-2,N,771,113,130.463667,0.07990600000000003
L1BR|BR|BOUNDARY,prep-left-turn,S_W,>EQ  10-Y/R,LOW  SPEED,PEDESTRIAN,  RL  >  2,acts-2,Y,771,113,131.464667,0
L1BR|BR|BOUNDARY,prep-left-turn,S_W,>EQ  10-Y/R,LOW  SPEED,PEDESTRIAN,  RL  >  2,acts-3,N,771,130,129.796333,0
L1BR|BR|BOUNDARY,prep-left-turn,S_W,>EQ  10-Y/R,LOW  SPEED,PEDESTRIAN,  RL  >  2,acts-3,N,771,130,129.796333,0.0
L1BR|BR|BOUNDARY,prep-left-turn,S_W,>EQ  10-Y/R,LOW  SPEED,PEDESTRIAN,  RL  >  2,acts-3,N,771,130,130.797333,0.0
L1BR|BR|BOUNDARY,prep-left-turn,S_W,>EQ  10-Y/R,LOW  SPEED,PEDESTRIAN,  RL  >  2,acts-3,N,771,130,130.797333,0.0
L1BR|BR|BOUNDARY,prep-left-turn,S_W,>EQ  10-Y/R,LOW  SPEED,PEDESTRIAN,  RL  >  2,acts-3,N,771,130,131.798333,0
L1BR|BR|BOUNDARY,prep-left-turn,S_W,>EQ  10-Y/R,LOW  SPEED,PEDESTRIAN,  RL  >  2,acts-3,N,771,130,131.798333,0.0
L1BR|BR|BOUNDARY,prep-left-turn,S_W,>EQ  10-Y/R,LOW  SPEED,NO  PEDESTRIAN,RL  0,acts-4,Y,771,183,198.198,0
L1BR|BR|BOUNDARY,prep-left-turn,S_W,>EQ  10-Y/R,LOW  SPEED,NO  PEDESTRIAN,RL  0,acts-4,Y,771,183,199.199,0.007484999999999964
L1BR|BR|BOUNDARY,prep-left-turn,S_W,>EQ  10-Y/R,LOW  SPEED,NO  PEDESTRIAN,  RL  <EQ  2,acts-4,N,771,33,19.5195,0.03384100000000001
L1BR|BR|BOUNDARY,prep-left-turn,S_W,>EQ  10-Y/R,LOW  SPEED,NO  PEDESTRIAN,  RL  <EQ  2,acts-4,N,771,113,128.461667,0.07744899999999999
L1BR|BR|BOUNDARY,prep-left-turn,S_W,>EQ  10-Y/R,LOW  SPEED,NO  PEDESTRIAN,  RL  <EQ  2,acts-4,Y,771,125,119.119,0.06818000000000002
L1BR|BR|BOUNDARY,prep-left-turn,S_W,>EQ  10-Y/R,LOW  SPEED,NO  PEDESTRIAN,  RL  <EQ  2,acts-4,Y,771,125,120.12,0.00193500000000002
L1BR|BR|BOUNDARY,prep-left-turn,S_W,>EQ  10-Y/R,LOW  SPEED,NO  PEDESTRIAN,  RL  <EQ  2,acts-4,Y,771,125,121.121,0.009276000000000062
L1BR|BR|BOUNDARY,prep-left-turn,S_W,>EQ  10-Y/R,LOW  SPEED,NO  PEDESTRIAN,  RL  <EQ  2,acts-4,Y,771,125,122.122,0
L1BR|BR|BOUNDARY,prep-left-turn,S_W,>EQ  10-Y/R,LOW  SPEED,NO  PEDESTRIAN,  RL  <EQ  2,acts-1,Y,771,113,126.459667,0
L1BR|BR|BOUNDARY,prep-left-turn,S_W,>EQ  10-Y/R,LOW  SPEED,NO  PEDESTRIAN,  RL  <EQ  2,acts-1,Y,771,130,126.793333,0.0
L1BR|BR|BOUNDARY,prep-left-turn,S_W,>EQ  10-Y/R,LOW  SPEED,NO  PEDESTRIAN,  RL  <EQ  2,acts-1,N,771,130,127.794333,0.0
L1BR|BR|BOUNDARY,prep-left-turn,S_W,>EQ  10-Y/R,LOW  SPEED,NO  PEDESTRIAN,  RL  >  2,acts-4,Y,771,33,16.5165,0.07452400000000003
L1BR|BR|BOUNDARY,prep-left-turn,S_W,>EQ  10-Y/R,LOW  SPEED,NO  PEDESTRIAN,  RL  >  2,acts-4,Y,771,33,17.5175,0.06531900000000002
L1BR|BR|BOUNDARY,prep-left-turn,S_W,>EQ  10-Y/R,LOW  SPEED,NO  PEDESTRIAN,  RL  >  2,acts-4,N,771,33,18.5185,0.044849999999999945
L1BR|BR|BOUNDARY,prep-left-turn,S_W,>EQ  10-Y/R,LOW  SPEED,NO  PEDESTRIAN,  RL  >  2,acts-4,N,771,113,129.462667,0.07705099999999998
L1BR|BR|BOUNDARY,prep-left-turn,S_W,>EQ  10-Y/R,LOW  SPEED,NO  PEDESTRIAN,  RL  >  2,acts-4,Y,771,113,132.465667,0
L1BR|BR|BOUNDARY,prep-left-turn,S_W,>EQ  10-Y/R,LOW  SPEED,NO  PEDESTRIAN,  RL  >  2,acts-1,N,771,130,128.795333,0.0
L1BR|BR|BOUNDARY,prep-left-turn,S_W,>EQ  10-Y/R,LOW  SPEED,NO  PEDESTRIAN,  RL  >  2,acts-1,Y,771,130,132.799333,0.0
L1BR|BR|BOUNDARY,prep-left-turn,N_E,<10-Y/R,LOW  SPEED,NO  PEDESTRIAN,RL  0,acts-4,Y,771,69,42.876167,0.08125199999999999
L1BR|BR|BOUNDARY,prep-left-turn,N_E,>EQ  10-Y/R,LOW  SPEED,PEDESTRIAN,RL  0,acts-2,Y,771,45,23.023,0.07919300000000007
L1BR|BR|BOUNDARY,prep-left-turn,N_E,>EQ  10-Y/R,LOW  SPEED,PEDESTRIAN,RL  0,acts-2,Y,771,45,23.023,0.07919300000000007
L1BR|BR|BOUNDARY,prep-left-turn,N_E,>EQ  10-Y/R,LOW  SPEED,PEDESTRIAN,RL  0,acts-2,Y,771,45,24.024,0.08195600000000003
L1BR|BR|BOUNDARY,prep-left-turn,N_E,>EQ  10-Y/R,LOW  SPEED,PEDESTRIAN,RL  0,acts-2,Y,771,45,24.024,0.08195600000000003
L1BR|BR|BOUNDARY,prep-left-turn,N_E,>EQ  10-Y/R,LOW  SPEED,PEDESTRIAN,RL  0,acts-2,N,771,224,218.218,0.08830499999999997
L1BR|BR|BOUNDARY,prep-left-turn,N_E,>EQ  10-Y/R,LOW  SPEED,PEDESTRIAN,RL  0,acts-2,N,771,224,218.218,0.08830499999999997
L1BR|BR|BOUNDARY,prep-left-turn,N_E,>EQ  10-Y/R,LOW  SPEED,NO  PEDESTRIAN,RL  0,acts-4,Y,771,77,97.931167,0
L1BR|BR|BOUNDARY,prep-left-turn,N_E,>EQ  10-Y/R,LOW  SPEED,NO  PEDESTRIAN,RL  0,acts-4,Y,771,131,117.283833,0.07941500000000001
L1BR|BR|BOUNDARY,prep-left-turn,N_E,>EQ  10-Y/R,LOW  SPEED,NO  PEDESTRIAN,RL  0,acts-4,Y,771,172,207.7075,0
L1BR|BR|BOUNDARY,prep-left-turn,N_E,>EQ  10-Y/R,LOW  SPEED,NO  PEDESTRIAN,RL  0,acts-4,N,771,172,208.7085,0
L1BR|BR|BOUNDARY,prep-left-turn,W_N,>EQ  10-Y/R,LOW  SPEED,NO  PEDESTRIAN,RL  0,acts-4,N,771,2,53.053,0
L1BR|BR|BOUNDARY,prep-left-turn,W_N,>EQ  10-Y/R,LOW  SPEED,NO  PEDESTRIAN,RL  0,acts-4,Y,771,103,150.483667,0.0007900000000000684
L1BR|BR|BOUNDARY,prep-left-turn,W_N,>EQ  10-Y/R,LOW  SPEED,NO  PEDESTRIAN,RL  0,acts-4,Y,771,103,151.484667,0
L1BR|BR|BOUNDARY,prep-left-turn,W_N,>EQ  10-Y/R,LOW  SPEED,NO  PEDESTRIAN,  RL  <EQ  2,acts-4,N,771,72,59.225833,0.48012999999999995
L1BR|BR|BOUNDARY,prep-left-turn,W_N,>EQ  10-Y/R,LOW  SPEED,NO  PEDESTRIAN,  RL  >  2,acts-1,N,771,72,58.224833,0.005689000000000055
L1BR|BR|BOUNDARY,prep-left-turn,W_N,>EQ  10-Y/R,LOW  SPEED,NO  PEDESTRIAN,  RL  >  2,acts-4,Y,771,175,161.161,0.026340999999999948
L1BR|BR|BOUNDARY,prep-left-turn,W_N,>EQ  10-Y/R,LOW  SPEED,NO  PEDESTRIAN,  RL  >  2,acts-4,Y,771,175,162.162,0.033528
L1BR|BR|BOUNDARY,prep-left-turn,W_N,>EQ  10-Y/R,LOW  SPEED,NO  PEDESTRIAN,  RL  >  2,acts-4,Y,771,175,163.163,0.03511500000000001
L1BR|BR|BOUNDARY,prep-left-turn,W_N,>EQ  10-Y/R,LOW  SPEED,NO  PEDESTRIAN,  RL  >  2,acts-4,N,771,175,164.164,0.035594000000000015
L1BR|BR|BOUNDARY,prep-left-turn,W_N,>EQ  10-Y/R,LOW  SPEED,NO  PEDESTRIAN,  RL  >  2,acts-4,N,771,175,165.165,0.047135999999999956
L1BR|BR|BOUNDARY,prep-left-turn,W_N,>EQ  10-Y/R,LOW  SPEED,NO  PEDESTRIAN,  RL  >  2,acts-4,N,771,175,166.166,0.04181299999999999
L1BR|BR|BOUNDARY,prep-left-turn,W_N,>EQ  10-Y/R,LOW  SPEED,NO  PEDESTRIAN,  RL  >  2,acts-4,N,771,175,167.167,0.03736399999999995
L1BR|BR|BOUNDARY,prep-left-turn,W_N,>EQ  10-Y/R,LOW  SPEED,NO  PEDESTRIAN,  RL  >  2,acts-4,N,771,175,168.168,0.05448300000000006
L1BR|BR|BOUNDARY,prep-left-turn,W_N,>EQ  10-Y/R,LOW  SPEED,NO  PEDESTRIAN,  RL  >  2,acts-4,N,771,175,169.169,0.0028639999999999777
L1BR|BR|BOUNDARY,prep-left-turn,W_N,>EQ  10-Y/R,LOW  SPEED,NO  PEDESTRIAN,  RL  >  2,acts-4,Y,771,175,170.17,0.009414000000000033
L1BR|BR|BOUNDARY,prep-left-turn,E_S,>EQ  10-Y/R,LOW  SPEED,PEDESTRIAN,RL  0,acts-2,Y,771,11,53.053,0
L1BR|BR|BOUNDARY,prep-left-turn,E_S,>EQ  10-Y/R,LOW  SPEED,PEDESTRIAN,RL  0,acts-2,N,771,11,54.054,0.007060999999999984
L1BR|BR|BOUNDARY,exec-left-turn,S_W,<10-Y/R,LOW  SPEED,NO  PEDESTRIAN,RL  0,acts-4,Y,771,33,38.5385,0
L1BR|BR|BOUNDARY,exec-left-turn,S_W,<10-Y/R,LOW  SPEED,NO  PEDESTRIAN,RL  0,acts-4,Y,771,33,39.5395,0
L1BR|BR|BOUNDARY,exec-left-turn,S_W,<10-Y/R,LOW  SPEED,NO  PEDESTRIAN,RL  0,acts-4,Y,771,113,136.469667,0.015402999999999945
L1BR|BR|BOUNDARY,exec-left-turn,S_W,<10-Y/R,LOW  SPEED,NO  PEDESTRIAN,RL  0,acts-4,Y,771,113,137.470667,0.0020780000000000243
L1BR|BR|BOUNDARY,exec-left-turn,S_W,<10-Y/R,LOW  SPEED,NO  PEDESTRIAN,RL  0,acts-5,Y,771,52,44.711333,0.0030890000000000084
L1BR|BR|BOUNDARY,exec-left-turn,S_W,<10-Y/R,LOW  SPEED,NO  PEDESTRIAN,  RL  <EQ  2,acts-6,Y,771,52,40.707333,0.05500400000000005
L1BR|BR|BOUNDARY,exec-left-turn,S_W,<10-Y/R,LOW  SPEED,NO  PEDESTRIAN,  RL  <EQ  2,acts-4,Y,771,113,133.466667,0
L1BR|BR|BOUNDARY,exec-left-turn,S_W,<10-Y/R,MEDIUM  SPEED,NO  PEDESTRIAN,RL  0,acts-4,Y,771,33,40.5405,0
L1BR|BR|BOUNDARY,exec-left-turn,S_W,<10-Y/R,MEDIUM  SPEED,NO  PEDESTRIAN,RL  0,acts-4,Y,771,113,138.471667,0
L1BR|BR|BOUNDARY,exec-left-turn,S_W,<10-Y/R,MEDIUM  SPEED,NO  PEDESTRIAN,RL  0,acts-5,N,771,52,45.712333,0.005473000000000061
L1BR|BR|BOUNDARY,exec-left-turn,S_W,>EQ  10-Y/R,LOW  SPEED,NO  PEDESTRIAN,RL  0,acts-4,N,771,10,0,0.07031799999999999
L1BR|BR|BOUNDARY,exec-left-turn,S_W,>EQ  10-Y/R,LOW  SPEED,NO  PEDESTRIAN,RL  0,acts-4,N,771,10,1.001,0.008797000000000055
L1BR|BR|BOUNDARY,exec-left-turn,S_W,>EQ  10-Y/R,LOW  SPEED,NO  PEDESTRIAN,RL  0,acts-4,Y,771,10,2.002,5.299999999996974e-05
L1BR|BR|BOUNDARY,exec-left-turn,S_W,>EQ  10-Y/R,LOW  SPEED,NO  PEDESTRIAN,RL  0,acts-4,Y,771,125,124.124,0
L1BR|BR|BOUNDARY,exec-left-turn,S_W,>EQ  10-Y/R,LOW  SPEED,NO  PEDESTRIAN,RL  0,acts-4,Y,771,125,125.125,0.0023900000000000032
L1BR|BR|BOUNDARY,exec-left-turn,S_W,>EQ  10-Y/R,LOW  SPEED,NO  PEDESTRIAN,  RL  <EQ  2,acts-4,N,771,33,23.5235,0.05707899999999999
L1BR|BR|BOUNDARY,exec-left-turn,S_W,>EQ  10-Y/R,LOW  SPEED,NO  PEDESTRIAN,  RL  <EQ  2,acts-4,N,771,33,24.5245,0.05465600000000004
L1BR|BR|BOUNDARY,exec-left-turn,S_W,>EQ  10-Y/R,LOW  SPEED,NO  PEDESTRIAN,  RL  <EQ  2,acts-4,N,771,33,25.5255,0.05452200000000007
L1BR|BR|BOUNDARY,exec-left-turn,S_W,>EQ  10-Y/R,LOW  SPEED,NO  PEDESTRIAN,  RL  <EQ  2,acts-4,N,771,33,26.5265,0.05150100000000002
L1BR|BR|BOUNDARY,exec-left-turn,S_W,>EQ  10-Y/R,LOW  SPEED,NO  PEDESTRIAN,  RL  <EQ  2,acts-4,N,771,33,29.5295,2.8000000000028002e-05
L1BR|BR|BOUNDARY,exec-left-turn,S_W,>EQ  10-Y/R,LOW  SPEED,NO  PEDESTRIAN,  RL  <EQ  2,acts-4,N,771,33,30.5305,0.06457800000000002
L1BR|BR|BOUNDARY,exec-left-turn,S_W,>EQ  10-Y/R,LOW  SPEED,NO  PEDESTRIAN,  RL  <EQ  2,acts-4,N,771,33,31.5315,0.009822999999999915
L1BR|BR|BOUNDARY,exec-left-turn,S_W,>EQ  10-Y/R,LOW  SPEED,NO  PEDESTRIAN,  RL  <EQ  2,acts-4,Y,771,125,123.123,0
L1BR|BR|BOUNDARY,exec-left-turn,S_W,>EQ  10-Y/R,LOW  SPEED,NO  PEDESTRIAN,  RL  >  2,acts-4,Y,771,33,20.5205,0.05790699999999993
L1BR|BR|BOUNDARY,exec-left-turn,S_W,>EQ  10-Y/R,LOW  SPEED,NO  PEDESTRIAN,  RL  >  2,acts-4,N,771,33,27.5275,0.040405000000000024
L1BR|BR|BOUNDARY,exec-left-turn,S_W,>EQ  10-Y/R,LOW  SPEED,NO  PEDESTRIAN,  RL  >  2,acts-4,N,771,33,28.5285,0.05400499999999997
L1BR|BR|BOUNDARY,exec-left-turn,S_W,>EQ  10-Y/R,MEDIUM  SPEED,NO  PEDESTRIAN,RL  0,acts-4,Y,771,10,3.003,0.0007969999999999366
L1BR|BR|BOUNDARY,exec-left-turn,S_W,>EQ  10-Y/R,MEDIUM  SPEED,NO  PEDESTRIAN,RL  0,acts-4,Y,771,125,126.126,0
L1BR|BR|BOUNDARY,exec-left-turn,S_W,>EQ  10-Y/R,MEDIUM  SPEED,NO  PEDESTRIAN,RL  0,acts-4,Y,771,183,200.2,0.002107000000000081
L1BR|BR|BOUNDARY,exec-left-turn,S_W,>EQ  10-Y/R,MEDIUM  SPEED,NO  PEDESTRIAN,RL  0,acts-4,Y,771,183,201.201,0
L1BR|BR|BOUNDARY,exec-left-turn,N_E,<10-Y/R,LOW  SPEED,NO  PEDESTRIAN,RL  0,acts-4,Y,771,45,33.033,0.019414000000000042
L1BR|BR|BOUNDARY,exec-left-turn,N_E,<10-Y/R,LOW  SPEED,NO  PEDESTRIAN,RL  0,acts-4,Y,771,45,34.034,0
L1BR|BR|BOUNDARY,exec-left-turn,N_E,<10-Y/R,LOW  SPEED,NO  PEDESTRIAN,RL  0,acts-4,Y,771,45,35.035,0
L1BR|BR|BOUNDARY,exec-left-turn,N_E,<10-Y/R,LOW  SPEED,NO  PEDESTRIAN,RL  0,acts-4,Y,771,45,36.036,0
L1BR|BR|BOUNDARY,exec-left-turn,N_E,<10-Y/R,LOW  SPEED,NO  PEDESTRIAN,RL  0,acts-4,N,771,131,133.299833,0.06439400000000006
L1BR|BR|BOUNDARY,exec-left-turn,N_E,<10-Y/R,LOW  SPEED,NO  PEDESTRIAN,RL  0,acts-4,N,771,131,134.300833,0.06299299999999997
L1BR|BR|BOUNDARY,exec-left-turn,N_E,<10-Y/R,LOW  SPEED,NO  PEDESTRIAN,RL  0,acts-4,N,771,131,135.301833,0.04264000000000001
L1BR|BR|BOUNDARY,exec-left-turn,N_E,<10-Y/R,LOW  SPEED,NO  PEDESTRIAN,RL  0,acts-4,N,771,131,136.302833,0
L1BR|BR|BOUNDARY,exec-left-turn,N_E,<10-Y/R,LOW  SPEED,NO  PEDESTRIAN,RL  0,acts-4,Y,771,131,137.303833,0.007148000000000043
L1BR|BR|BOUNDARY,exec-left-turn,N_E,<10-Y/R,LOW  SPEED,NO  PEDESTRIAN,RL  0,acts-4,N,771,131,138.304833,0
L1BR|BR|BOUNDARY,exec-left-turn,N_E,<10-Y/R,LOW  SPEED,NO  PEDESTRIAN,RL  0,acts-4,Y,771,131,139.305833,0.006474000000000091
L1BR|BR|BOUNDARY,exec-left-turn,N_E,<10-Y/R,LOW  SPEED,NO  PEDESTRIAN,RL  0,acts-4,Y,771,131,140.306833,0
L1BR|BR|BOUNDARY,exec-left-turn,N_E,<10-Y/R,LOW  SPEED,NO  PEDESTRIAN,RL  0,acts-5,N,771,69,44.878167,0
L1BR|BR|BOUNDARY,exec-left-turn,N_E,<10-Y/R,LOW  SPEED,NO  PEDESTRIAN,RL  0,acts-5,Y,771,69,45.879167,0
L1BR|BR|BOUNDARY,exec-left-turn,N_E,<10-Y/R,LOW  SPEED,NO  PEDESTRIAN,RL  0,acts-5,Y,771,69,46.880167,0
L1BR|BR|BOUNDARY,exec-left-turn,N_E,<10-Y/R,MEDIUM  SPEED,NO  PEDESTRIAN,RL  0,acts-4,Y,771,45,37.037,0
L1BR|BR|BOUNDARY,exec-left-turn,N_E,<10-Y/R,MEDIUM  SPEED,NO  PEDESTRIAN,RL  0,acts-4,Y,771,45,38.038,0
L1BR|BR|BOUNDARY,exec-left-turn,N_E,<10-Y/R,MEDIUM  SPEED,NO  PEDESTRIAN,RL  0,acts-4,Y,771,131,141.307833,0
L1BR|BR|BOUNDARY,exec-left-turn,N_E,<10-Y/R,MEDIUM  SPEED,NO  PEDESTRIAN,RL  0,acts-4,Y,771,131,142.308833,0
L1BR|BR|BOUNDARY,exec-left-turn,N_E,<10-Y/R,MEDIUM  SPEED,NO  PEDESTRIAN,RL  0,acts-5,Y,771,151,145.311833,0
L1BR|BR|BOUNDARY,exec-left-turn,N_E,>EQ  10-Y/R,LOW  SPEED,PEDESTRIAN,RL  0,acts-2,N,771,4,0,0.08063200000000004
L1BR|BR|BOUNDARY,exec-left-turn,N_E,>EQ  10-Y/R,LOW  SPEED,PEDESTRIAN,RL  0,acts-2,N,771,4,0,0.08063200000000004
L1BR|BR|BOUNDARY,exec-left-turn,N_E,>EQ  10-Y/R,LOW  SPEED,PEDESTRIAN,RL  0,acts-2,Y,771,4,1.001,0.002657999999999938
L1BR|BR|BOUNDARY,exec-left-turn,N_E,>EQ  10-Y/R,LOW  SPEED,PEDESTRIAN,RL  0,acts-2,Y,771,24,3.670333,0
L1BR|BR|BOUNDARY,exec-left-turn,N_E,>EQ  10-Y/R,LOW  SPEED,PEDESTRIAN,RL  0,acts-2,Y,771,45,25.025,0.07153299999999996
L1BR|BR|BOUNDARY,exec-left-turn,N_E,>EQ  10-Y/R,LOW  SPEED,PEDESTRIAN,RL  0,acts-2,Y,771,45,25.025,0.07153299999999996
L1BR|BR|BOUNDARY,exec-left-turn,N_E,>EQ  10-Y/R,LOW  SPEED,PEDESTRIAN,RL  0,acts-2,N,771,45,26.026,0.07112099999999999
L1BR|BR|BOUNDARY,exec-left-turn,N_E,>EQ  10-Y/R,LOW  SPEED,PEDESTRIAN,RL  0,acts-2,N,771,45,26.026,0.07112099999999999
L1BR|BR|BOUNDARY,exec-left-turn,N_E,>EQ  10-Y/R,LOW  SPEED,PEDESTRIAN,RL  0,acts-2,N,771,45,27.027,0.07306900000000005
L1BR|BR|BOUNDARY,exec-left-turn,N_E,>EQ  10-Y/R,LOW  SPEED,PEDESTRIAN,RL  0,acts-2,N,771,45,27.027,0.07306900000000005
L1BR|BR|BOUNDARY,exec-left-turn,N_E,>EQ  10-Y/R,LOW  SPEED,PEDESTRIAN,RL  0,acts-2,Y,771,45,28.028,0.06101400000000001
L1BR|BR|BOUNDARY,exec-left-turn,N_E,>EQ  10-Y/R,LOW  SPEED,PEDESTRIAN,RL  0,acts-2,Y,771,45,28.028,0.06101400000000001
L1BR|BR|BOUNDARY,exec-left-turn,N_E,>EQ  10-Y/R,LOW  SPEED,PEDESTRIAN,RL  0,acts-2,N,771,45,29.029,0.06480400000000008
L1BR|BR|BOUNDARY,exec-left-turn,N_E,>EQ  10-Y/R,LOW  SPEED,PEDESTRIAN,RL  0,acts-2,N,771,45,29.029,0.06480400000000008
L1BR|BR|BOUNDARY,exec-left-turn,N_E,>EQ  10-Y/R,LOW  SPEED,PEDESTRIAN,RL  0,acts-2,N,771,45,30.03,0.06556300000000004
L1BR|BR|BOUNDARY,exec-left-turn,N_E,>EQ  10-Y/R,LOW  SPEED,PEDESTRIAN,RL  0,acts-2,N,771,45,30.03,0.06556300000000004
L1BR|BR|BOUNDARY,exec-left-turn,N_E,>EQ  10-Y/R,LOW  SPEED,PEDESTRIAN,RL  0,acts-2,N,771,45,31.031,0.05085899999999999
L1BR|BR|BOUNDARY,exec-left-turn,N_E,>EQ  10-Y/R,LOW  SPEED,PEDESTRIAN,RL  0,acts-2,N,771,45,31.031,0.05085899999999999
L1BR|BR|BOUNDARY,exec-left-turn,N_E,>EQ  10-Y/R,LOW  SPEED,PEDESTRIAN,RL  0,acts-2,Y,771,172,209.7095,0.0018000000000000238
L1BR|BR|BOUNDARY,exec-left-turn,N_E,>EQ  10-Y/R,LOW  SPEED,PEDESTRIAN,RL  0,acts-2,Y,771,172,210.7105,0
L1BR|BR|BOUNDARY,exec-left-turn,N_E,>EQ  10-Y/R,LOW  SPEED,PEDESTRIAN,RL  0,acts-2,N,771,172,211.7115,0
L1BR|BR|BOUNDARY,exec-left-turn,N_E,>EQ  10-Y/R,LOW  SPEED,PEDESTRIAN,RL  0,acts-2,Y,771,172,212.7125,0.002755000000000063
L1BR|BR|BOUNDARY,exec-left-turn,N_E,>EQ  10-Y/R,LOW  SPEED,PEDESTRIAN,RL  0,acts-2,Y,771,224,219.219,0.07001599999999997
L1BR|BR|BOUNDARY,exec-left-turn,N_E,>EQ  10-Y/R,LOW  SPEED,PEDESTRIAN,RL  0,acts-2,Y,771,224,219.219,0.07001599999999997
L1BR|BR|BOUNDARY,exec-left-turn,N_E,>EQ  10-Y/R,LOW  SPEED,PEDESTRIAN,RL  0,acts-2,N,771,224,220.22,0.07526300000000008
L1BR|BR|BOUNDARY,exec-left-turn,N_E,>EQ  10-Y/R,LOW  SPEED,PEDESTRIAN,RL  0,acts-2,N,771,224,220.22,0.07526300000000008
L1BR|BR|BOUNDARY,exec-left-turn,N_E,>EQ  10-Y/R,LOW  SPEED,PEDESTRIAN,RL  0,acts-2,N,771,224,221.221,0.0042639999999999345
L1BR|BR|BOUNDARY,exec-left-turn,N_E,>EQ  10-Y/R,LOW  SPEED,PEDESTRIAN,RL  0,acts-2,Y,771,224,222.222,0
L1BR|BR|BOUNDARY,exec-left-turn,N_E,>EQ  10-Y/R,LOW  SPEED,PEDESTRIAN,RL  0,acts-2,Y,771,224,223.223,0.0025800000000000267
L1BR|BR|BOUNDARY,exec-left-turn,N_E,>EQ  10-Y/R,LOW  SPEED,NO  PEDESTRIAN,RL  0,acts-4,Y,771,45,32.032,0
L1BR|BR|BOUNDARY,exec-left-turn,N_E,>EQ  10-Y/R,LOW  SPEED,NO  PEDESTRIAN,RL  0,acts-4,N,771,77,98.932167,0.005143000000000009
L1BR|BR|BOUNDARY,exec-left-turn,N_E,>EQ  10-Y/R,LOW  SPEED,NO  PEDESTRIAN,RL  0,acts-4,Y,771,77,99.933167,0
L1BR|BR|BOUNDARY,exec-left-turn,N_E,>EQ  10-Y/R,LOW  SPEED,NO  PEDESTRIAN,RL  0,acts-4,Y,771,131,118.284833,0.06915300000000002
L1BR|BR|BOUNDARY,exec-left-turn,N_E,>EQ  10-Y/R,LOW  SPEED,NO  PEDESTRIAN,RL  0,acts-4,N,771,131,119.285833,0.06487899999999991
L1BR|BR|BOUNDARY,exec-left-turn,N_E,>EQ  10-Y/R,LOW  SPEED,NO  PEDESTRIAN,RL  0,acts-4,N,771,131,120.286833,0.06061000000000005
L1BR|BR|BOUNDARY,exec-left-turn,N_E,>EQ  10-Y/R,LOW  SPEED,NO  PEDESTRIAN,RL  0,acts-4,N,771,131,121.287833,0.06136799999999998
L1BR|BR|BOUNDARY,exec-left-turn,N_E,>EQ  10-Y/R,LOW  SPEED,NO  PEDESTRIAN,RL  0,acts-4,N,771,131,122.288833,0.049939999999999984
L1BR|BR|BOUNDARY,exec-left-turn,N_E,>EQ  10-Y/R,LOW  SPEED,NO  PEDESTRIAN,RL  0,acts-4,N,771,131,123.289833,0.06682900000000003
L1BR|BR|BOUNDARY,exec-left-turn,N_E,>EQ  10-Y/R,LOW  SPEED,NO  PEDESTRIAN,RL  0,acts-4,N,771,131,124.290833,0.04665700000000006
L1BR|BR|BOUNDARY,exec-left-turn,N_E,>EQ  10-Y/R,LOW  SPEED,NO  PEDESTRIAN,RL  0,acts-4,N,771,131,125.291833,0.06413100000000005
L1BR|BR|BOUNDARY,exec-left-turn,N_E,>EQ  10-Y/R,LOW  SPEED,NO  PEDESTRIAN,RL  0,acts-4,N,771,131,126.292833,0.04531300000000005
L1BR|BR|BOUNDARY,exec-left-turn,N_E,>EQ  10-Y/R,LOW  SPEED,NO  PEDESTRIAN,RL  0,acts-4,N,771,131,127.293833,0.06451000000000007
L1BR|BR|BOUNDARY,exec-left-turn,N_E,>EQ  10-Y/R,LOW  SPEED,NO  PEDESTRIAN,RL  0,acts-4,N,771,131,128.294833,0.061409999999999965
L1BR|BR|BOUNDARY,exec-left-turn,N_E,>EQ  10-Y/R,LOW  SPEED,NO  PEDESTRIAN,RL  0,acts-4,N,771,131,129.295833,0.06510899999999997
L1BR|BR|BOUNDARY,exec-left-turn,N_E,>EQ  10-Y/R,LOW  SPEED,NO  PEDESTRIAN,RL  0,acts-4,N,771,131,130.296833,0.04490099999999997
L1BR|BR|BOUNDARY,exec-left-turn,N_E,>EQ  10-Y/R,LOW  SPEED,NO  PEDESTRIAN,RL  0,acts-4,N,771,131,131.297833,0.04820199999999997
L1BR|BR|BOUNDARY,exec-left-turn,N_E,>EQ  10-Y/R,LOW  SPEED,NO  PEDESTRIAN,RL  0,acts-4,N,771,131,132.298833,0.04496600000000006
L1BR|BR|BOUNDARY,exec-left-turn,N_E,>EQ  10-Y/R,MEDIUM  SPEED,PEDESTRIAN,RL  0,acts-2,Y,771,4,2.002,0
L1BR|BR|BOUNDARY,exec-left-turn,N_E,>EQ  10-Y/R,MEDIUM  SPEED,PEDESTRIAN,RL  0,acts-2,Y,771,4,3.003,0.0019080000000000208
L1BR|BR|BOUNDARY,exec-left-turn,N_E,>EQ  10-Y/R,MEDIUM  SPEED,PEDESTRIAN,RL  0,acts-2,Y,771,24,4.671333,0
L1BR|BR|BOUNDARY,exec-left-turn,N_E,>EQ  10-Y/R,MEDIUM  SPEED,PEDESTRIAN,RL  0,acts-2,Y,771,172,213.7135,0
L1BR|BR|BOUNDARY,exec-left-turn,N_E,>EQ  10-Y/R,MEDIUM  SPEED,PEDESTRIAN,RL  0,acts-2,Y,771,224,224.224,0
L1BR|BR|BOUNDARY,exec-left-turn,N_E,>EQ  10-Y/R,MEDIUM  SPEED,NO  PEDESTRIAN,RL  0,acts-4,Y,771,77,100.934167,0
L1BR|BR|BOUNDARY,exec-left-turn,N_E,>EQ  10-Y/R,MEDIUM  SPEED,NO  PEDESTRIAN,RL  0,acts-4,Y,771,77,101.935167,0.0012809999999999766
L1BR|BR|BOUNDARY,exec-left-turn,N_E,>EQ  10-G,LOW  SPEED,NO  PEDESTRIAN,RL  0,acts-5,Y,771,69,47.881167,0.0013009999999999966
L1BR|BR|BOUNDARY,exec-left-turn,N_E,>EQ  10-G,MEDIUM  SPEED,NO  PEDESTRIAN,RL  0,acts-5,Y,771,69,48.882167,0.0010109999999999841
L1BR|BR|BOUNDARY,exec-left-turn,N_E,>EQ  10-G,MEDIUM  SPEED,NO  PEDESTRIAN,RL  0,acts-5,Y,771,69,49.883167,0
L1BR|BR|BOUNDARY,exec-left-turn,W_N,>EQ  10-Y/R,LOW  SPEED,NO  PEDESTRIAN,RL  0,acts-4,N,771,2,54.054,0.0004629999999999912
L1BR|BR|BOUNDARY,exec-left-turn,W_N,>EQ  10-Y/R,LOW  SPEED,NO  PEDESTRIAN,RL  0,acts-4,Y,771,2,55.055,0
L1BR|BR|BOUNDARY,exec-left-turn,W_N,>EQ  10-Y/R,LOW  SPEED,NO  PEDESTRIAN,RL  0,acts-4,Y,771,2,56.056,0
L1BR|BR|BOUNDARY,exec-left-turn,W_N,>EQ  10-Y/R,LOW  SPEED,NO  PEDESTRIAN,RL  0,acts-4,N,771,2,57.057,0
L1BR|BR|BOUNDARY,exec-left-turn,W_N,>EQ  10-Y/R,LOW  SPEED,NO  PEDESTRIAN,RL  0,acts-4,N,771,66,58.058,0.016298000000000035
L1BR|BR|BOUNDARY,exec-left-turn,W_N,>EQ  10-Y/R,LOW  SPEED,NO  PEDESTRIAN,RL  0,acts-4,N,771,72,62.228833,0.027958999999999956
L1BR|BR|BOUNDARY,exec-left-turn,W_N,>EQ  10-Y/R,LOW  SPEED,NO  PEDESTRIAN,RL  0,acts-4,Y,771,103,152.485667,0.0026200000000000667
L1BR|BR|BOUNDARY,exec-left-turn,W_N,>EQ  10-Y/R,LOW  SPEED,NO  PEDESTRIAN,RL  0,acts-4,Y,771,147,155.6555,0.008182000000000023
L1BR|BR|BOUNDARY,exec-left-turn,W_N,>EQ  10-Y/R,LOW  SPEED,NO  PEDESTRIAN,RL  0,acts-4,Y,771,155,156.6565,0.0006990000000000052
L1BR|BR|BOUNDARY,exec-left-turn,W_N,>EQ  10-Y/R,LOW  SPEED,NO  PEDESTRIAN,RL  0,acts-4,Y,771,175,176.176,0
L1BR|BR|BOUNDARY,exec-left-turn,W_N,>EQ  10-Y/R,LOW  SPEED,NO  PEDESTRIAN,  RL  <EQ  2,acts-4,N,771,72,60.226833,0.019273000000000096
L1BR|BR|BOUNDARY,exec-left-turn,W_N,>EQ  10-Y/R,LOW  SPEED,NO  PEDESTRIAN,  RL  <EQ  2,acts-4,N,771,72,61.227833,0.016348999999999947
L1BR|BR|BOUNDARY,exec-left-turn,W_N,>EQ  10-Y/R,LOW  SPEED,NO  PEDESTRIAN,  RL  <EQ  2,acts-4,Y,771,175,172.172,0.0041360000000000285
L1BR|BR|BOUNDARY,exec-left-turn,W_N,>EQ  10-Y/R,LOW  SPEED,NO  PEDESTRIAN,  RL  >  2,acts-4,N,771,175,171.171,0.013517999999999919
L1BR|BR|BOUNDARY,exec-left-turn,W_N,>EQ  10-Y/R,MEDIUM  SPEED,NO  PEDESTRIAN,RL  0,acts-4,Y,771,103,153.486667,0.0005699999999999594
L1BR|BR|BOUNDARY,exec-left-turn,W_N,>EQ  10-Y/R,MEDIUM  SPEED,NO  PEDESTRIAN,RL  0,acts-4,Y,771,155,157.6575,0.00282300000000002
L1BR|BR|BOUNDARY,exec-left-turn,W_N,>EQ  10-Y/R,MEDIUM  SPEED,NO  PEDESTRIAN,RL  0,acts-4,N,771,175,177.177,0
L1BR|BR|BOUNDARY,exec-left-turn,E_S,>EQ  10-Y/R,LOW  SPEED,PEDESTRIAN,RL  0,acts-2,Y,771,11,55.055,0
L1BR|BR|BOUNDARY,exec-left-turn,E_S,>EQ  10-Y/R,LOW  SPEED,PEDESTRIAN,RL  0,acts-2,Y,771,11,56.056,0
L1BR|BR|BOUNDARY,exec-left-turn,E_S,>EQ  10-Y/R,LOW  SPEED,PEDESTRIAN,RL  0,acts-2,Y,771,11,57.057,0
L1BR|BR|BOUNDARY,exec-left-turn,E_S,>EQ  10-Y/R,MEDIUM  SPEED,PEDESTRIAN,RL  0,acts-2,Y,771,11,58.058,0.0
L1BR|BR|BOUNDARY,exec-left-turn,E_S,>EQ  10-Y/R,MEDIUM  SPEED,PEDESTRIAN,RL  0,acts-2,Y,771,11,58.058,0
L1BR|BR|BOUNDARY,exec-left-turn,E_S,>EQ  10-Y/R,MEDIUM  SPEED,PEDESTRIAN,RL  0,acts-2,N,771,79,61.728333,0.0
L1BR|BR|BOUNDARY,exec-left-turn,E_S,>EQ  10-Y/R,MEDIUM  SPEED,PEDESTRIAN,RL  0,acts-2,N,771,79,61.728333,0.0
L1BR|BR|BOUNDARY,OTHER  LANES,W_S,<10-Y/R,LOW  SPEED,PEDESTRIAN,RL  0,acts-8,N,771,91,78.078,0.015554999999999986
L1BR|BR|BOUNDARY,OTHER  LANES,W_S,<10-Y/R,LOW  SPEED,PEDESTRIAN,RL  0,acts-8,N,771,91,79.079,0.04430600000000007
L1BR|BR|BOUNDARY,OTHER  LANES,W_S,<10-Y/R,LOW  SPEED,PEDESTRIAN,RL  0,acts-8,N,771,91,80.08,0.04518
L1BR|BR|BOUNDARY,OTHER  LANES,W_S,<10-Y/R,LOW  SPEED,NO  PEDESTRIAN,RL  0,acts-9,Y,771,96,84.084,0.045426999999999995
L1BR|BR|BOUNDARY,OTHER  LANES,W_S,<10-Y/R,LOW  SPEED,NO  PEDESTRIAN,RL  0,acts-9,Y,771,96,85.085,0.03906900000000002
L1BR|BR|BOUNDARY,OTHER  LANES,W_S,<10-Y/R,LOW  SPEED,NO  PEDESTRIAN,RL  0,acts-9,Y,771,188,180.847333,0.036600999999999995
L1BR|BR|BOUNDARY,OTHER  LANES,W_S,<10-Y/R,LOW  SPEED,NO  PEDESTRIAN,RL  0,acts-9,Y,771,188,183.850333,0.04244899999999996
L1BR|BR|BOUNDARY,OTHER  LANES,W_S,<10-Y/R,MEDIUM  SPEED,PEDESTRIAN,RL  0,acts-8,N,771,96,82.082,0.01074799999999998
L1BR|BR|BOUNDARY,OTHER  LANES,W_S,<10-Y/R,MEDIUM  SPEED,NO  PEDESTRIAN,RL  0,acts-9,Y,771,96,83.083,0.034460999999999964
L1BR|BR|BOUNDARY,OTHER  LANES,W_S,<10-Y/R,MEDIUM  SPEED,NO  PEDESTRIAN,RL  0,acts-9,N,771,188,181.848333,0.011581999999999981
L1BR|BR|BOUNDARY,OTHER  LANES,W_S,<10-Y/R,MEDIUM  SPEED,NO  PEDESTRIAN,RL  0,acts-9,N,771,188,182.849333,0.022511999999999976
L1BR|BR|BOUNDARY,OTHER  LANES,W_S,<10-G,LOW  SPEED,PEDESTRIAN,RL  0,acts-8,Y,771,171,149.983167,0.02368999999999999
L1BR|BR|BOUNDARY,OTHER  LANES,W_S,<10-G,LOW  SPEED,PEDESTRIAN,RL  0,acts-8,Y,771,171,150.984167,0.04169999999999996
L1BR|BR|BOUNDARY,OTHER  LANES,W_S,<10-G,LOW  SPEED,PEDESTRIAN,RL  0,acts-8,Y,771,171,151.985167,0.04608500000000004
L1BR|BR|BOUNDARY,OTHER  LANES,W_S,<10-G,LOW  SPEED,PEDESTRIAN,RL  0,acts-8,N,771,171,152.986167,0.037760000000000016
L1BR|BR|BOUNDARY,OTHER  LANES,W_S,<10-G,LOW  SPEED,PEDESTRIAN,RL  0,acts-8,Y,771,173,156.823333,0.04106799999999999
L1BR|BR|BOUNDARY,OTHER  LANES,W_S,<10-G,LOW  SPEED,PEDESTRIAN,RL  0,acts-8,Y,771,173,157.824333,0.043850000000000056
L1BR|BR|BOUNDARY,OTHER  LANES,W_S,<10-G,MEDIUM  SPEED,PEDESTRIAN,RL  0,acts-8,Y,771,171,148.982167,0.006608000000000058
L1BR|BR|BOUNDARY,OTHER  LANES,W_S,>EQ  10-Y/R,LOW  SPEED,PEDESTRIAN,RL  0,acts-8,N,771,91,76.076,0.02196000000000009
L1BR|BR|BOUNDARY,OTHER  LANES,W_S,>EQ  10-Y/R,LOW  SPEED,PEDESTRIAN,RL  0,acts-8,N,771,91,77.077,0.0
L1BR|BR|BOUNDARY,OTHER  LANES,W_S,>EQ  10-Y/R,LOW  SPEED,PEDESTRIAN,RL  0,acts-8,N,771,173,158.825333,0.043061999999999934
L1BR|BR|BOUNDARY,OTHER  LANES,W_S,>EQ  10-Y/R,LOW  SPEED,PEDESTRIAN,RL  0,acts-8,N,771,173,159.826333,0.04232199999999997
L1BR|BR|BOUNDARY,OTHER  LANES,W_S,>EQ  10-Y/R,LOW  SPEED,PEDESTRIAN,RL  0,acts-8,N,771,173,160.827333,0.04237100000000005
L1BR|BR|BOUNDARY,OTHER  LANES,W_S,>EQ  10-Y/R,LOW  SPEED,PEDESTRIAN,RL  0,acts-8,N,771,173,161.828333,0.036826000000000025
L1BR|BR|BOUNDARY,OTHER  LANES,W_S,>EQ  10-Y/R,LOW  SPEED,PEDESTRIAN,RL  0,acts-8,N,771,173,162.829333,0.0007120000000000459
L1BR|BR|BOUNDARY,OTHER  LANES,W_S,>EQ  10-Y/R,LOW  SPEED,PEDESTRIAN,RL  0,acts-8,Y,771,173,163.830333,0
L1BR|BR|BOUNDARY,OTHER  LANES,W_S,>EQ  10-G,LOW  SPEED,PEDESTRIAN,RL  0,acts-8,N,771,61,45.211833,0.04606600000000005
L1BR|BR|BOUNDARY,OTHER  LANES,W_S,>EQ  10-G,LOW  SPEED,PEDESTRIAN,RL  0,acts-8,Y,771,61,46.212833,0.03980399999999995
L1BR|BR|BOUNDARY,OTHER  LANES,W_S,>EQ  10-G,LOW  SPEED,PEDESTRIAN,  RL  <EQ  2,acts-8,Y,771,56,29.863167,0.019787
L1BR|BR|BOUNDARY,OTHER  LANES,W_S,>EQ  10-G,LOW  SPEED,PEDESTRIAN,  RL  <EQ  2,acts-8,Y,771,56,30.864167,0.026448000000000027
L1BR|BR|BOUNDARY,OTHER  LANES,W_S,>EQ  10-G,LOW  SPEED,PEDESTRIAN,  RL  <EQ  2,acts-8,Y,771,56,31.865167,0.023805999999999994
L1BR|BR|BOUNDARY,OTHER  LANES,W_S,>EQ  10-G,LOW  SPEED,PEDESTRIAN,  RL  <EQ  2,acts-8,Y,771,56,32.866167,0.040722999999999954
L1BR|BR|BOUNDARY,OTHER  LANES,W_S,>EQ  10-G,LOW  SPEED,PEDESTRIAN,  RL  <EQ  2,acts-8,Y,771,56,33.867167,0.03737400000000002
L1BR|BR|BOUNDARY,OTHER  LANES,W_S,>EQ  10-G,LOW  SPEED,PEDESTRIAN,  RL  >  2,acts-8,Y,771,56,27.861167,0
L1BR|BR|BOUNDARY,OTHER  LANES,W_S,>EQ  10-G,LOW  SPEED,PEDESTRIAN,  RL  >  2,acts-8,Y,771,110,101.6015,0.0
L1BR|BR|BOUNDARY,OTHER  LANES,W_S,>EQ  10-G,LOW  SPEED,PEDESTRIAN,  RL  >  2,acts-8,Y,771,110,102.6025,0.02539199999999997
L1BR|BR|BOUNDARY,OTHER  LANES,W_S,>EQ  10-G,LOW  SPEED,PEDESTRIAN,  RL  >  2,acts-8,Y,771,110,103.6035,0.026393
L1BR|BR|BOUNDARY,OTHER  LANES,W_S,>EQ  10-G,LOW  SPEED,PEDESTRIAN,  RL  >  2,acts-8,Y,771,110,104.6045,0.03984900000000002
L1BR|BR|BOUNDARY,OTHER  LANES,W_S,>EQ  10-G,LOW  SPEED,PEDESTRIAN,  RL  >  2,acts-8,Y,771,110,105.6055,0.038609000000000004
L1BR|BR|BOUNDARY,OTHER  LANES,W_S,>EQ  10-G,LOW  SPEED,PEDESTRIAN,  RL  >  2,acts-8,Y,771,110,106.6065,0.01976699999999998
L1BR|BR|BOUNDARY,OTHER  LANES,W_S,>EQ  10-G,MEDIUM  SPEED,PEDESTRIAN,RL  0,acts-8,N,771,171,147.981167,0.017027999999999932
L1BR|BR|BOUNDARY,OTHER  LANES,W_S,>EQ  10-G,MEDIUM  SPEED,PEDESTRIAN,  RL  >  2,acts-8,Y,771,56,28.862167,0
L1BR|BR|BOUNDARY,OTHER  LANES,W_S,>EQ  10-G,MEDIUM  SPEED,PEDESTRIAN,  RL  >  2,acts-8,N,771,110,100.6005,0.0013960000000000639
L1BR|BR|BOUNDARY,OTHER  LANES,S_W,<10-Y/R,LOW  SPEED,NO  PEDESTRIAN,  RL  <EQ  2,acts-10,N,771,62,36.5365,0.0
L1BR|BR|BOUNDARY,OTHER  LANES,S_W,<10-Y/R,LOW  SPEED,NO  PEDESTRIAN,  RL  <EQ  2,acts-10,Y,771,62,37.5375,0
L1BR|BR|BOUNDARY,OTHER  LANES,S_W,<10-Y/R,LOW  SPEED,NO  PEDESTRIAN,  RL  <EQ  2,acts-10,N,771,62,39.5395,0.000172000000000061
L1BR|BR|BOUNDARY,OTHER  LANES,S_W,<10-G,LOW  SPEED,PEDESTRIAN,RL  0,acts-11,N,771,113,101.434667,0.0
L1BR|BR|BOUNDARY,OTHER  LANES,S_W,<10-G,LOW  SPEED,PEDESTRIAN,RL  0,acts-11,N,771,113,102.435667,0.0
L1BR|BR|BOUNDARY,OTHER  LANES,S_W,<10-G,LOW  SPEED,PEDESTRIAN,RL  0,acts-11,N,771,113,103.436667,0.0
L1BR|BR|BOUNDARY,OTHER  LANES,S_W,<10-G,LOW  SPEED,PEDESTRIAN,RL  0,acts-11,N,771,113,104.437667,0.0
L1BR|BR|BOUNDARY,OTHER  LANES,S_W,<10-G,LOW  SPEED,PEDESTRIAN,RL  0,acts-11,N,771,113,105.438667,0.0
L1BR|BR|BOUNDARY,OTHER  LANES,S_W,<10-G,LOW  SPEED,PEDESTRIAN,RL  0,acts-11,N,771,113,106.439667,0.0
L1BR|BR|BOUNDARY,OTHER  LANES,S_W,<10-G,LOW  SPEED,PEDESTRIAN,RL  0,acts-11,N,771,113,107.440667,0.0
L1BR|BR|BOUNDARY,OTHER  LANES,S_W,<10-G,LOW  SPEED,PEDESTRIAN,RL  0,acts-11,N,771,113,108.441667,0.0
L1BR|BR|BOUNDARY,OTHER  LANES,S_W,<10-G,LOW  SPEED,PEDESTRIAN,RL  0,acts-11,N,771,113,109.442667,0.0
L1BR|BR|BOUNDARY,OTHER  LANES,S_W,<10-G,LOW  SPEED,PEDESTRIAN,RL  0,acts-11,N,771,113,110.443667,0.0
L1BR|BR|BOUNDARY,OTHER  LANES,S_W,<10-G,LOW  SPEED,NO  PEDESTRIAN,RL  0,acts-11,N,771,183,185.185,0.0
L1BR|BR|BOUNDARY,OTHER  LANES,S_W,<10-G,LOW  SPEED,NO  PEDESTRIAN,RL  0,acts-11,N,771,183,186.186,0.0
L1BR|BR|BOUNDARY,OTHER  LANES,S_W,<10-G,LOW  SPEED,NO  PEDESTRIAN,RL  0,acts-11,N,771,183,187.187,0
L1BR|BR|BOUNDARY,OTHER  LANES,S_W,<10-G,LOW  SPEED,NO  PEDESTRIAN,RL  0,acts-11,N,771,183,188.188,0.0
L1BR|BR|BOUNDARY,OTHER  LANES,S_W,<10-G,LOW  SPEED,NO  PEDESTRIAN,RL  0,acts-11,N,771,183,189.189,0.0
L1BR|BR|BOUNDARY,OTHER  LANES,S_W,<10-G,LOW  SPEED,NO  PEDESTRIAN,RL  0,acts-11,N,771,183,190.19,0.0
L1BR|BR|BOUNDARY,OTHER  LANES,S_W,<10-G,LOW  SPEED,NO  PEDESTRIAN,RL  0,acts-11,N,771,183,191.191,0.0
L1BR|BR|BOUNDARY,OTHER  LANES,S_W,<10-G,LOW  SPEED,NO  PEDESTRIAN,RL  0,acts-11,N,771,183,192.192,0.0
L1BR|BR|BOUNDARY,OTHER  LANES,S_W,<10-G,LOW  SPEED,NO  PEDESTRIAN,RL  0,acts-11,N,771,183,193.193,0
L1BR|BR|BOUNDARY,OTHER  LANES,S_W,<10-G,LOW  SPEED,NO  PEDESTRIAN,RL  0,acts-11,N,771,183,194.194,0.0
L1BR|BR|BOUNDARY,OTHER  LANES,S_W,>EQ  10-Y/R,LOW  SPEED,PEDESTRIAN,RL  0,acts-4,Y,771,125,113.113,0.003390999999999922
L1BR|BR|BOUNDARY,OTHER  LANES,S_W,>EQ  10-Y/R,LOW  SPEED,PEDESTRIAN,  RL  >  2,acts-10,N,771,113,111.444667,0.007350999999999996
L1BR|BR|BOUNDARY,OTHER  LANES,S_W,>EQ  10-Y/R,LOW  SPEED,NO  PEDESTRIAN,RL  0,acts-4,N,771,7,0,0.005090999999999957
L1BR|BR|BOUNDARY,OTHER  LANES,S_W,>EQ  10-Y/R,LOW  SPEED,NO  PEDESTRIAN,RL  0,acts-4,Y,771,183,195.195,0
L1BR|BR|BOUNDARY,OTHER  LANES,S_W,>EQ  10-Y/R,LOW  SPEED,NO  PEDESTRIAN,RL  0,acts-4,Y,771,183,196.196,0
L1BR|BR|BOUNDARY,OTHER  LANES,S_W,>EQ  10-Y/R,LOW  SPEED,NO  PEDESTRIAN,RL  0,acts-4,Y,771,183,197.197,0
L1BR|BR|BOUNDARY,OTHER  LANES,S_W,>EQ  10-Y/R,LOW  SPEED,NO  PEDESTRIAN,  RL  <EQ  2,acts-4,Y,771,33,13.5135,0.03811999999999993
L1BR|BR|BOUNDARY,OTHER  LANES,S_W,>EQ  10-Y/R,LOW  SPEED,NO  PEDESTRIAN,  RL  <EQ  2,acts-4,Y,771,113,122.455667,0
L1BR|BR|BOUNDARY,OTHER  LANES,S_W,>EQ  10-Y/R,LOW  SPEED,NO  PEDESTRIAN,  RL  <EQ  2,acts-10,Y,771,130,116.783333,0.0
L1BR|BR|BOUNDARY,OTHER  LANES,S_W,>EQ  10-Y/R,LOW  SPEED,NO  PEDESTRIAN,  RL  <EQ  2,acts-10,Y,771,130,117.784333,0
L1BR|BR|BOUNDARY,OTHER  LANES,S_W,>EQ  10-Y/R,LOW  SPEED,NO  PEDESTRIAN,  RL  >  2,acts-10,N,771,113,121.454667,0.0
L1BR|BR|BOUNDARY,OTHER  LANES,S_W,>EQ  10-Y/R,LOW  SPEED,NO  PEDESTRIAN,  RL  >  2,acts-10,Y,771,130,122.789333,0
L1BR|BR|BOUNDARY,OTHER  LANES,S_W,>EQ  10-G,LOW  SPEED,NO  PEDESTRIAN,RL  0,acts-11,Y,771,183,171.171,0
L1BR|BR|BOUNDARY,OTHER  LANES,S_W,>EQ  10-G,LOW  SPEED,NO  PEDESTRIAN,RL  0,acts-11,N,771,183,172.172,0.0
L1BR|BR|BOUNDARY,OTHER  LANES,S_W,>EQ  10-G,LOW  SPEED,NO  PEDESTRIAN,RL  0,acts-11,Y,771,183,173.173,0.0
L1BR|BR|BOUNDARY,OTHER  LANES,S_W,>EQ  10-G,LOW  SPEED,NO  PEDESTRIAN,RL  0,acts-11,Y,771,183,174.174,0.0
L1BR|BR|BOUNDARY,OTHER  LANES,S_W,>EQ  10-G,LOW  SPEED,NO  PEDESTRIAN,RL  0,acts-11,N,771,183,175.175,0.0
L1BR|BR|BOUNDARY,OTHER  LANES,S_W,>EQ  10-G,LOW  SPEED,NO  PEDESTRIAN,RL  0,acts-11,N,771,183,176.176,0.0
L1BR|BR|BOUNDARY,OTHER  LANES,S_W,>EQ  10-G,LOW  SPEED,NO  PEDESTRIAN,RL  0,acts-11,N,771,183,177.177,0.0
L1BR|BR|BOUNDARY,OTHER  LANES,S_W,>EQ  10-G,LOW  SPEED,NO  PEDESTRIAN,RL  0,acts-11,N,771,183,178.178,0.0
L1BR|BR|BOUNDARY,OTHER  LANES,S_W,>EQ  10-G,LOW  SPEED,NO  PEDESTRIAN,RL  0,acts-11,N,771,183,179.179,0.0
L1BR|BR|BOUNDARY,OTHER  LANES,S_W,>EQ  10-G,LOW  SPEED,NO  PEDESTRIAN,RL  0,acts-11,N,771,183,180.18,0.0
L1BR|BR|BOUNDARY,OTHER  LANES,S_W,>EQ  10-G,LOW  SPEED,NO  PEDESTRIAN,RL  0,acts-11,N,771,183,181.181,0
L1BR|BR|BOUNDARY,OTHER  LANES,S_W,>EQ  10-G,LOW  SPEED,NO  PEDESTRIAN,RL  0,acts-11,N,771,183,182.182,0.0
L1BR|BR|BOUNDARY,OTHER  LANES,S_W,>EQ  10-G,LOW  SPEED,NO  PEDESTRIAN,RL  0,acts-11,N,771,183,183.183,0.0
L1BR|BR|BOUNDARY,OTHER  LANES,S_W,>EQ  10-G,LOW  SPEED,NO  PEDESTRIAN,RL  0,acts-11,N,771,183,184.184,0.0
L1BR|BR|BOUNDARY,OTHER  LANES,N_E,<10-Y/R,LOW  SPEED,NO  PEDESTRIAN,RL  0,acts-4,N,771,151,134.300833,0
L1BR|BR|BOUNDARY,OTHER  LANES,N_E,<10-Y/R,LOW  SPEED,NO  PEDESTRIAN,RL  0,acts-4,Y,771,151,135.301833,0.0026169999999999805
L1BR|BR|BOUNDARY,OTHER  LANES,N_E,<10-Y/R,LOW  SPEED,NO  PEDESTRIAN,RL  0,acts-4,Y,771,151,138.304833,0.007527999999999979
L1BR|BR|BOUNDARY,OTHER  LANES,N_E,<10-G,LOW  SPEED,NO  PEDESTRIAN,RL  0,acts-11,N,771,77,85.919167,0.0
L1BR|BR|BOUNDARY,OTHER  LANES,N_E,<10-G,LOW  SPEED,NO  PEDESTRIAN,RL  0,acts-11,N,771,77,86.920167,0.0
L1BR|BR|BOUNDARY,OTHER  LANES,N_E,<10-G,LOW  SPEED,NO  PEDESTRIAN,RL  0,acts-11,N,771,77,87.921167,0.0
L1BR|BR|BOUNDARY,OTHER  LANES,N_E,<10-G,LOW  SPEED,NO  PEDESTRIAN,RL  0,acts-11,N,771,77,88.922167,0.0
L1BR|BR|BOUNDARY,OTHER  LANES,N_E,<10-G,LOW  SPEED,NO  PEDESTRIAN,RL  0,acts-11,N,771,77,89.923167,0.0
L1BR|BR|BOUNDARY,OTHER  LANES,N_E,<10-G,LOW  SPEED,NO  PEDESTRIAN,RL  0,acts-11,N,771,77,90.924167,0.0
L1BR|BR|BOUNDARY,OTHER  LANES,N_E,<10-G,LOW  SPEED,NO  PEDESTRIAN,RL  0,acts-11,N,771,77,91.925167,0.0
L1BR|BR|BOUNDARY,OTHER  LANES,N_E,<10-G,LOW  SPEED,NO  PEDESTRIAN,RL  0,acts-11,N,771,77,92.926167,0.0
L1BR|BR|BOUNDARY,OTHER  LANES,N_E,<10-G,LOW  SPEED,NO  PEDESTRIAN,RL  0,acts-11,N,771,77,93.927167,0.0
L1BR|BR|BOUNDARY,OTHER  LANES,N_E,<10-G,LOW  SPEED,NO  PEDESTRIAN,RL  0,acts-11,Y,771,77,94.928167,0.0
L1BR|BR|BOUNDARY,OTHER  LANES,N_E,<10-G,LOW  SPEED,NO  PEDESTRIAN,RL  0,acts-11,N,771,172,195.6955,0
L1BR|BR|BOUNDARY,OTHER  LANES,N_E,<10-G,LOW  SPEED,NO  PEDESTRIAN,RL  0,acts-11,N,771,172,196.6965,0.0
L1BR|BR|BOUNDARY,OTHER  LANES,N_E,<10-G,LOW  SPEED,NO  PEDESTRIAN,RL  0,acts-11,N,771,172,197.6975,0.0
L1BR|BR|BOUNDARY,OTHER  LANES,N_E,<10-G,LOW  SPEED,NO  PEDESTRIAN,RL  0,acts-11,N,771,172,198.6985,0.0
L1BR|BR|BOUNDARY,OTHER  LANES,N_E,<10-G,LOW  SPEED,NO  PEDESTRIAN,RL  0,acts-11,N,771,172,199.6995,0.0
L1BR|BR|BOUNDARY,OTHER  LANES,N_E,<10-G,LOW  SPEED,NO  PEDESTRIAN,RL  0,acts-11,N,771,172,200.7005,0.0
L1BR|BR|BOUNDARY,OTHER  LANES,N_E,<10-G,LOW  SPEED,NO  PEDESTRIAN,RL  0,acts-11,N,771,172,201.7015,0
L1BR|BR|BOUNDARY,OTHER  LANES,N_E,<10-G,LOW  SPEED,NO  PEDESTRIAN,RL  0,acts-11,N,771,172,202.7025,0.0
L1BR|BR|BOUNDARY,OTHER  LANES,N_E,<10-G,LOW  SPEED,NO  PEDESTRIAN,RL  0,acts-11,N,771,172,203.7035,0.0
L1BR|BR|BOUNDARY,OTHER  LANES,N_E,<10-G,LOW  SPEED,NO  PEDESTRIAN,RL  0,acts-11,Y,771,172,204.7045,0.0
L1BR|BR|BOUNDARY,OTHER  LANES,N_E,>EQ  10-Y/R,LOW  SPEED,PEDESTRIAN,RL  0,acts-4,Y,771,25,2.168833,0
L1BR|BR|BOUNDARY,OTHER  LANES,N_E,>EQ  10-Y/R,LOW  SPEED,PEDESTRIAN,RL  0,acts-4,Y,771,25,3.169833,0.0009299999999999864
L1BR|BR|BOUNDARY,OTHER  LANES,N_E,>EQ  10-Y/R,LOW  SPEED,PEDESTRIAN,RL  0,acts-4,Y,771,27,5.171833,0.0009470000000000312
L1BR|BR|BOUNDARY,OTHER  LANES,N_E,>EQ  10-Y/R,LOW  SPEED,PEDESTRIAN,RL  0,acts-4,Y,771,216,209.209,0.007266999999999912
L1BR|BR|BOUNDARY,OTHER  LANES,N_E,>EQ  10-Y/R,LOW  SPEED,PEDESTRIAN,RL  0,acts-4,Y,771,216,210.21,0
L1BR|BR|BOUNDARY,OTHER  LANES,N_E,>EQ  10-Y/R,LOW  SPEED,NO  PEDESTRIAN,RL  0,acts-4,Y,771,77,95.929167,0
L1BR|BR|BOUNDARY,OTHER  LANES,N_E,>EQ  10-Y/R,LOW  SPEED,NO  PEDESTRIAN,RL  0,acts-4,Y,771,77,96.930167,0.009881000000000029
L1BR|BR|BOUNDARY,OTHER  LANES,N_E,>EQ  10-Y/R,LOW  SPEED,NO  PEDESTRIAN,RL  0,acts-4,Y,771,109,100.266833,0
L1BR|BR|BOUNDARY,OTHER  LANES,N_E,>EQ  10-Y/R,LOW  SPEED,NO  PEDESTRIAN,RL  0,acts-4,N,771,151,128.294833,0.07133299999999998
L1BR|BR|BOUNDARY,OTHER  LANES,N_E,>EQ  10-Y/R,LOW  SPEED,NO  PEDESTRIAN,RL  0,acts-4,N,771,151,129.295833,0.07075399999999998
L1BR|BR|BOUNDARY,OTHER  LANES,N_E,>EQ  10-Y/R,LOW  SPEED,NO  PEDESTRIAN,RL  0,acts-4,N,771,151,130.296833,0.06915400000000005
L1BR|BR|BOUNDARY,OTHER  LANES,N_E,>EQ  10-Y/R,LOW  SPEED,NO  PEDESTRIAN,RL  0,acts-4,N,771,151,131.297833,0.06363200000000002
L1BR|BR|BOUNDARY,OTHER  LANES,N_E,>EQ  10-Y/R,LOW  SPEED,NO  PEDESTRIAN,RL  0,acts-4,N,771,151,132.298833,0.07744000000000006
L1BR|BR|BOUNDARY,OTHER  LANES,N_E,>EQ  10-Y/R,LOW  SPEED,NO  PEDESTRIAN,RL  0,acts-4,Y,771,172,205.7055,0
L1BR|BR|BOUNDARY,OTHER  LANES,N_E,>EQ  10-G,LOW  SPEED,NO  PEDESTRIAN,RL  0,acts-11,N,771,77,53.887167,0.0
L1BR|BR|BOUNDARY,OTHER  LANES,N_E,>EQ  10-G,LOW  SPEED,NO  PEDESTRIAN,RL  0,acts-11,N,771,77,54.888167,0.0
L1BR|BR|BOUNDARY,OTHER  LANES,N_E,>EQ  10-G,LOW  SPEED,NO  PEDESTRIAN,RL  0,acts-11,N,771,77,55.889167,0.0
L1BR|BR|BOUNDARY,OTHER  LANES,N_E,>EQ  10-G,LOW  SPEED,NO  PEDESTRIAN,RL  0,acts-11,N,771,77,56.890167,0.0
L1BR|BR|BOUNDARY,OTHER  LANES,N_E,>EQ  10-G,LOW  SPEED,NO  PEDESTRIAN,RL  0,acts-11,N,771,77,57.891167,0.0
L1BR|BR|BOUNDARY,OTHER  LANES,N_E,>EQ  10-G,LOW  SPEED,NO  PEDESTRIAN,RL  0,acts-11,N,771,77,58.892167,0.0
L1BR|BR|BOUNDARY,OTHER  LANES,N_E,>EQ  10-G,LOW  SPEED,NO  PEDESTRIAN,RL  0,acts-11,N,771,77,59.893167,0.0
L1BR|BR|BOUNDARY,OTHER  LANES,N_E,>EQ  10-G,LOW  SPEED,NO  PEDESTRIAN,RL  0,acts-11,N,771,77,60.894167,0.0
L1BR|BR|BOUNDARY,OTHER  LANES,N_E,>EQ  10-G,LOW  SPEED,NO  PEDESTRIAN,RL  0,acts-11,N,771,77,61.895167,0.0
L1BR|BR|BOUNDARY,OTHER  LANES,N_E,>EQ  10-G,LOW  SPEED,NO  PEDESTRIAN,RL  0,acts-11,N,771,77,62.896167,0.0
L1BR|BR|BOUNDARY,OTHER  LANES,N_E,>EQ  10-G,LOW  SPEED,NO  PEDESTRIAN,RL  0,acts-11,N,771,77,63.897167,0.0
L1BR|BR|BOUNDARY,OTHER  LANES,N_E,>EQ  10-G,LOW  SPEED,NO  PEDESTRIAN,RL  0,acts-11,N,771,77,64.898167,0.0
L1BR|BR|BOUNDARY,OTHER  LANES,N_E,>EQ  10-G,LOW  SPEED,NO  PEDESTRIAN,RL  0,acts-11,N,771,77,65.899167,0.0
L1BR|BR|BOUNDARY,OTHER  LANES,N_E,>EQ  10-G,LOW  SPEED,NO  PEDESTRIAN,RL  0,acts-11,N,771,77,66.900167,0.0
L1BR|BR|BOUNDARY,OTHER  LANES,N_E,>EQ  10-G,LOW  SPEED,NO  PEDESTRIAN,RL  0,acts-11,N,771,77,67.901167,0.0
L1BR|BR|BOUNDARY,OTHER  LANES,N_E,>EQ  10-G,LOW  SPEED,NO  PEDESTRIAN,RL  0,acts-11,N,771,77,68.902167,0.0
L1BR|BR|BOUNDARY,OTHER  LANES,N_E,>EQ  10-G,LOW  SPEED,NO  PEDESTRIAN,RL  0,acts-11,N,771,77,69.903167,0.0
L1BR|BR|BOUNDARY,OTHER  LANES,N_E,>EQ  10-G,LOW  SPEED,NO  PEDESTRIAN,RL  0,acts-11,N,771,77,70.904167,0.0
L1BR|BR|BOUNDARY,OTHER  LANES,N_E,>EQ  10-G,LOW  SPEED,NO  PEDESTRIAN,RL  0,acts-11,N,771,77,71.905167,0.0
L1BR|BR|BOUNDARY,OTHER  LANES,N_E,>EQ  10-G,LOW  SPEED,NO  PEDESTRIAN,RL  0,acts-11,N,771,77,72.906167,0.0
L1BR|BR|BOUNDARY,OTHER  LANES,N_E,>EQ  10-G,LOW  SPEED,NO  PEDESTRIAN,RL  0,acts-11,N,771,77,73.907167,0.0
L1BR|BR|BOUNDARY,OTHER  LANES,N_E,>EQ  10-G,LOW  SPEED,NO  PEDESTRIAN,RL  0,acts-11,N,771,77,74.908167,0.0
L1BR|BR|BOUNDARY,OTHER  LANES,N_E,>EQ  10-G,LOW  SPEED,NO  PEDESTRIAN,RL  0,acts-11,N,771,77,75.909167,0.0
L1BR|BR|BOUNDARY,OTHER  LANES,N_E,>EQ  10-G,LOW  SPEED,NO  PEDESTRIAN,RL  0,acts-11,N,771,77,76.910167,0.0
L1BR|BR|BOUNDARY,OTHER  LANES,N_E,>EQ  10-G,LOW  SPEED,NO  PEDESTRIAN,RL  0,acts-11,N,771,77,77.911167,0.0
L1BR|BR|BOUNDARY,OTHER  LANES,N_E,>EQ  10-G,LOW  SPEED,NO  PEDESTRIAN,RL  0,acts-11,N,771,77,78.912167,0.0
L1BR|BR|BOUNDARY,OTHER  LANES,N_E,>EQ  10-G,LOW  SPEED,NO  PEDESTRIAN,RL  0,acts-11,N,771,77,79.913167,0.0
L1BR|BR|BOUNDARY,OTHER  LANES,N_E,>EQ  10-G,LOW  SPEED,NO  PEDESTRIAN,RL  0,acts-11,N,771,77,80.914167,0.0
L1BR|BR|BOUNDARY,OTHER  LANES,N_E,>EQ  10-G,LOW  SPEED,NO  PEDESTRIAN,RL  0,acts-11,N,771,77,81.915167,0.0
L1BR|BR|BOUNDARY,OTHER  LANES,N_E,>EQ  10-G,LOW  SPEED,NO  PEDESTRIAN,RL  0,acts-11,N,771,77,82.916167,0.0
L1BR|BR|BOUNDARY,OTHER  LANES,N_E,>EQ  10-G,LOW  SPEED,NO  PEDESTRIAN,RL  0,acts-11,N,771,77,83.917167,0.0
L1BR|BR|BOUNDARY,OTHER  LANES,N_E,>EQ  10-G,LOW  SPEED,NO  PEDESTRIAN,RL  0,acts-11,N,771,77,84.918167,0.0
L1BR|BR|BOUNDARY,OTHER  LANES,N_E,>EQ  10-G,LOW  SPEED,NO  PEDESTRIAN,RL  0,acts-11,N,771,172,150.6505,0.0
L1BR|BR|BOUNDARY,OTHER  LANES,N_E,>EQ  10-G,LOW  SPEED,NO  PEDESTRIAN,RL  0,acts-11,N,771,172,151.6515,0.0
L1BR|BR|BOUNDARY,OTHER  LANES,N_E,>EQ  10-G,LOW  SPEED,NO  PEDESTRIAN,RL  0,acts-11,N,771,172,152.6525,0.0
L1BR|BR|BOUNDARY,OTHER  LANES,N_E,>EQ  10-G,LOW  SPEED,NO  PEDESTRIAN,RL  0,acts-11,N,771,172,153.6535,0.0
L1BR|BR|BOUNDARY,OTHER  LANES,N_E,>EQ  10-G,LOW  SPEED,NO  PEDESTRIAN,RL  0,acts-11,N,771,172,154.6545,0
L1BR|BR|BOUNDARY,OTHER  LANES,N_E,>EQ  10-G,LOW  SPEED,NO  PEDESTRIAN,RL  0,acts-11,N,771,172,155.6555,0.0
L1BR|BR|BOUNDARY,OTHER  LANES,N_E,>EQ  10-G,LOW  SPEED,NO  PEDESTRIAN,RL  0,acts-11,N,771,172,156.6565,0.0
L1BR|BR|BOUNDARY,OTHER  LANES,N_E,>EQ  10-G,LOW  SPEED,NO  PEDESTRIAN,RL  0,acts-11,N,771,172,157.6575,0.0
L1BR|BR|BOUNDARY,OTHER  LANES,N_E,>EQ  10-G,LOW  SPEED,NO  PEDESTRIAN,RL  0,acts-11,N,771,172,158.6585,0.0
L1BR|BR|BOUNDARY,OTHER  LANES,N_E,>EQ  10-G,LOW  SPEED,NO  PEDESTRIAN,RL  0,acts-11,N,771,172,159.6595,0.0
L1BR|BR|BOUNDARY,OTHER  LANES,N_E,>EQ  10-G,LOW  SPEED,NO  PEDESTRIAN,RL  0,acts-11,N,771,172,160.6605,0
L1BR|BR|BOUNDARY,OTHER  LANES,N_E,>EQ  10-G,LOW  SPEED,NO  PEDESTRIAN,RL  0,acts-11,N,771,172,161.6615,0.0
L1BR|BR|BOUNDARY,OTHER  LANES,N_E,>EQ  10-G,LOW  SPEED,NO  PEDESTRIAN,RL  0,acts-11,N,771,172,162.6625,0.0
L1BR|BR|BOUNDARY,OTHER  LANES,N_E,>EQ  10-G,LOW  SPEED,NO  PEDESTRIAN,RL  0,acts-11,N,771,172,163.6635,0.0
L1BR|BR|BOUNDARY,OTHER  LANES,N_E,>EQ  10-G,LOW  SPEED,NO  PEDESTRIAN,RL  0,acts-11,N,771,172,164.6645,0.0
L1BR|BR|BOUNDARY,OTHER  LANES,N_E,>EQ  10-G,LOW  SPEED,NO  PEDESTRIAN,RL  0,acts-11,N,771,172,165.6655,0
L1BR|BR|BOUNDARY,OTHER  LANES,N_E,>EQ  10-G,LOW  SPEED,NO  PEDESTRIAN,RL  0,acts-11,N,771,172,166.6665,0
L1BR|BR|BOUNDARY,OTHER  LANES,N_E,>EQ  10-G,LOW  SPEED,NO  PEDESTRIAN,RL  0,acts-11,N,771,172,167.6675,0.0
L1BR|BR|BOUNDARY,OTHER  LANES,N_E,>EQ  10-G,LOW  SPEED,NO  PEDESTRIAN,RL  0,acts-11,N,771,172,168.6685,0.0
L1BR|BR|BOUNDARY,OTHER  LANES,N_E,>EQ  10-G,LOW  SPEED,NO  PEDESTRIAN,RL  0,acts-11,N,771,172,169.6695,0.0
L1BR|BR|BOUNDARY,OTHER  LANES,N_E,>EQ  10-G,LOW  SPEED,NO  PEDESTRIAN,RL  0,acts-11,N,771,172,170.6705,0.0
L1BR|BR|BOUNDARY,OTHER  LANES,N_E,>EQ  10-G,LOW  SPEED,NO  PEDESTRIAN,RL  0,acts-11,N,771,172,171.6715,0
L1BR|BR|BOUNDARY,OTHER  LANES,N_E,>EQ  10-G,LOW  SPEED,NO  PEDESTRIAN,RL  0,acts-11,N,771,172,172.6725,0
L1BR|BR|BOUNDARY,OTHER  LANES,N_E,>EQ  10-G,LOW  SPEED,NO  PEDESTRIAN,RL  0,acts-11,N,771,172,173.6735,0.0
L1BR|BR|BOUNDARY,OTHER  LANES,N_E,>EQ  10-G,LOW  SPEED,NO  PEDESTRIAN,RL  0,acts-11,N,771,172,174.6745,0.0
L1BR|BR|BOUNDARY,OTHER  LANES,N_E,>EQ  10-G,LOW  SPEED,NO  PEDESTRIAN,RL  0,acts-11,N,771,172,175.6755,0.0
L1BR|BR|BOUNDARY,OTHER  LANES,N_E,>EQ  10-G,LOW  SPEED,NO  PEDESTRIAN,RL  0,acts-11,N,771,172,176.6765,0.0
L1BR|BR|BOUNDARY,OTHER  LANES,N_E,>EQ  10-G,LOW  SPEED,NO  PEDESTRIAN,RL  0,acts-11,N,771,172,177.6775,0
L1BR|BR|BOUNDARY,OTHER  LANES,N_E,>EQ  10-G,LOW  SPEED,NO  PEDESTRIAN,RL  0,acts-11,N,771,172,178.6785,0
L1BR|BR|BOUNDARY,OTHER  LANES,N_E,>EQ  10-G,LOW  SPEED,NO  PEDESTRIAN,RL  0,acts-11,N,771,172,179.6795,0.0
L1BR|BR|BOUNDARY,OTHER  LANES,N_E,>EQ  10-G,LOW  SPEED,NO  PEDESTRIAN,RL  0,acts-11,N,771,172,180.6805,0.0
L1BR|BR|BOUNDARY,OTHER  LANES,N_E,>EQ  10-G,LOW  SPEED,NO  PEDESTRIAN,RL  0,acts-11,N,771,172,181.6815,0.0
L1BR|BR|BOUNDARY,OTHER  LANES,N_E,>EQ  10-G,LOW  SPEED,NO  PEDESTRIAN,RL  0,acts-11,N,771,172,182.6825,0.0
L1BR|BR|BOUNDARY,OTHER  LANES,N_E,>EQ  10-G,LOW  SPEED,NO  PEDESTRIAN,RL  0,acts-11,N,771,172,183.6835,0
L1BR|BR|BOUNDARY,OTHER  LANES,N_E,>EQ  10-G,LOW  SPEED,NO  PEDESTRIAN,RL  0,acts-11,N,771,172,184.6845,0
L1BR|BR|BOUNDARY,OTHER  LANES,N_E,>EQ  10-G,LOW  SPEED,NO  PEDESTRIAN,RL  0,acts-11,N,771,172,185.6855,0.0
L1BR|BR|BOUNDARY,OTHER  LANES,N_E,>EQ  10-G,LOW  SPEED,NO  PEDESTRIAN,RL  0,acts-11,N,771,172,186.6865,0.0
L1BR|BR|BOUNDARY,OTHER  LANES,N_E,>EQ  10-G,LOW  SPEED,NO  PEDESTRIAN,RL  0,acts-11,N,771,172,187.6875,0.0
L1BR|BR|BOUNDARY,OTHER  LANES,N_E,>EQ  10-G,LOW  SPEED,NO  PEDESTRIAN,RL  0,acts-11,N,771,172,188.6885,0.0
L1BR|BR|BOUNDARY,OTHER  LANES,N_E,>EQ  10-G,LOW  SPEED,NO  PEDESTRIAN,RL  0,acts-11,N,771,172,189.6895,0
L1BR|BR|BOUNDARY,OTHER  LANES,N_E,>EQ  10-G,LOW  SPEED,NO  PEDESTRIAN,RL  0,acts-11,N,771,172,190.6905,0.0
L1BR|BR|BOUNDARY,OTHER  LANES,N_E,>EQ  10-G,LOW  SPEED,NO  PEDESTRIAN,RL  0,acts-11,N,771,172,191.6915,0.0
L1BR|BR|BOUNDARY,OTHER  LANES,N_E,>EQ  10-G,LOW  SPEED,NO  PEDESTRIAN,RL  0,acts-11,N,771,172,192.6925,0.0
L1BR|BR|BOUNDARY,OTHER  LANES,N_E,>EQ  10-G,LOW  SPEED,NO  PEDESTRIAN,RL  0,acts-11,N,771,172,193.6935,0.0
L1BR|BR|BOUNDARY,OTHER  LANES,N_E,>EQ  10-G,LOW  SPEED,NO  PEDESTRIAN,RL  0,acts-11,N,771,172,194.6945,0.0
L1BR|BR|BOUNDARY,OTHER  LANES,W_N,<10-G,LOW  SPEED,NO  PEDESTRIAN,RL  0,acts-11,N,771,2,40.04,0.0
L1BR|BR|BOUNDARY,OTHER  LANES,W_N,<10-G,LOW  SPEED,NO  PEDESTRIAN,RL  0,acts-11,N,771,2,41.041,0.0
L1BR|BR|BOUNDARY,OTHER  LANES,W_N,<10-G,LOW  SPEED,NO  PEDESTRIAN,RL  0,acts-11,N,771,2,42.042,0.0
L1BR|BR|BOUNDARY,OTHER  LANES,W_N,<10-G,LOW  SPEED,NO  PEDESTRIAN,RL  0,acts-11,N,771,2,43.043,0.0
L1BR|BR|BOUNDARY,OTHER  LANES,W_N,<10-G,LOW  SPEED,NO  PEDESTRIAN,RL  0,acts-11,N,771,2,44.044,0.0
L1BR|BR|BOUNDARY,OTHER  LANES,W_N,<10-G,LOW  SPEED,NO  PEDESTRIAN,RL  0,acts-11,N,771,2,45.045,0.0
L1BR|BR|BOUNDARY,OTHER  LANES,W_N,<10-G,LOW  SPEED,NO  PEDESTRIAN,RL  0,acts-11,N,771,2,46.046,0.0
L1BR|BR|BOUNDARY,OTHER  LANES,W_N,<10-G,LOW  SPEED,NO  PEDESTRIAN,RL  0,acts-11,N,771,2,47.047,0.0
L1BR|BR|BOUNDARY,OTHER  LANES,W_N,<10-G,LOW  SPEED,NO  PEDESTRIAN,RL  0,acts-11,N,771,2,48.048,0.0
L1BR|BR|BOUNDARY,OTHER  LANES,W_N,<10-G,LOW  SPEED,NO  PEDESTRIAN,RL  0,acts-11,N,771,2,49.049,0.0
L1BR|BR|BOUNDARY,OTHER  LANES,W_N,<10-G,LOW  SPEED,NO  PEDESTRIAN,RL  0,acts-11,N,771,103,140.473667,0.0
L1BR|BR|BOUNDARY,OTHER  LANES,W_N,<10-G,LOW  SPEED,NO  PEDESTRIAN,RL  0,acts-11,N,771,103,141.474667,0.0
L1BR|BR|BOUNDARY,OTHER  LANES,W_N,<10-G,LOW  SPEED,NO  PEDESTRIAN,RL  0,acts-11,N,771,103,142.475667,0.0
L1BR|BR|BOUNDARY,OTHER  LANES,W_N,<10-G,LOW  SPEED,NO  PEDESTRIAN,RL  0,acts-11,N,771,103,143.476667,0
L1BR|BR|BOUNDARY,OTHER  LANES,W_N,<10-G,LOW  SPEED,NO  PEDESTRIAN,RL  0,acts-11,N,771,103,144.477667,0.0
L1BR|BR|BOUNDARY,OTHER  LANES,W_N,<10-G,LOW  SPEED,NO  PEDESTRIAN,RL  0,acts-11,N,771,103,145.478667,0.0
L1BR|BR|BOUNDARY,OTHER  LANES,W_N,<10-G,LOW  SPEED,NO  PEDESTRIAN,RL  0,acts-11,N,771,103,146.479667,0.0
L1BR|BR|BOUNDARY,OTHER  LANES,W_N,<10-G,LOW  SPEED,NO  PEDESTRIAN,RL  0,acts-11,N,771,103,147.480667,0.0
L1BR|BR|BOUNDARY,OTHER  LANES,W_N,<10-G,LOW  SPEED,NO  PEDESTRIAN,RL  0,acts-11,N,771,103,148.481667,0.0
L1BR|BR|BOUNDARY,OTHER  LANES,W_N,<10-G,LOW  SPEED,NO  PEDESTRIAN,RL  0,acts-11,Y,771,103,149.482667,0.0
L1BR|BR|BOUNDARY,OTHER  LANES,W_N,>EQ  10-Y/R,LOW  SPEED,NO  PEDESTRIAN,RL  0,acts-4,Y,771,2,50.05,0
L1BR|BR|BOUNDARY,OTHER  LANES,W_N,>EQ  10-Y/R,LOW  SPEED,NO  PEDESTRIAN,RL  0,acts-4,Y,771,2,51.051,0.0008380000000000054
L1BR|BR|BOUNDARY,OTHER  LANES,W_N,>EQ  10-Y/R,LOW  SPEED,NO  PEDESTRIAN,RL  0,acts-4,Y,771,2,52.052,0
L1BR|BR|BOUNDARY,OTHER  LANES,W_N,>EQ  10-Y/R,LOW  SPEED,NO  PEDESTRIAN,RL  0,acts-4,Y,771,66,54.054,0
L1BR|BR|BOUNDARY,OTHER  LANES,W_N,>EQ  10-Y/R,LOW  SPEED,NO  PEDESTRIAN,RL  0,acts-4,Y,771,147,152.6525,0
L1BR|BR|BOUNDARY,OTHER  LANES,W_N,>EQ  10-Y/R,LOW  SPEED,NO  PEDESTRIAN,RL  0,acts-4,N,771,155,154.6545,0.001354999999999995
L1BR|BR|BOUNDARY,OTHER  LANES,W_N,>EQ  10-Y/R,LOW  SPEED,NO  PEDESTRIAN,RL  0,acts-4,N,771,169,156.823333,0
L1BR|BR|BOUNDARY,OTHER  LANES,W_N,>EQ  10-G,LOW  SPEED,NO  PEDESTRIAN,RL  0,acts-11,N,771,2,0,0.0
L1BR|BR|BOUNDARY,OTHER  LANES,W_N,>EQ  10-G,LOW  SPEED,NO  PEDESTRIAN,RL  0,acts-11,N,771,2,1.001,0.0
L1BR|BR|BOUNDARY,OTHER  LANES,W_N,>EQ  10-G,LOW  SPEED,NO  PEDESTRIAN,RL  0,acts-11,N,771,2,10.01,0.0
L1BR|BR|BOUNDARY,OTHER  LANES,W_N,>EQ  10-G,LOW  SPEED,NO  PEDESTRIAN,RL  0,acts-11,N,771,2,11.011,0.0
L1BR|BR|BOUNDARY,OTHER  LANES,W_N,>EQ  10-G,LOW  SPEED,NO  PEDESTRIAN,RL  0,acts-11,N,771,2,12.012,0.0
L1BR|BR|BOUNDARY,OTHER  LANES,W_N,>EQ  10-G,LOW  SPEED,NO  PEDESTRIAN,RL  0,acts-11,N,771,2,13.013,0.0
L1BR|BR|BOUNDARY,OTHER  LANES,W_N,>EQ  10-G,LOW  SPEED,NO  PEDESTRIAN,RL  0,acts-11,N,771,2,14.014,0.0
L1BR|BR|BOUNDARY,OTHER  LANES,W_N,>EQ  10-G,LOW  SPEED,NO  PEDESTRIAN,RL  0,acts-11,N,771,2,15.015,0.0
L1BR|BR|BOUNDARY,OTHER  LANES,W_N,>EQ  10-G,LOW  SPEED,NO  PEDESTRIAN,RL  0,acts-11,N,771,2,16.016,0.0
L1BR|BR|BOUNDARY,OTHER  LANES,W_N,>EQ  10-G,LOW  SPEED,NO  PEDESTRIAN,RL  0,acts-11,N,771,2,17.017,0.0
L1BR|BR|BOUNDARY,OTHER  LANES,W_N,>EQ  10-G,LOW  SPEED,NO  PEDESTRIAN,RL  0,acts-11,N,771,2,18.018,0.0
L1BR|BR|BOUNDARY,OTHER  LANES,W_N,>EQ  10-G,LOW  SPEED,NO  PEDESTRIAN,RL  0,acts-11,N,771,2,19.019,0.0
L1BR|BR|BOUNDARY,OTHER  LANES,W_N,>EQ  10-G,LOW  SPEED,NO  PEDESTRIAN,RL  0,acts-11,N,771,2,2.002,0.0
L1BR|BR|BOUNDARY,OTHER  LANES,W_N,>EQ  10-G,LOW  SPEED,NO  PEDESTRIAN,RL  0,acts-11,N,771,2,20.02,0.0
L1BR|BR|BOUNDARY,OTHER  LANES,W_N,>EQ  10-G,LOW  SPEED,NO  PEDESTRIAN,RL  0,acts-11,N,771,2,21.021,0.0
L1BR|BR|BOUNDARY,OTHER  LANES,W_N,>EQ  10-G,LOW  SPEED,NO  PEDESTRIAN,RL  0,acts-11,N,771,2,22.022,0.0
L1BR|BR|BOUNDARY,OTHER  LANES,W_N,>EQ  10-G,LOW  SPEED,NO  PEDESTRIAN,RL  0,acts-11,N,771,2,23.023,0.0
L1BR|BR|BOUNDARY,OTHER  LANES,W_N,>EQ  10-G,LOW  SPEED,NO  PEDESTRIAN,RL  0,acts-11,N,771,2,24.024,0.0
L1BR|BR|BOUNDARY,OTHER  LANES,W_N,>EQ  10-G,LOW  SPEED,NO  PEDESTRIAN,RL  0,acts-11,N,771,2,25.025,0.0
L1BR|BR|BOUNDARY,OTHER  LANES,W_N,>EQ  10-G,LOW  SPEED,NO  PEDESTRIAN,RL  0,acts-11,N,771,2,26.026,0.0
L1BR|BR|BOUNDARY,OTHER  LANES,W_N,>EQ  10-G,LOW  SPEED,NO  PEDESTRIAN,RL  0,acts-11,N,771,2,27.027,0.0
L1BR|BR|BOUNDARY,OTHER  LANES,W_N,>EQ  10-G,LOW  SPEED,NO  PEDESTRIAN,RL  0,acts-11,N,771,2,28.028,0.0
L1BR|BR|BOUNDARY,OTHER  LANES,W_N,>EQ  10-G,LOW  SPEED,NO  PEDESTRIAN,RL  0,acts-11,N,771,2,29.029,0.0
L1BR|BR|BOUNDARY,OTHER  LANES,W_N,>EQ  10-G,LOW  SPEED,NO  PEDESTRIAN,RL  0,acts-11,N,771,2,3.003,0.0
L1BR|BR|BOUNDARY,OTHER  LANES,W_N,>EQ  10-G,LOW  SPEED,NO  PEDESTRIAN,RL  0,acts-11,N,771,2,30.03,0.0
L1BR|BR|BOUNDARY,OTHER  LANES,W_N,>EQ  10-G,LOW  SPEED,NO  PEDESTRIAN,RL  0,acts-11,N,771,2,31.031,0.0
L1BR|BR|BOUNDARY,OTHER  LANES,W_N,>EQ  10-G,LOW  SPEED,NO  PEDESTRIAN,RL  0,acts-11,N,771,2,32.032,0.0
L1BR|BR|BOUNDARY,OTHER  LANES,W_N,>EQ  10-G,LOW  SPEED,NO  PEDESTRIAN,RL  0,acts-11,N,771,2,33.033,0.0
L1BR|BR|BOUNDARY,OTHER  LANES,W_N,>EQ  10-G,LOW  SPEED,NO  PEDESTRIAN,RL  0,acts-11,N,771,2,34.034,0.0
L1BR|BR|BOUNDARY,OTHER  LANES,W_N,>EQ  10-G,LOW  SPEED,NO  PEDESTRIAN,RL  0,acts-11,N,771,2,35.035,0.0
L1BR|BR|BOUNDARY,OTHER  LANES,W_N,>EQ  10-G,LOW  SPEED,NO  PEDESTRIAN,RL  0,acts-11,N,771,2,36.036,0.0
L1BR|BR|BOUNDARY,OTHER  LANES,W_N,>EQ  10-G,LOW  SPEED,NO  PEDESTRIAN,RL  0,acts-11,N,771,2,37.037,0.0
L1BR|BR|BOUNDARY,OTHER  LANES,W_N,>EQ  10-G,LOW  SPEED,NO  PEDESTRIAN,RL  0,acts-11,N,771,2,38.038,0.0
L1BR|BR|BOUNDARY,OTHER  LANES,W_N,>EQ  10-G,LOW  SPEED,NO  PEDESTRIAN,RL  0,acts-11,N,771,2,39.039,0.0
L1BR|BR|BOUNDARY,OTHER  LANES,W_N,>EQ  10-G,LOW  SPEED,NO  PEDESTRIAN,RL  0,acts-11,N,771,2,4.004,0.0
L1BR|BR|BOUNDARY,OTHER  LANES,W_N,>EQ  10-G,LOW  SPEED,NO  PEDESTRIAN,RL  0,acts-11,N,771,2,5.005,0.0
L1BR|BR|BOUNDARY,OTHER  LANES,W_N,>EQ  10-G,LOW  SPEED,NO  PEDESTRIAN,RL  0,acts-11,N,771,2,6.006,0.0
L1BR|BR|BOUNDARY,OTHER  LANES,W_N,>EQ  10-G,LOW  SPEED,NO  PEDESTRIAN,RL  0,acts-11,N,771,2,7.007,0.0
L1BR|BR|BOUNDARY,OTHER  LANES,W_N,>EQ  10-G,LOW  SPEED,NO  PEDESTRIAN,RL  0,acts-11,N,771,2,8.008,0.0
L1BR|BR|BOUNDARY,OTHER  LANES,W_N,>EQ  10-G,LOW  SPEED,NO  PEDESTRIAN,RL  0,acts-11,N,771,2,9.009,0.0
L1BR|BR|BOUNDARY,OTHER  LANES,W_N,>EQ  10-G,LOW  SPEED,NO  PEDESTRIAN,RL  0,acts-11,N,771,103,100.433667,0.0
L1BR|BR|BOUNDARY,OTHER  LANES,W_N,>EQ  10-G,LOW  SPEED,NO  PEDESTRIAN,RL  0,acts-11,N,771,103,101.434667,0.0
L1BR|BR|BOUNDARY,OTHER  LANES,W_N,>EQ  10-G,LOW  SPEED,NO  PEDESTRIAN,RL  0,acts-11,N,771,103,102.435667,0.0
L1BR|BR|BOUNDARY,OTHER  LANES,W_N,>EQ  10-G,LOW  SPEED,NO  PEDESTRIAN,RL  0,acts-11,N,771,103,103.436667,0.0
L1BR|BR|BOUNDARY,OTHER  LANES,W_N,>EQ  10-G,LOW  SPEED,NO  PEDESTRIAN,RL  0,acts-11,N,771,103,104.437667,0.0
L1BR|BR|BOUNDARY,OTHER  LANES,W_N,>EQ  10-G,LOW  SPEED,NO  PEDESTRIAN,RL  0,acts-11,N,771,103,105.438667,0.0
L1BR|BR|BOUNDARY,OTHER  LANES,W_N,>EQ  10-G,LOW  SPEED,NO  PEDESTRIAN,RL  0,acts-11,N,771,103,106.439667,0.0
L1BR|BR|BOUNDARY,OTHER  LANES,W_N,>EQ  10-G,LOW  SPEED,NO  PEDESTRIAN,RL  0,acts-11,N,771,103,107.440667,0.0
L1BR|BR|BOUNDARY,OTHER  LANES,W_N,>EQ  10-G,LOW  SPEED,NO  PEDESTRIAN,RL  0,acts-11,N,771,103,108.441667,0.0
L1BR|BR|BOUNDARY,OTHER  LANES,W_N,>EQ  10-G,LOW  SPEED,NO  PEDESTRIAN,RL  0,acts-11,N,771,103,109.442667,0.0
L1BR|BR|BOUNDARY,OTHER  LANES,W_N,>EQ  10-G,LOW  SPEED,NO  PEDESTRIAN,RL  0,acts-11,N,771,103,110.443667,0.0
L1BR|BR|BOUNDARY,OTHER  LANES,W_N,>EQ  10-G,LOW  SPEED,NO  PEDESTRIAN,RL  0,acts-11,N,771,103,111.444667,0.0
L1BR|BR|BOUNDARY,OTHER  LANES,W_N,>EQ  10-G,LOW  SPEED,NO  PEDESTRIAN,RL  0,acts-11,N,771,103,112.445667,0.0
L1BR|BR|BOUNDARY,OTHER  LANES,W_N,>EQ  10-G,LOW  SPEED,NO  PEDESTRIAN,RL  0,acts-11,N,771,103,113.446667,0.0
L1BR|BR|BOUNDARY,OTHER  LANES,W_N,>EQ  10-G,LOW  SPEED,NO  PEDESTRIAN,RL  0,acts-11,N,771,103,114.447667,0.0
L1BR|BR|BOUNDARY,OTHER  LANES,W_N,>EQ  10-G,LOW  SPEED,NO  PEDESTRIAN,RL  0,acts-11,N,771,103,115.448667,0.0
L1BR|BR|BOUNDARY,OTHER  LANES,W_N,>EQ  10-G,LOW  SPEED,NO  PEDESTRIAN,RL  0,acts-11,N,771,103,116.449667,0.0
L1BR|BR|BOUNDARY,OTHER  LANES,W_N,>EQ  10-G,LOW  SPEED,NO  PEDESTRIAN,RL  0,acts-11,N,771,103,117.450667,0.0
L1BR|BR|BOUNDARY,OTHER  LANES,W_N,>EQ  10-G,LOW  SPEED,NO  PEDESTRIAN,RL  0,acts-11,N,771,103,118.451667,0.0
L1BR|BR|BOUNDARY,OTHER  LANES,W_N,>EQ  10-G,LOW  SPEED,NO  PEDESTRIAN,RL  0,acts-11,N,771,103,119.452667,0.0
L1BR|BR|BOUNDARY,OTHER  LANES,W_N,>EQ  10-G,LOW  SPEED,NO  PEDESTRIAN,RL  0,acts-11,N,771,103,120.453667,0.0
L1BR|BR|BOUNDARY,OTHER  LANES,W_N,>EQ  10-G,LOW  SPEED,NO  PEDESTRIAN,RL  0,acts-11,N,771,103,121.454667,0.0
L1BR|BR|BOUNDARY,OTHER  LANES,W_N,>EQ  10-G,LOW  SPEED,NO  PEDESTRIAN,RL  0,acts-11,N,771,103,122.455667,0.0
L1BR|BR|BOUNDARY,OTHER  LANES,W_N,>EQ  10-G,LOW  SPEED,NO  PEDESTRIAN,RL  0,acts-11,N,771,103,123.456667,0.0
L1BR|BR|BOUNDARY,OTHER  LANES,W_N,>EQ  10-G,LOW  SPEED,NO  PEDESTRIAN,RL  0,acts-11,N,771,103,124.457667,0.0
L1BR|BR|BOUNDARY,OTHER  LANES,W_N,>EQ  10-G,LOW  SPEED,NO  PEDESTRIAN,RL  0,acts-11,N,771,103,125.458667,0.0
L1BR|BR|BOUNDARY,OTHER  LANES,W_N,>EQ  10-G,LOW  SPEED,NO  PEDESTRIAN,RL  0,acts-11,N,771,103,126.459667,0.0
L1BR|BR|BOUNDARY,OTHER  LANES,W_N,>EQ  10-G,LOW  SPEED,NO  PEDESTRIAN,RL  0,acts-11,N,771,103,127.460667,0.0
L1BR|BR|BOUNDARY,OTHER  LANES,W_N,>EQ  10-G,LOW  SPEED,NO  PEDESTRIAN,RL  0,acts-11,N,771,103,128.461667,0.0
L1BR|BR|BOUNDARY,OTHER  LANES,W_N,>EQ  10-G,LOW  SPEED,NO  PEDESTRIAN,RL  0,acts-11,N,771,103,129.462667,0.0
L1BR|BR|BOUNDARY,OTHER  LANES,W_N,>EQ  10-G,LOW  SPEED,NO  PEDESTRIAN,RL  0,acts-11,N,771,103,130.463667,0.0
L1BR|BR|BOUNDARY,OTHER  LANES,W_N,>EQ  10-G,LOW  SPEED,NO  PEDESTRIAN,RL  0,acts-11,N,771,103,131.464667,0
L1BR|BR|BOUNDARY,OTHER  LANES,W_N,>EQ  10-G,LOW  SPEED,NO  PEDESTRIAN,RL  0,acts-11,N,771,103,132.465667,0.0
L1BR|BR|BOUNDARY,OTHER  LANES,W_N,>EQ  10-G,LOW  SPEED,NO  PEDESTRIAN,RL  0,acts-11,N,771,103,133.466667,0.0
L1BR|BR|BOUNDARY,OTHER  LANES,W_N,>EQ  10-G,LOW  SPEED,NO  PEDESTRIAN,RL  0,acts-11,N,771,103,134.467667,0.0
L1BR|BR|BOUNDARY,OTHER  LANES,W_N,>EQ  10-G,LOW  SPEED,NO  PEDESTRIAN,RL  0,acts-11,N,771,103,135.468667,0.0
L1BR|BR|BOUNDARY,OTHER  LANES,W_N,>EQ  10-G,LOW  SPEED,NO  PEDESTRIAN,RL  0,acts-11,N,771,103,136.469667,0.0
L1BR|BR|BOUNDARY,OTHER  LANES,W_N,>EQ  10-G,LOW  SPEED,NO  PEDESTRIAN,RL  0,acts-11,N,771,103,137.470667,0
L1BR|BR|BOUNDARY,OTHER  LANES,W_N,>EQ  10-G,LOW  SPEED,NO  PEDESTRIAN,RL  0,acts-11,N,771,103,138.471667,0.0
L1BR|BR|BOUNDARY,OTHER  LANES,W_N,>EQ  10-G,LOW  SPEED,NO  PEDESTRIAN,RL  0,acts-11,N,771,103,139.472667,0.0
L1BR|BR|BOUNDARY,OTHER  LANES,W_N,>EQ  10-G,LOW  SPEED,NO  PEDESTRIAN,RL  0,acts-11,Y,771,103,93.426667,0.0
L1BR|BR|BOUNDARY,OTHER  LANES,W_N,>EQ  10-G,LOW  SPEED,NO  PEDESTRIAN,RL  0,acts-11,Y,771,103,94.427667,0.0
L1BR|BR|BOUNDARY,OTHER  LANES,W_N,>EQ  10-G,LOW  SPEED,NO  PEDESTRIAN,RL  0,acts-11,N,771,103,95.428667,0.0
L1BR|BR|BOUNDARY,OTHER  LANES,W_N,>EQ  10-G,LOW  SPEED,NO  PEDESTRIAN,RL  0,acts-11,Y,771,103,96.429667,0.0
L1BR|BR|BOUNDARY,OTHER  LANES,W_N,>EQ  10-G,LOW  SPEED,NO  PEDESTRIAN,RL  0,acts-11,Y,771,103,97.430667,0
L1BR|BR|BOUNDARY,OTHER  LANES,W_N,>EQ  10-G,LOW  SPEED,NO  PEDESTRIAN,RL  0,acts-11,N,771,103,98.431667,0.0
L1BR|BR|BOUNDARY,OTHER  LANES,W_N,>EQ  10-G,LOW  SPEED,NO  PEDESTRIAN,RL  0,acts-11,N,771,103,99.432667,0.0
L1BR|BR|BOUNDARY,OTHER  LANES,W_N,>EQ  10-G,MEDIUM  SPEED,NO  PEDESTRIAN,RL  0,acts-11,Y,771,103,92.425667,0
L1BR|BR|BOUNDARY,OTHER  LANES,S_E,<10-G,LOW  SPEED,NO  PEDESTRIAN,RL  0,acts-9,N,771,187,192.6925,0.01978000000000002
L1BR|BR|BOUNDARY,OTHER  LANES,S_E,<10-G,LOW  SPEED,NO  PEDESTRIAN,RL  0,acts-9,N,771,187,193.6935,0.0006180000000000074
L1BR|BR|BOUNDARY,OTHER  LANES,S_E,<10-G,LOW  SPEED,NO  PEDESTRIAN,RL  0,acts-9,N,771,187,194.6945,0.0013299999999999423
L1BR|BR|BOUNDARY,OTHER  LANES,S_E,<10-G,LOW  SPEED,NO  PEDESTRIAN,  RL  <EQ  2,acts-9,N,771,107,101.768333,0.01808399999999999
L1BR|BR|BOUNDARY,OTHER  LANES,S_E,<10-G,LOW  SPEED,NO  PEDESTRIAN,  RL  <EQ  2,acts-9,N,771,107,102.769333,0.008662999999999976
L1BR|BR|BOUNDARY,OTHER  LANES,S_E,<10-G,LOW  SPEED,NO  PEDESTRIAN,  RL  <EQ  2,acts-9,N,771,107,103.770333,0.00032799999999999496
L1BR|BR|BOUNDARY,OTHER  LANES,S_E,<10-G,LOW  SPEED,NO  PEDESTRIAN,  RL  <EQ  2,acts-9,N,771,187,186.6865,0.021062000000000025
L1BR|BR|BOUNDARY,OTHER  LANES,S_E,>EQ  10-Y/R,LOW  SPEED,PEDESTRIAN,RL  0,acts-8,Y,771,32,13.013,0.02319199999999999
L1BR|BR|BOUNDARY,OTHER  LANES,S_E,>EQ  10-Y/R,LOW  SPEED,PEDESTRIAN,RL  0,acts-8,N,771,32,14.014,0
L1BR|BR|BOUNDARY,OTHER  LANES,S_E,>EQ  10-G,LOW  SPEED,PEDESTRIAN,  RL  >  2,acts-8,N,771,15,0,0.00010699999999996823
L1BR|BR|BOUNDARY,OTHER  LANES,S_E,>EQ  10-G,LOW  SPEED,PEDESTRIAN,  RL  >  2,acts-8,Y,771,15,1.001,0.018801999999999985
L1BR|BR|BOUNDARY,OTHER  LANES,S_E,>EQ  10-G,LOW  SPEED,PEDESTRIAN,  RL  >  2,acts-8,Y,771,85,70.904167,0.0009730000000000016
L1BR|BR|BOUNDARY,OTHER  LANES,S_E,>EQ  10-G,LOW  SPEED,PEDESTRIAN,  RL  >  2,acts-8,Y,771,85,71.905167,0.012097000000000024
L1BR|BR|BOUNDARY,OTHER  LANES,S_E,>EQ  10-G,LOW  SPEED,PEDESTRIAN,  RL  >  2,acts-8,Y,771,85,72.906167,0.021458999999999895
L1BR|BR|BOUNDARY,OTHER  LANES,S_E,>EQ  10-G,LOW  SPEED,PEDESTRIAN,  RL  >  2,acts-8,Y,771,85,73.907167,0.019260999999999973
L1BR|BR|BOUNDARY,OTHER  LANES,S_E,>EQ  10-G,LOW  SPEED,PEDESTRIAN,  RL  >  2,acts-8,N,771,85,74.908167,0.017224999999999935
L1BR|BR|BOUNDARY,OTHER  LANES,S_E,>EQ  10-G,LOW  SPEED,PEDESTRIAN,  RL  >  2,acts-8,N,771,85,75.909167,0.017868999999999913
L1BR|BR|BOUNDARY,OTHER  LANES,S_E,>EQ  10-G,LOW  SPEED,PEDESTRIAN,  RL  >  2,acts-8,N,771,85,76.910167,0.01292800000000005
L1BR|BR|BOUNDARY,OTHER  LANES,S_E,>EQ  10-G,LOW  SPEED,PEDESTRIAN,  RL  >  2,acts-8,N,771,85,77.911167,0.01702300000000001
L1BR|BR|BOUNDARY,OTHER  LANES,S_E,>EQ  10-G,LOW  SPEED,PEDESTRIAN,  RL  >  2,acts-8,N,771,85,78.912167,0.014780000000000015
L1BR|BR|BOUNDARY,OTHER  LANES,S_E,>EQ  10-G,LOW  SPEED,PEDESTRIAN,  RL  >  2,acts-8,N,771,85,79.913167,0.01744200000000007
L1BR|BR|BOUNDARY,OTHER  LANES,S_E,>EQ  10-G,LOW  SPEED,PEDESTRIAN,  RL  >  2,acts-8,N,771,85,80.914167,0.015402000000000027
L1BR|BR|BOUNDARY,OTHER  LANES,S_E,>EQ  10-G,LOW  SPEED,PEDESTRIAN,  RL  >  2,acts-8,N,771,85,81.915167,0.016124000000000027
L1BR|BR|BOUNDARY,OTHER  LANES,S_E,>EQ  10-G,LOW  SPEED,NO  PEDESTRIAN,RL  0,acts-9,Y,771,104,94.5945,0.01852700000000007
L1BR|BR|BOUNDARY,OTHER  LANES,S_E,>EQ  10-G,LOW  SPEED,NO  PEDESTRIAN,  RL  <EQ  2,acts-9,N,771,85,90.924167,0
L1BR|BR|BOUNDARY,OTHER  LANES,S_E,>EQ  10-G,LOW  SPEED,NO  PEDESTRIAN,  RL  <EQ  2,acts-9,N,771,104,95.5955,0
L1BR|BR|BOUNDARY,OTHER  LANES,S_E,>EQ  10-G,LOW  SPEED,NO  PEDESTRIAN,  RL  <EQ  2,acts-9,N,771,107,100.767333,0.019444000000000017
L1BR|BR|BOUNDARY,OTHER  LANES,S_E,>EQ  10-G,LOW  SPEED,NO  PEDESTRIAN,  RL  <EQ  2,acts-9,Y,771,107,98.765333,0.01545300000000005
L1BR|BR|BOUNDARY,OTHER  LANES,S_E,>EQ  10-G,LOW  SPEED,NO  PEDESTRIAN,  RL  <EQ  2,acts-9,Y,771,107,99.766333,0.021341999999999972
L1BR|BR|BOUNDARY,OTHER  LANES,S_E,>EQ  10-G,LOW  SPEED,NO  PEDESTRIAN,  RL  <EQ  2,acts-9,Y,771,187,181.6815,0.011473000000000066
L1BR|BR|BOUNDARY,OTHER  LANES,S_E,>EQ  10-G,LOW  SPEED,NO  PEDESTRIAN,  RL  <EQ  2,acts-9,Y,771,187,182.6825,0.008889000000000036
L1BR|BR|BOUNDARY,OTHER  LANES,S_E,>EQ  10-G,LOW  SPEED,NO  PEDESTRIAN,  RL  <EQ  2,acts-9,N,771,187,183.6835,0.018967999999999985
L1BR|BR|BOUNDARY,OTHER  LANES,S_E,>EQ  10-G,LOW  SPEED,NO  PEDESTRIAN,  RL  >  2,acts-9,N,771,85,87.921167,0.016525000000000012
L1BR|BR|BOUNDARY,OTHER  LANES,S_E,>EQ  10-G,LOW  SPEED,NO  PEDESTRIAN,  RL  >  2,acts-9,Y,771,85,89.923167,0.0060989999999999656
L1BR|BR|BOUNDARY,OTHER  LANES,S_E,>EQ  10-G,LOW  SPEED,NO  PEDESTRIAN,  RL  >  2,acts-9,Y,771,187,180.6805,0.0009470000000000312
L1BR|BR|BOUNDARY,OTHER  LANES,E_S,<10-Y/R,MEDIUM  SPEED,NO  PEDESTRIAN,RL  0,acts-4,N,771,193,186.519667,0.0007869999999999822
L1BR|BR|BOUNDARY,OTHER  LANES,E_S,<10-G,LOW  SPEED,PEDESTRIAN,RL  0,acts-11,N,771,11,40.04,0.0
L1BR|BR|BOUNDARY,OTHER  LANES,E_S,<10-G,LOW  SPEED,PEDESTRIAN,RL  0,acts-11,N,771,11,41.041,0.0
L1BR|BR|BOUNDARY,OTHER  LANES,E_S,<10-G,LOW  SPEED,PEDESTRIAN,RL  0,acts-11,N,771,11,42.042,0.0
L1BR|BR|BOUNDARY,OTHER  LANES,E_S,<10-G,LOW  SPEED,PEDESTRIAN,RL  0,acts-11,N,771,11,43.043,0.0
L1BR|BR|BOUNDARY,OTHER  LANES,E_S,<10-G,LOW  SPEED,PEDESTRIAN,RL  0,acts-11,N,771,11,44.044,0.0
L1BR|BR|BOUNDARY,OTHER  LANES,E_S,<10-G,LOW  SPEED,PEDESTRIAN,RL  0,acts-11,N,771,11,45.045,0.0
L1BR|BR|BOUNDARY,OTHER  LANES,E_S,<10-G,LOW  SPEED,PEDESTRIAN,RL  0,acts-11,N,771,11,46.046,0.0
L1BR|BR|BOUNDARY,OTHER  LANES,E_S,<10-G,LOW  SPEED,PEDESTRIAN,RL  0,acts-11,N,771,11,47.047,0.0
L1BR|BR|BOUNDARY,OTHER  LANES,E_S,<10-G,LOW  SPEED,PEDESTRIAN,RL  0,acts-11,N,771,11,48.048,0.0
L1BR|BR|BOUNDARY,OTHER  LANES,E_S,<10-G,LOW  SPEED,PEDESTRIAN,RL  0,acts-11,N,771,11,49.049,0.0
L1BR|BR|BOUNDARY,OTHER  LANES,E_S,<10-G,LOW  SPEED,NO  PEDESTRIAN,RL  0,acts-11,N,771,193,240.573667,0.0
L1BR|BR|BOUNDARY,OTHER  LANES,E_S,<10-G,LOW  SPEED,NO  PEDESTRIAN,RL  0,acts-11,N,771,193,241.574667,0.0
L1BR|BR|BOUNDARY,OTHER  LANES,E_S,<10-G,LOW  SPEED,NO  PEDESTRIAN,RL  0,acts-11,N,771,193,242.575667,0.0
L1BR|BR|BOUNDARY,OTHER  LANES,E_S,<10-G,LOW  SPEED,NO  PEDESTRIAN,RL  0,acts-11,N,771,193,243.576667,0.0
L1BR|BR|BOUNDARY,OTHER  LANES,E_S,<10-G,LOW  SPEED,NO  PEDESTRIAN,RL  0,acts-11,N,771,193,244.577667,0
L1BR|BR|BOUNDARY,OTHER  LANES,E_S,<10-G,LOW  SPEED,NO  PEDESTRIAN,RL  0,acts-11,N,771,193,245.578667,0.0
L1BR|BR|BOUNDARY,OTHER  LANES,E_S,<10-G,LOW  SPEED,NO  PEDESTRIAN,RL  0,acts-11,N,771,193,246.579667,0.0
L1BR|BR|BOUNDARY,OTHER  LANES,E_S,<10-G,LOW  SPEED,NO  PEDESTRIAN,RL  0,acts-11,N,771,193,247.580667,0.0
L1BR|BR|BOUNDARY,OTHER  LANES,E_S,<10-G,LOW  SPEED,NO  PEDESTRIAN,RL  0,acts-11,Y,771,193,248.581667,0.0
L1BR|BR|BOUNDARY,OTHER  LANES,E_S,<10-G,LOW  SPEED,NO  PEDESTRIAN,RL  0,acts-11,Y,771,197,249.415833,0
L1BR|BR|BOUNDARY,OTHER  LANES,E_S,>EQ  10-Y/R,LOW  SPEED,PEDESTRIAN,RL  0,acts-4,Y,771,11,50.05,0.003758000000000039
L1BR|BR|BOUNDARY,OTHER  LANES,E_S,>EQ  10-Y/R,LOW  SPEED,PEDESTRIAN,RL  0,acts-4,Y,771,11,51.051,0
L1BR|BR|BOUNDARY,OTHER  LANES,E_S,>EQ  10-Y/R,LOW  SPEED,PEDESTRIAN,RL  0,acts-4,Y,771,11,52.052,0.001052000000000053
L1BR|BR|BOUNDARY,OTHER  LANES,E_S,>EQ  10-Y/R,LOW  SPEED,PEDESTRIAN,RL  0,acts-4,N,771,79,56.723333,0.00048000000000003595
L1BR|BR|BOUNDARY,OTHER  LANES,E_S,>EQ  10-G,LOW  SPEED,PEDESTRIAN,RL  0,acts-11,N,771,11,28.028,0.0
L1BR|BR|BOUNDARY,OTHER  LANES,E_S,>EQ  10-G,LOW  SPEED,PEDESTRIAN,RL  0,acts-11,N,771,11,29.029,0.0
L1BR|BR|BOUNDARY,OTHER  LANES,E_S,>EQ  10-G,LOW  SPEED,PEDESTRIAN,RL  0,acts-11,N,771,11,30.03,0.0
L1BR|BR|BOUNDARY,OTHER  LANES,E_S,>EQ  10-G,LOW  SPEED,PEDESTRIAN,RL  0,acts-11,N,771,11,31.031,0.0
L1BR|BR|BOUNDARY,OTHER  LANES,E_S,>EQ  10-G,LOW  SPEED,PEDESTRIAN,RL  0,acts-11,N,771,11,32.032,0.0
L1BR|BR|BOUNDARY,OTHER  LANES,E_S,>EQ  10-G,LOW  SPEED,PEDESTRIAN,RL  0,acts-11,N,771,11,33.033,0.0
L1BR|BR|BOUNDARY,OTHER  LANES,E_S,>EQ  10-G,LOW  SPEED,PEDESTRIAN,RL  0,acts-11,N,771,11,34.034,0.0
L1BR|BR|BOUNDARY,OTHER  LANES,E_S,>EQ  10-G,LOW  SPEED,PEDESTRIAN,RL  0,acts-11,N,771,11,35.035,0.0
L1BR|BR|BOUNDARY,OTHER  LANES,E_S,>EQ  10-G,LOW  SPEED,PEDESTRIAN,RL  0,acts-11,N,771,11,36.036,0.0
L1BR|BR|BOUNDARY,OTHER  LANES,E_S,>EQ  10-G,LOW  SPEED,PEDESTRIAN,RL  0,acts-11,N,771,11,37.037,0.0
L1BR|BR|BOUNDARY,OTHER  LANES,E_S,>EQ  10-G,LOW  SPEED,PEDESTRIAN,RL  0,acts-11,N,771,11,38.038,0.0
L1BR|BR|BOUNDARY,OTHER  LANES,E_S,>EQ  10-G,LOW  SPEED,PEDESTRIAN,RL  0,acts-11,N,771,11,39.039,0.0
L1BR|BR|BOUNDARY,OTHER  LANES,E_S,>EQ  10-G,LOW  SPEED,NO  PEDESTRIAN,RL  0,acts-11,N,771,11,0,0.0
L1BR|BR|BOUNDARY,OTHER  LANES,E_S,>EQ  10-G,LOW  SPEED,NO  PEDESTRIAN,RL  0,acts-11,N,771,11,1.001,0.0
L1BR|BR|BOUNDARY,OTHER  LANES,E_S,>EQ  10-G,LOW  SPEED,NO  PEDESTRIAN,RL  0,acts-11,N,771,11,10.01,0.0
L1BR|BR|BOUNDARY,OTHER  LANES,E_S,>EQ  10-G,LOW  SPEED,NO  PEDESTRIAN,RL  0,acts-11,N,771,11,11.011,0.0
L1BR|BR|BOUNDARY,OTHER  LANES,E_S,>EQ  10-G,LOW  SPEED,NO  PEDESTRIAN,RL  0,acts-11,N,771,11,12.012,0.0
L1BR|BR|BOUNDARY,OTHER  LANES,E_S,>EQ  10-G,LOW  SPEED,NO  PEDESTRIAN,RL  0,acts-11,N,771,11,13.013,0.0
L1BR|BR|BOUNDARY,OTHER  LANES,E_S,>EQ  10-G,LOW  SPEED,NO  PEDESTRIAN,RL  0,acts-11,N,771,11,14.014,0.0
L1BR|BR|BOUNDARY,OTHER  LANES,E_S,>EQ  10-G,LOW  SPEED,NO  PEDESTRIAN,RL  0,acts-11,N,771,11,15.015,0.0
L1BR|BR|BOUNDARY,OTHER  LANES,E_S,>EQ  10-G,LOW  SPEED,NO  PEDESTRIAN,RL  0,acts-11,N,771,11,16.016,0.0
L1BR|BR|BOUNDARY,OTHER  LANES,E_S,>EQ  10-G,LOW  SPEED,NO  PEDESTRIAN,RL  0,acts-11,N,771,11,17.017,0.0
L1BR|BR|BOUNDARY,OTHER  LANES,E_S,>EQ  10-G,LOW  SPEED,NO  PEDESTRIAN,RL  0,acts-11,N,771,11,18.018,0.0
L1BR|BR|BOUNDARY,OTHER  LANES,E_S,>EQ  10-G,LOW  SPEED,NO  PEDESTRIAN,RL  0,acts-11,N,771,11,19.019,0.0
L1BR|BR|BOUNDARY,OTHER  LANES,E_S,>EQ  10-G,LOW  SPEED,NO  PEDESTRIAN,RL  0,acts-11,N,771,11,2.002,0.0
L1BR|BR|BOUNDARY,OTHER  LANES,E_S,>EQ  10-G,LOW  SPEED,NO  PEDESTRIAN,RL  0,acts-11,N,771,11,20.02,0.0
L1BR|BR|BOUNDARY,OTHER  LANES,E_S,>EQ  10-G,LOW  SPEED,NO  PEDESTRIAN,RL  0,acts-11,N,771,11,21.021,0.0
L1BR|BR|BOUNDARY,OTHER  LANES,E_S,>EQ  10-G,LOW  SPEED,NO  PEDESTRIAN,RL  0,acts-11,N,771,11,22.022,0.0
L1BR|BR|BOUNDARY,OTHER  LANES,E_S,>EQ  10-G,LOW  SPEED,NO  PEDESTRIAN,RL  0,acts-11,N,771,11,23.023,0.0
L1BR|BR|BOUNDARY,OTHER  LANES,E_S,>EQ  10-G,LOW  SPEED,NO  PEDESTRIAN,RL  0,acts-11,N,771,11,24.024,0.0
L1BR|BR|BOUNDARY,OTHER  LANES,E_S,>EQ  10-G,LOW  SPEED,NO  PEDESTRIAN,RL  0,acts-11,N,771,11,25.025,0.0
L1BR|BR|BOUNDARY,OTHER  LANES,E_S,>EQ  10-G,LOW  SPEED,NO  PEDESTRIAN,RL  0,acts-11,N,771,11,26.026,0.0
L1BR|BR|BOUNDARY,OTHER  LANES,E_S,>EQ  10-G,LOW  SPEED,NO  PEDESTRIAN,RL  0,acts-11,N,771,11,27.027,0.0
L1BR|BR|BOUNDARY,OTHER  LANES,E_S,>EQ  10-G,LOW  SPEED,NO  PEDESTRIAN,RL  0,acts-11,N,771,11,3.003,0.0
L1BR|BR|BOUNDARY,OTHER  LANES,E_S,>EQ  10-G,LOW  SPEED,NO  PEDESTRIAN,RL  0,acts-11,N,771,11,4.004,0.0
L1BR|BR|BOUNDARY,OTHER  LANES,E_S,>EQ  10-G,LOW  SPEED,NO  PEDESTRIAN,RL  0,acts-11,N,771,11,5.005,0.0
L1BR|BR|BOUNDARY,OTHER  LANES,E_S,>EQ  10-G,LOW  SPEED,NO  PEDESTRIAN,RL  0,acts-11,N,771,11,6.006,0.0
L1BR|BR|BOUNDARY,OTHER  LANES,E_S,>EQ  10-G,LOW  SPEED,NO  PEDESTRIAN,RL  0,acts-11,N,771,11,7.007,0.0
L1BR|BR|BOUNDARY,OTHER  LANES,E_S,>EQ  10-G,LOW  SPEED,NO  PEDESTRIAN,RL  0,acts-11,N,771,11,8.008,0.0
L1BR|BR|BOUNDARY,OTHER  LANES,E_S,>EQ  10-G,LOW  SPEED,NO  PEDESTRIAN,RL  0,acts-11,N,771,11,9.009,0.0
L1BR|BR|BOUNDARY,OTHER  LANES,E_S,>EQ  10-G,LOW  SPEED,NO  PEDESTRIAN,RL  0,acts-11,N,771,193,195.528667,0.0
L1BR|BR|BOUNDARY,OTHER  LANES,E_S,>EQ  10-G,LOW  SPEED,NO  PEDESTRIAN,RL  0,acts-11,N,771,193,196.529667,0.0
L1BR|BR|BOUNDARY,OTHER  LANES,E_S,>EQ  10-G,LOW  SPEED,NO  PEDESTRIAN,RL  0,acts-11,N,771,193,197.530667,0.0
L1BR|BR|BOUNDARY,OTHER  LANES,E_S,>EQ  10-G,LOW  SPEED,NO  PEDESTRIAN,RL  0,acts-11,N,771,193,198.531667,0.0
L1BR|BR|BOUNDARY,OTHER  LANES,E_S,>EQ  10-G,LOW  SPEED,NO  PEDESTRIAN,RL  0,acts-11,N,771,193,199.532667,0.0
L1BR|BR|BOUNDARY,OTHER  LANES,E_S,>EQ  10-G,LOW  SPEED,NO  PEDESTRIAN,RL  0,acts-11,N,771,193,200.533667,0.0
L1BR|BR|BOUNDARY,OTHER  LANES,E_S,>EQ  10-G,LOW  SPEED,NO  PEDESTRIAN,RL  0,acts-11,N,771,193,201.534667,0.0
L1BR|BR|BOUNDARY,OTHER  LANES,E_S,>EQ  10-G,LOW  SPEED,NO  PEDESTRIAN,RL  0,acts-11,N,771,193,202.535667,0
L1BR|BR|BOUNDARY,OTHER  LANES,E_S,>EQ  10-G,LOW  SPEED,NO  PEDESTRIAN,RL  0,acts-11,N,771,193,203.536667,0.0
L1BR|BR|BOUNDARY,OTHER  LANES,E_S,>EQ  10-G,LOW  SPEED,NO  PEDESTRIAN,RL  0,acts-11,N,771,193,204.537667,0.0
L1BR|BR|BOUNDARY,OTHER  LANES,E_S,>EQ  10-G,LOW  SPEED,NO  PEDESTRIAN,RL  0,acts-11,N,771,193,205.538667,0.0
L1BR|BR|BOUNDARY,OTHER  LANES,E_S,>EQ  10-G,LOW  SPEED,NO  PEDESTRIAN,RL  0,acts-11,N,771,193,206.539667,0.0
L1BR|BR|BOUNDARY,OTHER  LANES,E_S,>EQ  10-G,LOW  SPEED,NO  PEDESTRIAN,RL  0,acts-11,N,771,193,207.540667,0.0
L1BR|BR|BOUNDARY,OTHER  LANES,E_S,>EQ  10-G,LOW  SPEED,NO  PEDESTRIAN,RL  0,acts-11,N,771,193,208.541667,0
L1BR|BR|BOUNDARY,OTHER  LANES,E_S,>EQ  10-G,LOW  SPEED,NO  PEDESTRIAN,RL  0,acts-11,N,771,193,209.542667,0.0
L1BR|BR|BOUNDARY,OTHER  LANES,E_S,>EQ  10-G,LOW  SPEED,NO  PEDESTRIAN,RL  0,acts-11,N,771,193,210.543667,0.0
L1BR|BR|BOUNDARY,OTHER  LANES,E_S,>EQ  10-G,LOW  SPEED,NO  PEDESTRIAN,RL  0,acts-11,N,771,193,211.544667,0.0
L1BR|BR|BOUNDARY,OTHER  LANES,E_S,>EQ  10-G,LOW  SPEED,NO  PEDESTRIAN,RL  0,acts-11,N,771,193,212.545667,0.0
L1BR|BR|BOUNDARY,OTHER  LANES,E_S,>EQ  10-G,LOW  SPEED,NO  PEDESTRIAN,RL  0,acts-11,N,771,193,213.546667,0.0
L1BR|BR|BOUNDARY,OTHER  LANES,E_S,>EQ  10-G,LOW  SPEED,NO  PEDESTRIAN,RL  0,acts-11,N,771,193,214.547667,0
L1BR|BR|BOUNDARY,OTHER  LANES,E_S,>EQ  10-G,LOW  SPEED,NO  PEDESTRIAN,RL  0,acts-11,N,771,193,215.548667,0.0
L1BR|BR|BOUNDARY,OTHER  LANES,E_S,>EQ  10-G,LOW  SPEED,NO  PEDESTRIAN,RL  0,acts-11,N,771,193,216.549667,0.0
L1BR|BR|BOUNDARY,OTHER  LANES,E_S,>EQ  10-G,LOW  SPEED,NO  PEDESTRIAN,RL  0,acts-11,N,771,193,217.550667,0.0
L1BR|BR|BOUNDARY,OTHER  LANES,E_S,>EQ  10-G,LOW  SPEED,NO  PEDESTRIAN,RL  0,acts-11,N,771,193,218.551667,0.0
L1BR|BR|BOUNDARY,OTHER  LANES,E_S,>EQ  10-G,LOW  SPEED,NO  PEDESTRIAN,RL  0,acts-11,N,771,193,219.552667,0.0
L1BR|BR|BOUNDARY,OTHER  LANES,E_S,>EQ  10-G,LOW  SPEED,NO  PEDESTRIAN,RL  0,acts-11,N,771,193,220.553667,0
L1BR|BR|BOUNDARY,OTHER  LANES,E_S,>EQ  10-G,LOW  SPEED,NO  PEDESTRIAN,RL  0,acts-11,N,771,193,221.554667,0.0
L1BR|BR|BOUNDARY,OTHER  LANES,E_S,>EQ  10-G,LOW  SPEED,NO  PEDESTRIAN,RL  0,acts-11,N,771,193,222.555667,0.0
L1BR|BR|BOUNDARY,OTHER  LANES,E_S,>EQ  10-G,LOW  SPEED,NO  PEDESTRIAN,RL  0,acts-11,N,771,193,223.556667,0.0
L1BR|BR|BOUNDARY,OTHER  LANES,E_S,>EQ  10-G,LOW  SPEED,NO  PEDESTRIAN,RL  0,acts-11,N,771,193,224.557667,0.0
L1BR|BR|BOUNDARY,OTHER  LANES,E_S,>EQ  10-G,LOW  SPEED,NO  PEDESTRIAN,RL  0,acts-11,N,771,193,225.558667,0.0
L1BR|BR|BOUNDARY,OTHER  LANES,E_S,>EQ  10-G,LOW  SPEED,NO  PEDESTRIAN,RL  0,acts-11,N,771,193,226.559667,0
L1BR|BR|BOUNDARY,OTHER  LANES,E_S,>EQ  10-G,LOW  SPEED,NO  PEDESTRIAN,RL  0,acts-11,N,771,193,227.560667,0.0
L1BR|BR|BOUNDARY,OTHER  LANES,E_S,>EQ  10-G,LOW  SPEED,NO  PEDESTRIAN,RL  0,acts-11,N,771,193,228.561667,0.0
L1BR|BR|BOUNDARY,OTHER  LANES,E_S,>EQ  10-G,LOW  SPEED,NO  PEDESTRIAN,RL  0,acts-11,N,771,193,229.562667,0.0
L1BR|BR|BOUNDARY,OTHER  LANES,E_S,>EQ  10-G,LOW  SPEED,NO  PEDESTRIAN,RL  0,acts-11,N,771,193,230.563667,0.0
L1BR|BR|BOUNDARY,OTHER  LANES,E_S,>EQ  10-G,LOW  SPEED,NO  PEDESTRIAN,RL  0,acts-11,N,771,193,231.564667,0.0
L1BR|BR|BOUNDARY,OTHER  LANES,E_S,>EQ  10-G,LOW  SPEED,NO  PEDESTRIAN,RL  0,acts-11,N,771,193,232.565667,0
L1BR|BR|BOUNDARY,OTHER  LANES,E_S,>EQ  10-G,LOW  SPEED,NO  PEDESTRIAN,RL  0,acts-11,N,771,193,233.566667,0.0
L1BR|BR|BOUNDARY,OTHER  LANES,E_S,>EQ  10-G,LOW  SPEED,NO  PEDESTRIAN,RL  0,acts-11,N,771,193,234.567667,0.0
L1BR|BR|BOUNDARY,OTHER  LANES,E_S,>EQ  10-G,LOW  SPEED,NO  PEDESTRIAN,RL  0,acts-11,N,771,193,235.568667,0.0
L1BR|BR|BOUNDARY,OTHER  LANES,E_S,>EQ  10-G,LOW  SPEED,NO  PEDESTRIAN,RL  0,acts-11,N,771,193,236.569667,0.0
L1BR|BR|BOUNDARY,OTHER  LANES,E_S,>EQ  10-G,LOW  SPEED,NO  PEDESTRIAN,RL  0,acts-11,N,771,193,237.570667,0.0
L1BR|BR|BOUNDARY,OTHER  LANES,E_S,>EQ  10-G,LOW  SPEED,NO  PEDESTRIAN,RL  0,acts-11,N,771,193,238.571667,0
L1BR|BR|BOUNDARY,OTHER  LANES,E_S,>EQ  10-G,LOW  SPEED,NO  PEDESTRIAN,RL  0,acts-11,N,771,193,239.572667,0.0
L1BR|BR|BOUNDARY,OTHER  LANES,E_S,>EQ  10-G,LOW  SPEED,NO  PEDESTRIAN,RL  0,acts-11,Y,771,197,192.358833,0.0
L1BR|BR|BOUNDARY,OTHER  LANES,E_S,>EQ  10-G,LOW  SPEED,NO  PEDESTRIAN,RL  0,acts-11,Y,771,197,193.359833,0.0
L1BR|BR|BOUNDARY,OTHER  LANES,E_S,>EQ  10-G,LOW  SPEED,NO  PEDESTRIAN,RL  0,acts-11,Y,771,197,194.360833,0.0
L1BR|BR|BOUNDARY,prep-right-turn,W_S,<10-Y/R,LOW  SPEED,PEDESTRIAN,RL  0,acts-8,N,771,91,81.081,0.03460200000000002
L1BR|BR|BOUNDARY,prep-right-turn,W_S,<10-Y/R,LOW  SPEED,NO  PEDESTRIAN,RL  0,acts-4,N,771,96,86.086,0.0004170000000000007
L1BR|BR|BOUNDARY,prep-right-turn,W_S,<10-G,LOW  SPEED,PEDESTRIAN,RL  0,acts-8,N,771,61,48.214833,0
L1BR|BR|BOUNDARY,prep-right-turn,W_S,<10-G,LOW  SPEED,PEDESTRIAN,RL  0,acts-8,Y,771,61,49.215833,0.0014399999999999968
L1BR|BR|BOUNDARY,prep-right-turn,W_S,<10-G,LOW  SPEED,PEDESTRIAN,RL  0,acts-8,N,771,171,153.987167,0.0010700000000000154
L1BR|BR|BOUNDARY,prep-right-turn,W_S,<10-G,LOW  SPEED,PEDESTRIAN,RL  0,acts-8,Y,771,171,154.988167,0
L1BR|BR|BOUNDARY,prep-right-turn,W_S,<10-G,LOW  SPEED,PEDESTRIAN,RL  0,acts-8,Y,771,171,155.989167,0.00010100000000001774
L1BR|BR|BOUNDARY,prep-right-turn,W_S,>EQ  10-Y/R,LOW  SPEED,PEDESTRIAN,RL  0,acts-8,Y,771,173,164.831333,0.0013800000000000479
L1BR|BR|BOUNDARY,prep-right-turn,W_S,>EQ  10-Y/R,LOW  SPEED,PEDESTRIAN,RL  0,acts-8,Y,771,173,165.832333,0.0005679999999999019
L1BR|BR|BOUNDARY,prep-right-turn,W_S,>EQ  10-G,LOW  SPEED,PEDESTRIAN,RL  0,acts-8,Y,771,61,47.213833,0.036587999999999954
L1BR|BR|BOUNDARY,prep-right-turn,W_S,>EQ  10-G,LOW  SPEED,PEDESTRIAN,  RL  <EQ  2,acts-8,Y,771,110,111.6115,0.006498000000000004
L1BR|BR|BOUNDARY,prep-right-turn,W_S,>EQ  10-G,LOW  SPEED,PEDESTRIAN,  RL  >  2,acts-8,N,771,110,107.6075,0.040134
L1BR|BR|BOUNDARY,prep-right-turn,W_S,>EQ  10-G,LOW  SPEED,PEDESTRIAN,  RL  >  2,acts-8,N,771,110,108.6085,0.03390599999999999
L1BR|BR|BOUNDARY,prep-right-turn,W_S,>EQ  10-G,LOW  SPEED,PEDESTRIAN,  RL  >  2,acts-8,Y,771,110,109.6095,0.00044999999999995044
L1BR|BR|BOUNDARY,prep-right-turn,W_S,>EQ  10-G,LOW  SPEED,PEDESTRIAN,  RL  >  2,acts-8,Y,771,110,110.6105,0
L1BR|BR|BOUNDARY,prep-right-turn,S_E,<10-G,LOW  SPEED,PEDESTRIAN,  RL  <EQ  2,acts-8,Y,771,15,8.008,0.034633000000000025
L1BR|BR|BOUNDARY,prep-right-turn,S_E,<10-G,LOW  SPEED,PEDESTRIAN,  RL  <EQ  2,acts-8,Y,771,15,9.009,0
L1BR|BR|BOUNDARY,prep-right-turn,S_E,<10-G,LOW  SPEED,PEDESTRIAN,  RL  >  2,acts-8,N,771,15,4.004,0.03248899999999999
L1BR|BR|BOUNDARY,prep-right-turn,S_E,<10-G,LOW  SPEED,PEDESTRIAN,  RL  >  2,acts-8,N,771,15,6.006,0.05636400000000008
L1BR|BR|BOUNDARY,prep-right-turn,S_E,<10-G,LOW  SPEED,PEDESTRIAN,  RL  >  2,acts-8,Y,771,15,7.007,0.01206700000000005
L1BR|BR|BOUNDARY,prep-right-turn,S_E,>EQ  10-Y/R,LOW  SPEED,PEDESTRIAN,RL  0,acts-8,Y,771,32,15.015,0.0037209999999999743
L1BR|BR|BOUNDARY,prep-right-turn,S_E,>EQ  10-Y/R,LOW  SPEED,NO  PEDESTRIAN,RL  0,acts-4,Y,771,187,195.6955,0.02305400000000002
L1BR|BR|BOUNDARY,prep-right-turn,S_E,>EQ  10-Y/R,LOW  SPEED,NO  PEDESTRIAN,RL  0,acts-4,N,771,187,196.6965,0
L1BR|BR|BOUNDARY,prep-right-turn,S_E,>EQ  10-Y/R,LOW  SPEED,NO  PEDESTRIAN,RL  0,acts-4,Y,771,187,197.6975,0.002743000000000051
L1BR|BR|BOUNDARY,prep-right-turn,S_E,>EQ  10-Y/R,LOW  SPEED,NO  PEDESTRIAN,RL  0,acts-4,Y,771,187,198.6985,0
L1BR|BR|BOUNDARY,prep-right-turn,S_E,>EQ  10-Y/R,LOW  SPEED,NO  PEDESTRIAN,RL  0,acts-4,Y,771,187,199.6995,0
L1BR|BR|BOUNDARY,prep-right-turn,S_E,>EQ  10-G,LOW  SPEED,NO  PEDESTRIAN,RL  0,acts-4,Y,771,85,92.926167,0.004305000000000003
L1BR|BR|BOUNDARY,prep-right-turn,S_E,>EQ  10-G,LOW  SPEED,NO  PEDESTRIAN,RL  0,acts-4,Y,771,85,93.927167,0
L1BR|BR|BOUNDARY,prep-right-turn,S_E,>EQ  10-G,LOW  SPEED,NO  PEDESTRIAN,  RL  >  2,acts-1,Y,771,104,96.5965,0.00019499999999994522
L1BR|BR|BOUNDARY,exec-right-turn,W_S,<10-Y/R,LOW  SPEED,PEDESTRIAN,RL  0,acts-4,N,771,91,82.082,0
L1BR|BR|BOUNDARY,exec-right-turn,W_S,<10-Y/R,LOW  SPEED,NO  PEDESTRIAN,RL  0,acts-4,Y,771,91,83.083,0.0003450000000000397
L1BR|BR|BOUNDARY,exec-right-turn,W_S,<10-Y/R,LOW  SPEED,NO  PEDESTRIAN,RL  0,acts-4,Y,771,96,87.087,0.0009480000000000599
L1BR|BR|BOUNDARY,exec-right-turn,W_S,<10-Y/R,LOW  SPEED,NO  PEDESTRIAN,RL  0,acts-4,N,771,188,187.854333,0.0
L1BR|BR|BOUNDARY,exec-right-turn,W_S,<10-G,LOW  SPEED,PEDESTRIAN,RL  0,acts-4,Y,771,61,52.218833,0
L1BR|BR|BOUNDARY,exec-right-turn,W_S,<10-G,LOW  SPEED,PEDESTRIAN,RL  0,acts-4,Y,771,171,156.990167,0
L1BR|BR|BOUNDARY,exec-right-turn,W_S,>EQ  10-Y/R,LOW  SPEED,PEDESTRIAN,RL  0,acts-4,Y,771,173,166.833333,2.599999999997049e-05
L1BR|BR|BOUNDARY,exec-right-turn,W_S,>EQ  10-Y/R,LOW  SPEED,PEDESTRIAN,RL  0,acts-4,Y,771,173,167.834333,0.0007500000000000284
L1BR|BR|BOUNDARY,exec-right-turn,W_S,>EQ  10-G,LOW  SPEED,PEDESTRIAN,RL  0,acts-4,Y,771,56,45.879167,0
L1BR|BR|BOUNDARY,exec-right-turn,W_S,>EQ  10-G,LOW  SPEED,PEDESTRIAN,RL  0,acts-4,Y,771,110,113.6135,5.8000000000002494e-05
L1BR|BR|BOUNDARY,exec-right-turn,S_E,<10-G,LOW  SPEED,PEDESTRIAN,  RL  <EQ  2,acts-4,Y,771,15,10.01,0
L1BR|BR|BOUNDARY,exec-right-turn,S_E,<10-G,LOW  SPEED,NO  PEDESTRIAN,RL  0,acts-4,Y,771,107,108.775333,0
L1BR|BR|BOUNDARY,exec-right-turn,S_E,<10-G,LOW  SPEED,NO  PEDESTRIAN,RL  0,acts-4,Y,771,107,109.776333,0
L1BR|BR|BOUNDARY,exec-right-turn,S_E,>EQ  10-Y/R,LOW  SPEED,PEDESTRIAN,RL  0,acts-4,N,771,15,12.012,0
L1BR|BR|BOUNDARY,exec-right-turn,S_E,>EQ  10-Y/R,LOW  SPEED,PEDESTRIAN,RL  0,acts-4,N,771,15,13.013,0.003498000000000001
L1BR|BR|BOUNDARY,exec-right-turn,S_E,>EQ  10-Y/R,LOW  SPEED,PEDESTRIAN,RL  0,acts-4,Y,771,32,17.017,0
L1BR|BR|BOUNDARY,exec-right-turn,S_E,>EQ  10-Y/R,LOW  SPEED,NO  PEDESTRIAN,RL  0,acts-4,Y,771,139,125.792333,0.000132000000000021
L1BR|BR|BOUNDARY,exec-right-turn,S_E,>EQ  10-Y/R,LOW  SPEED,NO  PEDESTRIAN,RL  0,acts-4,Y,771,187,200.7005,0.01771300000000009
L1BR|BR|BOUNDARY,exec-right-turn,S_E,>EQ  10-Y/R,LOW  SPEED,NO  PEDESTRIAN,RL  0,acts-4,Y,771,187,201.7015,0
L1BR|BR|BOUNDARY,exec-right-turn,S_E,>EQ  10-G,LOW  SPEED,NO  PEDESTRIAN,RL  0,acts-4,Y,771,85,94.928167,0.0005290000000000017
L1BR|BR|BOUNDARY,exec-right-turn,S_E,>EQ  10-G,LOW  SPEED,NO  PEDESTRIAN,RL  0,acts-4,Y,771,85,95.929167,0.002082999999999946
L1BR|BR|BOUNDARY,exec-right-turn,S_E,>EQ  10-G,LOW  SPEED,NO  PEDESTRIAN,RL  0,acts-4,Y,771,104,100.6005,0.0030250000000000554
