EQ_TYPE,SEGMENT,TASK,NEXT_CHANGE,SPEED,PEDESTRIAN,RELEV_VEHICLE,ACTIONS,AGGRESSIVE,FILE_ID,TRACK_ID,TIME,ON_EQ
MAXMIN|MAXMIN|BOUNDARY,prep-left-turn,S_W,<10-Y/R,LOW  SPEED,NO  PEDESTRIAN,RL  0,acts-1,Y,777,6,3.003,0.00542699999999996
MAXMIN|MAXMIN|BOUNDARY,prep-left-turn,S_W,<10-Y/R,LOW  SPEED,NO  PEDESTRIAN,RL  0,acts-1,Y,777,6,4.004,0
MAXMIN|MAXMIN|BOUNDARY,prep-left-turn,S_W,>EQ  10-Y/R,LOW  SPEED,PEDESTRIAN,  RL  <EQ  2,acts-2,Y,777,104,84.918167,0.35432400000000003
MAXMIN|MAXMIN|BOUNDARY,prep-left-turn,S_W,>EQ  10-Y/R,LOW  SPEED,PEDESTRIAN,  RL  <EQ  2,acts-2,Y,777,104,84.918167,0.35432400000000003
MAXMIN|MAXMIN|BOUNDARY,prep-left-turn,S_W,>EQ  10-Y/R,LOW  SPEED,PEDESTRIAN,  RL  <EQ  2,acts-2,Y,777,104,86.920167,0.0095019999999999
MAXMIN|MAXMIN|BOUNDARY,prep-left-turn,S_W,>EQ  10-Y/R,LOW  SPEED,PEDESTRIAN,  RL  <EQ  2,acts-2,Y,777,104,86.920167,0.0095019999999999
MAXMIN|MAXMIN|BOUNDARY,prep-left-turn,S_W,>EQ  10-Y/R,LOW  SPEED,PEDESTRIAN,  RL  >  2,acts-2,Y,777,104,85.919167,0.03610199999999997
MAXMIN|MAXMIN|BOUNDARY,prep-left-turn,S_W,>EQ  10-Y/R,LOW  SPEED,PEDESTRIAN,  RL  >  2,acts-2,Y,777,104,85.919167,0.03610199999999997
MAXMIN|MAXMIN|BOUNDARY,prep-left-turn,S_W,>EQ  10-Y/R,LOW  SPEED,NO  PEDESTRIAN,RL  0,acts-1,Y,777,21,56.056,0
MAXMIN|MAXMIN|BOUNDARY,prep-left-turn,S_W,>EQ  10-Y/R,LOW  SPEED,NO  PEDESTRIAN,RL  0,acts-1,Y,777,21,57.057,0
MAXMIN|MAXMIN|BOUNDARY,prep-left-turn,S_W,>EQ  10-Y/R,LOW  SPEED,NO  PEDESTRIAN,RL  0,acts-1,Y,777,21,58.058,0.007330999999999976
MAXMIN|MAXMIN|BOUNDARY,prep-left-turn,S_W,>EQ  10-Y/R,LOW  SPEED,NO  PEDESTRIAN,RL  0,acts-1,Y,777,21,59.059,0.013502000000000014
MAXMIN|MAXMIN|BOUNDARY,prep-left-turn,N_E,>EQ  10-Y/R,LOW  SPEED,NO  PEDESTRIAN,RL  0,acts-1,Y,777,71,69.736333,0.0034290000000000154
MAXMIN|MAXMIN|BOUNDARY,prep-left-turn,N_E,>EQ  10-Y/R,LOW  SPEED,NO  PEDESTRIAN,RL  0,acts-1,Y,777,71,70.737333,0.008551000000000086
MAXMIN|MAXMIN|BOUNDARY,prep-left-turn,N_E,>EQ  10-Y/R,LOW  SPEED,NO  PEDESTRIAN,RL  0,acts-1,Y,777,96,80.246833,0.08856900000000001
MAXMIN|MAXMIN|BOUNDARY,prep-left-turn,N_E,>EQ  10-Y/R,LOW  SPEED,NO  PEDESTRIAN,RL  0,acts-1,N,777,96,81.247833,0.08732200000000001
MAXMIN|MAXMIN|BOUNDARY,prep-left-turn,N_E,>EQ  10-Y/R,LOW  SPEED,NO  PEDESTRIAN,RL  0,acts-1,N,777,96,82.248833,0.08405099999999999
MAXMIN|MAXMIN|BOUNDARY,prep-left-turn,N_E,>EQ  10-Y/R,LOW  SPEED,NO  PEDESTRIAN,RL  0,acts-1,N,777,96,83.249833,0.07563500000000001
MAXMIN|MAXMIN|BOUNDARY,prep-left-turn,W_N,<10-Y/R,LOW  SPEED,NO  PEDESTRIAN,  RL  <EQ  2,acts-1,N,777,9,39.039,0.10184499999999996
MAXMIN|MAXMIN|BOUNDARY,prep-left-turn,W_N,<10-Y/R,LOW  SPEED,NO  PEDESTRIAN,  RL  <EQ  2,acts-1,Y,777,156,141.474667,0.511458
MAXMIN|MAXMIN|BOUNDARY,prep-left-turn,W_N,<10-Y/R,LOW  SPEED,NO  PEDESTRIAN,  RL  <EQ  2,acts-1,Y,777,156,142.475667,0.409435
MAXMIN|MAXMIN|BOUNDARY,prep-left-turn,W_N,<10-Y/R,LOW  SPEED,NO  PEDESTRIAN,  RL  >  2,acts-1,Y,777,156,140.473667,0.49337000000000003
MAXMIN|MAXMIN|BOUNDARY,prep-left-turn,W_N,>EQ  10-Y/R,LOW  SPEED,NO  PEDESTRIAN,RL  0,acts-1,Y,777,8,12.012,0
MAXMIN|MAXMIN|BOUNDARY,prep-left-turn,W_N,>EQ  10-Y/R,LOW  SPEED,NO  PEDESTRIAN,  RL  <EQ  2,acts-1,N,777,9,33.033,0.017940999999999985
MAXMIN|MAXMIN|BOUNDARY,prep-left-turn,W_N,>EQ  10-Y/R,LOW  SPEED,NO  PEDESTRIAN,  RL  <EQ  2,acts-1,N,777,9,34.034,0.02467999999999998
MAXMIN|MAXMIN|BOUNDARY,prep-left-turn,W_N,>EQ  10-Y/R,LOW  SPEED,NO  PEDESTRIAN,  RL  <EQ  2,acts-1,N,777,9,35.035,0.033187999999999995
MAXMIN|MAXMIN|BOUNDARY,prep-left-turn,W_N,>EQ  10-Y/R,LOW  SPEED,NO  PEDESTRIAN,  RL  <EQ  2,acts-1,N,777,9,37.037,0.275132
MAXMIN|MAXMIN|BOUNDARY,prep-left-turn,W_N,>EQ  10-Y/R,LOW  SPEED,NO  PEDESTRIAN,  RL  <EQ  2,acts-1,N,777,9,38.038,0.027444999999999997
MAXMIN|MAXMIN|BOUNDARY,prep-left-turn,W_N,>EQ  10-Y/R,LOW  SPEED,NO  PEDESTRIAN,  RL  >  2,acts-1,Y,777,9,21.021,0.04943700000000001
MAXMIN|MAXMIN|BOUNDARY,prep-left-turn,W_N,>EQ  10-Y/R,LOW  SPEED,NO  PEDESTRIAN,  RL  >  2,acts-1,Y,777,9,22.022,0
MAXMIN|MAXMIN|BOUNDARY,prep-left-turn,W_N,>EQ  10-Y/R,LOW  SPEED,NO  PEDESTRIAN,  RL  >  2,acts-1,Y,777,9,23.023,0.014778999999999987
MAXMIN|MAXMIN|BOUNDARY,prep-left-turn,W_N,>EQ  10-Y/R,LOW  SPEED,NO  PEDESTRIAN,  RL  >  2,acts-1,N,777,9,24.024,0.027388000000000023
MAXMIN|MAXMIN|BOUNDARY,prep-left-turn,W_N,>EQ  10-Y/R,LOW  SPEED,NO  PEDESTRIAN,  RL  >  2,acts-1,N,777,9,25.025,0.18909000000000004
MAXMIN|MAXMIN|BOUNDARY,prep-left-turn,W_N,>EQ  10-Y/R,LOW  SPEED,NO  PEDESTRIAN,  RL  >  2,acts-1,N,777,9,26.026,0.029044000000000014
MAXMIN|MAXMIN|BOUNDARY,prep-left-turn,W_N,>EQ  10-Y/R,LOW  SPEED,NO  PEDESTRIAN,  RL  >  2,acts-1,N,777,9,27.027,0.013819999999999999
MAXMIN|MAXMIN|BOUNDARY,prep-left-turn,W_N,>EQ  10-Y/R,LOW  SPEED,NO  PEDESTRIAN,  RL  >  2,acts-1,N,777,9,28.028,0.03411400000000003
MAXMIN|MAXMIN|BOUNDARY,prep-left-turn,W_N,>EQ  10-Y/R,LOW  SPEED,NO  PEDESTRIAN,  RL  >  2,acts-1,N,777,9,29.029,0.02130500000000002
MAXMIN|MAXMIN|BOUNDARY,prep-left-turn,W_N,>EQ  10-Y/R,LOW  SPEED,NO  PEDESTRIAN,  RL  >  2,acts-1,N,777,9,30.03,0.057923999999999976
MAXMIN|MAXMIN|BOUNDARY,prep-left-turn,W_N,>EQ  10-Y/R,LOW  SPEED,NO  PEDESTRIAN,  RL  >  2,acts-1,N,777,9,31.031,0.106402
MAXMIN|MAXMIN|BOUNDARY,prep-left-turn,W_N,>EQ  10-Y/R,LOW  SPEED,NO  PEDESTRIAN,  RL  >  2,acts-1,N,777,9,32.032,0.02602199999999999
MAXMIN|MAXMIN|BOUNDARY,prep-left-turn,E_S,<10-Y/R,LOW  SPEED,NO  PEDESTRIAN,  RL  <EQ  2,acts-1,Y,777,55,39.205833,0.03490900000000008
MAXMIN|MAXMIN|BOUNDARY,prep-left-turn,E_S,<10-Y/R,LOW  SPEED,NO  PEDESTRIAN,  RL  <EQ  2,acts-1,Y,777,55,40.206833,0.5284530000000001
MAXMIN|MAXMIN|BOUNDARY,prep-left-turn,E_S,<10-Y/R,LOW  SPEED,NO  PEDESTRIAN,  RL  <EQ  2,acts-1,Y,777,55,41.207833,0.51013
MAXMIN|MAXMIN|BOUNDARY,prep-left-turn,E_S,<10-Y/R,LOW  SPEED,NO  PEDESTRIAN,  RL  <EQ  2,acts-1,Y,777,157,142.475667,0.0
MAXMIN|MAXMIN|BOUNDARY,prep-left-turn,E_S,<10-Y/R,LOW  SPEED,NO  PEDESTRIAN,  RL  <EQ  2,acts-1,Y,777,157,143.476667,0.160817
MAXMIN|MAXMIN|BOUNDARY,prep-left-turn,E_S,<10-Y/R,LOW  SPEED,NO  PEDESTRIAN,  RL  <EQ  2,acts-3,N,777,64,46.880167,0
MAXMIN|MAXMIN|BOUNDARY,prep-left-turn,E_S,<10-Y/R,LOW  SPEED,NO  PEDESTRIAN,  RL  <EQ  2,acts-3,Y,777,64,47.881167,0
MAXMIN|MAXMIN|BOUNDARY,prep-left-turn,E_S,<10-Y/R,LOW  SPEED,NO  PEDESTRIAN,  RL  <EQ  2,acts-3,N,777,64,48.882167,0
MAXMIN|MAXMIN|BOUNDARY,prep-left-turn,E_S,<10-Y/R,LOW  SPEED,NO  PEDESTRIAN,  RL  >  2,acts-1,N,777,157,144.477667,0.10471600000000003
MAXMIN|MAXMIN|BOUNDARY,prep-left-turn,E_S,<10-Y/R,LOW  SPEED,NO  PEDESTRIAN,  RL  >  2,acts-1,N,777,157,145.478667,0.19480499999999995
MAXMIN|MAXMIN|BOUNDARY,prep-left-turn,E_S,<10-Y/R,LOW  SPEED,NO  PEDESTRIAN,  RL  >  2,acts-1,N,777,157,146.479667,0.07832499999999998
MAXMIN|MAXMIN|BOUNDARY,prep-left-turn,E_S,>EQ  10-Y/R,LOW  SPEED,PEDESTRIAN,RL  0,acts-2,Y,777,65,112.445667,0.00037199999999992794
MAXMIN|MAXMIN|BOUNDARY,prep-left-turn,E_S,>EQ  10-Y/R,LOW  SPEED,PEDESTRIAN,RL  0,acts-2,Y,777,65,113.446667,0
MAXMIN|MAXMIN|BOUNDARY,prep-left-turn,E_S,>EQ  10-Y/R,LOW  SPEED,NO  PEDESTRIAN,RL  0,acts-1,Y,777,10,13.013,0
MAXMIN|MAXMIN|BOUNDARY,exec-left-turn,S_W,<10-Y/R,LOW  SPEED,PEDESTRIAN,RL  0,acts-2,Y,777,104,95.929167,0
MAXMIN|MAXMIN|BOUNDARY,exec-left-turn,S_W,<10-Y/R,LOW  SPEED,PEDESTRIAN,  RL  <EQ  2,acts-2,Y,777,104,94.928167,0
MAXMIN|MAXMIN|BOUNDARY,exec-left-turn,S_W,<10-Y/R,LOW  SPEED,PEDESTRIAN,  RL  >  2,acts-2,Y,777,104,93.927167,0.00045400000000006546
MAXMIN|MAXMIN|BOUNDARY,exec-left-turn,S_W,<10-Y/R,LOW  SPEED,NO  PEDESTRIAN,RL  0,acts-1,Y,777,7,0,0
MAXMIN|MAXMIN|BOUNDARY,exec-left-turn,S_W,<10-Y/R,LOW  SPEED,NO  PEDESTRIAN,RL  0,acts-1,Y,777,7,1.001,0
MAXMIN|MAXMIN|BOUNDARY,exec-left-turn,S_W,<10-Y/R,LOW  SPEED,NO  PEDESTRIAN,RL  0,acts-4,Y,777,6,6.006,0
MAXMIN|MAXMIN|BOUNDARY,exec-left-turn,S_W,<10-Y/R,LOW  SPEED,NO  PEDESTRIAN,RL  0,acts-4,Y,777,6,7.007,0
MAXMIN|MAXMIN|BOUNDARY,exec-left-turn,S_W,<10-Y/R,MEDIUM  SPEED,NO  PEDESTRIAN,RL  0,acts-1,Y,777,7,2.002,0
MAXMIN|MAXMIN|BOUNDARY,exec-left-turn,S_W,>EQ  10-Y/R,LOW  SPEED,PEDESTRIAN,  RL  <EQ  2,acts-2,N,777,104,87.921167,0.003518000000000021
MAXMIN|MAXMIN|BOUNDARY,exec-left-turn,S_W,>EQ  10-Y/R,LOW  SPEED,PEDESTRIAN,  RL  <EQ  2,acts-2,N,777,104,87.921167,0.003518000000000021
MAXMIN|MAXMIN|BOUNDARY,exec-left-turn,S_W,>EQ  10-Y/R,LOW  SPEED,PEDESTRIAN,  RL  >  2,acts-2,N,777,104,88.922167,0.003029999999999977
MAXMIN|MAXMIN|BOUNDARY,exec-left-turn,S_W,>EQ  10-Y/R,LOW  SPEED,PEDESTRIAN,  RL  >  2,acts-2,N,777,104,88.922167,0.003029999999999977
MAXMIN|MAXMIN|BOUNDARY,exec-left-turn,S_W,>EQ  10-Y/R,LOW  SPEED,PEDESTRIAN,  RL  >  2,acts-2,N,777,104,89.923167,0
MAXMIN|MAXMIN|BOUNDARY,exec-left-turn,S_W,>EQ  10-Y/R,LOW  SPEED,PEDESTRIAN,  RL  >  2,acts-2,Y,777,104,90.924167,0.17220099999999994
MAXMIN|MAXMIN|BOUNDARY,exec-left-turn,S_W,>EQ  10-Y/R,LOW  SPEED,PEDESTRIAN,  RL  >  2,acts-2,Y,777,104,91.925167,0.082698
MAXMIN|MAXMIN|BOUNDARY,exec-left-turn,S_W,>EQ  10-Y/R,LOW  SPEED,PEDESTRIAN,  RL  >  2,acts-2,Y,777,104,92.926167,0.00036399999999997545
MAXMIN|MAXMIN|BOUNDARY,exec-left-turn,S_W,>EQ  10-Y/R,LOW  SPEED,NO  PEDESTRIAN,RL  0,acts-1,Y,777,21,60.06,0
MAXMIN|MAXMIN|BOUNDARY,exec-left-turn,S_W,>EQ  10-Y/R,MEDIUM  SPEED,NO  PEDESTRIAN,RL  0,acts-1,Y,777,21,61.061,0
MAXMIN|MAXMIN|BOUNDARY,exec-left-turn,S_W,>EQ  10-G,LOW  SPEED,NO  PEDESTRIAN,RL  0,acts-4,Y,777,6,8.008,0.001346999999999987
MAXMIN|MAXMIN|BOUNDARY,exec-left-turn,S_W,>EQ  10-G,MEDIUM  SPEED,NO  PEDESTRIAN,RL  0,acts-4,Y,777,6,9.009,0
MAXMIN|MAXMIN|BOUNDARY,exec-left-turn,N_E,<10-Y/R,LOW  SPEED,NO  PEDESTRIAN,RL  0,acts-1,N,777,28,1.835167,0.08568500000000001
MAXMIN|MAXMIN|BOUNDARY,exec-left-turn,N_E,<10-Y/R,LOW  SPEED,NO  PEDESTRIAN,RL  0,acts-1,N,777,28,2.836167,0.07893500000000009
MAXMIN|MAXMIN|BOUNDARY,exec-left-turn,N_E,<10-Y/R,LOW  SPEED,NO  PEDESTRIAN,RL  0,acts-1,N,777,28,3.837167,0.08125300000000002
MAXMIN|MAXMIN|BOUNDARY,exec-left-turn,N_E,<10-Y/R,LOW  SPEED,NO  PEDESTRIAN,RL  0,acts-1,Y,777,28,4.838167,0.007573000000000052
MAXMIN|MAXMIN|BOUNDARY,exec-left-turn,N_E,<10-Y/R,LOW  SPEED,NO  PEDESTRIAN,RL  0,acts-1,N,777,96,93.259833,0.09107600000000005
MAXMIN|MAXMIN|BOUNDARY,exec-left-turn,N_E,<10-Y/R,LOW  SPEED,NO  PEDESTRIAN,RL  0,acts-1,N,777,96,94.260833,0.09694599999999998
MAXMIN|MAXMIN|BOUNDARY,exec-left-turn,N_E,<10-Y/R,LOW  SPEED,NO  PEDESTRIAN,RL  0,acts-1,Y,777,96,95.261833,0.01222600000000007
MAXMIN|MAXMIN|BOUNDARY,exec-left-turn,N_E,<10-Y/R,LOW  SPEED,NO  PEDESTRIAN,RL  0,acts-1,Y,777,96,96.262833,0.0033560000000000256
MAXMIN|MAXMIN|BOUNDARY,exec-left-turn,N_E,<10-Y/R,LOW  SPEED,NO  PEDESTRIAN,RL  0,acts-1,Y,777,96,99.265833,0
MAXMIN|MAXMIN|BOUNDARY,exec-left-turn,N_E,<10-Y/R,LOW  SPEED,NO  PEDESTRIAN,RL  0,acts-1,N,777,103,101.267833,0
MAXMIN|MAXMIN|BOUNDARY,exec-left-turn,N_E,<10-Y/R,LOW  SPEED,NO  PEDESTRIAN,RL  0,acts-1,Y,777,103,102.268833,0
MAXMIN|MAXMIN|BOUNDARY,exec-left-turn,N_E,<10-Y/R,LOW  SPEED,NO  PEDESTRIAN,RL  0,acts-4,Y,777,28,5.839167,0
MAXMIN|MAXMIN|BOUNDARY,exec-left-turn,N_E,<10-Y/R,LOW  SPEED,NO  PEDESTRIAN,RL  0,acts-4,Y,777,28,6.840167,0.003855000000000053
MAXMIN|MAXMIN|BOUNDARY,exec-left-turn,N_E,<10-Y/R,LOW  SPEED,NO  PEDESTRIAN,RL  0,acts-4,N,777,28,7.841167,0
MAXMIN|MAXMIN|BOUNDARY,exec-left-turn,N_E,<10-Y/R,LOW  SPEED,NO  PEDESTRIAN,RL  0,acts-4,N,777,103,103.269833,0.002571000000000101
MAXMIN|MAXMIN|BOUNDARY,exec-left-turn,N_E,<10-Y/R,LOW  SPEED,NO  PEDESTRIAN,RL  0,acts-4,N,777,103,104.270833,0
MAXMIN|MAXMIN|BOUNDARY,exec-left-turn,N_E,<10-Y/R,LOW  SPEED,NO  PEDESTRIAN,RL  0,acts-4,Y,777,103,105.271833,0
MAXMIN|MAXMIN|BOUNDARY,exec-left-turn,N_E,<10-Y/R,LOW  SPEED,NO  PEDESTRIAN,RL  0,acts-4,Y,777,103,106.272833,0
MAXMIN|MAXMIN|BOUNDARY,exec-left-turn,N_E,<10-Y/R,LOW  SPEED,NO  PEDESTRIAN,RL  0,acts-4,Y,777,103,107.273833,0
MAXMIN|MAXMIN|BOUNDARY,exec-left-turn,N_E,<10-Y/R,LOW  SPEED,NO  PEDESTRIAN,RL  0,acts-4,Y,777,103,108.274833,0
MAXMIN|MAXMIN|BOUNDARY,exec-left-turn,N_E,<10-Y/R,MEDIUM  SPEED,NO  PEDESTRIAN,RL  0,acts-1,Y,777,96,100.266833,0
MAXMIN|MAXMIN|BOUNDARY,exec-left-turn,N_E,>EQ  10-Y/R,LOW  SPEED,NO  PEDESTRIAN,RL  0,acts-1,Y,777,71,71.738333,0
MAXMIN|MAXMIN|BOUNDARY,exec-left-turn,N_E,>EQ  10-Y/R,LOW  SPEED,NO  PEDESTRIAN,RL  0,acts-1,Y,777,71,72.739333,0
MAXMIN|MAXMIN|BOUNDARY,exec-left-turn,N_E,>EQ  10-Y/R,LOW  SPEED,NO  PEDESTRIAN,RL  0,acts-1,Y,777,71,73.740333,0.00012799999999990597
MAXMIN|MAXMIN|BOUNDARY,exec-left-turn,N_E,>EQ  10-Y/R,LOW  SPEED,NO  PEDESTRIAN,RL  0,acts-1,N,777,96,84.250833,0.056786
MAXMIN|MAXMIN|BOUNDARY,exec-left-turn,N_E,>EQ  10-Y/R,LOW  SPEED,NO  PEDESTRIAN,RL  0,acts-1,N,777,96,85.251833,0.07428100000000004
MAXMIN|MAXMIN|BOUNDARY,exec-left-turn,N_E,>EQ  10-Y/R,LOW  SPEED,NO  PEDESTRIAN,RL  0,acts-1,N,777,96,86.252833,0
MAXMIN|MAXMIN|BOUNDARY,exec-left-turn,N_E,>EQ  10-Y/R,LOW  SPEED,NO  PEDESTRIAN,RL  0,acts-1,N,777,96,87.253833,0
MAXMIN|MAXMIN|BOUNDARY,exec-left-turn,N_E,>EQ  10-Y/R,LOW  SPEED,NO  PEDESTRIAN,RL  0,acts-1,N,777,96,88.254833,0.0036039999999999406
MAXMIN|MAXMIN|BOUNDARY,exec-left-turn,N_E,>EQ  10-Y/R,LOW  SPEED,NO  PEDESTRIAN,RL  0,acts-1,N,777,96,91.257833,0.0697859999999999
MAXMIN|MAXMIN|BOUNDARY,exec-left-turn,N_E,>EQ  10-Y/R,LOW  SPEED,NO  PEDESTRIAN,RL  0,acts-1,N,777,96,92.258833,0.07738800000000001
MAXMIN|MAXMIN|BOUNDARY,exec-left-turn,N_E,>EQ  10-Y/R,LOW  SPEED,NO  PEDESTRIAN,RL  0,acts-5,N,777,96,89.255833,0.08122499999999999
MAXMIN|MAXMIN|BOUNDARY,exec-left-turn,N_E,>EQ  10-Y/R,LOW  SPEED,NO  PEDESTRIAN,RL  0,acts-5,N,777,96,90.256833,0.07222899999999999
MAXMIN|MAXMIN|BOUNDARY,exec-left-turn,N_E,>EQ  10-Y/R,MEDIUM  SPEED,NO  PEDESTRIAN,RL  0,acts-1,Y,777,71,74.741333,0
MAXMIN|MAXMIN|BOUNDARY,exec-left-turn,N_E,>EQ  10-Y/R,MEDIUM  SPEED,NO  PEDESTRIAN,RL  0,acts-1,Y,777,71,75.742333,0.0036439999999999806
MAXMIN|MAXMIN|BOUNDARY,exec-left-turn,N_E,>EQ  10-G,LOW  SPEED,NO  PEDESTRIAN,RL  0,acts-4,Y,777,28,8.842167,0
MAXMIN|MAXMIN|BOUNDARY,exec-left-turn,N_E,>EQ  10-G,MEDIUM  SPEED,NO  PEDESTRIAN,RL  0,acts-4,Y,777,28,9.843167,0.0005729999999999347
MAXMIN|MAXMIN|BOUNDARY,exec-left-turn,N_E,>EQ  10-G,MEDIUM  SPEED,NO  PEDESTRIAN,RL  0,acts-4,Y,777,103,109.275833,0.0008409999999999807
MAXMIN|MAXMIN|BOUNDARY,exec-left-turn,N_E,>EQ  10-G,MEDIUM  SPEED,NO  PEDESTRIAN,RL  0,acts-4,Y,777,103,110.276833,0
MAXMIN|MAXMIN|BOUNDARY,exec-left-turn,W_N,<10-Y/R,LOW  SPEED,NO  PEDESTRIAN,RL  0,acts-1,Y,777,9,45.045,0.001879000000000075
MAXMIN|MAXMIN|BOUNDARY,exec-left-turn,W_N,<10-Y/R,LOW  SPEED,NO  PEDESTRIAN,RL  0,acts-1,Y,777,9,46.046,0
MAXMIN|MAXMIN|BOUNDARY,exec-left-turn,W_N,<10-Y/R,LOW  SPEED,NO  PEDESTRIAN,RL  0,acts-4,Y,777,156,151.484667,0
MAXMIN|MAXMIN|BOUNDARY,exec-left-turn,W_N,<10-Y/R,LOW  SPEED,NO  PEDESTRIAN,RL  0,acts-4,Y,777,156,152.485667,0
MAXMIN|MAXMIN|BOUNDARY,exec-left-turn,W_N,<10-Y/R,LOW  SPEED,NO  PEDESTRIAN,RL  0,acts-4,Y,777,156,153.486667,0
MAXMIN|MAXMIN|BOUNDARY,exec-left-turn,W_N,<10-Y/R,LOW  SPEED,NO  PEDESTRIAN,RL  0,acts-4,Y,777,156,154.487667,0
MAXMIN|MAXMIN|BOUNDARY,exec-left-turn,W_N,<10-Y/R,LOW  SPEED,NO  PEDESTRIAN,  RL  >  2,acts-1,N,777,156,143.476667,0.0
MAXMIN|MAXMIN|BOUNDARY,exec-left-turn,W_N,<10-Y/R,LOW  SPEED,NO  PEDESTRIAN,  RL  >  2,acts-1,N,777,156,144.477667,0.02509
MAXMIN|MAXMIN|BOUNDARY,exec-left-turn,W_N,<10-Y/R,LOW  SPEED,NO  PEDESTRIAN,  RL  >  2,acts-1,N,777,156,145.478667,0.017309999999999992
MAXMIN|MAXMIN|BOUNDARY,exec-left-turn,W_N,<10-Y/R,LOW  SPEED,NO  PEDESTRIAN,  RL  >  2,acts-1,N,777,156,146.479667,0.04577400000000004
MAXMIN|MAXMIN|BOUNDARY,exec-left-turn,W_N,<10-Y/R,LOW  SPEED,NO  PEDESTRIAN,  RL  >  2,acts-1,N,777,156,147.480667,0
MAXMIN|MAXMIN|BOUNDARY,exec-left-turn,W_N,<10-Y/R,LOW  SPEED,NO  PEDESTRIAN,  RL  >  2,acts-1,N,777,156,148.481667,0
MAXMIN|MAXMIN|BOUNDARY,exec-left-turn,W_N,<10-Y/R,MEDIUM  SPEED,NO  PEDESTRIAN,RL  0,acts-1,Y,777,9,47.047,0
MAXMIN|MAXMIN|BOUNDARY,exec-left-turn,W_N,>EQ  10-Y/R,LOW  SPEED,NO  PEDESTRIAN,RL  0,acts-1,Y,777,8,13.013,0.0007049999999999557
MAXMIN|MAXMIN|BOUNDARY,exec-left-turn,W_N,>EQ  10-Y/R,LOW  SPEED,NO  PEDESTRIAN,  RL  <EQ  2,acts-1,N,777,18,19.019,0.0011590000000000211
MAXMIN|MAXMIN|BOUNDARY,exec-left-turn,W_N,>EQ  10-Y/R,MEDIUM  SPEED,NO  PEDESTRIAN,RL  0,acts-1,Y,777,8,14.014,0.0009540000000000104
MAXMIN|MAXMIN|BOUNDARY,exec-left-turn,W_N,>EQ  10-Y/R,MEDIUM  SPEED,NO  PEDESTRIAN,RL  0,acts-1,N,777,8,15.015,0.02092000000000005
MAXMIN|MAXMIN|BOUNDARY,exec-left-turn,W_N,>EQ  10-Y/R,MEDIUM  SPEED,NO  PEDESTRIAN,RL  0,acts-1,N,777,2,17.017,0.018034999999999912
MAXMIN|MAXMIN|BOUNDARY,exec-left-turn,E_S,<10-Y/R,LOW  SPEED,NO  PEDESTRIAN,RL  0,acts-4,Y,777,55,49.215833,0
MAXMIN|MAXMIN|BOUNDARY,exec-left-turn,E_S,<10-Y/R,LOW  SPEED,NO  PEDESTRIAN,RL  0,acts-4,Y,777,55,50.216833,0.0005110000000000392
MAXMIN|MAXMIN|BOUNDARY,exec-left-turn,E_S,<10-Y/R,LOW  SPEED,NO  PEDESTRIAN,RL  0,acts-4,Y,777,55,51.217833,0
MAXMIN|MAXMIN|BOUNDARY,exec-left-turn,E_S,<10-Y/R,LOW  SPEED,NO  PEDESTRIAN,RL  0,acts-4,Y,777,157,153.486667,0
MAXMIN|MAXMIN|BOUNDARY,exec-left-turn,E_S,<10-Y/R,LOW  SPEED,NO  PEDESTRIAN,RL  0,acts-4,Y,777,157,154.487667,0
MAXMIN|MAXMIN|BOUNDARY,exec-left-turn,E_S,<10-Y/R,LOW  SPEED,NO  PEDESTRIAN,RL  0,acts-4,Y,777,157,155.488667,0
MAXMIN|MAXMIN|BOUNDARY,exec-left-turn,E_S,<10-Y/R,LOW  SPEED,NO  PEDESTRIAN,  RL  <EQ  2,acts-1,N,777,55,42.208833,0
MAXMIN|MAXMIN|BOUNDARY,exec-left-turn,E_S,<10-Y/R,LOW  SPEED,NO  PEDESTRIAN,  RL  <EQ  2,acts-1,Y,777,55,43.209833,0.001817000000000013
MAXMIN|MAXMIN|BOUNDARY,exec-left-turn,E_S,<10-Y/R,LOW  SPEED,NO  PEDESTRIAN,  RL  <EQ  2,acts-1,Y,777,55,44.210833,0.0010899999999999799
MAXMIN|MAXMIN|BOUNDARY,exec-left-turn,E_S,>EQ  10-Y/R,LOW  SPEED,PEDESTRIAN,RL  0,acts-2,Y,777,65,114.447667,0
MAXMIN|MAXMIN|BOUNDARY,exec-left-turn,E_S,>EQ  10-Y/R,LOW  SPEED,PEDESTRIAN,RL  0,acts-2,Y,777,65,115.448667,0.00035600000000002296
MAXMIN|MAXMIN|BOUNDARY,exec-left-turn,E_S,>EQ  10-Y/R,LOW  SPEED,NO  PEDESTRIAN,RL  0,acts-1,N,777,10,14.014,0
MAXMIN|MAXMIN|BOUNDARY,exec-left-turn,E_S,>EQ  10-Y/R,LOW  SPEED,NO  PEDESTRIAN,RL  0,acts-1,Y,777,10,15.015,1.6999999999933735e-05
MAXMIN|MAXMIN|BOUNDARY,exec-left-turn,E_S,>EQ  10-Y/R,LOW  SPEED,NO  PEDESTRIAN,RL  0,acts-1,Y,777,10,16.016,1.0000000000065512e-05
MAXMIN|MAXMIN|BOUNDARY,exec-left-turn,E_S,>EQ  10-Y/R,LOW  SPEED,NO  PEDESTRIAN,RL  0,acts-1,N,777,5,21.021,0
MAXMIN|MAXMIN|BOUNDARY,exec-left-turn,E_S,>EQ  10-Y/R,LOW  SPEED,NO  PEDESTRIAN,RL  0,acts-5,N,777,31,18.351667,0.020665999999999962
MAXMIN|MAXMIN|BOUNDARY,exec-left-turn,E_S,>EQ  10-Y/R,LOW  SPEED,NO  PEDESTRIAN,  RL  <EQ  2,acts-1,Y,777,5,19.019,0.009186999999999945
MAXMIN|MAXMIN|BOUNDARY,exec-left-turn,E_S,>EQ  10-Y/R,LOW  SPEED,NO  PEDESTRIAN,  RL  <EQ  2,acts-1,Y,777,5,20.02,0
MAXMIN|MAXMIN|BOUNDARY,exec-left-turn,E_S,>EQ  10-Y/R,MEDIUM  SPEED,PEDESTRIAN,RL  0,acts-2,N,777,65,116.449667,0.0
MAXMIN|MAXMIN|BOUNDARY,exec-left-turn,E_S,>EQ  10-Y/R,MEDIUM  SPEED,PEDESTRIAN,RL  0,acts-2,N,777,65,116.449667,0.0
MAXMIN|MAXMIN|BOUNDARY,exec-left-turn,E_S,>EQ  10-Y/R,MEDIUM  SPEED,NO  PEDESTRIAN,RL  0,acts-1,Y,777,10,17.017,0.009021999999999974
MAXMIN|MAXMIN|BOUNDARY,exec-left-turn,E_S,>EQ  10-G,LOW  SPEED,NO  PEDESTRIAN,RL  0,acts-4,Y,777,64,53.887167,0
MAXMIN|MAXMIN|BOUNDARY,exec-left-turn,E_S,>EQ  10-G,LOW  SPEED,NO  PEDESTRIAN,RL  0,acts-4,Y,777,64,54.888167,0.0009019999999999584
MAXMIN|MAXMIN|BOUNDARY,OTHER  LANES,W_S,<10-Y/R,LOW  SPEED,NO  PEDESTRIAN,RL  0,acts-6,Y,777,174,150.984167,0.04289799999999999
MAXMIN|MAXMIN|BOUNDARY,OTHER  LANES,W_S,<10-Y/R,LOW  SPEED,NO  PEDESTRIAN,  RL  <EQ  2,acts-6,Y,777,59,40.373667,0.0
MAXMIN|MAXMIN|BOUNDARY,OTHER  LANES,W_S,<10-Y/R,LOW  SPEED,NO  PEDESTRIAN,  RL  <EQ  2,acts-6,N,777,59,41.374667,0
MAXMIN|MAXMIN|BOUNDARY,OTHER  LANES,W_S,<10-Y/R,LOW  SPEED,NO  PEDESTRIAN,  RL  >  2,acts-6,Y,777,59,42.375667,0
MAXMIN|MAXMIN|BOUNDARY,OTHER  LANES,W_S,<10-Y/R,MEDIUM  SPEED,NO  PEDESTRIAN,RL  0,acts-6,Y,777,174,149.983167,0.047032000000000074
MAXMIN|MAXMIN|BOUNDARY,OTHER  LANES,W_S,<10-G,LOW  SPEED,PEDESTRIAN,RL  0,acts-7,N,777,111,117.6175,0.03849400000000003
MAXMIN|MAXMIN|BOUNDARY,OTHER  LANES,W_S,<10-G,LOW  SPEED,PEDESTRIAN,RL  0,acts-7,N,777,111,118.6185,0.038717
MAXMIN|MAXMIN|BOUNDARY,OTHER  LANES,W_S,>EQ  10-Y/R,LOW  SPEED,PEDESTRIAN,RL  0,acts-7,N,777,111,119.6195,0
MAXMIN|MAXMIN|BOUNDARY,OTHER  LANES,W_S,>EQ  10-Y/R,LOW  SPEED,PEDESTRIAN,RL  0,acts-7,Y,777,111,120.6205,1.0999999999983245e-05
MAXMIN|MAXMIN|BOUNDARY,OTHER  LANES,W_S,>EQ  10-Y/R,LOW  SPEED,PEDESTRIAN,RL  0,acts-7,Y,777,111,121.6215,0
MAXMIN|MAXMIN|BOUNDARY,OTHER  LANES,W_S,>EQ  10-Y/R,LOW  SPEED,NO  PEDESTRIAN,RL  0,acts-6,Y,777,42,24.5245,0.03838799999999998
MAXMIN|MAXMIN|BOUNDARY,OTHER  LANES,W_S,>EQ  10-Y/R,LOW  SPEED,NO  PEDESTRIAN,RL  0,acts-6,Y,777,47,26.192833,0
MAXMIN|MAXMIN|BOUNDARY,OTHER  LANES,W_S,>EQ  10-Y/R,LOW  SPEED,NO  PEDESTRIAN,RL  0,acts-6,N,777,47,27.193833,0.0
MAXMIN|MAXMIN|BOUNDARY,OTHER  LANES,W_S,>EQ  10-Y/R,LOW  SPEED,NO  PEDESTRIAN,RL  0,acts-6,Y,777,47,28.194833,0.023702
MAXMIN|MAXMIN|BOUNDARY,OTHER  LANES,W_S,>EQ  10-Y/R,LOW  SPEED,NO  PEDESTRIAN,RL  0,acts-6,Y,777,47,29.195833,0.041744
MAXMIN|MAXMIN|BOUNDARY,OTHER  LANES,W_S,>EQ  10-Y/R,LOW  SPEED,NO  PEDESTRIAN,RL  0,acts-6,Y,777,47,30.196833,0.045467000000000035
MAXMIN|MAXMIN|BOUNDARY,OTHER  LANES,W_S,>EQ  10-Y/R,LOW  SPEED,NO  PEDESTRIAN,RL  0,acts-6,N,777,47,31.197833,0.03395399999999993
MAXMIN|MAXMIN|BOUNDARY,OTHER  LANES,W_S,>EQ  10-Y/R,LOW  SPEED,NO  PEDESTRIAN,  RL  <EQ  2,acts-6,Y,777,42,19.5195,0.027496999999999994
MAXMIN|MAXMIN|BOUNDARY,OTHER  LANES,W_S,>EQ  10-Y/R,LOW  SPEED,NO  PEDESTRIAN,  RL  <EQ  2,acts-6,N,777,42,20.5205,0.015300999999999898
MAXMIN|MAXMIN|BOUNDARY,OTHER  LANES,W_S,>EQ  10-Y/R,LOW  SPEED,NO  PEDESTRIAN,  RL  <EQ  2,acts-6,Y,777,42,21.5215,0.0
MAXMIN|MAXMIN|BOUNDARY,OTHER  LANES,W_S,>EQ  10-G,LOW  SPEED,PEDESTRIAN,RL  0,acts-7,Y,777,99,103.103,0.0010459999999999914
MAXMIN|MAXMIN|BOUNDARY,OTHER  LANES,W_S,>EQ  10-G,LOW  SPEED,PEDESTRIAN,RL  0,acts-7,N,777,111,105.6055,0.004464999999999941
MAXMIN|MAXMIN|BOUNDARY,OTHER  LANES,W_S,>EQ  10-G,LOW  SPEED,PEDESTRIAN,RL  0,acts-7,N,777,111,106.6065,0.03813700000000009
MAXMIN|MAXMIN|BOUNDARY,OTHER  LANES,W_S,>EQ  10-G,LOW  SPEED,PEDESTRIAN,RL  0,acts-7,N,777,111,107.6075,0.043041999999999914
MAXMIN|MAXMIN|BOUNDARY,OTHER  LANES,W_S,>EQ  10-G,LOW  SPEED,PEDESTRIAN,RL  0,acts-7,Y,777,111,108.6085,0.044292
MAXMIN|MAXMIN|BOUNDARY,OTHER  LANES,W_S,>EQ  10-G,LOW  SPEED,PEDESTRIAN,  RL  <EQ  2,acts-7,N,777,99,100.1,0.00019299999999999873
MAXMIN|MAXMIN|BOUNDARY,OTHER  LANES,W_S,>EQ  10-G,LOW  SPEED,PEDESTRIAN,  RL  <EQ  2,acts-7,Y,777,99,101.101,0
MAXMIN|MAXMIN|BOUNDARY,OTHER  LANES,W_S,>EQ  10-G,LOW  SPEED,PEDESTRIAN,  RL  <EQ  2,acts-7,Y,777,99,102.102,0.0016299999999999093
MAXMIN|MAXMIN|BOUNDARY,OTHER  LANES,W_S,>EQ  10-G,LOW  SPEED,PEDESTRIAN,  RL  <EQ  2,acts-7,Y,777,99,88.088,0
MAXMIN|MAXMIN|BOUNDARY,OTHER  LANES,W_S,>EQ  10-G,LOW  SPEED,PEDESTRIAN,  RL  <EQ  2,acts-7,N,777,99,95.095,0.0022690000000000765
MAXMIN|MAXMIN|BOUNDARY,OTHER  LANES,W_S,>EQ  10-G,LOW  SPEED,PEDESTRIAN,  RL  <EQ  2,acts-7,N,777,99,96.096,0.0017740000000000533
MAXMIN|MAXMIN|BOUNDARY,OTHER  LANES,W_S,>EQ  10-G,LOW  SPEED,PEDESTRIAN,  RL  <EQ  2,acts-7,N,777,99,97.097,0.0025500000000000522
MAXMIN|MAXMIN|BOUNDARY,OTHER  LANES,W_S,>EQ  10-G,LOW  SPEED,PEDESTRIAN,  RL  <EQ  2,acts-7,N,777,99,98.098,0.0024080000000000767
MAXMIN|MAXMIN|BOUNDARY,OTHER  LANES,W_S,>EQ  10-G,LOW  SPEED,PEDESTRIAN,  RL  <EQ  2,acts-7,N,777,99,99.099,0.0023290000000000255
MAXMIN|MAXMIN|BOUNDARY,OTHER  LANES,W_S,>EQ  10-G,LOW  SPEED,PEDESTRIAN,  RL  >  2,acts-7,Y,777,85,71.5715,0
MAXMIN|MAXMIN|BOUNDARY,OTHER  LANES,W_S,>EQ  10-G,LOW  SPEED,PEDESTRIAN,  RL  >  2,acts-7,N,777,99,89.089,0.005963000000000052
MAXMIN|MAXMIN|BOUNDARY,OTHER  LANES,W_S,>EQ  10-G,LOW  SPEED,PEDESTRIAN,  RL  >  2,acts-7,Y,777,99,90.09,0.00497000000000003
MAXMIN|MAXMIN|BOUNDARY,OTHER  LANES,W_S,>EQ  10-G,LOW  SPEED,PEDESTRIAN,  RL  >  2,acts-7,N,777,99,91.091,0.0
MAXMIN|MAXMIN|BOUNDARY,OTHER  LANES,W_S,>EQ  10-G,LOW  SPEED,PEDESTRIAN,  RL  >  2,acts-7,N,777,99,92.092,0.00038800000000005497
MAXMIN|MAXMIN|BOUNDARY,OTHER  LANES,W_S,>EQ  10-G,LOW  SPEED,PEDESTRIAN,  RL  >  2,acts-7,N,777,99,93.093,0.0025530000000000275
MAXMIN|MAXMIN|BOUNDARY,OTHER  LANES,W_S,>EQ  10-G,LOW  SPEED,PEDESTRIAN,  RL  >  2,acts-7,N,777,99,94.094,4.000000000004e-06
MAXMIN|MAXMIN|BOUNDARY,OTHER  LANES,W_S,>EQ  10-G,LOW  SPEED,NO  PEDESTRIAN,RL  0,acts-6,N,777,16,0,0
MAXMIN|MAXMIN|BOUNDARY,OTHER  LANES,W_S,>EQ  10-G,LOW  SPEED,NO  PEDESTRIAN,RL  0,acts-6,N,777,16,1.001,0
MAXMIN|MAXMIN|BOUNDARY,OTHER  LANES,W_S,>EQ  10-G,LOW  SPEED,NO  PEDESTRIAN,RL  0,acts-6,N,777,16,2.002,0.03953099999999998
MAXMIN|MAXMIN|BOUNDARY,OTHER  LANES,W_S,>EQ  10-G,LOW  SPEED,NO  PEDESTRIAN,RL  0,acts-6,N,777,19,6.006,0.04382600000000003
MAXMIN|MAXMIN|BOUNDARY,OTHER  LANES,W_S,>EQ  10-G,LOW  SPEED,NO  PEDESTRIAN,RL  0,acts-6,N,777,19,7.007,0.0005600000000000049
MAXMIN|MAXMIN|BOUNDARY,OTHER  LANES,W_S,>EQ  10-G,LOW  SPEED,NO  PEDESTRIAN,RL  0,acts-6,Y,777,69,54.888167,0.020539000000000085
MAXMIN|MAXMIN|BOUNDARY,OTHER  LANES,W_S,>EQ  10-G,LOW  SPEED,NO  PEDESTRIAN,RL  0,acts-6,Y,777,69,55.889167,0.04203900000000005
MAXMIN|MAXMIN|BOUNDARY,OTHER  LANES,W_S,>EQ  10-G,LOW  SPEED,NO  PEDESTRIAN,RL  0,acts-6,Y,777,69,56.890167,0.04053499999999999
MAXMIN|MAXMIN|BOUNDARY,OTHER  LANES,W_S,>EQ  10-G,LOW  SPEED,NO  PEDESTRIAN,RL  0,acts-6,Y,777,69,57.891167,0.04099000000000008
MAXMIN|MAXMIN|BOUNDARY,OTHER  LANES,W_S,>EQ  10-G,LOW  SPEED,NO  PEDESTRIAN,RL  0,acts-6,Y,777,69,58.892167,0
MAXMIN|MAXMIN|BOUNDARY,OTHER  LANES,W_S,>EQ  10-G,LOW  SPEED,NO  PEDESTRIAN,RL  0,acts-6,Y,777,69,59.893167,0.0050520000000000564
MAXMIN|MAXMIN|BOUNDARY,OTHER  LANES,W_S,>EQ  10-G,LOW  SPEED,NO  PEDESTRIAN,  RL  >  2,acts-6,Y,777,85,68.5685,0.0
MAXMIN|MAXMIN|BOUNDARY,OTHER  LANES,W_S,>EQ  10-G,LOW  SPEED,NO  PEDESTRIAN,  RL  >  2,acts-6,Y,777,85,69.5695,2.4000000000024002e-05
MAXMIN|MAXMIN|BOUNDARY,OTHER  LANES,W_S,>EQ  10-G,LOW  SPEED,NO  PEDESTRIAN,  RL  >  2,acts-6,Y,777,85,70.5705,0
MAXMIN|MAXMIN|BOUNDARY,OTHER  LANES,W_S,>EQ  10-G,MEDIUM  SPEED,NO  PEDESTRIAN,RL  0,acts-6,Y,777,69,53.887167,0.0
MAXMIN|MAXMIN|BOUNDARY,OTHER  LANES,W_S,>EQ  10-G,MEDIUM  SPEED,NO  PEDESTRIAN,  RL  >  2,acts-6,N,777,85,66.5665,0.0
MAXMIN|MAXMIN|BOUNDARY,OTHER  LANES,W_S,>EQ  10-G,MEDIUM  SPEED,NO  PEDESTRIAN,  RL  >  2,acts-6,Y,777,85,67.5675,0.0006850000000000467
MAXMIN|MAXMIN|BOUNDARY,OTHER  LANES,S_W,<10-G,LOW  SPEED,NO  PEDESTRIAN,RL  0,acts-8,N,777,26,46.5465,0.0
MAXMIN|MAXMIN|BOUNDARY,OTHER  LANES,S_W,<10-G,LOW  SPEED,NO  PEDESTRIAN,RL  0,acts-8,N,777,26,47.5475,0
MAXMIN|MAXMIN|BOUNDARY,OTHER  LANES,S_W,<10-G,LOW  SPEED,NO  PEDESTRIAN,RL  0,acts-8,N,777,26,48.5485,0
MAXMIN|MAXMIN|BOUNDARY,OTHER  LANES,S_W,<10-G,LOW  SPEED,NO  PEDESTRIAN,RL  0,acts-8,N,777,26,49.5495,0.0
MAXMIN|MAXMIN|BOUNDARY,OTHER  LANES,S_W,<10-G,LOW  SPEED,NO  PEDESTRIAN,RL  0,acts-8,N,777,26,50.5505,0.0
MAXMIN|MAXMIN|BOUNDARY,OTHER  LANES,S_W,<10-G,LOW  SPEED,NO  PEDESTRIAN,RL  0,acts-8,N,777,26,51.5515,0.0
MAXMIN|MAXMIN|BOUNDARY,OTHER  LANES,S_W,<10-G,LOW  SPEED,NO  PEDESTRIAN,RL  0,acts-8,N,777,26,52.5525,0.0
MAXMIN|MAXMIN|BOUNDARY,OTHER  LANES,S_W,<10-G,LOW  SPEED,NO  PEDESTRIAN,RL  0,acts-8,N,777,26,53.5535,0.0
MAXMIN|MAXMIN|BOUNDARY,OTHER  LANES,S_W,<10-G,LOW  SPEED,NO  PEDESTRIAN,RL  0,acts-8,N,777,26,54.5545,0
MAXMIN|MAXMIN|BOUNDARY,OTHER  LANES,S_W,<10-G,LOW  SPEED,NO  PEDESTRIAN,RL  0,acts-8,N,777,26,55.5555,0.0
MAXMIN|MAXMIN|BOUNDARY,OTHER  LANES,S_W,<10-G,LOW  SPEED,NO  PEDESTRIAN,RL  0,acts-8,N,777,150,146.146,0
MAXMIN|MAXMIN|BOUNDARY,OTHER  LANES,S_W,<10-G,LOW  SPEED,NO  PEDESTRIAN,RL  0,acts-8,N,777,150,147.147,0.0
MAXMIN|MAXMIN|BOUNDARY,OTHER  LANES,S_W,<10-G,LOW  SPEED,NO  PEDESTRIAN,RL  0,acts-8,N,777,150,148.148,0.0
MAXMIN|MAXMIN|BOUNDARY,OTHER  LANES,S_W,<10-G,LOW  SPEED,NO  PEDESTRIAN,RL  0,acts-8,N,777,150,149.149,0.0
MAXMIN|MAXMIN|BOUNDARY,OTHER  LANES,S_W,<10-G,LOW  SPEED,NO  PEDESTRIAN,RL  0,acts-8,N,777,150,150.15,0
MAXMIN|MAXMIN|BOUNDARY,OTHER  LANES,S_W,<10-G,LOW  SPEED,NO  PEDESTRIAN,RL  0,acts-8,N,777,150,151.151,0
MAXMIN|MAXMIN|BOUNDARY,OTHER  LANES,S_W,<10-G,LOW  SPEED,NO  PEDESTRIAN,RL  0,acts-8,N,777,150,152.152,0
MAXMIN|MAXMIN|BOUNDARY,OTHER  LANES,S_W,<10-G,LOW  SPEED,NO  PEDESTRIAN,RL  0,acts-8,N,777,150,153.153,0
MAXMIN|MAXMIN|BOUNDARY,OTHER  LANES,S_W,<10-G,LOW  SPEED,NO  PEDESTRIAN,RL  0,acts-8,N,777,150,154.154,0.0
MAXMIN|MAXMIN|BOUNDARY,OTHER  LANES,S_W,<10-G,LOW  SPEED,NO  PEDESTRIAN,RL  0,acts-8,N,777,150,155.155,0.0
MAXMIN|MAXMIN|BOUNDARY,OTHER  LANES,S_W,>EQ  10-G,LOW  SPEED,NO  PEDESTRIAN,RL  0,acts-8,N,777,26,10.5105,0.0
MAXMIN|MAXMIN|BOUNDARY,OTHER  LANES,S_W,>EQ  10-G,LOW  SPEED,NO  PEDESTRIAN,RL  0,acts-8,N,777,26,11.5115,0.0
MAXMIN|MAXMIN|BOUNDARY,OTHER  LANES,S_W,>EQ  10-G,LOW  SPEED,NO  PEDESTRIAN,RL  0,acts-8,N,777,26,12.5125,0.0
MAXMIN|MAXMIN|BOUNDARY,OTHER  LANES,S_W,>EQ  10-G,LOW  SPEED,NO  PEDESTRIAN,RL  0,acts-8,N,777,26,13.5135,0
MAXMIN|MAXMIN|BOUNDARY,OTHER  LANES,S_W,>EQ  10-G,LOW  SPEED,NO  PEDESTRIAN,RL  0,acts-8,N,777,26,14.5145,0.0
MAXMIN|MAXMIN|BOUNDARY,OTHER  LANES,S_W,>EQ  10-G,LOW  SPEED,NO  PEDESTRIAN,RL  0,acts-8,N,777,26,15.5155,0
MAXMIN|MAXMIN|BOUNDARY,OTHER  LANES,S_W,>EQ  10-G,LOW  SPEED,NO  PEDESTRIAN,RL  0,acts-8,N,777,26,16.5165,0.0
MAXMIN|MAXMIN|BOUNDARY,OTHER  LANES,S_W,>EQ  10-G,LOW  SPEED,NO  PEDESTRIAN,RL  0,acts-8,N,777,26,17.5175,0.0
MAXMIN|MAXMIN|BOUNDARY,OTHER  LANES,S_W,>EQ  10-G,LOW  SPEED,NO  PEDESTRIAN,RL  0,acts-8,N,777,26,18.5185,0.0
MAXMIN|MAXMIN|BOUNDARY,OTHER  LANES,S_W,>EQ  10-G,LOW  SPEED,NO  PEDESTRIAN,RL  0,acts-8,N,777,26,19.5195,0.0
MAXMIN|MAXMIN|BOUNDARY,OTHER  LANES,S_W,>EQ  10-G,LOW  SPEED,NO  PEDESTRIAN,RL  0,acts-8,N,777,26,20.5205,0.0
MAXMIN|MAXMIN|BOUNDARY,OTHER  LANES,S_W,>EQ  10-G,LOW  SPEED,NO  PEDESTRIAN,RL  0,acts-8,N,777,26,21.5215,0
MAXMIN|MAXMIN|BOUNDARY,OTHER  LANES,S_W,>EQ  10-G,LOW  SPEED,NO  PEDESTRIAN,RL  0,acts-8,N,777,26,22.5225,0.0
MAXMIN|MAXMIN|BOUNDARY,OTHER  LANES,S_W,>EQ  10-G,LOW  SPEED,NO  PEDESTRIAN,RL  0,acts-8,N,777,26,23.5235,0.0
MAXMIN|MAXMIN|BOUNDARY,OTHER  LANES,S_W,>EQ  10-G,LOW  SPEED,NO  PEDESTRIAN,RL  0,acts-8,N,777,26,24.5245,0.0
MAXMIN|MAXMIN|BOUNDARY,OTHER  LANES,S_W,>EQ  10-G,LOW  SPEED,NO  PEDESTRIAN,RL  0,acts-8,N,777,26,25.5255,0.0
MAXMIN|MAXMIN|BOUNDARY,OTHER  LANES,S_W,>EQ  10-G,LOW  SPEED,NO  PEDESTRIAN,RL  0,acts-8,N,777,26,26.5265,0.0
MAXMIN|MAXMIN|BOUNDARY,OTHER  LANES,S_W,>EQ  10-G,LOW  SPEED,NO  PEDESTRIAN,RL  0,acts-8,N,777,26,27.5275,0
MAXMIN|MAXMIN|BOUNDARY,OTHER  LANES,S_W,>EQ  10-G,LOW  SPEED,NO  PEDESTRIAN,RL  0,acts-8,N,777,26,28.5285,0.0
MAXMIN|MAXMIN|BOUNDARY,OTHER  LANES,S_W,>EQ  10-G,LOW  SPEED,NO  PEDESTRIAN,RL  0,acts-8,N,777,26,29.5295,0
MAXMIN|MAXMIN|BOUNDARY,OTHER  LANES,S_W,>EQ  10-G,LOW  SPEED,NO  PEDESTRIAN,RL  0,acts-8,N,777,26,30.5305,0.0
MAXMIN|MAXMIN|BOUNDARY,OTHER  LANES,S_W,>EQ  10-G,LOW  SPEED,NO  PEDESTRIAN,RL  0,acts-8,N,777,26,31.5315,0.0
MAXMIN|MAXMIN|BOUNDARY,OTHER  LANES,S_W,>EQ  10-G,LOW  SPEED,NO  PEDESTRIAN,RL  0,acts-8,N,777,26,32.5325,0.0
MAXMIN|MAXMIN|BOUNDARY,OTHER  LANES,S_W,>EQ  10-G,LOW  SPEED,NO  PEDESTRIAN,RL  0,acts-8,N,777,26,33.5335,0.0
MAXMIN|MAXMIN|BOUNDARY,OTHER  LANES,S_W,>EQ  10-G,LOW  SPEED,NO  PEDESTRIAN,RL  0,acts-8,N,777,26,34.5345,0.0
MAXMIN|MAXMIN|BOUNDARY,OTHER  LANES,S_W,>EQ  10-G,LOW  SPEED,NO  PEDESTRIAN,RL  0,acts-8,N,777,26,35.5355,0.0
MAXMIN|MAXMIN|BOUNDARY,OTHER  LANES,S_W,>EQ  10-G,LOW  SPEED,NO  PEDESTRIAN,RL  0,acts-8,N,777,26,36.5365,0.0
MAXMIN|MAXMIN|BOUNDARY,OTHER  LANES,S_W,>EQ  10-G,LOW  SPEED,NO  PEDESTRIAN,RL  0,acts-8,N,777,26,37.5375,0.0
MAXMIN|MAXMIN|BOUNDARY,OTHER  LANES,S_W,>EQ  10-G,LOW  SPEED,NO  PEDESTRIAN,RL  0,acts-8,N,777,26,38.5385,0
MAXMIN|MAXMIN|BOUNDARY,OTHER  LANES,S_W,>EQ  10-G,LOW  SPEED,NO  PEDESTRIAN,RL  0,acts-8,N,777,26,39.5395,0.0
MAXMIN|MAXMIN|BOUNDARY,OTHER  LANES,S_W,>EQ  10-G,LOW  SPEED,NO  PEDESTRIAN,RL  0,acts-8,N,777,26,40.5405,0.0
MAXMIN|MAXMIN|BOUNDARY,OTHER  LANES,S_W,>EQ  10-G,LOW  SPEED,NO  PEDESTRIAN,RL  0,acts-8,N,777,26,41.5415,0
MAXMIN|MAXMIN|BOUNDARY,OTHER  LANES,S_W,>EQ  10-G,LOW  SPEED,NO  PEDESTRIAN,RL  0,acts-8,N,777,26,42.5425,0.0
MAXMIN|MAXMIN|BOUNDARY,OTHER  LANES,S_W,>EQ  10-G,LOW  SPEED,NO  PEDESTRIAN,RL  0,acts-8,N,777,26,43.5435,0
MAXMIN|MAXMIN|BOUNDARY,OTHER  LANES,S_W,>EQ  10-G,LOW  SPEED,NO  PEDESTRIAN,RL  0,acts-8,N,777,26,44.5445,0
MAXMIN|MAXMIN|BOUNDARY,OTHER  LANES,S_W,>EQ  10-G,LOW  SPEED,NO  PEDESTRIAN,RL  0,acts-8,N,777,26,45.5455,0.0
MAXMIN|MAXMIN|BOUNDARY,OTHER  LANES,S_W,>EQ  10-G,LOW  SPEED,NO  PEDESTRIAN,RL  0,acts-8,N,777,26,8.5085,0
MAXMIN|MAXMIN|BOUNDARY,OTHER  LANES,S_W,>EQ  10-G,LOW  SPEED,NO  PEDESTRIAN,RL  0,acts-8,N,777,26,9.5095,0.0
MAXMIN|MAXMIN|BOUNDARY,OTHER  LANES,S_W,>EQ  10-G,LOW  SPEED,NO  PEDESTRIAN,RL  0,acts-8,Y,777,150,133.133,0.0
MAXMIN|MAXMIN|BOUNDARY,OTHER  LANES,S_W,>EQ  10-G,LOW  SPEED,NO  PEDESTRIAN,RL  0,acts-8,Y,777,150,134.134,0.0
MAXMIN|MAXMIN|BOUNDARY,OTHER  LANES,S_W,>EQ  10-G,LOW  SPEED,NO  PEDESTRIAN,RL  0,acts-8,Y,777,150,135.135,0.0
MAXMIN|MAXMIN|BOUNDARY,OTHER  LANES,S_W,>EQ  10-G,LOW  SPEED,NO  PEDESTRIAN,RL  0,acts-8,N,777,150,136.136,0.0
MAXMIN|MAXMIN|BOUNDARY,OTHER  LANES,S_W,>EQ  10-G,LOW  SPEED,NO  PEDESTRIAN,RL  0,acts-8,N,777,150,137.137,0.0
MAXMIN|MAXMIN|BOUNDARY,OTHER  LANES,S_W,>EQ  10-G,LOW  SPEED,NO  PEDESTRIAN,RL  0,acts-8,N,777,150,138.138,0.0
MAXMIN|MAXMIN|BOUNDARY,OTHER  LANES,S_W,>EQ  10-G,LOW  SPEED,NO  PEDESTRIAN,RL  0,acts-8,N,777,150,139.139,0
MAXMIN|MAXMIN|BOUNDARY,OTHER  LANES,S_W,>EQ  10-G,LOW  SPEED,NO  PEDESTRIAN,RL  0,acts-8,N,777,150,140.14,0.0
MAXMIN|MAXMIN|BOUNDARY,OTHER  LANES,S_W,>EQ  10-G,LOW  SPEED,NO  PEDESTRIAN,RL  0,acts-8,N,777,150,141.141,0
MAXMIN|MAXMIN|BOUNDARY,OTHER  LANES,S_W,>EQ  10-G,LOW  SPEED,NO  PEDESTRIAN,RL  0,acts-8,N,777,150,142.142,0
MAXMIN|MAXMIN|BOUNDARY,OTHER  LANES,S_W,>EQ  10-G,LOW  SPEED,NO  PEDESTRIAN,RL  0,acts-8,N,777,150,143.143,0.0
MAXMIN|MAXMIN|BOUNDARY,OTHER  LANES,S_W,>EQ  10-G,LOW  SPEED,NO  PEDESTRIAN,RL  0,acts-8,N,777,150,144.144,0
MAXMIN|MAXMIN|BOUNDARY,OTHER  LANES,S_W,>EQ  10-G,LOW  SPEED,NO  PEDESTRIAN,RL  0,acts-8,N,777,150,145.145,0.0
MAXMIN|MAXMIN|BOUNDARY,OTHER  LANES,N_E,<10-G,LOW  SPEED,PEDESTRIAN,RL  0,acts-8,N,777,145,147.147,0.0
MAXMIN|MAXMIN|BOUNDARY,OTHER  LANES,N_E,<10-G,LOW  SPEED,PEDESTRIAN,RL  0,acts-8,N,777,145,148.148,0.0
MAXMIN|MAXMIN|BOUNDARY,OTHER  LANES,N_E,<10-G,LOW  SPEED,PEDESTRIAN,RL  0,acts-8,N,777,145,149.149,0
MAXMIN|MAXMIN|BOUNDARY,OTHER  LANES,N_E,<10-G,LOW  SPEED,PEDESTRIAN,RL  0,acts-8,N,777,145,150.15,0.0
MAXMIN|MAXMIN|BOUNDARY,OTHER  LANES,N_E,<10-G,LOW  SPEED,PEDESTRIAN,RL  0,acts-8,N,777,145,151.151,0
MAXMIN|MAXMIN|BOUNDARY,OTHER  LANES,N_E,<10-G,LOW  SPEED,PEDESTRIAN,RL  0,acts-8,N,777,145,152.152,0.0
MAXMIN|MAXMIN|BOUNDARY,OTHER  LANES,N_E,<10-G,LOW  SPEED,PEDESTRIAN,RL  0,acts-8,N,777,145,153.153,0
MAXMIN|MAXMIN|BOUNDARY,OTHER  LANES,N_E,<10-G,LOW  SPEED,PEDESTRIAN,RL  0,acts-8,N,777,145,154.154,0.0
MAXMIN|MAXMIN|BOUNDARY,OTHER  LANES,N_E,<10-G,LOW  SPEED,PEDESTRIAN,RL  0,acts-8,N,777,145,155.155,0.0
MAXMIN|MAXMIN|BOUNDARY,OTHER  LANES,N_E,<10-G,LOW  SPEED,NO  PEDESTRIAN,RL  0,acts-8,N,777,71,56.723333,0.0
MAXMIN|MAXMIN|BOUNDARY,OTHER  LANES,N_E,<10-G,LOW  SPEED,NO  PEDESTRIAN,RL  0,acts-8,N,777,71,57.724333,0.0
MAXMIN|MAXMIN|BOUNDARY,OTHER  LANES,N_E,<10-G,LOW  SPEED,NO  PEDESTRIAN,RL  0,acts-8,N,777,71,58.725333,0.0
MAXMIN|MAXMIN|BOUNDARY,OTHER  LANES,N_E,<10-G,LOW  SPEED,NO  PEDESTRIAN,RL  0,acts-8,N,777,71,59.726333,0.0
MAXMIN|MAXMIN|BOUNDARY,OTHER  LANES,N_E,<10-G,LOW  SPEED,NO  PEDESTRIAN,RL  0,acts-8,N,777,71,60.727333,0.0
MAXMIN|MAXMIN|BOUNDARY,OTHER  LANES,N_E,<10-G,LOW  SPEED,NO  PEDESTRIAN,RL  0,acts-8,N,777,71,61.728333,0.0
MAXMIN|MAXMIN|BOUNDARY,OTHER  LANES,N_E,<10-G,LOW  SPEED,NO  PEDESTRIAN,RL  0,acts-8,N,777,71,62.729333,0.0
MAXMIN|MAXMIN|BOUNDARY,OTHER  LANES,N_E,<10-G,LOW  SPEED,NO  PEDESTRIAN,RL  0,acts-8,N,777,71,63.730333,0.0
MAXMIN|MAXMIN|BOUNDARY,OTHER  LANES,N_E,<10-G,LOW  SPEED,NO  PEDESTRIAN,RL  0,acts-8,N,777,71,64.731333,0
MAXMIN|MAXMIN|BOUNDARY,OTHER  LANES,N_E,<10-G,LOW  SPEED,NO  PEDESTRIAN,RL  0,acts-8,N,777,71,65.732333,0.0
MAXMIN|MAXMIN|BOUNDARY,OTHER  LANES,N_E,<10-G,LOW  SPEED,NO  PEDESTRIAN,RL  0,acts-8,N,777,145,146.146,0
MAXMIN|MAXMIN|BOUNDARY,OTHER  LANES,N_E,>EQ  10-Y/R,LOW  SPEED,NO  PEDESTRIAN,RL  0,acts-1,Y,777,71,66.733333,0
MAXMIN|MAXMIN|BOUNDARY,OTHER  LANES,N_E,>EQ  10-Y/R,LOW  SPEED,NO  PEDESTRIAN,RL  0,acts-1,Y,777,71,67.734333,0.007803999999999922
MAXMIN|MAXMIN|BOUNDARY,OTHER  LANES,N_E,>EQ  10-Y/R,LOW  SPEED,NO  PEDESTRIAN,RL  0,acts-1,Y,777,71,68.735333,0.0022920000000000718
MAXMIN|MAXMIN|BOUNDARY,OTHER  LANES,N_E,>EQ  10-Y/R,LOW  SPEED,NO  PEDESTRIAN,RL  0,acts-1,Y,777,103,85.251833,0.0019209999999999505
MAXMIN|MAXMIN|BOUNDARY,OTHER  LANES,N_E,>EQ  10-G,LOW  SPEED,NO  PEDESTRIAN,RL  0,acts-8,Y,777,71,53.720333,0.0
MAXMIN|MAXMIN|BOUNDARY,OTHER  LANES,N_E,>EQ  10-G,LOW  SPEED,NO  PEDESTRIAN,RL  0,acts-8,Y,777,71,54.721333,0.0
MAXMIN|MAXMIN|BOUNDARY,OTHER  LANES,N_E,>EQ  10-G,LOW  SPEED,NO  PEDESTRIAN,RL  0,acts-8,N,777,71,55.722333,0
MAXMIN|MAXMIN|BOUNDARY,OTHER  LANES,N_E,>EQ  10-G,LOW  SPEED,NO  PEDESTRIAN,RL  0,acts-8,Y,777,145,129.129,0.0
MAXMIN|MAXMIN|BOUNDARY,OTHER  LANES,N_E,>EQ  10-G,LOW  SPEED,NO  PEDESTRIAN,RL  0,acts-8,N,777,145,130.13,0.0
MAXMIN|MAXMIN|BOUNDARY,OTHER  LANES,N_E,>EQ  10-G,LOW  SPEED,NO  PEDESTRIAN,RL  0,acts-8,Y,777,145,131.131,0.0
MAXMIN|MAXMIN|BOUNDARY,OTHER  LANES,N_E,>EQ  10-G,LOW  SPEED,NO  PEDESTRIAN,RL  0,acts-8,N,777,145,132.132,0.0
MAXMIN|MAXMIN|BOUNDARY,OTHER  LANES,N_E,>EQ  10-G,LOW  SPEED,NO  PEDESTRIAN,RL  0,acts-8,N,777,145,133.133,0
MAXMIN|MAXMIN|BOUNDARY,OTHER  LANES,N_E,>EQ  10-G,LOW  SPEED,NO  PEDESTRIAN,RL  0,acts-8,N,777,145,134.134,0
MAXMIN|MAXMIN|BOUNDARY,OTHER  LANES,N_E,>EQ  10-G,LOW  SPEED,NO  PEDESTRIAN,RL  0,acts-8,N,777,145,135.135,0
MAXMIN|MAXMIN|BOUNDARY,OTHER  LANES,N_E,>EQ  10-G,LOW  SPEED,NO  PEDESTRIAN,RL  0,acts-8,N,777,145,136.136,0.0
MAXMIN|MAXMIN|BOUNDARY,OTHER  LANES,N_E,>EQ  10-G,LOW  SPEED,NO  PEDESTRIAN,RL  0,acts-8,N,777,145,137.137,0.0
MAXMIN|MAXMIN|BOUNDARY,OTHER  LANES,N_E,>EQ  10-G,LOW  SPEED,NO  PEDESTRIAN,RL  0,acts-8,N,777,145,138.138,0
MAXMIN|MAXMIN|BOUNDARY,OTHER  LANES,N_E,>EQ  10-G,LOW  SPEED,NO  PEDESTRIAN,RL  0,acts-8,N,777,145,139.139,0.0
MAXMIN|MAXMIN|BOUNDARY,OTHER  LANES,N_E,>EQ  10-G,LOW  SPEED,NO  PEDESTRIAN,RL  0,acts-8,N,777,145,140.14,0
MAXMIN|MAXMIN|BOUNDARY,OTHER  LANES,N_E,>EQ  10-G,LOW  SPEED,NO  PEDESTRIAN,RL  0,acts-8,N,777,145,141.141,0.0
MAXMIN|MAXMIN|BOUNDARY,OTHER  LANES,N_E,>EQ  10-G,LOW  SPEED,NO  PEDESTRIAN,RL  0,acts-8,N,777,145,142.142,0.0
MAXMIN|MAXMIN|BOUNDARY,OTHER  LANES,N_E,>EQ  10-G,LOW  SPEED,NO  PEDESTRIAN,RL  0,acts-8,N,777,145,143.143,0.0
MAXMIN|MAXMIN|BOUNDARY,OTHER  LANES,N_E,>EQ  10-G,LOW  SPEED,NO  PEDESTRIAN,RL  0,acts-8,N,777,145,144.144,0
MAXMIN|MAXMIN|BOUNDARY,OTHER  LANES,N_E,>EQ  10-G,LOW  SPEED,NO  PEDESTRIAN,RL  0,acts-8,N,777,145,145.145,0
MAXMIN|MAXMIN|BOUNDARY,OTHER  LANES,W_N,<10-G,LOW  SPEED,NO  PEDESTRIAN,RL  0,acts-8,N,777,8,1.001,0.0
MAXMIN|MAXMIN|BOUNDARY,OTHER  LANES,W_N,<10-G,LOW  SPEED,NO  PEDESTRIAN,RL  0,acts-8,Y,777,8,10.01,0.0
MAXMIN|MAXMIN|BOUNDARY,OTHER  LANES,W_N,<10-G,LOW  SPEED,NO  PEDESTRIAN,RL  0,acts-8,N,777,8,2.002,0.0
MAXMIN|MAXMIN|BOUNDARY,OTHER  LANES,W_N,<10-G,LOW  SPEED,NO  PEDESTRIAN,RL  0,acts-8,N,777,8,3.003,0.0
MAXMIN|MAXMIN|BOUNDARY,OTHER  LANES,W_N,<10-G,LOW  SPEED,NO  PEDESTRIAN,RL  0,acts-8,N,777,8,4.004,0.0
MAXMIN|MAXMIN|BOUNDARY,OTHER  LANES,W_N,<10-G,LOW  SPEED,NO  PEDESTRIAN,RL  0,acts-8,N,777,8,5.005,0.0
MAXMIN|MAXMIN|BOUNDARY,OTHER  LANES,W_N,<10-G,LOW  SPEED,NO  PEDESTRIAN,RL  0,acts-8,N,777,8,6.006,0.0
MAXMIN|MAXMIN|BOUNDARY,OTHER  LANES,W_N,<10-G,LOW  SPEED,NO  PEDESTRIAN,RL  0,acts-8,N,777,8,7.007,0.0
MAXMIN|MAXMIN|BOUNDARY,OTHER  LANES,W_N,<10-G,LOW  SPEED,NO  PEDESTRIAN,RL  0,acts-8,N,777,8,8.008,0.0
MAXMIN|MAXMIN|BOUNDARY,OTHER  LANES,W_N,<10-G,LOW  SPEED,NO  PEDESTRIAN,RL  0,acts-8,Y,777,8,9.009,0.0
MAXMIN|MAXMIN|BOUNDARY,OTHER  LANES,W_N,>EQ  10-Y/R,LOW  SPEED,NO  PEDESTRIAN,RL  0,acts-1,Y,777,2,13.013,0.00034400000000001096
MAXMIN|MAXMIN|BOUNDARY,OTHER  LANES,W_N,>EQ  10-Y/R,LOW  SPEED,NO  PEDESTRIAN,RL  0,acts-1,N,777,2,14.014,0
MAXMIN|MAXMIN|BOUNDARY,OTHER  LANES,W_N,>EQ  10-Y/R,LOW  SPEED,NO  PEDESTRIAN,RL  0,acts-1,Y,777,8,11.011,0
MAXMIN|MAXMIN|BOUNDARY,OTHER  LANES,W_N,>EQ  10-G,LOW  SPEED,NO  PEDESTRIAN,RL  0,acts-8,N,777,8,0,0.0
MAXMIN|MAXMIN|BOUNDARY,OTHER  LANES,S_E,<10-G,LOW  SPEED,PEDESTRIAN,RL  0,acts-7,Y,777,173,168.334833,0
MAXMIN|MAXMIN|BOUNDARY,OTHER  LANES,S_E,<10-G,LOW  SPEED,PEDESTRIAN,  RL  <EQ  2,acts-7,N,777,173,161.327833,0.0
MAXMIN|MAXMIN|BOUNDARY,OTHER  LANES,S_E,<10-G,LOW  SPEED,PEDESTRIAN,  RL  <EQ  2,acts-7,N,777,173,162.328833,0.0
MAXMIN|MAXMIN|BOUNDARY,OTHER  LANES,S_E,<10-G,LOW  SPEED,PEDESTRIAN,  RL  <EQ  2,acts-7,N,777,173,163.329833,0
MAXMIN|MAXMIN|BOUNDARY,OTHER  LANES,S_E,<10-G,LOW  SPEED,PEDESTRIAN,  RL  <EQ  2,acts-7,N,777,173,164.330833,0
MAXMIN|MAXMIN|BOUNDARY,OTHER  LANES,S_E,<10-G,LOW  SPEED,PEDESTRIAN,  RL  <EQ  2,acts-7,N,777,173,165.331833,3.700000000006476e-05
MAXMIN|MAXMIN|BOUNDARY,OTHER  LANES,S_E,<10-G,LOW  SPEED,NO  PEDESTRIAN,RL  0,acts-6,Y,777,51,54.054,0.004898999999999987
MAXMIN|MAXMIN|BOUNDARY,OTHER  LANES,S_E,<10-G,LOW  SPEED,NO  PEDESTRIAN,RL  0,acts-6,Y,777,51,55.055,0
MAXMIN|MAXMIN|BOUNDARY,OTHER  LANES,S_E,>EQ  10-Y/R,LOW  SPEED,PEDESTRIAN,  RL  <EQ  2,acts-7,N,777,116,91.257833,0.04304299999999994
MAXMIN|MAXMIN|BOUNDARY,OTHER  LANES,S_E,>EQ  10-Y/R,LOW  SPEED,PEDESTRIAN,  RL  <EQ  2,acts-7,Y,777,116,92.258833,0
MAXMIN|MAXMIN|BOUNDARY,OTHER  LANES,S_E,>EQ  10-Y/R,LOW  SPEED,NO  PEDESTRIAN,RL  0,acts-6,N,777,51,56.056,8.099999999999774e-05
MAXMIN|MAXMIN|BOUNDARY,OTHER  LANES,S_E,>EQ  10-Y/R,LOW  SPEED,NO  PEDESTRIAN,RL  0,acts-6,Y,777,51,57.057,0
MAXMIN|MAXMIN|BOUNDARY,OTHER  LANES,S_E,>EQ  10-Y/R,LOW  SPEED,NO  PEDESTRIAN,RL  0,acts-6,N,777,73,59.726333,0.0036289999999999933
MAXMIN|MAXMIN|BOUNDARY,OTHER  LANES,S_E,>EQ  10-Y/R,LOW  SPEED,NO  PEDESTRIAN,RL  0,acts-6,N,777,82,64.731333,0.025490000000000013
MAXMIN|MAXMIN|BOUNDARY,OTHER  LANES,S_E,>EQ  10-Y/R,LOW  SPEED,NO  PEDESTRIAN,RL  0,acts-6,Y,777,78,61.895167,0
MAXMIN|MAXMIN|BOUNDARY,OTHER  LANES,S_E,>EQ  10-Y/R,LOW  SPEED,NO  PEDESTRIAN,  RL  <EQ  2,acts-6,N,777,106,83.5835,0.0
MAXMIN|MAXMIN|BOUNDARY,OTHER  LANES,S_E,>EQ  10-Y/R,LOW  SPEED,NO  PEDESTRIAN,  RL  <EQ  2,acts-6,N,777,106,84.5845,0
MAXMIN|MAXMIN|BOUNDARY,OTHER  LANES,S_E,>EQ  10-G,LOW  SPEED,PEDESTRIAN,  RL  <EQ  2,acts-7,N,777,173,160.326833,0.0
MAXMIN|MAXMIN|BOUNDARY,OTHER  LANES,S_E,>EQ  10-G,LOW  SPEED,NO  PEDESTRIAN,  RL  <EQ  2,acts-6,N,777,51,33.033,0.00545400000000007
MAXMIN|MAXMIN|BOUNDARY,OTHER  LANES,S_E,>EQ  10-G,LOW  SPEED,NO  PEDESTRIAN,  RL  <EQ  2,acts-6,Y,777,164,140.807333,0
MAXMIN|MAXMIN|BOUNDARY,OTHER  LANES,S_E,>EQ  10-G,LOW  SPEED,NO  PEDESTRIAN,  RL  <EQ  2,acts-6,Y,777,164,142.809333,0
MAXMIN|MAXMIN|BOUNDARY,OTHER  LANES,S_E,>EQ  10-G,LOW  SPEED,NO  PEDESTRIAN,  RL  >  2,acts-6,N,777,51,29.029,0
MAXMIN|MAXMIN|BOUNDARY,OTHER  LANES,S_E,>EQ  10-G,LOW  SPEED,NO  PEDESTRIAN,  RL  >  2,acts-6,Y,777,51,30.03,0
MAXMIN|MAXMIN|BOUNDARY,OTHER  LANES,S_E,>EQ  10-G,LOW  SPEED,NO  PEDESTRIAN,  RL  >  2,acts-6,Y,777,51,31.031,0
MAXMIN|MAXMIN|BOUNDARY,OTHER  LANES,S_E,>EQ  10-G,LOW  SPEED,NO  PEDESTRIAN,  RL  >  2,acts-6,N,777,51,32.032,0.0019879999999999898
MAXMIN|MAXMIN|BOUNDARY,OTHER  LANES,S_E,>EQ  10-G,LOW  SPEED,NO  PEDESTRIAN,  RL  >  2,acts-6,N,777,164,141.808333,0.0019839999999999858
MAXMIN|MAXMIN|BOUNDARY,OTHER  LANES,E_S,<10-Y/R,MEDIUM  SPEED,NO  PEDESTRIAN,  RL  <EQ  2,acts-1,N,777,64,41.875167,0.0003850000000000242
MAXMIN|MAXMIN|BOUNDARY,OTHER  LANES,E_S,<10-G,LOW  SPEED,PEDESTRIAN,RL  0,acts-8,N,777,65,100.433667,0.0
MAXMIN|MAXMIN|BOUNDARY,OTHER  LANES,E_S,<10-G,LOW  SPEED,PEDESTRIAN,RL  0,acts-8,N,777,65,101.434667,0.0
MAXMIN|MAXMIN|BOUNDARY,OTHER  LANES,E_S,<10-G,LOW  SPEED,PEDESTRIAN,RL  0,acts-8,N,777,65,102.435667,0.0
MAXMIN|MAXMIN|BOUNDARY,OTHER  LANES,E_S,<10-G,LOW  SPEED,PEDESTRIAN,RL  0,acts-8,N,777,65,103.436667,0.0
MAXMIN|MAXMIN|BOUNDARY,OTHER  LANES,E_S,<10-G,LOW  SPEED,PEDESTRIAN,RL  0,acts-8,N,777,65,104.437667,0
MAXMIN|MAXMIN|BOUNDARY,OTHER  LANES,E_S,<10-G,LOW  SPEED,PEDESTRIAN,RL  0,acts-8,N,777,65,105.438667,0
MAXMIN|MAXMIN|BOUNDARY,OTHER  LANES,E_S,<10-G,LOW  SPEED,PEDESTRIAN,RL  0,acts-8,N,777,65,106.439667,0.0
MAXMIN|MAXMIN|BOUNDARY,OTHER  LANES,E_S,<10-G,LOW  SPEED,PEDESTRIAN,RL  0,acts-8,N,777,65,107.440667,0
MAXMIN|MAXMIN|BOUNDARY,OTHER  LANES,E_S,<10-G,LOW  SPEED,PEDESTRIAN,RL  0,acts-8,N,777,65,108.441667,0
MAXMIN|MAXMIN|BOUNDARY,OTHER  LANES,E_S,<10-G,LOW  SPEED,PEDESTRIAN,RL  0,acts-8,N,777,65,99.432667,0.0
MAXMIN|MAXMIN|BOUNDARY,OTHER  LANES,E_S,<10-G,LOW  SPEED,NO  PEDESTRIAN,RL  0,acts-8,N,777,10,1.001,0.0
MAXMIN|MAXMIN|BOUNDARY,OTHER  LANES,E_S,<10-G,LOW  SPEED,NO  PEDESTRIAN,RL  0,acts-8,Y,777,10,10.01,0.0
MAXMIN|MAXMIN|BOUNDARY,OTHER  LANES,E_S,<10-G,LOW  SPEED,NO  PEDESTRIAN,RL  0,acts-8,N,777,10,2.002,0
MAXMIN|MAXMIN|BOUNDARY,OTHER  LANES,E_S,<10-G,LOW  SPEED,NO  PEDESTRIAN,RL  0,acts-8,N,777,10,3.003,0.0
MAXMIN|MAXMIN|BOUNDARY,OTHER  LANES,E_S,<10-G,LOW  SPEED,NO  PEDESTRIAN,RL  0,acts-8,N,777,10,4.004,0.0
MAXMIN|MAXMIN|BOUNDARY,OTHER  LANES,E_S,<10-G,LOW  SPEED,NO  PEDESTRIAN,RL  0,acts-8,N,777,10,5.005,0.0
MAXMIN|MAXMIN|BOUNDARY,OTHER  LANES,E_S,<10-G,LOW  SPEED,NO  PEDESTRIAN,RL  0,acts-8,N,777,10,6.006,0
MAXMIN|MAXMIN|BOUNDARY,OTHER  LANES,E_S,<10-G,LOW  SPEED,NO  PEDESTRIAN,RL  0,acts-8,N,777,10,7.007,0.0
MAXMIN|MAXMIN|BOUNDARY,OTHER  LANES,E_S,<10-G,LOW  SPEED,NO  PEDESTRIAN,RL  0,acts-8,N,777,10,8.008,0.0
MAXMIN|MAXMIN|BOUNDARY,OTHER  LANES,E_S,<10-G,LOW  SPEED,NO  PEDESTRIAN,RL  0,acts-8,N,777,10,9.009,0.0
MAXMIN|MAXMIN|BOUNDARY,OTHER  LANES,E_S,>EQ  10-Y/R,LOW  SPEED,PEDESTRIAN,RL  0,acts-1,Y,777,65,109.442667,8.500000000000174e-05
MAXMIN|MAXMIN|BOUNDARY,OTHER  LANES,E_S,>EQ  10-Y/R,LOW  SPEED,PEDESTRIAN,RL  0,acts-1,Y,777,65,110.443667,0.004205999999999932
MAXMIN|MAXMIN|BOUNDARY,OTHER  LANES,E_S,>EQ  10-Y/R,LOW  SPEED,PEDESTRIAN,RL  0,acts-1,Y,777,65,111.444667,0
MAXMIN|MAXMIN|BOUNDARY,OTHER  LANES,E_S,>EQ  10-Y/R,LOW  SPEED,NO  PEDESTRIAN,RL  0,acts-1,Y,777,10,11.011,0.006825999999999999
MAXMIN|MAXMIN|BOUNDARY,OTHER  LANES,E_S,>EQ  10-Y/R,LOW  SPEED,NO  PEDESTRIAN,RL  0,acts-1,Y,777,10,12.012,0
MAXMIN|MAXMIN|BOUNDARY,OTHER  LANES,E_S,>EQ  10-Y/R,LOW  SPEED,NO  PEDESTRIAN,  RL  >  2,acts-1,Y,777,55,34.200833,0.01768000000000003
MAXMIN|MAXMIN|BOUNDARY,OTHER  LANES,E_S,>EQ  10-Y/R,MEDIUM  SPEED,PEDESTRIAN,  RL  >  2,acts-1,N,777,157,136.469667,0.01544000000000001
MAXMIN|MAXMIN|BOUNDARY,OTHER  LANES,E_S,>EQ  10-G,LOW  SPEED,PEDESTRIAN,RL  0,acts-8,N,777,65,90.423667,0.0
MAXMIN|MAXMIN|BOUNDARY,OTHER  LANES,E_S,>EQ  10-G,LOW  SPEED,PEDESTRIAN,RL  0,acts-8,N,777,65,91.424667,0.0
MAXMIN|MAXMIN|BOUNDARY,OTHER  LANES,E_S,>EQ  10-G,LOW  SPEED,PEDESTRIAN,RL  0,acts-8,N,777,65,92.425667,0
MAXMIN|MAXMIN|BOUNDARY,OTHER  LANES,E_S,>EQ  10-G,LOW  SPEED,PEDESTRIAN,RL  0,acts-8,N,777,65,93.426667,0.0
MAXMIN|MAXMIN|BOUNDARY,OTHER  LANES,E_S,>EQ  10-G,LOW  SPEED,PEDESTRIAN,RL  0,acts-8,N,777,65,94.427667,0.0
MAXMIN|MAXMIN|BOUNDARY,OTHER  LANES,E_S,>EQ  10-G,LOW  SPEED,PEDESTRIAN,RL  0,acts-8,N,777,65,95.428667,0.0
MAXMIN|MAXMIN|BOUNDARY,OTHER  LANES,E_S,>EQ  10-G,LOW  SPEED,PEDESTRIAN,RL  0,acts-8,N,777,65,96.429667,0.0
MAXMIN|MAXMIN|BOUNDARY,OTHER  LANES,E_S,>EQ  10-G,LOW  SPEED,PEDESTRIAN,RL  0,acts-8,N,777,65,97.430667,0
MAXMIN|MAXMIN|BOUNDARY,OTHER  LANES,E_S,>EQ  10-G,LOW  SPEED,PEDESTRIAN,RL  0,acts-8,N,777,65,98.431667,0
MAXMIN|MAXMIN|BOUNDARY,OTHER  LANES,E_S,>EQ  10-G,LOW  SPEED,NO  PEDESTRIAN,RL  0,acts-8,N,777,10,0,0
MAXMIN|MAXMIN|BOUNDARY,OTHER  LANES,E_S,>EQ  10-G,LOW  SPEED,NO  PEDESTRIAN,RL  0,acts-8,N,777,65,53.386667,0
MAXMIN|MAXMIN|BOUNDARY,OTHER  LANES,E_S,>EQ  10-G,LOW  SPEED,NO  PEDESTRIAN,RL  0,acts-8,N,777,65,54.387667,0
MAXMIN|MAXMIN|BOUNDARY,OTHER  LANES,E_S,>EQ  10-G,LOW  SPEED,NO  PEDESTRIAN,RL  0,acts-8,N,777,65,55.388667,0
MAXMIN|MAXMIN|BOUNDARY,OTHER  LANES,E_S,>EQ  10-G,LOW  SPEED,NO  PEDESTRIAN,RL  0,acts-8,N,777,65,56.389667,0.0
MAXMIN|MAXMIN|BOUNDARY,OTHER  LANES,E_S,>EQ  10-G,LOW  SPEED,NO  PEDESTRIAN,RL  0,acts-8,N,777,65,57.390667,0.0
MAXMIN|MAXMIN|BOUNDARY,OTHER  LANES,E_S,>EQ  10-G,LOW  SPEED,NO  PEDESTRIAN,RL  0,acts-8,N,777,65,58.391667,0.0
MAXMIN|MAXMIN|BOUNDARY,OTHER  LANES,E_S,>EQ  10-G,LOW  SPEED,NO  PEDESTRIAN,RL  0,acts-8,N,777,65,59.392667,0.0
MAXMIN|MAXMIN|BOUNDARY,OTHER  LANES,E_S,>EQ  10-G,LOW  SPEED,NO  PEDESTRIAN,RL  0,acts-8,N,777,65,60.393667,0
MAXMIN|MAXMIN|BOUNDARY,OTHER  LANES,E_S,>EQ  10-G,LOW  SPEED,NO  PEDESTRIAN,RL  0,acts-8,N,777,65,61.394667,0.0
MAXMIN|MAXMIN|BOUNDARY,OTHER  LANES,E_S,>EQ  10-G,LOW  SPEED,NO  PEDESTRIAN,RL  0,acts-8,N,777,65,62.395667,0.0
MAXMIN|MAXMIN|BOUNDARY,OTHER  LANES,E_S,>EQ  10-G,LOW  SPEED,NO  PEDESTRIAN,RL  0,acts-8,N,777,65,63.396667,0.0
MAXMIN|MAXMIN|BOUNDARY,OTHER  LANES,E_S,>EQ  10-G,LOW  SPEED,NO  PEDESTRIAN,RL  0,acts-8,N,777,65,64.397667,0.0
MAXMIN|MAXMIN|BOUNDARY,OTHER  LANES,E_S,>EQ  10-G,LOW  SPEED,NO  PEDESTRIAN,RL  0,acts-8,N,777,65,65.398667,0
MAXMIN|MAXMIN|BOUNDARY,OTHER  LANES,E_S,>EQ  10-G,LOW  SPEED,NO  PEDESTRIAN,RL  0,acts-8,N,777,65,66.399667,0
MAXMIN|MAXMIN|BOUNDARY,OTHER  LANES,E_S,>EQ  10-G,LOW  SPEED,NO  PEDESTRIAN,RL  0,acts-8,N,777,65,67.400667,0.0
MAXMIN|MAXMIN|BOUNDARY,OTHER  LANES,E_S,>EQ  10-G,LOW  SPEED,NO  PEDESTRIAN,RL  0,acts-8,N,777,65,68.401667,0.0
MAXMIN|MAXMIN|BOUNDARY,OTHER  LANES,E_S,>EQ  10-G,LOW  SPEED,NO  PEDESTRIAN,RL  0,acts-8,N,777,65,69.402667,0.0
MAXMIN|MAXMIN|BOUNDARY,OTHER  LANES,E_S,>EQ  10-G,LOW  SPEED,NO  PEDESTRIAN,RL  0,acts-8,N,777,65,70.403667,0.0
MAXMIN|MAXMIN|BOUNDARY,OTHER  LANES,E_S,>EQ  10-G,LOW  SPEED,NO  PEDESTRIAN,RL  0,acts-8,N,777,65,71.404667,0.0
MAXMIN|MAXMIN|BOUNDARY,OTHER  LANES,E_S,>EQ  10-G,LOW  SPEED,NO  PEDESTRIAN,RL  0,acts-8,N,777,65,72.405667,0
MAXMIN|MAXMIN|BOUNDARY,OTHER  LANES,E_S,>EQ  10-G,LOW  SPEED,NO  PEDESTRIAN,RL  0,acts-8,N,777,65,73.406667,0
MAXMIN|MAXMIN|BOUNDARY,OTHER  LANES,E_S,>EQ  10-G,LOW  SPEED,NO  PEDESTRIAN,RL  0,acts-8,N,777,65,74.407667,0.0
MAXMIN|MAXMIN|BOUNDARY,OTHER  LANES,E_S,>EQ  10-G,LOW  SPEED,NO  PEDESTRIAN,RL  0,acts-8,N,777,65,75.408667,0.0
MAXMIN|MAXMIN|BOUNDARY,OTHER  LANES,E_S,>EQ  10-G,LOW  SPEED,NO  PEDESTRIAN,RL  0,acts-8,N,777,65,76.409667,0
MAXMIN|MAXMIN|BOUNDARY,OTHER  LANES,E_S,>EQ  10-G,LOW  SPEED,NO  PEDESTRIAN,RL  0,acts-8,N,777,65,77.410667,0.0
MAXMIN|MAXMIN|BOUNDARY,OTHER  LANES,E_S,>EQ  10-G,LOW  SPEED,NO  PEDESTRIAN,RL  0,acts-8,N,777,65,78.411667,0
MAXMIN|MAXMIN|BOUNDARY,OTHER  LANES,E_S,>EQ  10-G,LOW  SPEED,NO  PEDESTRIAN,RL  0,acts-8,N,777,65,79.412667,0.0
MAXMIN|MAXMIN|BOUNDARY,OTHER  LANES,E_S,>EQ  10-G,LOW  SPEED,NO  PEDESTRIAN,RL  0,acts-8,N,777,65,80.413667,0
MAXMIN|MAXMIN|BOUNDARY,OTHER  LANES,E_S,>EQ  10-G,LOW  SPEED,NO  PEDESTRIAN,RL  0,acts-8,N,777,65,81.414667,0
MAXMIN|MAXMIN|BOUNDARY,OTHER  LANES,E_S,>EQ  10-G,LOW  SPEED,NO  PEDESTRIAN,RL  0,acts-8,N,777,65,82.415667,0.0
MAXMIN|MAXMIN|BOUNDARY,OTHER  LANES,E_S,>EQ  10-G,LOW  SPEED,NO  PEDESTRIAN,RL  0,acts-8,N,777,65,83.416667,0.0
MAXMIN|MAXMIN|BOUNDARY,OTHER  LANES,E_S,>EQ  10-G,LOW  SPEED,NO  PEDESTRIAN,RL  0,acts-8,N,777,65,84.417667,0
MAXMIN|MAXMIN|BOUNDARY,OTHER  LANES,E_S,>EQ  10-G,LOW  SPEED,NO  PEDESTRIAN,RL  0,acts-8,N,777,65,85.418667,0
MAXMIN|MAXMIN|BOUNDARY,OTHER  LANES,E_S,>EQ  10-G,LOW  SPEED,NO  PEDESTRIAN,RL  0,acts-8,N,777,65,86.419667,0.0
MAXMIN|MAXMIN|BOUNDARY,OTHER  LANES,E_S,>EQ  10-G,LOW  SPEED,NO  PEDESTRIAN,RL  0,acts-8,N,777,65,87.420667,0
MAXMIN|MAXMIN|BOUNDARY,OTHER  LANES,E_S,>EQ  10-G,LOW  SPEED,NO  PEDESTRIAN,RL  0,acts-8,N,777,65,88.421667,0
MAXMIN|MAXMIN|BOUNDARY,OTHER  LANES,E_S,>EQ  10-G,LOW  SPEED,NO  PEDESTRIAN,RL  0,acts-8,N,777,65,89.422667,0.0
MAXMIN|MAXMIN|BOUNDARY,prep-right-turn,W_S,<10-Y/R,LOW  SPEED,NO  PEDESTRIAN,RL  0,acts-1,N,777,174,151.985167,0.024791999999999925
MAXMIN|MAXMIN|BOUNDARY,prep-right-turn,W_S,<10-Y/R,LOW  SPEED,NO  PEDESTRIAN,  RL  <EQ  2,acts-1,N,777,59,43.376667,0
MAXMIN|MAXMIN|BOUNDARY,prep-right-turn,W_S,<10-G,LOW  SPEED,NO  PEDESTRIAN,RL  0,acts-1,N,777,19,10.01,0.033027999999999946
MAXMIN|MAXMIN|BOUNDARY,prep-right-turn,W_S,<10-G,LOW  SPEED,NO  PEDESTRIAN,RL  0,acts-1,N,777,19,9.009,0.03303099999999992
MAXMIN|MAXMIN|BOUNDARY,prep-right-turn,W_S,>EQ  10-Y/R,LOW  SPEED,PEDESTRIAN,RL  0,acts-7,Y,777,111,122.6225,0
MAXMIN|MAXMIN|BOUNDARY,prep-right-turn,W_S,>EQ  10-Y/R,LOW  SPEED,PEDESTRIAN,RL  0,acts-7,Y,777,111,123.6235,0.001190999999999942
MAXMIN|MAXMIN|BOUNDARY,prep-right-turn,W_S,>EQ  10-Y/R,LOW  SPEED,NO  PEDESTRIAN,RL  0,acts-1,N,777,42,25.5255,0.023880000000000012
MAXMIN|MAXMIN|BOUNDARY,prep-right-turn,W_S,>EQ  10-G,LOW  SPEED,PEDESTRIAN,RL  0,acts-7,Y,777,99,104.104,0.0007969999999999366
MAXMIN|MAXMIN|BOUNDARY,prep-right-turn,W_S,>EQ  10-G,LOW  SPEED,PEDESTRIAN,  RL  <EQ  2,acts-7,N,777,85,75.5755,0
MAXMIN|MAXMIN|BOUNDARY,prep-right-turn,W_S,>EQ  10-G,LOW  SPEED,PEDESTRIAN,  RL  <EQ  2,acts-7,N,777,85,76.5765,0.286863
MAXMIN|MAXMIN|BOUNDARY,prep-right-turn,W_S,>EQ  10-G,LOW  SPEED,PEDESTRIAN,  RL  <EQ  2,acts-7,Y,777,85,77.5775,0
MAXMIN|MAXMIN|BOUNDARY,prep-right-turn,W_S,>EQ  10-G,LOW  SPEED,PEDESTRIAN,  RL  <EQ  2,acts-7,N,777,85,81.5815,0.006480000000000041
MAXMIN|MAXMIN|BOUNDARY,prep-right-turn,W_S,>EQ  10-G,LOW  SPEED,PEDESTRIAN,  RL  <EQ  2,acts-7,Y,777,85,85.5855,0.09745400000000004
MAXMIN|MAXMIN|BOUNDARY,prep-right-turn,W_S,>EQ  10-G,LOW  SPEED,PEDESTRIAN,  RL  <EQ  2,acts-7,Y,777,85,86.5865,0
MAXMIN|MAXMIN|BOUNDARY,prep-right-turn,W_S,>EQ  10-G,LOW  SPEED,PEDESTRIAN,  RL  >  2,acts-7,N,777,85,72.5725,0
MAXMIN|MAXMIN|BOUNDARY,prep-right-turn,W_S,>EQ  10-G,LOW  SPEED,PEDESTRIAN,  RL  >  2,acts-7,N,777,85,73.5735,0.0
MAXMIN|MAXMIN|BOUNDARY,prep-right-turn,W_S,>EQ  10-G,LOW  SPEED,PEDESTRIAN,  RL  >  2,acts-7,N,777,85,74.5745,0
MAXMIN|MAXMIN|BOUNDARY,prep-right-turn,W_S,>EQ  10-G,LOW  SPEED,PEDESTRIAN,  RL  >  2,acts-7,N,777,85,78.5785,0
MAXMIN|MAXMIN|BOUNDARY,prep-right-turn,W_S,>EQ  10-G,LOW  SPEED,PEDESTRIAN,  RL  >  2,acts-7,N,777,85,79.5795,0
MAXMIN|MAXMIN|BOUNDARY,prep-right-turn,W_S,>EQ  10-G,LOW  SPEED,PEDESTRIAN,  RL  >  2,acts-7,N,777,85,80.5805,0.005215999999999998
MAXMIN|MAXMIN|BOUNDARY,prep-right-turn,W_S,>EQ  10-G,LOW  SPEED,PEDESTRIAN,  RL  >  2,acts-7,N,777,85,82.5825,0.0
MAXMIN|MAXMIN|BOUNDARY,prep-right-turn,W_S,>EQ  10-G,LOW  SPEED,PEDESTRIAN,  RL  >  2,acts-7,N,777,85,83.5835,0.14664199999999994
MAXMIN|MAXMIN|BOUNDARY,prep-right-turn,W_S,>EQ  10-G,LOW  SPEED,PEDESTRIAN,  RL  >  2,acts-7,N,777,85,84.5845,0.311996
MAXMIN|MAXMIN|BOUNDARY,prep-right-turn,W_S,>EQ  10-G,LOW  SPEED,NO  PEDESTRIAN,RL  0,acts-1,Y,777,16,3.003,0.00018899999999999473
MAXMIN|MAXMIN|BOUNDARY,prep-right-turn,W_S,>EQ  10-G,LOW  SPEED,NO  PEDESTRIAN,RL  0,acts-1,Y,777,16,4.004,0
MAXMIN|MAXMIN|BOUNDARY,prep-right-turn,W_S,>EQ  10-G,LOW  SPEED,NO  PEDESTRIAN,RL  0,acts-1,Y,777,16,5.005,0.005034000000000094
MAXMIN|MAXMIN|BOUNDARY,prep-right-turn,W_S,>EQ  10-G,LOW  SPEED,NO  PEDESTRIAN,RL  0,acts-1,Y,777,19,8.008,0.035216000000000025
MAXMIN|MAXMIN|BOUNDARY,prep-right-turn,W_S,>EQ  10-G,LOW  SPEED,NO  PEDESTRIAN,RL  0,acts-1,Y,777,69,60.894167,0
MAXMIN|MAXMIN|BOUNDARY,prep-right-turn,S_E,<10-Y/R,LOW  SPEED,PEDESTRIAN,  RL  <EQ  2,acts-7,N,777,116,93.259833,0.070131
MAXMIN|MAXMIN|BOUNDARY,prep-right-turn,S_E,<10-Y/R,LOW  SPEED,PEDESTRIAN,  RL  <EQ  2,acts-7,Y,777,116,94.260833,0
MAXMIN|MAXMIN|BOUNDARY,prep-right-turn,S_E,<10-G,LOW  SPEED,PEDESTRIAN,RL  0,acts-7,Y,777,173,169.335833,0.006345999999999963
MAXMIN|MAXMIN|BOUNDARY,prep-right-turn,S_E,<10-G,LOW  SPEED,PEDESTRIAN,RL  0,acts-7,Y,777,173,170.336833,0.004394999999999927
MAXMIN|MAXMIN|BOUNDARY,prep-right-turn,S_E,>EQ  10-Y/R,LOW  SPEED,NO  PEDESTRIAN,RL  0,acts-1,Y,777,51,58.058,0
MAXMIN|MAXMIN|BOUNDARY,prep-right-turn,S_E,>EQ  10-Y/R,LOW  SPEED,NO  PEDESTRIAN,RL  0,acts-1,Y,777,51,59.059,0
MAXMIN|MAXMIN|BOUNDARY,prep-right-turn,S_E,>EQ  10-Y/R,LOW  SPEED,NO  PEDESTRIAN,  RL  <EQ  2,acts-1,N,777,106,85.5855,0.45871899999999993
MAXMIN|MAXMIN|BOUNDARY,prep-right-turn,S_E,>EQ  10-G,LOW  SPEED,PEDESTRIAN,RL  0,acts-7,N,777,164,153.820333,0.037124999999999964
MAXMIN|MAXMIN|BOUNDARY,prep-right-turn,S_E,>EQ  10-G,LOW  SPEED,PEDESTRIAN,RL  0,acts-7,N,777,164,154.821333,0
MAXMIN|MAXMIN|BOUNDARY,prep-right-turn,S_E,>EQ  10-G,LOW  SPEED,PEDESTRIAN,RL  0,acts-7,Y,777,164,155.822333,0.012633000000000005
MAXMIN|MAXMIN|BOUNDARY,prep-right-turn,S_E,>EQ  10-G,LOW  SPEED,PEDESTRIAN,  RL  <EQ  2,acts-7,Y,777,164,148.815333,0
MAXMIN|MAXMIN|BOUNDARY,prep-right-turn,S_E,>EQ  10-G,LOW  SPEED,PEDESTRIAN,  RL  >  2,acts-7,N,777,164,146.813333,0
MAXMIN|MAXMIN|BOUNDARY,prep-right-turn,S_E,>EQ  10-G,LOW  SPEED,PEDESTRIAN,  RL  >  2,acts-7,N,777,164,147.814333,1.7000000000044757e-05
MAXMIN|MAXMIN|BOUNDARY,prep-right-turn,S_E,>EQ  10-G,LOW  SPEED,NO  PEDESTRIAN,  RL  <EQ  2,acts-1,Y,777,164,144.811333,0.00021599999999999397
MAXMIN|MAXMIN|BOUNDARY,prep-right-turn,S_E,>EQ  10-G,LOW  SPEED,NO  PEDESTRIAN,  RL  >  2,acts-1,N,777,164,145.812333,0.005205000000000015
MAXMIN|MAXMIN|BOUNDARY,exec-right-turn,W_S,<10-Y/R,LOW  SPEED,NO  PEDESTRIAN,RL  0,acts-1,N,777,53,40.5405,0.001395000000000035
MAXMIN|MAXMIN|BOUNDARY,exec-right-turn,W_S,<10-Y/R,LOW  SPEED,NO  PEDESTRIAN,RL  0,acts-1,N,777,174,152.986167,0
MAXMIN|MAXMIN|BOUNDARY,exec-right-turn,W_S,<10-Y/R,LOW  SPEED,NO  PEDESTRIAN,  RL  <EQ  2,acts-1,N,777,59,44.377667,0.0005319999999999769
MAXMIN|MAXMIN|BOUNDARY,exec-right-turn,W_S,<10-G,LOW  SPEED,NO  PEDESTRIAN,  RL  <EQ  2,acts-1,N,777,19,14.014,0.504118
MAXMIN|MAXMIN|BOUNDARY,exec-right-turn,W_S,>EQ  10-Y/R,LOW  SPEED,PEDESTRIAN,RL  0,acts-1,Y,777,111,124.6245,8.099999999999774e-05
MAXMIN|MAXMIN|BOUNDARY,exec-right-turn,W_S,>EQ  10-Y/R,LOW  SPEED,PEDESTRIAN,RL  0,acts-1,Y,777,111,125.6255,0
MAXMIN|MAXMIN|BOUNDARY,exec-right-turn,W_S,>EQ  10-Y/R,LOW  SPEED,PEDESTRIAN,RL  0,acts-5,N,777,127,127.6275,0.00045799999999995844
MAXMIN|MAXMIN|BOUNDARY,exec-right-turn,W_S,>EQ  10-Y/R,LOW  SPEED,NO  PEDESTRIAN,RL  0,acts-1,N,777,42,26.5265,0.012298000000000031
MAXMIN|MAXMIN|BOUNDARY,exec-right-turn,W_S,>EQ  10-Y/R,LOW  SPEED,NO  PEDESTRIAN,RL  0,acts-1,N,777,42,27.5275,0.0009359999999999369
MAXMIN|MAXMIN|BOUNDARY,exec-right-turn,W_S,>EQ  10-Y/R,LOW  SPEED,NO  PEDESTRIAN,RL  0,acts-1,N,777,47,34.200833,0.005494999999999917
MAXMIN|MAXMIN|BOUNDARY,exec-right-turn,W_S,>EQ  10-Y/R,LOW  SPEED,NO  PEDESTRIAN,RL  0,acts-1,N,777,47,35.201833,0.0010240000000000249
MAXMIN|MAXMIN|BOUNDARY,exec-right-turn,W_S,>EQ  10-G,LOW  SPEED,PEDESTRIAN,RL  0,acts-1,Y,777,99,105.105,0.0003710000000000102
MAXMIN|MAXMIN|BOUNDARY,exec-right-turn,W_S,>EQ  10-G,LOW  SPEED,PEDESTRIAN,RL  0,acts-1,Y,777,99,106.106,9.900000000007125e-05
MAXMIN|MAXMIN|BOUNDARY,exec-right-turn,W_S,>EQ  10-G,LOW  SPEED,NO  PEDESTRIAN,RL  0,acts-1,Y,777,11,0,0.005103999999999997
MAXMIN|MAXMIN|BOUNDARY,exec-right-turn,W_S,>EQ  10-G,LOW  SPEED,NO  PEDESTRIAN,RL  0,acts-1,Y,777,11,1.001,0.0006530000000000147
MAXMIN|MAXMIN|BOUNDARY,exec-right-turn,W_S,>EQ  10-G,LOW  SPEED,NO  PEDESTRIAN,RL  0,acts-1,Y,777,16,6.006,0.00022900000000003473
MAXMIN|MAXMIN|BOUNDARY,exec-right-turn,W_S,>EQ  10-G,LOW  SPEED,NO  PEDESTRIAN,RL  0,acts-1,N,777,16,7.007,0.000260000000000038
MAXMIN|MAXMIN|BOUNDARY,exec-right-turn,W_S,>EQ  10-G,LOW  SPEED,NO  PEDESTRIAN,RL  0,acts-1,Y,777,69,61.895167,0.0006709999999999772
MAXMIN|MAXMIN|BOUNDARY,exec-right-turn,W_S,>EQ  10-G,LOW  SPEED,NO  PEDESTRIAN,RL  0,acts-1,Y,777,69,62.896167,0
MAXMIN|MAXMIN|BOUNDARY,exec-right-turn,S_E,<10-Y/R,LOW  SPEED,PEDESTRIAN,  RL  <EQ  2,acts-1,Y,777,116,95.261833,0
MAXMIN|MAXMIN|BOUNDARY,exec-right-turn,S_E,<10-Y/R,MEDIUM  SPEED,PEDESTRIAN,RL  0,acts-1,Y,777,116,96.262833,0
MAXMIN|MAXMIN|BOUNDARY,exec-right-turn,S_E,<10-Y/R,MEDIUM  SPEED,NO  PEDESTRIAN,RL  0,acts-1,Y,777,27,5.839167,0.00010100000000001774
MAXMIN|MAXMIN|BOUNDARY,exec-right-turn,S_E,>EQ  10-Y/R,LOW  SPEED,NO  PEDESTRIAN,RL  0,acts-1,Y,777,51,60.06,0.005574000000000079
MAXMIN|MAXMIN|BOUNDARY,exec-right-turn,S_E,>EQ  10-Y/R,LOW  SPEED,NO  PEDESTRIAN,RL  0,acts-1,Y,777,51,61.061,0
MAXMIN|MAXMIN|BOUNDARY,exec-right-turn,S_E,>EQ  10-Y/R,LOW  SPEED,NO  PEDESTRIAN,RL  0,acts-1,Y,777,106,87.5875,0
MAXMIN|MAXMIN|BOUNDARY,exec-right-turn,S_E,>EQ  10-Y/R,LOW  SPEED,NO  PEDESTRIAN,  RL  <EQ  2,acts-1,Y,777,106,86.5865,0
MAXMIN|MAXMIN|BOUNDARY,exec-right-turn,S_E,>EQ  10-G,LOW  SPEED,PEDESTRIAN,RL  0,acts-1,Y,777,164,158.825333,0.0005009999999999737
MAXMIN|MAXMIN|BOUNDARY,exec-right-turn,S_E,>EQ  10-G,LOW  SPEED,PEDESTRIAN,RL  0,acts-1,Y,777,164,159.826333,0
