EQ_TYPE,SEGMENT,TASK,NEXT_CHANGE,SPEED,PEDESTRIAN,RELEV_VEHICLE,ACTIONS,AGGRESSIVE,FILE_ID,TRACK_ID,TIME,ON_EQ
NASH|MAXMIN|GAUSSIAN,prep-left-turn,S_W,<10-Y/R,LOW  SPEED,NO  PEDESTRIAN,RL  0,acts-1,Y,777,6,3.003,0
NASH|MAXMIN|GAUSSIAN,prep-left-turn,S_W,<10-Y/R,LOW  SPEED,NO  PEDESTRIAN,RL  0,acts-1,Y,777,6,4.004,0
NASH|MAXMIN|GAUSSIAN,prep-left-turn,S_W,<10-Y/R,LOW  SPEED,NO  PEDESTRIAN,  RL  <EQ  2,acts-2,N,777,6,0,0
NASH|MAXMIN|GAUSSIAN,prep-left-turn,S_W,>EQ  10-Y/R,LOW  SPEED,PEDESTRIAN,  RL  <EQ  2,acts-3,Y,777,104,84.918167,0.29516600000000004
NASH|MAXMIN|GAUSSIAN,prep-left-turn,S_W,>EQ  10-Y/R,LOW  SPEED,PEDESTRIAN,  RL  <EQ  2,acts-3,Y,777,104,84.918167,0.3026380000000001
NASH|MAXMIN|GAUSSIAN,prep-left-turn,S_W,>EQ  10-Y/R,LOW  SPEED,PEDESTRIAN,  RL  >  2,acts-3,Y,777,104,85.919167,0.013658999999999977
NASH|MAXMIN|GAUSSIAN,prep-left-turn,S_W,>EQ  10-Y/R,LOW  SPEED,PEDESTRIAN,  RL  >  2,acts-3,Y,777,104,85.919167,0.013162000000000007
NASH|MAXMIN|GAUSSIAN,prep-left-turn,S_W,>EQ  10-Y/R,LOW  SPEED,PEDESTRIAN,  RL  >  2,acts-3,Y,777,104,86.920167,0.007741999999999916
NASH|MAXMIN|GAUSSIAN,prep-left-turn,S_W,>EQ  10-Y/R,LOW  SPEED,PEDESTRIAN,  RL  >  2,acts-3,Y,777,104,86.920167,0.007597999999999994
NASH|MAXMIN|GAUSSIAN,prep-left-turn,S_W,>EQ  10-Y/R,LOW  SPEED,NO  PEDESTRIAN,RL  0,acts-1,Y,777,21,56.056,0
NASH|MAXMIN|GAUSSIAN,prep-left-turn,S_W,>EQ  10-Y/R,LOW  SPEED,NO  PEDESTRIAN,RL  0,acts-1,Y,777,21,57.057,0
NASH|MAXMIN|GAUSSIAN,prep-left-turn,S_W,>EQ  10-Y/R,LOW  SPEED,NO  PEDESTRIAN,RL  0,acts-1,Y,777,21,58.058,0.004421000000000008
NASH|MAXMIN|GAUSSIAN,prep-left-turn,S_W,>EQ  10-Y/R,LOW  SPEED,NO  PEDESTRIAN,RL  0,acts-1,Y,777,21,59.059,0.0063310000000000866
NASH|MAXMIN|GAUSSIAN,prep-left-turn,N_E,>EQ  10-Y/R,LOW  SPEED,NO  PEDESTRIAN,RL  0,acts-1,Y,777,71,69.736333,0.0006190000000000362
NASH|MAXMIN|GAUSSIAN,prep-left-turn,N_E,>EQ  10-Y/R,LOW  SPEED,NO  PEDESTRIAN,RL  0,acts-1,Y,777,71,70.737333,0
NASH|MAXMIN|GAUSSIAN,prep-left-turn,N_E,>EQ  10-Y/R,LOW  SPEED,NO  PEDESTRIAN,RL  0,acts-1,Y,777,96,80.246833,0.077789
NASH|MAXMIN|GAUSSIAN,prep-left-turn,N_E,>EQ  10-Y/R,LOW  SPEED,NO  PEDESTRIAN,RL  0,acts-1,N,777,96,81.247833,0.07689100000000004
NASH|MAXMIN|GAUSSIAN,prep-left-turn,N_E,>EQ  10-Y/R,LOW  SPEED,NO  PEDESTRIAN,RL  0,acts-1,N,777,96,82.248833,0.07618999999999998
NASH|MAXMIN|GAUSSIAN,prep-left-turn,N_E,>EQ  10-Y/R,LOW  SPEED,NO  PEDESTRIAN,RL  0,acts-1,N,777,96,83.249833,0.07423099999999994
NASH|MAXMIN|GAUSSIAN,prep-left-turn,N_E,>EQ  10-Y/R,LOW  SPEED,NO  PEDESTRIAN,  RL  <EQ  2,acts-2,Y,777,103,91.257833,0
NASH|MAXMIN|GAUSSIAN,prep-left-turn,W_N,<10-Y/R,LOW  SPEED,NO  PEDESTRIAN,  RL  <EQ  2,acts-1,Y,777,156,141.474667,0.483105
NASH|MAXMIN|GAUSSIAN,prep-left-turn,W_N,<10-Y/R,LOW  SPEED,NO  PEDESTRIAN,  RL  >  2,acts-1,N,777,9,39.039,0.06906800000000002
NASH|MAXMIN|GAUSSIAN,prep-left-turn,W_N,<10-Y/R,LOW  SPEED,NO  PEDESTRIAN,  RL  >  2,acts-1,Y,777,156,140.473667,0.5018020000000001
NASH|MAXMIN|GAUSSIAN,prep-left-turn,W_N,>EQ  10-Y/R,LOW  SPEED,NO  PEDESTRIAN,RL  0,acts-1,Y,777,8,12.012,0
NASH|MAXMIN|GAUSSIAN,prep-left-turn,W_N,>EQ  10-Y/R,LOW  SPEED,NO  PEDESTRIAN,  RL  <EQ  2,acts-1,N,777,9,33.033,0.020691000000000015
NASH|MAXMIN|GAUSSIAN,prep-left-turn,W_N,>EQ  10-Y/R,LOW  SPEED,NO  PEDESTRIAN,  RL  <EQ  2,acts-1,N,777,9,37.037,0
NASH|MAXMIN|GAUSSIAN,prep-left-turn,W_N,>EQ  10-Y/R,LOW  SPEED,NO  PEDESTRIAN,  RL  >  2,acts-1,Y,777,9,21.021,0.060684000000000016
NASH|MAXMIN|GAUSSIAN,prep-left-turn,W_N,>EQ  10-Y/R,LOW  SPEED,NO  PEDESTRIAN,  RL  >  2,acts-1,Y,777,9,22.022,0
NASH|MAXMIN|GAUSSIAN,prep-left-turn,W_N,>EQ  10-Y/R,LOW  SPEED,NO  PEDESTRIAN,  RL  >  2,acts-1,Y,777,9,23.023,0.017766000000000004
NASH|MAXMIN|GAUSSIAN,prep-left-turn,W_N,>EQ  10-Y/R,LOW  SPEED,NO  PEDESTRIAN,  RL  >  2,acts-1,N,777,9,24.024,0.019784000000000024
NASH|MAXMIN|GAUSSIAN,prep-left-turn,W_N,>EQ  10-Y/R,LOW  SPEED,NO  PEDESTRIAN,  RL  >  2,acts-1,N,777,9,26.026,0.025173
NASH|MAXMIN|GAUSSIAN,prep-left-turn,W_N,>EQ  10-Y/R,LOW  SPEED,NO  PEDESTRIAN,  RL  >  2,acts-1,N,777,9,28.028,0.04785600000000001
NASH|MAXMIN|GAUSSIAN,prep-left-turn,W_N,>EQ  10-Y/R,LOW  SPEED,NO  PEDESTRIAN,  RL  >  2,acts-1,N,777,9,30.03,0.10189999999999999
NASH|MAXMIN|GAUSSIAN,prep-left-turn,W_N,>EQ  10-Y/R,LOW  SPEED,NO  PEDESTRIAN,  RL  >  2,acts-1,N,777,9,31.031,0.10254600000000003
NASH|MAXMIN|GAUSSIAN,prep-left-turn,W_N,>EQ  10-Y/R,LOW  SPEED,NO  PEDESTRIAN,  RL  >  2,acts-1,N,777,9,34.034,0.0024540000000000117
NASH|MAXMIN|GAUSSIAN,prep-left-turn,W_N,>EQ  10-Y/R,LOW  SPEED,NO  PEDESTRIAN,  RL  >  2,acts-1,N,777,9,38.038,0.025980000000000003
NASH|MAXMIN|GAUSSIAN,prep-left-turn,E_S,<10-Y/R,LOW  SPEED,NO  PEDESTRIAN,  RL  <EQ  2,acts-1,Y,777,55,39.205833,0.03689700000000007
NASH|MAXMIN|GAUSSIAN,prep-left-turn,E_S,<10-Y/R,LOW  SPEED,NO  PEDESTRIAN,  RL  <EQ  2,acts-1,Y,777,55,40.206833,0.5129349999999999
NASH|MAXMIN|GAUSSIAN,prep-left-turn,E_S,<10-Y/R,LOW  SPEED,NO  PEDESTRIAN,  RL  <EQ  2,acts-1,Y,777,55,41.207833,0.297262
NASH|MAXMIN|GAUSSIAN,prep-left-turn,E_S,<10-Y/R,LOW  SPEED,NO  PEDESTRIAN,  RL  <EQ  2,acts-1,Y,777,157,142.475667,0.14153499999999997
NASH|MAXMIN|GAUSSIAN,prep-left-turn,E_S,<10-Y/R,LOW  SPEED,NO  PEDESTRIAN,  RL  <EQ  2,acts-1,Y,777,157,143.476667,0.25613100000000005
NASH|MAXMIN|GAUSSIAN,prep-left-turn,E_S,<10-Y/R,LOW  SPEED,NO  PEDESTRIAN,  RL  <EQ  2,acts-1,N,777,157,148.481667,0.26831400000000005
NASH|MAXMIN|GAUSSIAN,prep-left-turn,E_S,<10-Y/R,LOW  SPEED,NO  PEDESTRIAN,  RL  <EQ  2,acts-2,N,777,64,46.880167,0.034022999999999914
NASH|MAXMIN|GAUSSIAN,prep-left-turn,E_S,<10-Y/R,LOW  SPEED,NO  PEDESTRIAN,  RL  >  2,acts-2,N,777,64,48.882167,0
NASH|MAXMIN|GAUSSIAN,prep-left-turn,E_S,<10-Y/R,LOW  SPEED,NO  PEDESTRIAN,  RL  >  2,acts-1,N,777,157,144.477667,0.167275
NASH|MAXMIN|GAUSSIAN,prep-left-turn,E_S,<10-Y/R,LOW  SPEED,NO  PEDESTRIAN,  RL  >  2,acts-1,N,777,157,145.478667,0.10435499999999998
NASH|MAXMIN|GAUSSIAN,prep-left-turn,E_S,<10-Y/R,LOW  SPEED,NO  PEDESTRIAN,  RL  >  2,acts-1,N,777,157,146.479667,0
NASH|MAXMIN|GAUSSIAN,prep-left-turn,E_S,>EQ  10-Y/R,LOW  SPEED,PEDESTRIAN,RL  0,acts-3,Y,777,65,112.445667,0
NASH|MAXMIN|GAUSSIAN,prep-left-turn,E_S,>EQ  10-Y/R,LOW  SPEED,PEDESTRIAN,RL  0,acts-3,Y,777,65,113.446667,0
NASH|MAXMIN|GAUSSIAN,prep-left-turn,E_S,>EQ  10-Y/R,LOW  SPEED,NO  PEDESTRIAN,RL  0,acts-1,Y,777,10,13.013,0.006468000000000029
NASH|MAXMIN|GAUSSIAN,prep-left-turn,E_S,>EQ  10-Y/R,LOW  SPEED,NO  PEDESTRIAN,  RL  <EQ  2,acts-2,N,777,5,15.015,0
NASH|MAXMIN|GAUSSIAN,exec-left-turn,S_W,<10-Y/R,LOW  SPEED,PEDESTRIAN,RL  0,acts-3,Y,777,104,95.929167,0.0014569999999999306
NASH|MAXMIN|GAUSSIAN,exec-left-turn,S_W,<10-Y/R,LOW  SPEED,PEDESTRIAN,  RL  <EQ  2,acts-3,Y,777,104,94.928167,0
NASH|MAXMIN|GAUSSIAN,exec-left-turn,S_W,<10-Y/R,LOW  SPEED,PEDESTRIAN,  RL  >  2,acts-3,Y,777,104,93.927167,0.00017899999999992922
NASH|MAXMIN|GAUSSIAN,exec-left-turn,S_W,<10-Y/R,LOW  SPEED,NO  PEDESTRIAN,RL  0,acts-1,Y,777,7,0,0.00520200000000004
NASH|MAXMIN|GAUSSIAN,exec-left-turn,S_W,<10-Y/R,LOW  SPEED,NO  PEDESTRIAN,RL  0,acts-1,Y,777,7,1.001,0
NASH|MAXMIN|GAUSSIAN,exec-left-turn,S_W,<10-Y/R,LOW  SPEED,NO  PEDESTRIAN,RL  0,acts-4,Y,777,6,6.006,0
NASH|MAXMIN|GAUSSIAN,exec-left-turn,S_W,<10-Y/R,LOW  SPEED,NO  PEDESTRIAN,RL  0,acts-4,Y,777,6,7.007,0
NASH|MAXMIN|GAUSSIAN,exec-left-turn,S_W,<10-Y/R,MEDIUM  SPEED,NO  PEDESTRIAN,RL  0,acts-1,Y,777,7,2.002,0
NASH|MAXMIN|GAUSSIAN,exec-left-turn,S_W,>EQ  10-Y/R,LOW  SPEED,PEDESTRIAN,  RL  >  2,acts-3,N,777,104,87.921167,0.004518000000000022
NASH|MAXMIN|GAUSSIAN,exec-left-turn,S_W,>EQ  10-Y/R,LOW  SPEED,PEDESTRIAN,  RL  >  2,acts-3,N,777,104,87.921167,0.0047679999999999945
NASH|MAXMIN|GAUSSIAN,exec-left-turn,S_W,>EQ  10-Y/R,LOW  SPEED,PEDESTRIAN,  RL  >  2,acts-3,Y,777,104,90.924167,0.369118
NASH|MAXMIN|GAUSSIAN,exec-left-turn,S_W,>EQ  10-Y/R,LOW  SPEED,PEDESTRIAN,  RL  >  2,acts-3,Y,777,104,91.925167,0.271821
NASH|MAXMIN|GAUSSIAN,exec-left-turn,S_W,>EQ  10-Y/R,LOW  SPEED,NO  PEDESTRIAN,RL  0,acts-1,Y,777,21,60.06,0.0015450000000000186
NASH|MAXMIN|GAUSSIAN,exec-left-turn,S_W,>EQ  10-Y/R,MEDIUM  SPEED,NO  PEDESTRIAN,RL  0,acts-1,Y,777,21,61.061,0.0022680000000000478
NASH|MAXMIN|GAUSSIAN,exec-left-turn,S_W,>EQ  10-G,LOW  SPEED,NO  PEDESTRIAN,RL  0,acts-4,Y,777,6,8.008,0
NASH|MAXMIN|GAUSSIAN,exec-left-turn,S_W,>EQ  10-G,MEDIUM  SPEED,NO  PEDESTRIAN,RL  0,acts-4,Y,777,6,9.009,0
NASH|MAXMIN|GAUSSIAN,exec-left-turn,N_E,<10-Y/R,LOW  SPEED,NO  PEDESTRIAN,RL  0,acts-1,N,777,28,1.835167,0.06051800000000007
NASH|MAXMIN|GAUSSIAN,exec-left-turn,N_E,<10-Y/R,LOW  SPEED,NO  PEDESTRIAN,RL  0,acts-1,N,777,28,2.836167,0.05527699999999991
NASH|MAXMIN|GAUSSIAN,exec-left-turn,N_E,<10-Y/R,LOW  SPEED,NO  PEDESTRIAN,RL  0,acts-1,N,777,28,3.837167,0.061860999999999944
NASH|MAXMIN|GAUSSIAN,exec-left-turn,N_E,<10-Y/R,LOW  SPEED,NO  PEDESTRIAN,RL  0,acts-1,Y,777,28,4.838167,0
NASH|MAXMIN|GAUSSIAN,exec-left-turn,N_E,<10-Y/R,LOW  SPEED,NO  PEDESTRIAN,RL  0,acts-1,N,777,96,93.259833,0.06389100000000003
NASH|MAXMIN|GAUSSIAN,exec-left-turn,N_E,<10-Y/R,LOW  SPEED,NO  PEDESTRIAN,RL  0,acts-1,N,777,96,94.260833,0.060794000000000015
NASH|MAXMIN|GAUSSIAN,exec-left-turn,N_E,<10-Y/R,LOW  SPEED,NO  PEDESTRIAN,RL  0,acts-1,Y,777,96,95.261833,0.017008000000000023
NASH|MAXMIN|GAUSSIAN,exec-left-turn,N_E,<10-Y/R,LOW  SPEED,NO  PEDESTRIAN,RL  0,acts-1,Y,777,96,96.262833,0.016425000000000023
NASH|MAXMIN|GAUSSIAN,exec-left-turn,N_E,<10-Y/R,LOW  SPEED,NO  PEDESTRIAN,RL  0,acts-1,Y,777,96,99.265833,0
NASH|MAXMIN|GAUSSIAN,exec-left-turn,N_E,<10-Y/R,LOW  SPEED,NO  PEDESTRIAN,RL  0,acts-1,N,777,103,101.267833,0.005529000000000006
NASH|MAXMIN|GAUSSIAN,exec-left-turn,N_E,<10-Y/R,LOW  SPEED,NO  PEDESTRIAN,RL  0,acts-1,Y,777,103,102.268833,0
NASH|MAXMIN|GAUSSIAN,exec-left-turn,N_E,<10-Y/R,LOW  SPEED,NO  PEDESTRIAN,RL  0,acts-4,Y,777,28,5.839167,0
NASH|MAXMIN|GAUSSIAN,exec-left-turn,N_E,<10-Y/R,LOW  SPEED,NO  PEDESTRIAN,RL  0,acts-4,Y,777,28,6.840167,0
NASH|MAXMIN|GAUSSIAN,exec-left-turn,N_E,<10-Y/R,LOW  SPEED,NO  PEDESTRIAN,RL  0,acts-4,N,777,28,7.841167,0
NASH|MAXMIN|GAUSSIAN,exec-left-turn,N_E,<10-Y/R,LOW  SPEED,NO  PEDESTRIAN,RL  0,acts-4,N,777,103,103.269833,0.01918299999999995
NASH|MAXMIN|GAUSSIAN,exec-left-turn,N_E,<10-Y/R,LOW  SPEED,NO  PEDESTRIAN,RL  0,acts-4,N,777,103,104.270833,0
NASH|MAXMIN|GAUSSIAN,exec-left-turn,N_E,<10-Y/R,LOW  SPEED,NO  PEDESTRIAN,RL  0,acts-4,Y,777,103,105.271833,0
NASH|MAXMIN|GAUSSIAN,exec-left-turn,N_E,<10-Y/R,LOW  SPEED,NO  PEDESTRIAN,RL  0,acts-4,Y,777,103,106.272833,0.016229999999999967
NASH|MAXMIN|GAUSSIAN,exec-left-turn,N_E,<10-Y/R,LOW  SPEED,NO  PEDESTRIAN,RL  0,acts-4,Y,777,103,107.273833,0
NASH|MAXMIN|GAUSSIAN,exec-left-turn,N_E,<10-Y/R,LOW  SPEED,NO  PEDESTRIAN,RL  0,acts-4,Y,777,103,108.274833,0
NASH|MAXMIN|GAUSSIAN,exec-left-turn,N_E,<10-Y/R,MEDIUM  SPEED,NO  PEDESTRIAN,RL  0,acts-1,Y,777,96,100.266833,0.0017399999999999638
NASH|MAXMIN|GAUSSIAN,exec-left-turn,N_E,>EQ  10-Y/R,LOW  SPEED,NO  PEDESTRIAN,RL  0,acts-1,Y,777,71,71.738333,0.0014159999999999728
NASH|MAXMIN|GAUSSIAN,exec-left-turn,N_E,>EQ  10-Y/R,LOW  SPEED,NO  PEDESTRIAN,RL  0,acts-1,Y,777,71,72.739333,0
NASH|MAXMIN|GAUSSIAN,exec-left-turn,N_E,>EQ  10-Y/R,LOW  SPEED,NO  PEDESTRIAN,RL  0,acts-1,Y,777,71,73.740333,0.0018679999999999808
NASH|MAXMIN|GAUSSIAN,exec-left-turn,N_E,>EQ  10-Y/R,LOW  SPEED,NO  PEDESTRIAN,RL  0,acts-1,N,777,96,84.250833,0.047592999999999996
NASH|MAXMIN|GAUSSIAN,exec-left-turn,N_E,>EQ  10-Y/R,LOW  SPEED,NO  PEDESTRIAN,RL  0,acts-1,N,777,96,85.251833,0.05305599999999999
NASH|MAXMIN|GAUSSIAN,exec-left-turn,N_E,>EQ  10-Y/R,LOW  SPEED,NO  PEDESTRIAN,RL  0,acts-1,N,777,96,86.252833,0
NASH|MAXMIN|GAUSSIAN,exec-left-turn,N_E,>EQ  10-Y/R,LOW  SPEED,NO  PEDESTRIAN,RL  0,acts-1,N,777,96,87.253833,0
NASH|MAXMIN|GAUSSIAN,exec-left-turn,N_E,>EQ  10-Y/R,LOW  SPEED,NO  PEDESTRIAN,RL  0,acts-1,N,777,96,88.254833,0.004054000000000002
NASH|MAXMIN|GAUSSIAN,exec-left-turn,N_E,>EQ  10-Y/R,LOW  SPEED,NO  PEDESTRIAN,RL  0,acts-1,N,777,96,91.257833,0.05673300000000003
NASH|MAXMIN|GAUSSIAN,exec-left-turn,N_E,>EQ  10-Y/R,LOW  SPEED,NO  PEDESTRIAN,RL  0,acts-1,N,777,96,92.258833,0.07187199999999994
NASH|MAXMIN|GAUSSIAN,exec-left-turn,N_E,>EQ  10-Y/R,LOW  SPEED,NO  PEDESTRIAN,RL  0,acts-5,N,777,96,89.255833,0.06462999999999997
NASH|MAXMIN|GAUSSIAN,exec-left-turn,N_E,>EQ  10-Y/R,LOW  SPEED,NO  PEDESTRIAN,RL  0,acts-5,N,777,96,90.256833,0.06815499999999997
NASH|MAXMIN|GAUSSIAN,exec-left-turn,N_E,>EQ  10-Y/R,MEDIUM  SPEED,NO  PEDESTRIAN,RL  0,acts-1,Y,777,71,74.741333,0.002363000000000004
NASH|MAXMIN|GAUSSIAN,exec-left-turn,N_E,>EQ  10-Y/R,MEDIUM  SPEED,NO  PEDESTRIAN,RL  0,acts-1,Y,777,71,75.742333,0.0012459999999999694
NASH|MAXMIN|GAUSSIAN,exec-left-turn,N_E,>EQ  10-G,LOW  SPEED,NO  PEDESTRIAN,RL  0,acts-4,Y,777,28,8.842167,0
NASH|MAXMIN|GAUSSIAN,exec-left-turn,N_E,>EQ  10-G,MEDIUM  SPEED,NO  PEDESTRIAN,RL  0,acts-4,Y,777,28,9.843167,0.0008620000000000294
NASH|MAXMIN|GAUSSIAN,exec-left-turn,N_E,>EQ  10-G,MEDIUM  SPEED,NO  PEDESTRIAN,RL  0,acts-4,Y,777,103,109.275833,0.0019679999999999698
NASH|MAXMIN|GAUSSIAN,exec-left-turn,N_E,>EQ  10-G,MEDIUM  SPEED,NO  PEDESTRIAN,RL  0,acts-4,Y,777,103,110.276833,0
NASH|MAXMIN|GAUSSIAN,exec-left-turn,W_N,<10-Y/R,LOW  SPEED,NO  PEDESTRIAN,RL  0,acts-1,Y,777,9,45.045,0
NASH|MAXMIN|GAUSSIAN,exec-left-turn,W_N,<10-Y/R,LOW  SPEED,NO  PEDESTRIAN,RL  0,acts-1,Y,777,9,46.046,0.0007309999999999262
NASH|MAXMIN|GAUSSIAN,exec-left-turn,W_N,<10-Y/R,LOW  SPEED,NO  PEDESTRIAN,RL  0,acts-4,Y,777,156,151.484667,0.0006500000000000394
NASH|MAXMIN|GAUSSIAN,exec-left-turn,W_N,<10-Y/R,LOW  SPEED,NO  PEDESTRIAN,RL  0,acts-4,Y,777,156,152.485667,0
NASH|MAXMIN|GAUSSIAN,exec-left-turn,W_N,<10-Y/R,LOW  SPEED,NO  PEDESTRIAN,RL  0,acts-4,Y,777,156,153.486667,0.003498999999999919
NASH|MAXMIN|GAUSSIAN,exec-left-turn,W_N,<10-Y/R,LOW  SPEED,NO  PEDESTRIAN,RL  0,acts-4,Y,777,156,154.487667,0.001599000000000017
NASH|MAXMIN|GAUSSIAN,exec-left-turn,W_N,<10-Y/R,LOW  SPEED,NO  PEDESTRIAN,  RL  <EQ  2,acts-4,Y,777,156,150.483667,0
NASH|MAXMIN|GAUSSIAN,exec-left-turn,W_N,<10-Y/R,LOW  SPEED,NO  PEDESTRIAN,  RL  >  2,acts-1,N,777,156,143.476667,0.029258000000000006
NASH|MAXMIN|GAUSSIAN,exec-left-turn,W_N,<10-Y/R,LOW  SPEED,NO  PEDESTRIAN,  RL  >  2,acts-1,N,777,156,144.477667,0.02999099999999999
NASH|MAXMIN|GAUSSIAN,exec-left-turn,W_N,<10-Y/R,LOW  SPEED,NO  PEDESTRIAN,  RL  >  2,acts-1,N,777,156,145.478667,0.0024959999999999982
NASH|MAXMIN|GAUSSIAN,exec-left-turn,W_N,<10-Y/R,LOW  SPEED,NO  PEDESTRIAN,  RL  >  2,acts-1,N,777,156,146.479667,0.172014
NASH|MAXMIN|GAUSSIAN,exec-left-turn,W_N,<10-Y/R,LOW  SPEED,NO  PEDESTRIAN,  RL  >  2,acts-1,N,777,156,147.480667,0
NASH|MAXMIN|GAUSSIAN,exec-left-turn,W_N,<10-Y/R,LOW  SPEED,NO  PEDESTRIAN,  RL  >  2,acts-1,N,777,156,148.481667,0.021948000000000023
NASH|MAXMIN|GAUSSIAN,exec-left-turn,W_N,<10-Y/R,MEDIUM  SPEED,NO  PEDESTRIAN,RL  0,acts-1,Y,777,9,47.047,0.002851000000000048
NASH|MAXMIN|GAUSSIAN,exec-left-turn,W_N,>EQ  10-Y/R,LOW  SPEED,NO  PEDESTRIAN,RL  0,acts-1,Y,777,8,13.013,0.004441000000000028
NASH|MAXMIN|GAUSSIAN,exec-left-turn,W_N,>EQ  10-Y/R,LOW  SPEED,NO  PEDESTRIAN,  RL  <EQ  2,acts-1,N,777,18,19.019,0
NASH|MAXMIN|GAUSSIAN,exec-left-turn,W_N,>EQ  10-Y/R,MEDIUM  SPEED,NO  PEDESTRIAN,RL  0,acts-1,Y,777,8,14.014,0.0033770000000000744
NASH|MAXMIN|GAUSSIAN,exec-left-turn,W_N,>EQ  10-Y/R,MEDIUM  SPEED,NO  PEDESTRIAN,RL  0,acts-1,N,777,8,15.015,0.015876
NASH|MAXMIN|GAUSSIAN,exec-left-turn,W_N,>EQ  10-Y/R,MEDIUM  SPEED,NO  PEDESTRIAN,RL  0,acts-1,N,777,2,17.017,0.0033490000000000464
NASH|MAXMIN|GAUSSIAN,exec-left-turn,E_S,<10-Y/R,LOW  SPEED,NO  PEDESTRIAN,RL  0,acts-4,Y,777,55,49.215833,0.003899000000000097
NASH|MAXMIN|GAUSSIAN,exec-left-turn,E_S,<10-Y/R,LOW  SPEED,NO  PEDESTRIAN,RL  0,acts-4,Y,777,55,50.216833,0
NASH|MAXMIN|GAUSSIAN,exec-left-turn,E_S,<10-Y/R,LOW  SPEED,NO  PEDESTRIAN,RL  0,acts-4,Y,777,55,51.217833,0
NASH|MAXMIN|GAUSSIAN,exec-left-turn,E_S,<10-Y/R,LOW  SPEED,NO  PEDESTRIAN,RL  0,acts-4,Y,777,157,153.486667,0.003874000000000044
NASH|MAXMIN|GAUSSIAN,exec-left-turn,E_S,<10-Y/R,LOW  SPEED,NO  PEDESTRIAN,RL  0,acts-4,Y,777,157,154.487667,0.0003109999999999502
NASH|MAXMIN|GAUSSIAN,exec-left-turn,E_S,<10-Y/R,LOW  SPEED,NO  PEDESTRIAN,RL  0,acts-4,Y,777,157,155.488667,0.006720000000000059
NASH|MAXMIN|GAUSSIAN,exec-left-turn,E_S,<10-Y/R,LOW  SPEED,NO  PEDESTRIAN,  RL  <EQ  2,acts-1,N,777,55,42.208833,0.04837399999999997
NASH|MAXMIN|GAUSSIAN,exec-left-turn,E_S,<10-Y/R,LOW  SPEED,NO  PEDESTRIAN,  RL  <EQ  2,acts-1,Y,777,55,44.210833,0
NASH|MAXMIN|GAUSSIAN,exec-left-turn,E_S,<10-Y/R,LOW  SPEED,NO  PEDESTRIAN,  RL  >  2,acts-1,Y,777,55,43.209833,0
NASH|MAXMIN|GAUSSIAN,exec-left-turn,E_S,>EQ  10-Y/R,LOW  SPEED,PEDESTRIAN,RL  0,acts-3,Y,777,65,114.447667,0.002558999999999978
NASH|MAXMIN|GAUSSIAN,exec-left-turn,E_S,>EQ  10-Y/R,LOW  SPEED,PEDESTRIAN,RL  0,acts-3,Y,777,65,115.448667,0.009286000000000016
NASH|MAXMIN|GAUSSIAN,exec-left-turn,E_S,>EQ  10-Y/R,LOW  SPEED,NO  PEDESTRIAN,RL  0,acts-1,N,777,10,14.014,0
NASH|MAXMIN|GAUSSIAN,exec-left-turn,E_S,>EQ  10-Y/R,LOW  SPEED,NO  PEDESTRIAN,RL  0,acts-1,Y,777,10,15.015,0.0024319999999999897
NASH|MAXMIN|GAUSSIAN,exec-left-turn,E_S,>EQ  10-Y/R,LOW  SPEED,NO  PEDESTRIAN,RL  0,acts-1,Y,777,10,16.016,7.399999999990747e-05
NASH|MAXMIN|GAUSSIAN,exec-left-turn,E_S,>EQ  10-Y/R,LOW  SPEED,NO  PEDESTRIAN,RL  0,acts-1,N,777,5,21.021,0
NASH|MAXMIN|GAUSSIAN,exec-left-turn,E_S,>EQ  10-Y/R,LOW  SPEED,NO  PEDESTRIAN,RL  0,acts-5,N,777,31,18.351667,0.023045000000000093
NASH|MAXMIN|GAUSSIAN,exec-left-turn,E_S,>EQ  10-Y/R,LOW  SPEED,NO  PEDESTRIAN,  RL  <EQ  2,acts-1,Y,777,5,19.019,0
NASH|MAXMIN|GAUSSIAN,exec-left-turn,E_S,>EQ  10-Y/R,LOW  SPEED,NO  PEDESTRIAN,  RL  <EQ  2,acts-1,Y,777,5,20.02,0
NASH|MAXMIN|GAUSSIAN,exec-left-turn,E_S,>EQ  10-Y/R,MEDIUM  SPEED,PEDESTRIAN,RL  0,acts-3,N,777,65,116.449667,4.999999999999449e-05
NASH|MAXMIN|GAUSSIAN,exec-left-turn,E_S,>EQ  10-Y/R,MEDIUM  SPEED,PEDESTRIAN,RL  0,acts-3,N,777,65,116.449667,9.399999999992747e-05
NASH|MAXMIN|GAUSSIAN,exec-left-turn,E_S,>EQ  10-Y/R,MEDIUM  SPEED,NO  PEDESTRIAN,RL  0,acts-1,Y,777,10,17.017,0.007013000000000047
NASH|MAXMIN|GAUSSIAN,exec-left-turn,E_S,>EQ  10-G,LOW  SPEED,NO  PEDESTRIAN,RL  0,acts-4,Y,777,64,53.887167,0.0019730000000000025
NASH|MAXMIN|GAUSSIAN,exec-left-turn,E_S,>EQ  10-G,LOW  SPEED,NO  PEDESTRIAN,RL  0,acts-4,Y,777,64,54.888167,0
NASH|MAXMIN|GAUSSIAN,OTHER  LANES,W_S,<10-Y/R,LOW  SPEED,NO  PEDESTRIAN,RL  0,acts-6,Y,777,174,150.984167,0.04070400000000007
NASH|MAXMIN|GAUSSIAN,OTHER  LANES,W_S,<10-Y/R,LOW  SPEED,NO  PEDESTRIAN,  RL  <EQ  2,acts-6,Y,777,59,40.373667,0.003106999999999971
NASH|MAXMIN|GAUSSIAN,OTHER  LANES,W_S,<10-Y/R,LOW  SPEED,NO  PEDESTRIAN,  RL  >  2,acts-6,N,777,59,41.374667,0
NASH|MAXMIN|GAUSSIAN,OTHER  LANES,W_S,<10-Y/R,LOW  SPEED,NO  PEDESTRIAN,  RL  >  2,acts-6,Y,777,59,42.375667,0.03836700000000004
NASH|MAXMIN|GAUSSIAN,OTHER  LANES,W_S,<10-Y/R,MEDIUM  SPEED,NO  PEDESTRIAN,RL  0,acts-6,Y,777,174,149.983167,0.04185799999999995
NASH|MAXMIN|GAUSSIAN,OTHER  LANES,W_S,<10-G,LOW  SPEED,PEDESTRIAN,RL  0,acts-7,N,777,111,117.6175,0.03704300000000005
NASH|MAXMIN|GAUSSIAN,OTHER  LANES,W_S,<10-G,LOW  SPEED,PEDESTRIAN,RL  0,acts-7,N,777,111,118.6185,0.03481499999999993
NASH|MAXMIN|GAUSSIAN,OTHER  LANES,W_S,<10-G,LOW  SPEED,PEDESTRIAN,  RL  <EQ  2,acts-7,Y,777,111,109.6095,0.004825999999999997
NASH|MAXMIN|GAUSSIAN,OTHER  LANES,W_S,<10-G,LOW  SPEED,PEDESTRIAN,  RL  <EQ  2,acts-7,N,777,111,112.6125,0
NASH|MAXMIN|GAUSSIAN,OTHER  LANES,W_S,<10-G,LOW  SPEED,PEDESTRIAN,  RL  >  2,acts-7,N,777,111,110.6105,0
NASH|MAXMIN|GAUSSIAN,OTHER  LANES,W_S,<10-G,LOW  SPEED,PEDESTRIAN,  RL  >  2,acts-7,N,777,111,113.6135,0.02032899999999993
NASH|MAXMIN|GAUSSIAN,OTHER  LANES,W_S,>EQ  10-Y/R,LOW  SPEED,PEDESTRIAN,RL  0,acts-7,N,777,111,119.6195,0.0035129999999999884
NASH|MAXMIN|GAUSSIAN,OTHER  LANES,W_S,>EQ  10-Y/R,LOW  SPEED,PEDESTRIAN,RL  0,acts-7,Y,777,111,120.6205,0.004249000000000058
NASH|MAXMIN|GAUSSIAN,OTHER  LANES,W_S,>EQ  10-Y/R,LOW  SPEED,PEDESTRIAN,RL  0,acts-7,Y,777,111,121.6215,0
NASH|MAXMIN|GAUSSIAN,OTHER  LANES,W_S,>EQ  10-Y/R,LOW  SPEED,NO  PEDESTRIAN,RL  0,acts-6,Y,777,42,24.5245,0.03810800000000003
NASH|MAXMIN|GAUSSIAN,OTHER  LANES,W_S,>EQ  10-Y/R,LOW  SPEED,NO  PEDESTRIAN,RL  0,acts-6,Y,777,47,26.192833,0.03808300000000009
NASH|MAXMIN|GAUSSIAN,OTHER  LANES,W_S,>EQ  10-Y/R,LOW  SPEED,NO  PEDESTRIAN,RL  0,acts-6,N,777,47,27.193833,0.0015439999999999898
NASH|MAXMIN|GAUSSIAN,OTHER  LANES,W_S,>EQ  10-Y/R,LOW  SPEED,NO  PEDESTRIAN,RL  0,acts-6,Y,777,47,28.194833,0.009904000000000024
NASH|MAXMIN|GAUSSIAN,OTHER  LANES,W_S,>EQ  10-Y/R,LOW  SPEED,NO  PEDESTRIAN,RL  0,acts-6,Y,777,47,29.195833,0.03259299999999998
NASH|MAXMIN|GAUSSIAN,OTHER  LANES,W_S,>EQ  10-Y/R,LOW  SPEED,NO  PEDESTRIAN,RL  0,acts-6,Y,777,47,30.196833,0.04355999999999993
NASH|MAXMIN|GAUSSIAN,OTHER  LANES,W_S,>EQ  10-Y/R,LOW  SPEED,NO  PEDESTRIAN,RL  0,acts-6,N,777,47,31.197833,0.031474
NASH|MAXMIN|GAUSSIAN,OTHER  LANES,W_S,>EQ  10-Y/R,LOW  SPEED,NO  PEDESTRIAN,  RL  <EQ  2,acts-6,Y,777,42,21.5215,0
NASH|MAXMIN|GAUSSIAN,OTHER  LANES,W_S,>EQ  10-Y/R,LOW  SPEED,NO  PEDESTRIAN,  RL  <EQ  2,acts-6,Y,777,53,35.5355,0.03323199999999993
NASH|MAXMIN|GAUSSIAN,OTHER  LANES,W_S,>EQ  10-G,LOW  SPEED,PEDESTRIAN,RL  0,acts-7,Y,777,99,103.103,0.00390899999999994
NASH|MAXMIN|GAUSSIAN,OTHER  LANES,W_S,>EQ  10-G,LOW  SPEED,PEDESTRIAN,RL  0,acts-7,N,777,111,105.6055,0.0005640000000000089
NASH|MAXMIN|GAUSSIAN,OTHER  LANES,W_S,>EQ  10-G,LOW  SPEED,PEDESTRIAN,RL  0,acts-7,N,777,111,106.6065,0.029497000000000106
NASH|MAXMIN|GAUSSIAN,OTHER  LANES,W_S,>EQ  10-G,LOW  SPEED,PEDESTRIAN,RL  0,acts-7,N,777,111,107.6075,0.042695999999999956
NASH|MAXMIN|GAUSSIAN,OTHER  LANES,W_S,>EQ  10-G,LOW  SPEED,PEDESTRIAN,RL  0,acts-7,Y,777,111,108.6085,0.04068500000000008
NASH|MAXMIN|GAUSSIAN,OTHER  LANES,W_S,>EQ  10-G,LOW  SPEED,PEDESTRIAN,  RL  <EQ  2,acts-7,N,777,99,100.1,0.001170999999999922
NASH|MAXMIN|GAUSSIAN,OTHER  LANES,W_S,>EQ  10-G,LOW  SPEED,PEDESTRIAN,  RL  <EQ  2,acts-7,Y,777,99,102.102,0
NASH|MAXMIN|GAUSSIAN,OTHER  LANES,W_S,>EQ  10-G,LOW  SPEED,PEDESTRIAN,  RL  <EQ  2,acts-7,Y,777,99,88.088,0
NASH|MAXMIN|GAUSSIAN,OTHER  LANES,W_S,>EQ  10-G,LOW  SPEED,PEDESTRIAN,  RL  <EQ  2,acts-7,N,777,99,95.095,0.0020620000000000083
NASH|MAXMIN|GAUSSIAN,OTHER  LANES,W_S,>EQ  10-G,LOW  SPEED,PEDESTRIAN,  RL  <EQ  2,acts-7,N,777,99,97.097,0.0015600000000000058
NASH|MAXMIN|GAUSSIAN,OTHER  LANES,W_S,>EQ  10-G,LOW  SPEED,PEDESTRIAN,  RL  <EQ  2,acts-7,N,777,99,99.099,0.001667000000000085
NASH|MAXMIN|GAUSSIAN,OTHER  LANES,W_S,>EQ  10-G,LOW  SPEED,PEDESTRIAN,  RL  <EQ  2,acts-8,N,777,127,108.6085,0.002907999999999966
NASH|MAXMIN|GAUSSIAN,OTHER  LANES,W_S,>EQ  10-G,LOW  SPEED,PEDESTRIAN,  RL  <EQ  2,acts-8,N,777,127,101.6015,0.00012699999999998823
NASH|MAXMIN|GAUSSIAN,OTHER  LANES,W_S,>EQ  10-G,LOW  SPEED,PEDESTRIAN,  RL  <EQ  2,acts-8,Y,777,127,102.6025,0.39409599999999995
NASH|MAXMIN|GAUSSIAN,OTHER  LANES,W_S,>EQ  10-G,LOW  SPEED,PEDESTRIAN,  RL  >  2,acts-7,Y,777,85,71.5715,0
NASH|MAXMIN|GAUSSIAN,OTHER  LANES,W_S,>EQ  10-G,LOW  SPEED,PEDESTRIAN,  RL  >  2,acts-7,Y,777,99,90.09,0.004037000000000068
NASH|MAXMIN|GAUSSIAN,OTHER  LANES,W_S,>EQ  10-G,LOW  SPEED,PEDESTRIAN,  RL  >  2,acts-7,N,777,99,91.091,0
NASH|MAXMIN|GAUSSIAN,OTHER  LANES,W_S,>EQ  10-G,LOW  SPEED,PEDESTRIAN,  RL  >  2,acts-7,N,777,99,92.092,0.0020330000000000625
NASH|MAXMIN|GAUSSIAN,OTHER  LANES,W_S,>EQ  10-G,LOW  SPEED,PEDESTRIAN,  RL  >  2,acts-7,N,777,99,94.094,0
NASH|MAXMIN|GAUSSIAN,OTHER  LANES,W_S,>EQ  10-G,LOW  SPEED,NO  PEDESTRIAN,RL  0,acts-6,N,777,16,0,0
NASH|MAXMIN|GAUSSIAN,OTHER  LANES,W_S,>EQ  10-G,LOW  SPEED,NO  PEDESTRIAN,RL  0,acts-6,N,777,16,1.001,0.002979000000000065
NASH|MAXMIN|GAUSSIAN,OTHER  LANES,W_S,>EQ  10-G,LOW  SPEED,NO  PEDESTRIAN,RL  0,acts-6,N,777,16,2.002,0.03490700000000002
NASH|MAXMIN|GAUSSIAN,OTHER  LANES,W_S,>EQ  10-G,LOW  SPEED,NO  PEDESTRIAN,RL  0,acts-6,N,777,19,6.006,0.03787499999999999
NASH|MAXMIN|GAUSSIAN,OTHER  LANES,W_S,>EQ  10-G,LOW  SPEED,NO  PEDESTRIAN,RL  0,acts-6,N,777,19,7.007,0
NASH|MAXMIN|GAUSSIAN,OTHER  LANES,W_S,>EQ  10-G,LOW  SPEED,NO  PEDESTRIAN,RL  0,acts-6,Y,777,69,54.888167,0.01317999999999997
NASH|MAXMIN|GAUSSIAN,OTHER  LANES,W_S,>EQ  10-G,LOW  SPEED,NO  PEDESTRIAN,RL  0,acts-6,Y,777,69,55.889167,0.04031300000000004
NASH|MAXMIN|GAUSSIAN,OTHER  LANES,W_S,>EQ  10-G,LOW  SPEED,NO  PEDESTRIAN,RL  0,acts-6,Y,777,69,56.890167,0.04111900000000002
NASH|MAXMIN|GAUSSIAN,OTHER  LANES,W_S,>EQ  10-G,LOW  SPEED,NO  PEDESTRIAN,RL  0,acts-6,Y,777,69,57.891167,0.03804099999999999
NASH|MAXMIN|GAUSSIAN,OTHER  LANES,W_S,>EQ  10-G,LOW  SPEED,NO  PEDESTRIAN,RL  0,acts-6,Y,777,69,58.892167,0.0023980000000000112
NASH|MAXMIN|GAUSSIAN,OTHER  LANES,W_S,>EQ  10-G,LOW  SPEED,NO  PEDESTRIAN,RL  0,acts-6,Y,777,69,59.893167,0.0022120000000001028
NASH|MAXMIN|GAUSSIAN,OTHER  LANES,W_S,>EQ  10-G,LOW  SPEED,NO  PEDESTRIAN,  RL  >  2,acts-6,Y,777,85,68.5685,0.004520999999999997
NASH|MAXMIN|GAUSSIAN,OTHER  LANES,W_S,>EQ  10-G,LOW  SPEED,NO  PEDESTRIAN,  RL  >  2,acts-6,Y,777,85,69.5695,0.0012360000000000149
NASH|MAXMIN|GAUSSIAN,OTHER  LANES,W_S,>EQ  10-G,LOW  SPEED,NO  PEDESTRIAN,  RL  >  2,acts-6,Y,777,85,70.5705,0.0014370000000000216
NASH|MAXMIN|GAUSSIAN,OTHER  LANES,W_S,>EQ  10-G,MEDIUM  SPEED,NO  PEDESTRIAN,RL  0,acts-6,Y,777,69,53.887167,0
NASH|MAXMIN|GAUSSIAN,OTHER  LANES,W_S,>EQ  10-G,MEDIUM  SPEED,NO  PEDESTRIAN,  RL  >  2,acts-6,N,777,85,66.5665,0.03214700000000004
NASH|MAXMIN|GAUSSIAN,OTHER  LANES,W_S,>EQ  10-G,MEDIUM  SPEED,NO  PEDESTRIAN,  RL  >  2,acts-6,Y,777,85,67.5675,0
NASH|MAXMIN|GAUSSIAN,OTHER  LANES,S_W,<10-Y/R,LOW  SPEED,NO  PEDESTRIAN,  RL  <EQ  2,acts-9,Y,777,21,0,0.0003689999999999527
NASH|MAXMIN|GAUSSIAN,OTHER  LANES,S_W,<10-G,LOW  SPEED,NO  PEDESTRIAN,RL  0,acts-10,N,777,26,46.5465,0.0003290000000000237
NASH|MAXMIN|GAUSSIAN,OTHER  LANES,S_W,<10-G,LOW  SPEED,NO  PEDESTRIAN,RL  0,acts-10,N,777,26,47.5475,0.00019999999999997797
NASH|MAXMIN|GAUSSIAN,OTHER  LANES,S_W,<10-G,LOW  SPEED,NO  PEDESTRIAN,RL  0,acts-10,N,777,26,48.5485,0
NASH|MAXMIN|GAUSSIAN,OTHER  LANES,S_W,<10-G,LOW  SPEED,NO  PEDESTRIAN,RL  0,acts-10,N,777,26,49.5495,0
NASH|MAXMIN|GAUSSIAN,OTHER  LANES,S_W,<10-G,LOW  SPEED,NO  PEDESTRIAN,RL  0,acts-10,N,777,26,50.5505,0.000248000000000026
NASH|MAXMIN|GAUSSIAN,OTHER  LANES,S_W,<10-G,LOW  SPEED,NO  PEDESTRIAN,RL  0,acts-10,N,777,26,51.5515,0.00019099999999994122
NASH|MAXMIN|GAUSSIAN,OTHER  LANES,S_W,<10-G,LOW  SPEED,NO  PEDESTRIAN,RL  0,acts-10,N,777,26,52.5525,0.0002869999999999262
NASH|MAXMIN|GAUSSIAN,OTHER  LANES,S_W,<10-G,LOW  SPEED,NO  PEDESTRIAN,RL  0,acts-10,N,777,26,53.5535,0.00021199999999998997
NASH|MAXMIN|GAUSSIAN,OTHER  LANES,S_W,<10-G,LOW  SPEED,NO  PEDESTRIAN,RL  0,acts-10,N,777,26,54.5545,0.0002260000000000595
NASH|MAXMIN|GAUSSIAN,OTHER  LANES,S_W,<10-G,LOW  SPEED,NO  PEDESTRIAN,RL  0,acts-10,N,777,26,55.5555,0
NASH|MAXMIN|GAUSSIAN,OTHER  LANES,S_W,<10-G,LOW  SPEED,NO  PEDESTRIAN,RL  0,acts-10,N,777,150,146.146,0.00029000000000001247
NASH|MAXMIN|GAUSSIAN,OTHER  LANES,S_W,<10-G,LOW  SPEED,NO  PEDESTRIAN,RL  0,acts-10,N,777,150,147.147,0
NASH|MAXMIN|GAUSSIAN,OTHER  LANES,S_W,<10-G,LOW  SPEED,NO  PEDESTRIAN,RL  0,acts-10,N,777,150,148.148,0
NASH|MAXMIN|GAUSSIAN,OTHER  LANES,S_W,<10-G,LOW  SPEED,NO  PEDESTRIAN,RL  0,acts-10,N,777,150,149.149,0.00011300000000002974
NASH|MAXMIN|GAUSSIAN,OTHER  LANES,S_W,<10-G,LOW  SPEED,NO  PEDESTRIAN,RL  0,acts-10,N,777,150,150.15,0.0001509999999999012
NASH|MAXMIN|GAUSSIAN,OTHER  LANES,S_W,<10-G,LOW  SPEED,NO  PEDESTRIAN,RL  0,acts-10,N,777,150,151.151,0.0003589999999999982
NASH|MAXMIN|GAUSSIAN,OTHER  LANES,S_W,<10-G,LOW  SPEED,NO  PEDESTRIAN,RL  0,acts-10,N,777,150,152.152,3.799999999998249e-05
NASH|MAXMIN|GAUSSIAN,OTHER  LANES,S_W,<10-G,LOW  SPEED,NO  PEDESTRIAN,RL  0,acts-10,N,777,150,153.153,0.00027800000000000047
NASH|MAXMIN|GAUSSIAN,OTHER  LANES,S_W,<10-G,LOW  SPEED,NO  PEDESTRIAN,RL  0,acts-10,N,777,150,154.154,0.00014300000000000423
NASH|MAXMIN|GAUSSIAN,OTHER  LANES,S_W,<10-G,LOW  SPEED,NO  PEDESTRIAN,RL  0,acts-10,N,777,150,155.155,0
NASH|MAXMIN|GAUSSIAN,OTHER  LANES,S_W,<10-G,LOW  SPEED,NO  PEDESTRIAN,  RL  <EQ  2,acts-10,N,777,155,149.315833,0.0
NASH|MAXMIN|GAUSSIAN,OTHER  LANES,S_W,<10-G,LOW  SPEED,NO  PEDESTRIAN,  RL  >  2,acts-10,N,777,155,146.312833,0
NASH|MAXMIN|GAUSSIAN,OTHER  LANES,S_W,<10-G,LOW  SPEED,NO  PEDESTRIAN,  RL  >  2,acts-10,N,777,155,147.313833,0
NASH|MAXMIN|GAUSSIAN,OTHER  LANES,S_W,<10-G,LOW  SPEED,NO  PEDESTRIAN,  RL  >  2,acts-10,N,777,155,148.314833,0
NASH|MAXMIN|GAUSSIAN,OTHER  LANES,S_W,<10-G,LOW  SPEED,NO  PEDESTRIAN,  RL  >  2,acts-10,N,777,155,150.316833,0
NASH|MAXMIN|GAUSSIAN,OTHER  LANES,S_W,<10-G,LOW  SPEED,NO  PEDESTRIAN,  RL  >  2,acts-10,N,777,155,151.317833,0
NASH|MAXMIN|GAUSSIAN,OTHER  LANES,S_W,<10-G,LOW  SPEED,NO  PEDESTRIAN,  RL  >  2,acts-10,N,777,155,152.318833,0
NASH|MAXMIN|GAUSSIAN,OTHER  LANES,S_W,<10-G,LOW  SPEED,NO  PEDESTRIAN,  RL  >  2,acts-10,N,777,155,153.319833,0
NASH|MAXMIN|GAUSSIAN,OTHER  LANES,S_W,<10-G,LOW  SPEED,NO  PEDESTRIAN,  RL  >  2,acts-10,N,777,155,155.321833,0
NASH|MAXMIN|GAUSSIAN,OTHER  LANES,S_W,>EQ  10-G,LOW  SPEED,NO  PEDESTRIAN,RL  0,acts-10,N,777,26,10.5105,6.799999999995698e-05
NASH|MAXMIN|GAUSSIAN,OTHER  LANES,S_W,>EQ  10-G,LOW  SPEED,NO  PEDESTRIAN,RL  0,acts-10,N,777,26,11.5115,6.699999999992823e-05
NASH|MAXMIN|GAUSSIAN,OTHER  LANES,S_W,>EQ  10-G,LOW  SPEED,NO  PEDESTRIAN,RL  0,acts-10,N,777,26,12.5125,0.0003869999999999152
NASH|MAXMIN|GAUSSIAN,OTHER  LANES,S_W,>EQ  10-G,LOW  SPEED,NO  PEDESTRIAN,RL  0,acts-10,N,777,26,13.5135,0
NASH|MAXMIN|GAUSSIAN,OTHER  LANES,S_W,>EQ  10-G,LOW  SPEED,NO  PEDESTRIAN,RL  0,acts-10,N,777,26,14.5145,0
NASH|MAXMIN|GAUSSIAN,OTHER  LANES,S_W,>EQ  10-G,LOW  SPEED,NO  PEDESTRIAN,RL  0,acts-10,N,777,26,15.5155,0.00017000000000000348
NASH|MAXMIN|GAUSSIAN,OTHER  LANES,S_W,>EQ  10-G,LOW  SPEED,NO  PEDESTRIAN,RL  0,acts-10,N,777,26,16.5165,0
NASH|MAXMIN|GAUSSIAN,OTHER  LANES,S_W,>EQ  10-G,LOW  SPEED,NO  PEDESTRIAN,RL  0,acts-10,N,777,26,17.5175,0.0002569999999999517
NASH|MAXMIN|GAUSSIAN,OTHER  LANES,S_W,>EQ  10-G,LOW  SPEED,NO  PEDESTRIAN,RL  0,acts-10,N,777,26,18.5185,0.00013300000000004975
NASH|MAXMIN|GAUSSIAN,OTHER  LANES,S_W,>EQ  10-G,LOW  SPEED,NO  PEDESTRIAN,RL  0,acts-10,N,777,26,19.5195,0
NASH|MAXMIN|GAUSSIAN,OTHER  LANES,S_W,>EQ  10-G,LOW  SPEED,NO  PEDESTRIAN,RL  0,acts-10,N,777,26,20.5205,0.00020299999999995322
NASH|MAXMIN|GAUSSIAN,OTHER  LANES,S_W,>EQ  10-G,LOW  SPEED,NO  PEDESTRIAN,RL  0,acts-10,N,777,26,21.5215,0.00024999999999997247
NASH|MAXMIN|GAUSSIAN,OTHER  LANES,S_W,>EQ  10-G,LOW  SPEED,NO  PEDESTRIAN,RL  0,acts-10,N,777,26,22.5225,0
NASH|MAXMIN|GAUSSIAN,OTHER  LANES,S_W,>EQ  10-G,LOW  SPEED,NO  PEDESTRIAN,RL  0,acts-10,N,777,26,23.5235,0
NASH|MAXMIN|GAUSSIAN,OTHER  LANES,S_W,>EQ  10-G,LOW  SPEED,NO  PEDESTRIAN,RL  0,acts-10,N,777,26,24.5245,0.00022800000000000598
NASH|MAXMIN|GAUSSIAN,OTHER  LANES,S_W,>EQ  10-G,LOW  SPEED,NO  PEDESTRIAN,RL  0,acts-10,N,777,26,25.5255,0.00020100000000000673
NASH|MAXMIN|GAUSSIAN,OTHER  LANES,S_W,>EQ  10-G,LOW  SPEED,NO  PEDESTRIAN,RL  0,acts-10,N,777,26,26.5265,3.799999999998249e-05
NASH|MAXMIN|GAUSSIAN,OTHER  LANES,S_W,>EQ  10-G,LOW  SPEED,NO  PEDESTRIAN,RL  0,acts-10,N,777,26,27.5275,0.00015500000000001624
NASH|MAXMIN|GAUSSIAN,OTHER  LANES,S_W,>EQ  10-G,LOW  SPEED,NO  PEDESTRIAN,RL  0,acts-10,N,777,26,28.5285,0
NASH|MAXMIN|GAUSSIAN,OTHER  LANES,S_W,>EQ  10-G,LOW  SPEED,NO  PEDESTRIAN,RL  0,acts-10,N,777,26,29.5295,0
NASH|MAXMIN|GAUSSIAN,OTHER  LANES,S_W,>EQ  10-G,LOW  SPEED,NO  PEDESTRIAN,RL  0,acts-10,N,777,26,30.5305,0
NASH|MAXMIN|GAUSSIAN,OTHER  LANES,S_W,>EQ  10-G,LOW  SPEED,NO  PEDESTRIAN,RL  0,acts-10,N,777,26,31.5315,0
NASH|MAXMIN|GAUSSIAN,OTHER  LANES,S_W,>EQ  10-G,LOW  SPEED,NO  PEDESTRIAN,RL  0,acts-10,N,777,26,32.5325,6.4000000000064e-05
NASH|MAXMIN|GAUSSIAN,OTHER  LANES,S_W,>EQ  10-G,LOW  SPEED,NO  PEDESTRIAN,RL  0,acts-10,N,777,26,33.5335,0.0002249999999999197
NASH|MAXMIN|GAUSSIAN,OTHER  LANES,S_W,>EQ  10-G,LOW  SPEED,NO  PEDESTRIAN,RL  0,acts-10,N,777,26,34.5345,2.599999999997049e-05
NASH|MAXMIN|GAUSSIAN,OTHER  LANES,S_W,>EQ  10-G,LOW  SPEED,NO  PEDESTRIAN,RL  0,acts-10,N,777,26,35.5355,0.0002649999999999597
NASH|MAXMIN|GAUSSIAN,OTHER  LANES,S_W,>EQ  10-G,LOW  SPEED,NO  PEDESTRIAN,RL  0,acts-10,N,777,26,36.5365,2.5000000000052758e-05
NASH|MAXMIN|GAUSSIAN,OTHER  LANES,S_W,>EQ  10-G,LOW  SPEED,NO  PEDESTRIAN,RL  0,acts-10,N,777,26,37.5375,0.00021499999999996522
NASH|MAXMIN|GAUSSIAN,OTHER  LANES,S_W,>EQ  10-G,LOW  SPEED,NO  PEDESTRIAN,RL  0,acts-10,N,777,26,38.5385,0.00011399999999994748
NASH|MAXMIN|GAUSSIAN,OTHER  LANES,S_W,>EQ  10-G,LOW  SPEED,NO  PEDESTRIAN,RL  0,acts-10,N,777,26,39.5395,0.000300000000000078
NASH|MAXMIN|GAUSSIAN,OTHER  LANES,S_W,>EQ  10-G,LOW  SPEED,NO  PEDESTRIAN,RL  0,acts-10,N,777,26,40.5405,0.00018099999999998673
NASH|MAXMIN|GAUSSIAN,OTHER  LANES,S_W,>EQ  10-G,LOW  SPEED,NO  PEDESTRIAN,RL  0,acts-10,N,777,26,41.5415,0.0002969999999999917
NASH|MAXMIN|GAUSSIAN,OTHER  LANES,S_W,>EQ  10-G,LOW  SPEED,NO  PEDESTRIAN,RL  0,acts-10,N,777,26,42.5425,0
NASH|MAXMIN|GAUSSIAN,OTHER  LANES,S_W,>EQ  10-G,LOW  SPEED,NO  PEDESTRIAN,RL  0,acts-10,N,777,26,43.5435,0
NASH|MAXMIN|GAUSSIAN,OTHER  LANES,S_W,>EQ  10-G,LOW  SPEED,NO  PEDESTRIAN,RL  0,acts-10,N,777,26,44.5445,0
NASH|MAXMIN|GAUSSIAN,OTHER  LANES,S_W,>EQ  10-G,LOW  SPEED,NO  PEDESTRIAN,RL  0,acts-10,N,777,26,45.5455,0.00030199999999991345
NASH|MAXMIN|GAUSSIAN,OTHER  LANES,S_W,>EQ  10-G,LOW  SPEED,NO  PEDESTRIAN,RL  0,acts-10,N,777,26,8.5085,0.0003580000000000805
NASH|MAXMIN|GAUSSIAN,OTHER  LANES,S_W,>EQ  10-G,LOW  SPEED,NO  PEDESTRIAN,RL  0,acts-10,N,777,26,9.5095,0.000168000000000057
NASH|MAXMIN|GAUSSIAN,OTHER  LANES,S_W,>EQ  10-G,LOW  SPEED,NO  PEDESTRIAN,RL  0,acts-10,Y,777,150,133.133,0.0006309999999999372
NASH|MAXMIN|GAUSSIAN,OTHER  LANES,S_W,>EQ  10-G,LOW  SPEED,NO  PEDESTRIAN,RL  0,acts-10,Y,777,150,134.134,0.0013110000000000621
NASH|MAXMIN|GAUSSIAN,OTHER  LANES,S_W,>EQ  10-G,LOW  SPEED,NO  PEDESTRIAN,RL  0,acts-10,Y,777,150,135.135,3.100000000000325e-05
NASH|MAXMIN|GAUSSIAN,OTHER  LANES,S_W,>EQ  10-G,LOW  SPEED,NO  PEDESTRIAN,RL  0,acts-10,N,777,150,136.136,0
NASH|MAXMIN|GAUSSIAN,OTHER  LANES,S_W,>EQ  10-G,LOW  SPEED,NO  PEDESTRIAN,RL  0,acts-10,N,777,150,137.137,9.099999999995223e-05
NASH|MAXMIN|GAUSSIAN,OTHER  LANES,S_W,>EQ  10-G,LOW  SPEED,NO  PEDESTRIAN,RL  0,acts-10,N,777,150,138.138,0.00021000000000004349
NASH|MAXMIN|GAUSSIAN,OTHER  LANES,S_W,>EQ  10-G,LOW  SPEED,NO  PEDESTRIAN,RL  0,acts-10,N,777,150,139.139,0.00026999999999999247
NASH|MAXMIN|GAUSSIAN,OTHER  LANES,S_W,>EQ  10-G,LOW  SPEED,NO  PEDESTRIAN,RL  0,acts-10,N,777,150,140.14,0.00011200000000000099
NASH|MAXMIN|GAUSSIAN,OTHER  LANES,S_W,>EQ  10-G,LOW  SPEED,NO  PEDESTRIAN,RL  0,acts-10,N,777,150,141.141,0.00021399999999993646
NASH|MAXMIN|GAUSSIAN,OTHER  LANES,S_W,>EQ  10-G,LOW  SPEED,NO  PEDESTRIAN,RL  0,acts-10,N,777,150,142.142,0.0003770000000000717
NASH|MAXMIN|GAUSSIAN,OTHER  LANES,S_W,>EQ  10-G,LOW  SPEED,NO  PEDESTRIAN,RL  0,acts-10,N,777,150,143.143,0.00032700000000007723
NASH|MAXMIN|GAUSSIAN,OTHER  LANES,S_W,>EQ  10-G,LOW  SPEED,NO  PEDESTRIAN,RL  0,acts-10,N,777,150,144.144,0
NASH|MAXMIN|GAUSSIAN,OTHER  LANES,S_W,>EQ  10-G,LOW  SPEED,NO  PEDESTRIAN,RL  0,acts-10,N,777,150,145.145,0.00015799999999999148
NASH|MAXMIN|GAUSSIAN,OTHER  LANES,S_W,>EQ  10-G,LOW  SPEED,NO  PEDESTRIAN,  RL  <EQ  2,acts-10,N,777,155,144.310833,0
NASH|MAXMIN|GAUSSIAN,OTHER  LANES,S_W,>EQ  10-G,LOW  SPEED,NO  PEDESTRIAN,  RL  >  2,acts-10,N,777,155,137.303833,0
NASH|MAXMIN|GAUSSIAN,OTHER  LANES,S_W,>EQ  10-G,LOW  SPEED,NO  PEDESTRIAN,  RL  >  2,acts-10,N,777,155,138.304833,0
NASH|MAXMIN|GAUSSIAN,OTHER  LANES,S_W,>EQ  10-G,LOW  SPEED,NO  PEDESTRIAN,  RL  >  2,acts-10,N,777,155,139.305833,0.0
NASH|MAXMIN|GAUSSIAN,OTHER  LANES,S_W,>EQ  10-G,LOW  SPEED,NO  PEDESTRIAN,  RL  >  2,acts-10,N,777,155,140.306833,0
NASH|MAXMIN|GAUSSIAN,OTHER  LANES,S_W,>EQ  10-G,LOW  SPEED,NO  PEDESTRIAN,  RL  >  2,acts-10,N,777,155,141.307833,0
NASH|MAXMIN|GAUSSIAN,OTHER  LANES,S_W,>EQ  10-G,LOW  SPEED,NO  PEDESTRIAN,  RL  >  2,acts-10,N,777,155,142.308833,0
NASH|MAXMIN|GAUSSIAN,OTHER  LANES,S_W,>EQ  10-G,LOW  SPEED,NO  PEDESTRIAN,  RL  >  2,acts-10,N,777,155,143.309833,0
NASH|MAXMIN|GAUSSIAN,OTHER  LANES,S_W,>EQ  10-G,LOW  SPEED,NO  PEDESTRIAN,  RL  >  2,acts-10,N,777,155,145.311833,0
NASH|MAXMIN|GAUSSIAN,OTHER  LANES,N_E,<10-G,LOW  SPEED,PEDESTRIAN,RL  0,acts-10,N,777,145,147.147,0.00031999999999998696
NASH|MAXMIN|GAUSSIAN,OTHER  LANES,N_E,<10-G,LOW  SPEED,PEDESTRIAN,RL  0,acts-10,N,777,145,148.148,5.2000000000052005e-05
NASH|MAXMIN|GAUSSIAN,OTHER  LANES,N_E,<10-G,LOW  SPEED,PEDESTRIAN,RL  0,acts-10,N,777,145,149.149,0.00024299999999999322
NASH|MAXMIN|GAUSSIAN,OTHER  LANES,N_E,<10-G,LOW  SPEED,PEDESTRIAN,RL  0,acts-10,N,777,145,150.15,9.199999999998099e-05
NASH|MAXMIN|GAUSSIAN,OTHER  LANES,N_E,<10-G,LOW  SPEED,PEDESTRIAN,RL  0,acts-10,N,777,145,151.151,0.00019999999999997797
NASH|MAXMIN|GAUSSIAN,OTHER  LANES,N_E,<10-G,LOW  SPEED,PEDESTRIAN,RL  0,acts-10,N,777,145,152.152,5.3999999999998494e-05
NASH|MAXMIN|GAUSSIAN,OTHER  LANES,N_E,<10-G,LOW  SPEED,PEDESTRIAN,RL  0,acts-10,N,777,145,153.153,0
NASH|MAXMIN|GAUSSIAN,OTHER  LANES,N_E,<10-G,LOW  SPEED,PEDESTRIAN,RL  0,acts-10,N,777,145,154.154,4.0000000000040004e-05
NASH|MAXMIN|GAUSSIAN,OTHER  LANES,N_E,<10-G,LOW  SPEED,PEDESTRIAN,RL  0,acts-10,N,777,145,155.155,0.0005210000000001047
NASH|MAXMIN|GAUSSIAN,OTHER  LANES,N_E,<10-G,LOW  SPEED,NO  PEDESTRIAN,RL  0,acts-10,N,777,71,56.723333,0.0003740000000000965
NASH|MAXMIN|GAUSSIAN,OTHER  LANES,N_E,<10-G,LOW  SPEED,NO  PEDESTRIAN,RL  0,acts-10,N,777,71,57.724333,0.00021300000000001873
NASH|MAXMIN|GAUSSIAN,OTHER  LANES,N_E,<10-G,LOW  SPEED,NO  PEDESTRIAN,RL  0,acts-10,N,777,71,58.725333,0
NASH|MAXMIN|GAUSSIAN,OTHER  LANES,N_E,<10-G,LOW  SPEED,NO  PEDESTRIAN,RL  0,acts-10,N,777,71,59.726333,5.699999999997374e-05
NASH|MAXMIN|GAUSSIAN,OTHER  LANES,N_E,<10-G,LOW  SPEED,NO  PEDESTRIAN,RL  0,acts-10,N,777,71,60.727333,4.700000000001925e-05
NASH|MAXMIN|GAUSSIAN,OTHER  LANES,N_E,<10-G,LOW  SPEED,NO  PEDESTRIAN,RL  0,acts-10,N,777,71,61.728333,9.199999999998099e-05
NASH|MAXMIN|GAUSSIAN,OTHER  LANES,N_E,<10-G,LOW  SPEED,NO  PEDESTRIAN,RL  0,acts-10,N,777,71,62.729333,0.00012699999999998823
NASH|MAXMIN|GAUSSIAN,OTHER  LANES,N_E,<10-G,LOW  SPEED,NO  PEDESTRIAN,RL  0,acts-10,N,777,71,63.730333,0.00040600000000001746
NASH|MAXMIN|GAUSSIAN,OTHER  LANES,N_E,<10-G,LOW  SPEED,NO  PEDESTRIAN,RL  0,acts-10,N,777,71,64.731333,0.0002729999999999677
NASH|MAXMIN|GAUSSIAN,OTHER  LANES,N_E,<10-G,LOW  SPEED,NO  PEDESTRIAN,RL  0,acts-10,N,777,71,65.732333,0
NASH|MAXMIN|GAUSSIAN,OTHER  LANES,N_E,<10-G,LOW  SPEED,NO  PEDESTRIAN,RL  0,acts-10,N,777,145,146.146,0.00031999999999998696
NASH|MAXMIN|GAUSSIAN,OTHER  LANES,N_E,>EQ  10-Y/R,LOW  SPEED,NO  PEDESTRIAN,RL  0,acts-1,Y,777,71,66.733333,0
NASH|MAXMIN|GAUSSIAN,OTHER  LANES,N_E,>EQ  10-Y/R,LOW  SPEED,NO  PEDESTRIAN,RL  0,acts-1,Y,777,71,67.734333,0.0004979999999999984
NASH|MAXMIN|GAUSSIAN,OTHER  LANES,N_E,>EQ  10-Y/R,LOW  SPEED,NO  PEDESTRIAN,RL  0,acts-1,Y,777,71,68.735333,0
NASH|MAXMIN|GAUSSIAN,OTHER  LANES,N_E,>EQ  10-Y/R,LOW  SPEED,NO  PEDESTRIAN,RL  0,acts-1,Y,777,103,85.251833,0
NASH|MAXMIN|GAUSSIAN,OTHER  LANES,N_E,>EQ  10-G,LOW  SPEED,NO  PEDESTRIAN,RL  0,acts-10,Y,777,71,53.720333,2.599999999997049e-05
NASH|MAXMIN|GAUSSIAN,OTHER  LANES,N_E,>EQ  10-G,LOW  SPEED,NO  PEDESTRIAN,RL  0,acts-10,Y,777,71,54.721333,0
NASH|MAXMIN|GAUSSIAN,OTHER  LANES,N_E,>EQ  10-G,LOW  SPEED,NO  PEDESTRIAN,RL  0,acts-10,N,777,71,55.722333,0
NASH|MAXMIN|GAUSSIAN,OTHER  LANES,N_E,>EQ  10-G,LOW  SPEED,NO  PEDESTRIAN,RL  0,acts-10,Y,777,145,129.129,0.00024999999999997247
NASH|MAXMIN|GAUSSIAN,OTHER  LANES,N_E,>EQ  10-G,LOW  SPEED,NO  PEDESTRIAN,RL  0,acts-10,N,777,145,130.13,0
NASH|MAXMIN|GAUSSIAN,OTHER  LANES,N_E,>EQ  10-G,LOW  SPEED,NO  PEDESTRIAN,RL  0,acts-10,Y,777,145,131.131,5.6000000000056005e-05
NASH|MAXMIN|GAUSSIAN,OTHER  LANES,N_E,>EQ  10-G,LOW  SPEED,NO  PEDESTRIAN,RL  0,acts-10,N,777,145,132.132,0.00014300000000000423
NASH|MAXMIN|GAUSSIAN,OTHER  LANES,N_E,>EQ  10-G,LOW  SPEED,NO  PEDESTRIAN,RL  0,acts-10,N,777,145,133.133,7.299999999998974e-05
NASH|MAXMIN|GAUSSIAN,OTHER  LANES,N_E,>EQ  10-G,LOW  SPEED,NO  PEDESTRIAN,RL  0,acts-10,N,777,145,134.134,0
NASH|MAXMIN|GAUSSIAN,OTHER  LANES,N_E,>EQ  10-G,LOW  SPEED,NO  PEDESTRIAN,RL  0,acts-10,N,777,145,135.135,2.999999999997449e-05
NASH|MAXMIN|GAUSSIAN,OTHER  LANES,N_E,>EQ  10-G,LOW  SPEED,NO  PEDESTRIAN,RL  0,acts-10,N,777,145,136.136,0.0004290000000000127
NASH|MAXMIN|GAUSSIAN,OTHER  LANES,N_E,>EQ  10-G,LOW  SPEED,NO  PEDESTRIAN,RL  0,acts-10,N,777,145,137.137,0.00024900000000005473
NASH|MAXMIN|GAUSSIAN,OTHER  LANES,N_E,>EQ  10-G,LOW  SPEED,NO  PEDESTRIAN,RL  0,acts-10,N,777,145,138.138,0.00012000000000000899
NASH|MAXMIN|GAUSSIAN,OTHER  LANES,N_E,>EQ  10-G,LOW  SPEED,NO  PEDESTRIAN,RL  0,acts-10,N,777,145,139.139,0.0002469999999999972
NASH|MAXMIN|GAUSSIAN,OTHER  LANES,N_E,>EQ  10-G,LOW  SPEED,NO  PEDESTRIAN,RL  0,acts-10,N,777,145,140.14,0.0002590000000000092
NASH|MAXMIN|GAUSSIAN,OTHER  LANES,N_E,>EQ  10-G,LOW  SPEED,NO  PEDESTRIAN,RL  0,acts-10,N,777,145,141.141,0.00030199999999991345
NASH|MAXMIN|GAUSSIAN,OTHER  LANES,N_E,>EQ  10-G,LOW  SPEED,NO  PEDESTRIAN,RL  0,acts-10,N,777,145,142.142,0.000144000000000033
NASH|MAXMIN|GAUSSIAN,OTHER  LANES,N_E,>EQ  10-G,LOW  SPEED,NO  PEDESTRIAN,RL  0,acts-10,N,777,145,143.143,9.00000000000345e-05
NASH|MAXMIN|GAUSSIAN,OTHER  LANES,N_E,>EQ  10-G,LOW  SPEED,NO  PEDESTRIAN,RL  0,acts-10,N,777,145,144.144,0.00017700000000009375
NASH|MAXMIN|GAUSSIAN,OTHER  LANES,N_E,>EQ  10-G,LOW  SPEED,NO  PEDESTRIAN,RL  0,acts-10,N,777,145,145.145,0.00017000000000000348
NASH|MAXMIN|GAUSSIAN,OTHER  LANES,W_N,<10-G,LOW  SPEED,NO  PEDESTRIAN,RL  0,acts-10,N,777,8,1.001,0.0006270000000000442
NASH|MAXMIN|GAUSSIAN,OTHER  LANES,W_N,<10-G,LOW  SPEED,NO  PEDESTRIAN,RL  0,acts-10,Y,777,8,10.01,0.0003949999999999232
NASH|MAXMIN|GAUSSIAN,OTHER  LANES,W_N,<10-G,LOW  SPEED,NO  PEDESTRIAN,RL  0,acts-10,N,777,8,2.002,0.00021999999999999797
NASH|MAXMIN|GAUSSIAN,OTHER  LANES,W_N,<10-G,LOW  SPEED,NO  PEDESTRIAN,RL  0,acts-10,N,777,8,3.003,0.00044800000000000395
NASH|MAXMIN|GAUSSIAN,OTHER  LANES,W_N,<10-G,LOW  SPEED,NO  PEDESTRIAN,RL  0,acts-10,N,777,8,4.004,0.00021400000000004749
NASH|MAXMIN|GAUSSIAN,OTHER  LANES,W_N,<10-G,LOW  SPEED,NO  PEDESTRIAN,RL  0,acts-10,N,777,8,5.005,0.0006230000000000402
NASH|MAXMIN|GAUSSIAN,OTHER  LANES,W_N,<10-G,LOW  SPEED,NO  PEDESTRIAN,RL  0,acts-10,N,777,8,6.006,0.0010769999999999946
NASH|MAXMIN|GAUSSIAN,OTHER  LANES,W_N,<10-G,LOW  SPEED,NO  PEDESTRIAN,RL  0,acts-10,N,777,8,7.007,0.00012699999999998823
NASH|MAXMIN|GAUSSIAN,OTHER  LANES,W_N,<10-G,LOW  SPEED,NO  PEDESTRIAN,RL  0,acts-10,N,777,8,8.008,0.00034400000000001096
NASH|MAXMIN|GAUSSIAN,OTHER  LANES,W_N,<10-G,LOW  SPEED,NO  PEDESTRIAN,RL  0,acts-10,Y,777,8,9.009,5.000000000032756e-06
NASH|MAXMIN|GAUSSIAN,OTHER  LANES,W_N,<10-G,LOW  SPEED,NO  PEDESTRIAN,  RL  <EQ  2,acts-10,N,777,9,10.01,0
NASH|MAXMIN|GAUSSIAN,OTHER  LANES,W_N,<10-G,LOW  SPEED,NO  PEDESTRIAN,  RL  <EQ  2,acts-10,N,777,18,2.002,0
NASH|MAXMIN|GAUSSIAN,OTHER  LANES,W_N,<10-G,LOW  SPEED,NO  PEDESTRIAN,  RL  <EQ  2,acts-10,N,777,9,4.004,0
NASH|MAXMIN|GAUSSIAN,OTHER  LANES,W_N,<10-G,LOW  SPEED,NO  PEDESTRIAN,  RL  <EQ  2,acts-10,N,777,18,7.007,0
NASH|MAXMIN|GAUSSIAN,OTHER  LANES,W_N,<10-G,LOW  SPEED,NO  PEDESTRIAN,  RL  <EQ  2,acts-10,N,777,18,8.008,7.299999999998974e-05
NASH|MAXMIN|GAUSSIAN,OTHER  LANES,W_N,<10-G,LOW  SPEED,NO  PEDESTRIAN,  RL  <EQ  2,acts-10,N,777,2,9.009,0
NASH|MAXMIN|GAUSSIAN,OTHER  LANES,W_N,<10-G,LOW  SPEED,NO  PEDESTRIAN,  RL  <EQ  2,acts-10,N,777,9,9.009,0.0
NASH|MAXMIN|GAUSSIAN,OTHER  LANES,W_N,<10-G,LOW  SPEED,NO  PEDESTRIAN,  RL  >  2,acts-10,N,777,2,1.001,0
NASH|MAXMIN|GAUSSIAN,OTHER  LANES,W_N,<10-G,LOW  SPEED,NO  PEDESTRIAN,  RL  >  2,acts-10,N,777,9,1.001,0
NASH|MAXMIN|GAUSSIAN,OTHER  LANES,W_N,<10-G,LOW  SPEED,NO  PEDESTRIAN,  RL  >  2,acts-10,N,777,2,2.002,0
NASH|MAXMIN|GAUSSIAN,OTHER  LANES,W_N,<10-G,LOW  SPEED,NO  PEDESTRIAN,  RL  >  2,acts-10,N,777,9,2.002,0
NASH|MAXMIN|GAUSSIAN,OTHER  LANES,W_N,<10-G,LOW  SPEED,NO  PEDESTRIAN,  RL  >  2,acts-10,N,777,9,3.003,0
NASH|MAXMIN|GAUSSIAN,OTHER  LANES,W_N,<10-G,LOW  SPEED,NO  PEDESTRIAN,  RL  >  2,acts-10,N,777,2,5.005,0
NASH|MAXMIN|GAUSSIAN,OTHER  LANES,W_N,<10-G,LOW  SPEED,NO  PEDESTRIAN,  RL  >  2,acts-10,N,777,9,5.005,0
NASH|MAXMIN|GAUSSIAN,OTHER  LANES,W_N,<10-G,LOW  SPEED,NO  PEDESTRIAN,  RL  >  2,acts-10,N,777,2,6.006,0
NASH|MAXMIN|GAUSSIAN,OTHER  LANES,W_N,<10-G,LOW  SPEED,NO  PEDESTRIAN,  RL  >  2,acts-10,N,777,9,6.006,0
NASH|MAXMIN|GAUSSIAN,OTHER  LANES,W_N,<10-G,LOW  SPEED,NO  PEDESTRIAN,  RL  >  2,acts-10,N,777,2,7.007,0
NASH|MAXMIN|GAUSSIAN,OTHER  LANES,W_N,<10-G,LOW  SPEED,NO  PEDESTRIAN,  RL  >  2,acts-10,N,777,9,7.007,0
NASH|MAXMIN|GAUSSIAN,OTHER  LANES,W_N,<10-G,LOW  SPEED,NO  PEDESTRIAN,  RL  >  2,acts-10,N,777,2,8.008,0
NASH|MAXMIN|GAUSSIAN,OTHER  LANES,W_N,<10-G,LOW  SPEED,NO  PEDESTRIAN,  RL  >  2,acts-10,N,777,9,8.008,0
NASH|MAXMIN|GAUSSIAN,OTHER  LANES,W_N,>EQ  10-Y/R,LOW  SPEED,NO  PEDESTRIAN,RL  0,acts-1,Y,777,2,13.013,0.006889999999999952
NASH|MAXMIN|GAUSSIAN,OTHER  LANES,W_N,>EQ  10-Y/R,LOW  SPEED,NO  PEDESTRIAN,RL  0,acts-1,N,777,2,14.014,0
NASH|MAXMIN|GAUSSIAN,OTHER  LANES,W_N,>EQ  10-Y/R,LOW  SPEED,NO  PEDESTRIAN,RL  0,acts-1,Y,777,8,11.011,0
NASH|MAXMIN|GAUSSIAN,OTHER  LANES,W_N,>EQ  10-Y/R,LOW  SPEED,NO  PEDESTRIAN,  RL  <EQ  2,acts-9,Y,777,9,13.013,0.0004249999999999532
NASH|MAXMIN|GAUSSIAN,OTHER  LANES,W_N,>EQ  10-Y/R,LOW  SPEED,NO  PEDESTRIAN,  RL  <EQ  2,acts-9,Y,777,18,13.013,0.009661999999999948
NASH|MAXMIN|GAUSSIAN,OTHER  LANES,W_N,>EQ  10-Y/R,LOW  SPEED,NO  PEDESTRIAN,  RL  >  2,acts-9,Y,777,9,14.014,0
NASH|MAXMIN|GAUSSIAN,OTHER  LANES,W_N,>EQ  10-G,LOW  SPEED,NO  PEDESTRIAN,RL  0,acts-10,N,777,8,0,0.0007779999999999454
NASH|MAXMIN|GAUSSIAN,OTHER  LANES,W_N,>EQ  10-G,LOW  SPEED,NO  PEDESTRIAN,  RL  >  2,acts-10,N,777,2,0,0.0
NASH|MAXMIN|GAUSSIAN,OTHER  LANES,W_N,>EQ  10-G,LOW  SPEED,NO  PEDESTRIAN,  RL  >  2,acts-10,N,777,9,0,0
NASH|MAXMIN|GAUSSIAN,OTHER  LANES,S_E,<10-Y/R,LOW  SPEED,NO  PEDESTRIAN,  RL  <EQ  2,acts-6,N,777,27,2.836167,0
NASH|MAXMIN|GAUSSIAN,OTHER  LANES,S_E,<10-G,LOW  SPEED,PEDESTRIAN,RL  0,acts-7,Y,777,173,168.334833,0
NASH|MAXMIN|GAUSSIAN,OTHER  LANES,S_E,<10-G,LOW  SPEED,PEDESTRIAN,  RL  <EQ  2,acts-7,N,777,173,163.329833,0.001202999999999954
NASH|MAXMIN|GAUSSIAN,OTHER  LANES,S_E,<10-G,LOW  SPEED,PEDESTRIAN,  RL  <EQ  2,acts-7,N,777,173,164.330833,0.0012609999999999566
NASH|MAXMIN|GAUSSIAN,OTHER  LANES,S_E,<10-G,LOW  SPEED,PEDESTRIAN,  RL  <EQ  2,acts-7,N,777,173,165.331833,4.000000000004e-06
NASH|MAXMIN|GAUSSIAN,OTHER  LANES,S_E,<10-G,LOW  SPEED,PEDESTRIAN,  RL  >  2,acts-7,N,777,173,161.327833,0.0006400000000000849
NASH|MAXMIN|GAUSSIAN,OTHER  LANES,S_E,<10-G,LOW  SPEED,PEDESTRIAN,  RL  >  2,acts-7,N,777,173,162.328833,0
NASH|MAXMIN|GAUSSIAN,OTHER  LANES,S_E,<10-G,LOW  SPEED,NO  PEDESTRIAN,RL  0,acts-6,Y,777,51,54.054,0.005059999999999953
NASH|MAXMIN|GAUSSIAN,OTHER  LANES,S_E,<10-G,LOW  SPEED,NO  PEDESTRIAN,RL  0,acts-6,Y,777,51,55.055,0.0017200000000000548
NASH|MAXMIN|GAUSSIAN,OTHER  LANES,S_E,>EQ  10-Y/R,LOW  SPEED,PEDESTRIAN,  RL  >  2,acts-7,N,777,116,91.257833,0.10761100000000001
NASH|MAXMIN|GAUSSIAN,OTHER  LANES,S_E,>EQ  10-Y/R,LOW  SPEED,PEDESTRIAN,  RL  >  2,acts-7,Y,777,116,92.258833,0
NASH|MAXMIN|GAUSSIAN,OTHER  LANES,S_E,>EQ  10-Y/R,LOW  SPEED,NO  PEDESTRIAN,RL  0,acts-6,N,777,51,56.056,8.500000000000174e-05
NASH|MAXMIN|GAUSSIAN,OTHER  LANES,S_E,>EQ  10-Y/R,LOW  SPEED,NO  PEDESTRIAN,RL  0,acts-6,Y,777,51,57.057,0
NASH|MAXMIN|GAUSSIAN,OTHER  LANES,S_E,>EQ  10-Y/R,LOW  SPEED,NO  PEDESTRIAN,RL  0,acts-6,N,777,73,59.726333,0.010081999999999924
NASH|MAXMIN|GAUSSIAN,OTHER  LANES,S_E,>EQ  10-Y/R,LOW  SPEED,NO  PEDESTRIAN,RL  0,acts-6,N,777,82,64.731333,0.021279999999999966
NASH|MAXMIN|GAUSSIAN,OTHER  LANES,S_E,>EQ  10-Y/R,LOW  SPEED,NO  PEDESTRIAN,RL  0,acts-6,Y,777,78,61.895167,0
NASH|MAXMIN|GAUSSIAN,OTHER  LANES,S_E,>EQ  10-Y/R,LOW  SPEED,NO  PEDESTRIAN,  RL  <EQ  2,acts-11,Y,777,78,59.893167,0.18958700000000006
NASH|MAXMIN|GAUSSIAN,OTHER  LANES,S_E,>EQ  10-Y/R,LOW  SPEED,NO  PEDESTRIAN,  RL  <EQ  2,acts-6,N,777,106,83.5835,0
NASH|MAXMIN|GAUSSIAN,OTHER  LANES,S_E,>EQ  10-Y/R,LOW  SPEED,NO  PEDESTRIAN,  RL  <EQ  2,acts-6,N,777,106,84.5845,8.399999999997299e-05
NASH|MAXMIN|GAUSSIAN,OTHER  LANES,S_E,>EQ  10-G,LOW  SPEED,PEDESTRIAN,  RL  <EQ  2,acts-7,N,777,173,158.324833,0
NASH|MAXMIN|GAUSSIAN,OTHER  LANES,S_E,>EQ  10-G,LOW  SPEED,PEDESTRIAN,  RL  <EQ  2,acts-7,Y,777,173,159.325833,0
NASH|MAXMIN|GAUSSIAN,OTHER  LANES,S_E,>EQ  10-G,LOW  SPEED,PEDESTRIAN,  RL  <EQ  2,acts-7,N,777,173,160.326833,0
NASH|MAXMIN|GAUSSIAN,OTHER  LANES,S_E,>EQ  10-G,LOW  SPEED,PEDESTRIAN,  RL  >  2,acts-7,Y,777,173,157.323833,0
NASH|MAXMIN|GAUSSIAN,OTHER  LANES,S_E,>EQ  10-G,LOW  SPEED,NO  PEDESTRIAN,  RL  <EQ  2,acts-6,Y,777,164,140.807333,0
NASH|MAXMIN|GAUSSIAN,OTHER  LANES,S_E,>EQ  10-G,LOW  SPEED,NO  PEDESTRIAN,  RL  <EQ  2,acts-6,Y,777,164,142.809333,0.0006380000000000274
NASH|MAXMIN|GAUSSIAN,OTHER  LANES,S_E,>EQ  10-G,LOW  SPEED,NO  PEDESTRIAN,  RL  >  2,acts-6,N,777,51,29.029,0.0009400000000000519
NASH|MAXMIN|GAUSSIAN,OTHER  LANES,S_E,>EQ  10-G,LOW  SPEED,NO  PEDESTRIAN,  RL  >  2,acts-6,N,777,51,33.033,0.0020419999999999883
NASH|MAXMIN|GAUSSIAN,OTHER  LANES,E_S,<10-Y/R,MEDIUM  SPEED,NO  PEDESTRIAN,  RL  <EQ  2,acts-1,N,777,64,41.875167,0.13300800000000002
NASH|MAXMIN|GAUSSIAN,OTHER  LANES,E_S,<10-G,LOW  SPEED,PEDESTRIAN,RL  0,acts-10,N,777,65,100.433667,0
NASH|MAXMIN|GAUSSIAN,OTHER  LANES,E_S,<10-G,LOW  SPEED,PEDESTRIAN,RL  0,acts-10,N,777,65,101.434667,0.00032300000000007323
NASH|MAXMIN|GAUSSIAN,OTHER  LANES,E_S,<10-G,LOW  SPEED,PEDESTRIAN,RL  0,acts-10,N,777,65,102.435667,0.00036199999999997345
NASH|MAXMIN|GAUSSIAN,OTHER  LANES,E_S,<10-G,LOW  SPEED,PEDESTRIAN,RL  0,acts-10,N,777,65,103.436667,0.00011899999999998023
NASH|MAXMIN|GAUSSIAN,OTHER  LANES,E_S,<10-G,LOW  SPEED,PEDESTRIAN,RL  0,acts-10,N,777,65,104.437667,0
NASH|MAXMIN|GAUSSIAN,OTHER  LANES,E_S,<10-G,LOW  SPEED,PEDESTRIAN,RL  0,acts-10,N,777,65,105.438667,0.0005190000000000472
NASH|MAXMIN|GAUSSIAN,OTHER  LANES,E_S,<10-G,LOW  SPEED,PEDESTRIAN,RL  0,acts-10,N,777,65,106.439667,0
NASH|MAXMIN|GAUSSIAN,OTHER  LANES,E_S,<10-G,LOW  SPEED,PEDESTRIAN,RL  0,acts-10,N,777,65,107.440667,0.00013299999999993872
NASH|MAXMIN|GAUSSIAN,OTHER  LANES,E_S,<10-G,LOW  SPEED,PEDESTRIAN,RL  0,acts-10,N,777,65,108.441667,0.0004509999999999792
NASH|MAXMIN|GAUSSIAN,OTHER  LANES,E_S,<10-G,LOW  SPEED,PEDESTRIAN,RL  0,acts-10,N,777,65,99.432667,2.8999999999945736e-05
NASH|MAXMIN|GAUSSIAN,OTHER  LANES,E_S,<10-G,LOW  SPEED,NO  PEDESTRIAN,RL  0,acts-10,N,777,10,1.001,7.599999999996498e-05
NASH|MAXMIN|GAUSSIAN,OTHER  LANES,E_S,<10-G,LOW  SPEED,NO  PEDESTRIAN,RL  0,acts-10,Y,777,10,10.01,0.00029400000000001647
NASH|MAXMIN|GAUSSIAN,OTHER  LANES,E_S,<10-G,LOW  SPEED,NO  PEDESTRIAN,RL  0,acts-10,N,777,10,2.002,0.0005220000000000224
NASH|MAXMIN|GAUSSIAN,OTHER  LANES,E_S,<10-G,LOW  SPEED,NO  PEDESTRIAN,RL  0,acts-10,N,777,10,3.003,0.0005770000000000497
NASH|MAXMIN|GAUSSIAN,OTHER  LANES,E_S,<10-G,LOW  SPEED,NO  PEDESTRIAN,RL  0,acts-10,N,777,10,4.004,0.0006939999999999724
NASH|MAXMIN|GAUSSIAN,OTHER  LANES,E_S,<10-G,LOW  SPEED,NO  PEDESTRIAN,RL  0,acts-10,N,777,10,5.005,0.0011330000000000506
NASH|MAXMIN|GAUSSIAN,OTHER  LANES,E_S,<10-G,LOW  SPEED,NO  PEDESTRIAN,RL  0,acts-10,N,777,10,6.006,0.00014099999999994672
NASH|MAXMIN|GAUSSIAN,OTHER  LANES,E_S,<10-G,LOW  SPEED,NO  PEDESTRIAN,RL  0,acts-10,N,777,10,7.007,0.0008399999999999519
NASH|MAXMIN|GAUSSIAN,OTHER  LANES,E_S,<10-G,LOW  SPEED,NO  PEDESTRIAN,RL  0,acts-10,N,777,10,8.008,0
NASH|MAXMIN|GAUSSIAN,OTHER  LANES,E_S,<10-G,LOW  SPEED,NO  PEDESTRIAN,RL  0,acts-10,N,777,10,9.009,0.0005850000000000577
NASH|MAXMIN|GAUSSIAN,OTHER  LANES,E_S,<10-G,LOW  SPEED,NO  PEDESTRIAN,  RL  <EQ  2,acts-10,N,777,5,2.002,0
NASH|MAXMIN|GAUSSIAN,OTHER  LANES,E_S,<10-G,LOW  SPEED,NO  PEDESTRIAN,  RL  <EQ  2,acts-10,N,777,5,4.004,0.0
NASH|MAXMIN|GAUSSIAN,OTHER  LANES,E_S,<10-G,LOW  SPEED,NO  PEDESTRIAN,  RL  <EQ  2,acts-10,N,777,5,8.008,0.0
NASH|MAXMIN|GAUSSIAN,OTHER  LANES,E_S,<10-G,LOW  SPEED,NO  PEDESTRIAN,  RL  <EQ  2,acts-10,N,777,31,9.342667,0
NASH|MAXMIN|GAUSSIAN,OTHER  LANES,E_S,<10-G,LOW  SPEED,NO  PEDESTRIAN,  RL  >  2,acts-10,N,777,5,1.001,0
NASH|MAXMIN|GAUSSIAN,OTHER  LANES,E_S,>EQ  10-Y/R,LOW  SPEED,PEDESTRIAN,RL  0,acts-1,Y,777,65,109.442667,0
NASH|MAXMIN|GAUSSIAN,OTHER  LANES,E_S,>EQ  10-Y/R,LOW  SPEED,PEDESTRIAN,RL  0,acts-1,Y,777,65,110.443667,0.0002529999999999477
NASH|MAXMIN|GAUSSIAN,OTHER  LANES,E_S,>EQ  10-Y/R,LOW  SPEED,PEDESTRIAN,RL  0,acts-1,Y,777,65,111.444667,0
NASH|MAXMIN|GAUSSIAN,OTHER  LANES,E_S,>EQ  10-Y/R,LOW  SPEED,NO  PEDESTRIAN,RL  0,acts-1,Y,777,10,11.011,0.004101000000000021
NASH|MAXMIN|GAUSSIAN,OTHER  LANES,E_S,>EQ  10-Y/R,LOW  SPEED,NO  PEDESTRIAN,RL  0,acts-1,Y,777,10,12.012,0.00017800000000001148
NASH|MAXMIN|GAUSSIAN,OTHER  LANES,E_S,>EQ  10-Y/R,LOW  SPEED,NO  PEDESTRIAN,  RL  <EQ  2,acts-9,Y,777,5,11.011,0.0007950000000000457
NASH|MAXMIN|GAUSSIAN,OTHER  LANES,E_S,>EQ  10-Y/R,LOW  SPEED,NO  PEDESTRIAN,  RL  >  2,acts-1,Y,777,55,34.200833,0
NASH|MAXMIN|GAUSSIAN,OTHER  LANES,E_S,>EQ  10-Y/R,MEDIUM  SPEED,PEDESTRIAN,  RL  >  2,acts-1,N,777,157,136.469667,0
NASH|MAXMIN|GAUSSIAN,OTHER  LANES,E_S,>EQ  10-G,LOW  SPEED,PEDESTRIAN,RL  0,acts-10,N,777,65,90.423667,6.4000000000064e-05
NASH|MAXMIN|GAUSSIAN,OTHER  LANES,E_S,>EQ  10-G,LOW  SPEED,PEDESTRIAN,RL  0,acts-10,N,777,65,91.424667,0.00037599999999993194
NASH|MAXMIN|GAUSSIAN,OTHER  LANES,E_S,>EQ  10-G,LOW  SPEED,PEDESTRIAN,RL  0,acts-10,N,777,65,92.425667,0.000264000000000042
NASH|MAXMIN|GAUSSIAN,OTHER  LANES,E_S,>EQ  10-G,LOW  SPEED,PEDESTRIAN,RL  0,acts-10,N,777,65,93.426667,0.0004470000000000862
NASH|MAXMIN|GAUSSIAN,OTHER  LANES,E_S,>EQ  10-G,LOW  SPEED,PEDESTRIAN,RL  0,acts-10,N,777,65,94.427667,0.0006270000000000442
NASH|MAXMIN|GAUSSIAN,OTHER  LANES,E_S,>EQ  10-G,LOW  SPEED,PEDESTRIAN,RL  0,acts-10,N,777,65,95.428667,0
NASH|MAXMIN|GAUSSIAN,OTHER  LANES,E_S,>EQ  10-G,LOW  SPEED,PEDESTRIAN,RL  0,acts-10,N,777,65,96.429667,0.0006670000000000842
NASH|MAXMIN|GAUSSIAN,OTHER  LANES,E_S,>EQ  10-G,LOW  SPEED,PEDESTRIAN,RL  0,acts-10,N,777,65,97.430667,0.00043599999999999195
NASH|MAXMIN|GAUSSIAN,OTHER  LANES,E_S,>EQ  10-G,LOW  SPEED,PEDESTRIAN,RL  0,acts-10,N,777,65,98.431667,0.0006240000000000689
NASH|MAXMIN|GAUSSIAN,OTHER  LANES,E_S,>EQ  10-G,LOW  SPEED,NO  PEDESTRIAN,RL  0,acts-10,N,777,10,0,0
NASH|MAXMIN|GAUSSIAN,OTHER  LANES,E_S,>EQ  10-G,LOW  SPEED,NO  PEDESTRIAN,RL  0,acts-10,N,777,65,53.386667,7.299999999998974e-05
NASH|MAXMIN|GAUSSIAN,OTHER  LANES,E_S,>EQ  10-G,LOW  SPEED,NO  PEDESTRIAN,RL  0,acts-10,N,777,65,54.387667,0.0009710000000000552
NASH|MAXMIN|GAUSSIAN,OTHER  LANES,E_S,>EQ  10-G,LOW  SPEED,NO  PEDESTRIAN,RL  0,acts-10,N,777,65,55.388667,0.0004290000000000127
NASH|MAXMIN|GAUSSIAN,OTHER  LANES,E_S,>EQ  10-G,LOW  SPEED,NO  PEDESTRIAN,RL  0,acts-10,N,777,65,56.389667,0.0002489999999999437
NASH|MAXMIN|GAUSSIAN,OTHER  LANES,E_S,>EQ  10-G,LOW  SPEED,NO  PEDESTRIAN,RL  0,acts-10,N,777,65,57.390667,0
NASH|MAXMIN|GAUSSIAN,OTHER  LANES,E_S,>EQ  10-G,LOW  SPEED,NO  PEDESTRIAN,RL  0,acts-10,N,777,65,58.391667,0.0005020000000000024
NASH|MAXMIN|GAUSSIAN,OTHER  LANES,E_S,>EQ  10-G,LOW  SPEED,NO  PEDESTRIAN,RL  0,acts-10,N,777,65,59.392667,0.00013700000000005375
NASH|MAXMIN|GAUSSIAN,OTHER  LANES,E_S,>EQ  10-G,LOW  SPEED,NO  PEDESTRIAN,RL  0,acts-10,N,777,65,60.393667,0
NASH|MAXMIN|GAUSSIAN,OTHER  LANES,E_S,>EQ  10-G,LOW  SPEED,NO  PEDESTRIAN,RL  0,acts-10,N,777,65,61.394667,0.0006749999999999812
NASH|MAXMIN|GAUSSIAN,OTHER  LANES,E_S,>EQ  10-G,LOW  SPEED,NO  PEDESTRIAN,RL  0,acts-10,N,777,65,62.395667,0.0003410000000000357
NASH|MAXMIN|GAUSSIAN,OTHER  LANES,E_S,>EQ  10-G,LOW  SPEED,NO  PEDESTRIAN,RL  0,acts-10,N,777,65,63.396667,0.000148000000000037
NASH|MAXMIN|GAUSSIAN,OTHER  LANES,E_S,>EQ  10-G,LOW  SPEED,NO  PEDESTRIAN,RL  0,acts-10,N,777,65,64.397667,0.0007050000000000667
NASH|MAXMIN|GAUSSIAN,OTHER  LANES,E_S,>EQ  10-G,LOW  SPEED,NO  PEDESTRIAN,RL  0,acts-10,N,777,65,65.398667,0.00046199999999996244
NASH|MAXMIN|GAUSSIAN,OTHER  LANES,E_S,>EQ  10-G,LOW  SPEED,NO  PEDESTRIAN,RL  0,acts-10,N,777,65,66.399667,0.0006230000000000402
NASH|MAXMIN|GAUSSIAN,OTHER  LANES,E_S,>EQ  10-G,LOW  SPEED,NO  PEDESTRIAN,RL  0,acts-10,N,777,65,67.400667,0.0007960000000000189
NASH|MAXMIN|GAUSSIAN,OTHER  LANES,E_S,>EQ  10-G,LOW  SPEED,NO  PEDESTRIAN,RL  0,acts-10,N,777,65,68.401667,0.0006709999999999772
NASH|MAXMIN|GAUSSIAN,OTHER  LANES,E_S,>EQ  10-G,LOW  SPEED,NO  PEDESTRIAN,RL  0,acts-10,N,777,65,69.402667,0.00045600000000001195
NASH|MAXMIN|GAUSSIAN,OTHER  LANES,E_S,>EQ  10-G,LOW  SPEED,NO  PEDESTRIAN,RL  0,acts-10,N,777,65,70.403667,0.0003580000000000805
NASH|MAXMIN|GAUSSIAN,OTHER  LANES,E_S,>EQ  10-G,LOW  SPEED,NO  PEDESTRIAN,RL  0,acts-10,N,777,65,71.404667,0
NASH|MAXMIN|GAUSSIAN,OTHER  LANES,E_S,>EQ  10-G,LOW  SPEED,NO  PEDESTRIAN,RL  0,acts-10,N,777,65,72.405667,0
NASH|MAXMIN|GAUSSIAN,OTHER  LANES,E_S,>EQ  10-G,LOW  SPEED,NO  PEDESTRIAN,RL  0,acts-10,N,777,65,73.406667,0.0006169999999999787
NASH|MAXMIN|GAUSSIAN,OTHER  LANES,E_S,>EQ  10-G,LOW  SPEED,NO  PEDESTRIAN,RL  0,acts-10,N,777,65,74.407667,0
NASH|MAXMIN|GAUSSIAN,OTHER  LANES,E_S,>EQ  10-G,LOW  SPEED,NO  PEDESTRIAN,RL  0,acts-10,N,777,65,75.408667,0.0008640000000000869
NASH|MAXMIN|GAUSSIAN,OTHER  LANES,E_S,>EQ  10-G,LOW  SPEED,NO  PEDESTRIAN,RL  0,acts-10,N,777,65,76.409667,0.00021000000000004349
NASH|MAXMIN|GAUSSIAN,OTHER  LANES,E_S,>EQ  10-G,LOW  SPEED,NO  PEDESTRIAN,RL  0,acts-10,N,777,65,77.410667,0.00039599999999995195
NASH|MAXMIN|GAUSSIAN,OTHER  LANES,E_S,>EQ  10-G,LOW  SPEED,NO  PEDESTRIAN,RL  0,acts-10,N,777,65,78.411667,8.000000000008e-06
NASH|MAXMIN|GAUSSIAN,OTHER  LANES,E_S,>EQ  10-G,LOW  SPEED,NO  PEDESTRIAN,RL  0,acts-10,N,777,65,79.412667,0
NASH|MAXMIN|GAUSSIAN,OTHER  LANES,E_S,>EQ  10-G,LOW  SPEED,NO  PEDESTRIAN,RL  0,acts-10,N,777,65,80.413667,0.00036399999999991994
NASH|MAXMIN|GAUSSIAN,OTHER  LANES,E_S,>EQ  10-G,LOW  SPEED,NO  PEDESTRIAN,RL  0,acts-10,N,777,65,81.414667,3.300000000006076e-05
NASH|MAXMIN|GAUSSIAN,OTHER  LANES,E_S,>EQ  10-G,LOW  SPEED,NO  PEDESTRIAN,RL  0,acts-10,N,777,65,82.415667,0.0006159999999999499
NASH|MAXMIN|GAUSSIAN,OTHER  LANES,E_S,>EQ  10-G,LOW  SPEED,NO  PEDESTRIAN,RL  0,acts-10,N,777,65,83.416667,0
NASH|MAXMIN|GAUSSIAN,OTHER  LANES,E_S,>EQ  10-G,LOW  SPEED,NO  PEDESTRIAN,RL  0,acts-10,N,777,65,84.417667,0.0004910000000000192
NASH|MAXMIN|GAUSSIAN,OTHER  LANES,E_S,>EQ  10-G,LOW  SPEED,NO  PEDESTRIAN,RL  0,acts-10,N,777,65,85.418667,5.6000000000056005e-05
NASH|MAXMIN|GAUSSIAN,OTHER  LANES,E_S,>EQ  10-G,LOW  SPEED,NO  PEDESTRIAN,RL  0,acts-10,N,777,65,86.419667,0.0006020000000001025
NASH|MAXMIN|GAUSSIAN,OTHER  LANES,E_S,>EQ  10-G,LOW  SPEED,NO  PEDESTRIAN,RL  0,acts-10,N,777,65,87.420667,0.00029000000000001247
NASH|MAXMIN|GAUSSIAN,OTHER  LANES,E_S,>EQ  10-G,LOW  SPEED,NO  PEDESTRIAN,RL  0,acts-10,N,777,65,88.421667,0.0003949999999999232
NASH|MAXMIN|GAUSSIAN,OTHER  LANES,E_S,>EQ  10-G,LOW  SPEED,NO  PEDESTRIAN,RL  0,acts-10,N,777,65,89.422667,0.0004729999999999457
NASH|MAXMIN|GAUSSIAN,OTHER  LANES,E_S,>EQ  10-G,LOW  SPEED,NO  PEDESTRIAN,  RL  >  2,acts-10,N,777,5,0,0
NASH|MAXMIN|GAUSSIAN,prep-right-turn,W_S,<10-Y/R,LOW  SPEED,NO  PEDESTRIAN,RL  0,acts-1,N,777,174,151.985167,0.024799000000000015
NASH|MAXMIN|GAUSSIAN,prep-right-turn,W_S,<10-Y/R,LOW  SPEED,NO  PEDESTRIAN,  RL  <EQ  2,acts-1,N,777,59,43.376667,0
NASH|MAXMIN|GAUSSIAN,prep-right-turn,W_S,<10-G,LOW  SPEED,NO  PEDESTRIAN,RL  0,acts-1,N,777,19,10.01,0.02875800000000006
NASH|MAXMIN|GAUSSIAN,prep-right-turn,W_S,<10-G,LOW  SPEED,NO  PEDESTRIAN,RL  0,acts-1,N,777,19,9.009,0.03191699999999997
NASH|MAXMIN|GAUSSIAN,prep-right-turn,W_S,>EQ  10-Y/R,LOW  SPEED,PEDESTRIAN,RL  0,acts-7,Y,777,111,122.6225,0.002246999999999999
NASH|MAXMIN|GAUSSIAN,prep-right-turn,W_S,>EQ  10-Y/R,LOW  SPEED,PEDESTRIAN,RL  0,acts-7,Y,777,111,123.6235,0.0043320000000000025
NASH|MAXMIN|GAUSSIAN,prep-right-turn,W_S,>EQ  10-Y/R,LOW  SPEED,PEDESTRIAN,  RL  <EQ  2,acts-12,Y,777,127,124.6245,0.0008469999999999867
NASH|MAXMIN|GAUSSIAN,prep-right-turn,W_S,>EQ  10-Y/R,LOW  SPEED,NO  PEDESTRIAN,RL  0,acts-1,N,777,42,25.5255,0.021013999999999977
NASH|MAXMIN|GAUSSIAN,prep-right-turn,W_S,>EQ  10-G,LOW  SPEED,PEDESTRIAN,RL  0,acts-7,Y,777,99,104.104,0.0017490000000000006
NASH|MAXMIN|GAUSSIAN,prep-right-turn,W_S,>EQ  10-G,LOW  SPEED,PEDESTRIAN,  RL  <EQ  2,acts-7,N,777,85,76.5765,0.426064
NASH|MAXMIN|GAUSSIAN,prep-right-turn,W_S,>EQ  10-G,LOW  SPEED,PEDESTRIAN,  RL  <EQ  2,acts-7,N,777,85,81.5815,0.005674999999999986
NASH|MAXMIN|GAUSSIAN,prep-right-turn,W_S,>EQ  10-G,LOW  SPEED,PEDESTRIAN,  RL  >  2,acts-7,N,777,85,72.5725,0.0004849999999999577
NASH|MAXMIN|GAUSSIAN,prep-right-turn,W_S,>EQ  10-G,LOW  SPEED,PEDESTRIAN,  RL  >  2,acts-7,N,777,85,74.5745,0
NASH|MAXMIN|GAUSSIAN,prep-right-turn,W_S,>EQ  10-G,LOW  SPEED,PEDESTRIAN,  RL  >  2,acts-7,N,777,85,75.5755,0
NASH|MAXMIN|GAUSSIAN,prep-right-turn,W_S,>EQ  10-G,LOW  SPEED,PEDESTRIAN,  RL  >  2,acts-7,Y,777,85,77.5775,0
NASH|MAXMIN|GAUSSIAN,prep-right-turn,W_S,>EQ  10-G,LOW  SPEED,PEDESTRIAN,  RL  >  2,acts-7,N,777,85,78.5785,0.046157000000000004
NASH|MAXMIN|GAUSSIAN,prep-right-turn,W_S,>EQ  10-G,LOW  SPEED,PEDESTRIAN,  RL  >  2,acts-7,N,777,85,80.5805,0.005871000000000071
NASH|MAXMIN|GAUSSIAN,prep-right-turn,W_S,>EQ  10-G,LOW  SPEED,PEDESTRIAN,  RL  >  2,acts-7,N,777,85,82.5825,2.4000000000024002e-05
NASH|MAXMIN|GAUSSIAN,prep-right-turn,W_S,>EQ  10-G,LOW  SPEED,PEDESTRIAN,  RL  >  2,acts-7,N,777,85,83.5835,0.07041900000000001
NASH|MAXMIN|GAUSSIAN,prep-right-turn,W_S,>EQ  10-G,LOW  SPEED,PEDESTRIAN,  RL  >  2,acts-7,N,777,85,84.5845,0.394006
NASH|MAXMIN|GAUSSIAN,prep-right-turn,W_S,>EQ  10-G,LOW  SPEED,PEDESTRIAN,  RL  >  2,acts-7,Y,777,85,85.5855,0.087561
NASH|MAXMIN|GAUSSIAN,prep-right-turn,W_S,>EQ  10-G,LOW  SPEED,NO  PEDESTRIAN,RL  0,acts-1,Y,777,16,3.003,0.003130000000000077
NASH|MAXMIN|GAUSSIAN,prep-right-turn,W_S,>EQ  10-G,LOW  SPEED,NO  PEDESTRIAN,RL  0,acts-1,Y,777,16,4.004,0.001310999999999951
NASH|MAXMIN|GAUSSIAN,prep-right-turn,W_S,>EQ  10-G,LOW  SPEED,NO  PEDESTRIAN,RL  0,acts-1,Y,777,16,5.005,0.00026999999999999247
NASH|MAXMIN|GAUSSIAN,prep-right-turn,W_S,>EQ  10-G,LOW  SPEED,NO  PEDESTRIAN,RL  0,acts-1,Y,777,19,8.008,0.033677999999999986
NASH|MAXMIN|GAUSSIAN,prep-right-turn,W_S,>EQ  10-G,LOW  SPEED,NO  PEDESTRIAN,RL  0,acts-1,Y,777,69,60.894167,0.0030289999999999484
NASH|MAXMIN|GAUSSIAN,prep-right-turn,S_E,<10-Y/R,LOW  SPEED,PEDESTRIAN,  RL  <EQ  2,acts-7,N,777,116,93.259833,0.358447
NASH|MAXMIN|GAUSSIAN,prep-right-turn,S_E,<10-Y/R,LOW  SPEED,PEDESTRIAN,  RL  <EQ  2,acts-7,Y,777,116,94.260833,0
NASH|MAXMIN|GAUSSIAN,prep-right-turn,S_E,<10-G,LOW  SPEED,PEDESTRIAN,RL  0,acts-7,Y,777,173,169.335833,0
NASH|MAXMIN|GAUSSIAN,prep-right-turn,S_E,<10-G,LOW  SPEED,PEDESTRIAN,RL  0,acts-7,Y,777,173,170.336833,0
NASH|MAXMIN|GAUSSIAN,prep-right-turn,S_E,>EQ  10-Y/R,LOW  SPEED,NO  PEDESTRIAN,RL  0,acts-1,Y,777,51,58.058,0
NASH|MAXMIN|GAUSSIAN,prep-right-turn,S_E,>EQ  10-Y/R,LOW  SPEED,NO  PEDESTRIAN,RL  0,acts-1,Y,777,51,59.059,0.0018250000000000766
NASH|MAXMIN|GAUSSIAN,prep-right-turn,S_E,>EQ  10-Y/R,LOW  SPEED,NO  PEDESTRIAN,  RL  <EQ  2,acts-2,N,777,82,65.732333,0.0009029999999999871
NASH|MAXMIN|GAUSSIAN,prep-right-turn,S_E,>EQ  10-Y/R,LOW  SPEED,NO  PEDESTRIAN,  RL  <EQ  2,acts-1,N,777,106,85.5855,0.26307099999999994
NASH|MAXMIN|GAUSSIAN,prep-right-turn,S_E,>EQ  10-G,LOW  SPEED,PEDESTRIAN,RL  0,acts-7,N,777,164,153.820333,0.03759299999999999
NASH|MAXMIN|GAUSSIAN,prep-right-turn,S_E,>EQ  10-G,LOW  SPEED,PEDESTRIAN,RL  0,acts-7,N,777,164,154.821333,0.002670999999999979
NASH|MAXMIN|GAUSSIAN,prep-right-turn,S_E,>EQ  10-G,LOW  SPEED,PEDESTRIAN,RL  0,acts-7,Y,777,164,155.822333,0.0019219999999999793
NASH|MAXMIN|GAUSSIAN,prep-right-turn,S_E,>EQ  10-G,LOW  SPEED,PEDESTRIAN,  RL  <EQ  2,acts-7,N,777,164,150.817333,0.004013999999999962
NASH|MAXMIN|GAUSSIAN,prep-right-turn,S_E,>EQ  10-G,LOW  SPEED,PEDESTRIAN,  RL  >  2,acts-7,N,777,164,146.813333,0.00015299999999995872
NASH|MAXMIN|GAUSSIAN,prep-right-turn,S_E,>EQ  10-G,LOW  SPEED,PEDESTRIAN,  RL  >  2,acts-7,N,777,164,147.814333,0
NASH|MAXMIN|GAUSSIAN,prep-right-turn,S_E,>EQ  10-G,LOW  SPEED,NO  PEDESTRIAN,  RL  <EQ  2,acts-1,Y,777,164,144.811333,0.005442000000000058
NASH|MAXMIN|GAUSSIAN,prep-right-turn,S_E,>EQ  10-G,LOW  SPEED,NO  PEDESTRIAN,  RL  >  2,acts-1,N,777,164,145.812333,0.007462999999999997
NASH|MAXMIN|GAUSSIAN,exec-right-turn,W_S,<10-Y/R,LOW  SPEED,NO  PEDESTRIAN,RL  0,acts-1,N,777,53,40.5405,0.00431400000000004
NASH|MAXMIN|GAUSSIAN,exec-right-turn,W_S,<10-Y/R,LOW  SPEED,NO  PEDESTRIAN,RL  0,acts-1,N,777,174,152.986167,0.000132000000000021
NASH|MAXMIN|GAUSSIAN,exec-right-turn,W_S,<10-Y/R,LOW  SPEED,NO  PEDESTRIAN,  RL  <EQ  2,acts-1,N,777,59,44.377667,0
NASH|MAXMIN|GAUSSIAN,exec-right-turn,W_S,<10-G,LOW  SPEED,NO  PEDESTRIAN,  RL  <EQ  2,acts-1,N,777,19,14.014,0.5005620000000001
NASH|MAXMIN|GAUSSIAN,exec-right-turn,W_S,>EQ  10-Y/R,LOW  SPEED,PEDESTRIAN,RL  0,acts-1,Y,777,111,124.6245,0
NASH|MAXMIN|GAUSSIAN,exec-right-turn,W_S,>EQ  10-Y/R,LOW  SPEED,PEDESTRIAN,RL  0,acts-1,Y,777,111,125.6255,0.001890999999999976
NASH|MAXMIN|GAUSSIAN,exec-right-turn,W_S,>EQ  10-Y/R,LOW  SPEED,PEDESTRIAN,RL  0,acts-5,N,777,127,127.6275,0
NASH|MAXMIN|GAUSSIAN,exec-right-turn,W_S,>EQ  10-Y/R,LOW  SPEED,NO  PEDESTRIAN,RL  0,acts-1,N,777,42,26.5265,0.007816999999999963
NASH|MAXMIN|GAUSSIAN,exec-right-turn,W_S,>EQ  10-Y/R,LOW  SPEED,NO  PEDESTRIAN,RL  0,acts-1,N,777,42,27.5275,0.00039799999999989844
NASH|MAXMIN|GAUSSIAN,exec-right-turn,W_S,>EQ  10-Y/R,LOW  SPEED,NO  PEDESTRIAN,RL  0,acts-1,N,777,47,34.200833,0.0045999999999999375
NASH|MAXMIN|GAUSSIAN,exec-right-turn,W_S,>EQ  10-Y/R,LOW  SPEED,NO  PEDESTRIAN,RL  0,acts-1,N,777,47,35.201833,0.00027199999999993896
NASH|MAXMIN|GAUSSIAN,exec-right-turn,W_S,>EQ  10-G,LOW  SPEED,PEDESTRIAN,RL  0,acts-1,Y,777,99,105.105,0
NASH|MAXMIN|GAUSSIAN,exec-right-turn,W_S,>EQ  10-G,LOW  SPEED,PEDESTRIAN,RL  0,acts-1,Y,777,99,106.106,0
NASH|MAXMIN|GAUSSIAN,exec-right-turn,W_S,>EQ  10-G,LOW  SPEED,NO  PEDESTRIAN,RL  0,acts-1,Y,777,11,0,0
NASH|MAXMIN|GAUSSIAN,exec-right-turn,W_S,>EQ  10-G,LOW  SPEED,NO  PEDESTRIAN,RL  0,acts-1,Y,777,11,1.001,0
NASH|MAXMIN|GAUSSIAN,exec-right-turn,W_S,>EQ  10-G,LOW  SPEED,NO  PEDESTRIAN,RL  0,acts-1,Y,777,16,6.006,0
NASH|MAXMIN|GAUSSIAN,exec-right-turn,W_S,>EQ  10-G,LOW  SPEED,NO  PEDESTRIAN,RL  0,acts-1,N,777,16,7.007,7.699999999999374e-05
NASH|MAXMIN|GAUSSIAN,exec-right-turn,W_S,>EQ  10-G,LOW  SPEED,NO  PEDESTRIAN,RL  0,acts-1,Y,777,69,61.895167,0
NASH|MAXMIN|GAUSSIAN,exec-right-turn,W_S,>EQ  10-G,LOW  SPEED,NO  PEDESTRIAN,RL  0,acts-1,Y,777,69,62.896167,0.002084000000000086
NASH|MAXMIN|GAUSSIAN,exec-right-turn,S_E,<10-Y/R,LOW  SPEED,PEDESTRIAN,  RL  <EQ  2,acts-1,Y,777,116,95.261833,0
NASH|MAXMIN|GAUSSIAN,exec-right-turn,S_E,<10-Y/R,MEDIUM  SPEED,PEDESTRIAN,RL  0,acts-1,Y,777,116,96.262833,0.0009700000000000264
NASH|MAXMIN|GAUSSIAN,exec-right-turn,S_E,<10-Y/R,MEDIUM  SPEED,NO  PEDESTRIAN,RL  0,acts-1,Y,777,27,5.839167,0
NASH|MAXMIN|GAUSSIAN,exec-right-turn,S_E,>EQ  10-Y/R,LOW  SPEED,NO  PEDESTRIAN,RL  0,acts-1,Y,777,51,60.06,0.00409499999999996
NASH|MAXMIN|GAUSSIAN,exec-right-turn,S_E,>EQ  10-Y/R,LOW  SPEED,NO  PEDESTRIAN,RL  0,acts-1,Y,777,51,61.061,0.0004929999999999657
NASH|MAXMIN|GAUSSIAN,exec-right-turn,S_E,>EQ  10-Y/R,LOW  SPEED,NO  PEDESTRIAN,RL  0,acts-1,Y,777,106,87.5875,0
NASH|MAXMIN|GAUSSIAN,exec-right-turn,S_E,>EQ  10-Y/R,LOW  SPEED,NO  PEDESTRIAN,  RL  <EQ  2,acts-1,Y,777,106,86.5865,0.01411399999999996
NASH|MAXMIN|GAUSSIAN,exec-right-turn,S_E,>EQ  10-G,LOW  SPEED,PEDESTRIAN,RL  0,acts-1,Y,777,164,158.825333,0
NASH|MAXMIN|GAUSSIAN,exec-right-turn,S_E,>EQ  10-G,LOW  SPEED,PEDESTRIAN,RL  0,acts-1,Y,777,164,159.826333,0.0014060000000000183
