EQ_TYPE,SEGMENT,TASK,NEXT_CHANGE,SPEED,PEDESTRIAN,RELEV_VEHICLE,ACTIONS,AGGRESSIVE,FILE_ID,TRACK_ID,TIME,ON_EQ
MAXMIN|BR|GAUSSIAN,prep-left-turn,S_W,<10-Y/R,LOW  SPEED,NO  PEDESTRIAN,RL  0,acts-1,Y,777,6,3.003,0
MAXMIN|BR|GAUSSIAN,prep-left-turn,S_W,<10-Y/R,LOW  SPEED,NO  PEDESTRIAN,RL  0,acts-1,Y,777,6,4.004,0.007554000000000061
MAXMIN|BR|GAUSSIAN,prep-left-turn,S_W,>EQ  10-Y/R,LOW  SPEED,PEDESTRIAN,  RL  <EQ  2,acts-2,Y,777,104,84.918167,0.07841799999999999
MAXMIN|BR|GAUSSIAN,prep-left-turn,S_W,>EQ  10-Y/R,LOW  SPEED,PEDESTRIAN,  RL  <EQ  2,acts-2,Y,777,104,84.918167,0.06856699999999993
MAXMIN|BR|GAUSSIAN,prep-left-turn,S_W,>EQ  10-Y/R,LOW  SPEED,PEDESTRIAN,  RL  <EQ  2,acts-2,Y,777,104,86.920167,0.07469100000000006
MAXMIN|BR|GAUSSIAN,prep-left-turn,S_W,>EQ  10-Y/R,LOW  SPEED,PEDESTRIAN,  RL  <EQ  2,acts-2,Y,777,104,86.920167,0.07479000000000002
MAXMIN|BR|GAUSSIAN,prep-left-turn,S_W,>EQ  10-Y/R,LOW  SPEED,PEDESTRIAN,  RL  >  2,acts-2,Y,777,104,85.919167,0.06923199999999996
MAXMIN|BR|GAUSSIAN,prep-left-turn,S_W,>EQ  10-Y/R,LOW  SPEED,PEDESTRIAN,  RL  >  2,acts-2,Y,777,104,85.919167,0.06922300000000003
MAXMIN|BR|GAUSSIAN,prep-left-turn,S_W,>EQ  10-Y/R,LOW  SPEED,NO  PEDESTRIAN,RL  0,acts-1,Y,777,21,56.056,0.0019799999999999818
MAXMIN|BR|GAUSSIAN,prep-left-turn,S_W,>EQ  10-Y/R,LOW  SPEED,NO  PEDESTRIAN,RL  0,acts-1,Y,777,21,57.057,0
MAXMIN|BR|GAUSSIAN,prep-left-turn,S_W,>EQ  10-Y/R,LOW  SPEED,NO  PEDESTRIAN,RL  0,acts-1,Y,777,21,58.058,0
MAXMIN|BR|GAUSSIAN,prep-left-turn,S_W,>EQ  10-Y/R,LOW  SPEED,NO  PEDESTRIAN,RL  0,acts-1,Y,777,21,59.059,0
MAXMIN|BR|GAUSSIAN,prep-left-turn,N_E,>EQ  10-Y/R,LOW  SPEED,NO  PEDESTRIAN,RL  0,acts-1,Y,777,71,69.736333,0
MAXMIN|BR|GAUSSIAN,prep-left-turn,N_E,>EQ  10-Y/R,LOW  SPEED,NO  PEDESTRIAN,RL  0,acts-1,Y,777,71,70.737333,0
MAXMIN|BR|GAUSSIAN,prep-left-turn,N_E,>EQ  10-Y/R,LOW  SPEED,NO  PEDESTRIAN,RL  0,acts-1,Y,777,96,80.246833,0.07918500000000006
MAXMIN|BR|GAUSSIAN,prep-left-turn,N_E,>EQ  10-Y/R,LOW  SPEED,NO  PEDESTRIAN,RL  0,acts-1,N,777,96,81.247833,0.07699699999999998
MAXMIN|BR|GAUSSIAN,prep-left-turn,N_E,>EQ  10-Y/R,LOW  SPEED,NO  PEDESTRIAN,RL  0,acts-1,N,777,96,82.248833,0.0730900000000001
MAXMIN|BR|GAUSSIAN,prep-left-turn,N_E,>EQ  10-Y/R,LOW  SPEED,NO  PEDESTRIAN,RL  0,acts-1,N,777,96,83.249833,0.07560900000000004
MAXMIN|BR|GAUSSIAN,prep-left-turn,W_N,<10-Y/R,LOW  SPEED,NO  PEDESTRIAN,  RL  <EQ  2,acts-1,N,777,9,39.039,0.441549
MAXMIN|BR|GAUSSIAN,prep-left-turn,W_N,<10-Y/R,LOW  SPEED,NO  PEDESTRIAN,  RL  <EQ  2,acts-1,Y,777,156,141.474667,0.022071000000000063
MAXMIN|BR|GAUSSIAN,prep-left-turn,W_N,<10-Y/R,LOW  SPEED,NO  PEDESTRIAN,  RL  <EQ  2,acts-1,Y,777,156,142.475667,0.026975000000000082
MAXMIN|BR|GAUSSIAN,prep-left-turn,W_N,<10-Y/R,LOW  SPEED,NO  PEDESTRIAN,  RL  >  2,acts-1,Y,777,156,140.473667,0.02781699999999998
MAXMIN|BR|GAUSSIAN,prep-left-turn,W_N,>EQ  10-Y/R,LOW  SPEED,NO  PEDESTRIAN,RL  0,acts-1,Y,777,8,12.012,0.0011229999999999851
MAXMIN|BR|GAUSSIAN,prep-left-turn,W_N,>EQ  10-Y/R,LOW  SPEED,NO  PEDESTRIAN,  RL  <EQ  2,acts-1,N,777,9,33.033,0.441479
MAXMIN|BR|GAUSSIAN,prep-left-turn,W_N,>EQ  10-Y/R,LOW  SPEED,NO  PEDESTRIAN,  RL  <EQ  2,acts-1,N,777,9,34.034,0.027276999999999996
MAXMIN|BR|GAUSSIAN,prep-left-turn,W_N,>EQ  10-Y/R,LOW  SPEED,NO  PEDESTRIAN,  RL  <EQ  2,acts-1,N,777,9,35.035,0.46082300000000004
MAXMIN|BR|GAUSSIAN,prep-left-turn,W_N,>EQ  10-Y/R,LOW  SPEED,NO  PEDESTRIAN,  RL  <EQ  2,acts-1,N,777,9,37.037,0.023372999999999977
MAXMIN|BR|GAUSSIAN,prep-left-turn,W_N,>EQ  10-Y/R,LOW  SPEED,NO  PEDESTRIAN,  RL  <EQ  2,acts-1,N,777,9,38.038,0.024361999999999995
MAXMIN|BR|GAUSSIAN,prep-left-turn,W_N,>EQ  10-Y/R,LOW  SPEED,NO  PEDESTRIAN,  RL  >  2,acts-1,Y,777,9,21.021,0.03357500000000002
MAXMIN|BR|GAUSSIAN,prep-left-turn,W_N,>EQ  10-Y/R,LOW  SPEED,NO  PEDESTRIAN,  RL  >  2,acts-1,Y,777,9,22.022,0.003247
MAXMIN|BR|GAUSSIAN,prep-left-turn,W_N,>EQ  10-Y/R,LOW  SPEED,NO  PEDESTRIAN,  RL  >  2,acts-1,Y,777,9,23.023,0.0303230000000001
MAXMIN|BR|GAUSSIAN,prep-left-turn,W_N,>EQ  10-Y/R,LOW  SPEED,NO  PEDESTRIAN,  RL  >  2,acts-1,N,777,9,24.024,0.025063999999999975
MAXMIN|BR|GAUSSIAN,prep-left-turn,W_N,>EQ  10-Y/R,LOW  SPEED,NO  PEDESTRIAN,  RL  >  2,acts-1,N,777,9,25.025,0.07736999999999994
MAXMIN|BR|GAUSSIAN,prep-left-turn,W_N,>EQ  10-Y/R,LOW  SPEED,NO  PEDESTRIAN,  RL  >  2,acts-1,N,777,9,26.026,0.029125999999999985
MAXMIN|BR|GAUSSIAN,prep-left-turn,W_N,>EQ  10-Y/R,LOW  SPEED,NO  PEDESTRIAN,  RL  >  2,acts-1,N,777,9,27.027,0.04225000000000001
MAXMIN|BR|GAUSSIAN,prep-left-turn,W_N,>EQ  10-Y/R,LOW  SPEED,NO  PEDESTRIAN,  RL  >  2,acts-1,N,777,9,28.028,0.04064000000000001
MAXMIN|BR|GAUSSIAN,prep-left-turn,W_N,>EQ  10-Y/R,LOW  SPEED,NO  PEDESTRIAN,  RL  >  2,acts-1,N,777,9,29.029,0.08019599999999993
MAXMIN|BR|GAUSSIAN,prep-left-turn,W_N,>EQ  10-Y/R,LOW  SPEED,NO  PEDESTRIAN,  RL  >  2,acts-1,N,777,9,30.03,0.077152
MAXMIN|BR|GAUSSIAN,prep-left-turn,W_N,>EQ  10-Y/R,LOW  SPEED,NO  PEDESTRIAN,  RL  >  2,acts-1,N,777,9,31.031,0.076407
MAXMIN|BR|GAUSSIAN,prep-left-turn,W_N,>EQ  10-Y/R,LOW  SPEED,NO  PEDESTRIAN,  RL  >  2,acts-1,N,777,9,32.032,0.010211999999999999
MAXMIN|BR|GAUSSIAN,prep-left-turn,E_S,<10-Y/R,LOW  SPEED,NO  PEDESTRIAN,  RL  <EQ  2,acts-1,Y,777,55,39.205833,0.0363119999999999
MAXMIN|BR|GAUSSIAN,prep-left-turn,E_S,<10-Y/R,LOW  SPEED,NO  PEDESTRIAN,  RL  <EQ  2,acts-1,Y,777,55,40.206833,0.029251000000000027
MAXMIN|BR|GAUSSIAN,prep-left-turn,E_S,<10-Y/R,LOW  SPEED,NO  PEDESTRIAN,  RL  <EQ  2,acts-1,Y,777,55,41.207833,0.027393
MAXMIN|BR|GAUSSIAN,prep-left-turn,E_S,<10-Y/R,LOW  SPEED,NO  PEDESTRIAN,  RL  <EQ  2,acts-1,Y,777,157,142.475667,0.09140300000000001
MAXMIN|BR|GAUSSIAN,prep-left-turn,E_S,<10-Y/R,LOW  SPEED,NO  PEDESTRIAN,  RL  <EQ  2,acts-1,Y,777,157,143.476667,0.08033400000000002
MAXMIN|BR|GAUSSIAN,prep-left-turn,E_S,<10-Y/R,LOW  SPEED,NO  PEDESTRIAN,  RL  <EQ  2,acts-3,N,777,64,46.880167,1.799999999996249e-05
MAXMIN|BR|GAUSSIAN,prep-left-turn,E_S,<10-Y/R,LOW  SPEED,NO  PEDESTRIAN,  RL  <EQ  2,acts-3,Y,777,64,47.881167,0
MAXMIN|BR|GAUSSIAN,prep-left-turn,E_S,<10-Y/R,LOW  SPEED,NO  PEDESTRIAN,  RL  <EQ  2,acts-3,N,777,64,48.882167,0.0003029999999999422
MAXMIN|BR|GAUSSIAN,prep-left-turn,E_S,<10-Y/R,LOW  SPEED,NO  PEDESTRIAN,  RL  >  2,acts-1,N,777,157,144.477667,0.036134
MAXMIN|BR|GAUSSIAN,prep-left-turn,E_S,<10-Y/R,LOW  SPEED,NO  PEDESTRIAN,  RL  >  2,acts-1,N,777,157,145.478667,0.033982999999999985
MAXMIN|BR|GAUSSIAN,prep-left-turn,E_S,<10-Y/R,LOW  SPEED,NO  PEDESTRIAN,  RL  >  2,acts-1,N,777,157,146.479667,0
MAXMIN|BR|GAUSSIAN,prep-left-turn,E_S,>EQ  10-Y/R,LOW  SPEED,PEDESTRIAN,RL  0,acts-2,Y,777,65,112.445667,0.0040999999999999925
MAXMIN|BR|GAUSSIAN,prep-left-turn,E_S,>EQ  10-Y/R,LOW  SPEED,PEDESTRIAN,RL  0,acts-2,Y,777,65,113.446667,0
MAXMIN|BR|GAUSSIAN,prep-left-turn,E_S,>EQ  10-Y/R,LOW  SPEED,NO  PEDESTRIAN,RL  0,acts-1,Y,777,10,13.013,0
MAXMIN|BR|GAUSSIAN,exec-left-turn,S_W,<10-Y/R,LOW  SPEED,PEDESTRIAN,RL  0,acts-2,Y,777,104,95.929167,9.999999999177334e-07
MAXMIN|BR|GAUSSIAN,exec-left-turn,S_W,<10-Y/R,LOW  SPEED,PEDESTRIAN,  RL  <EQ  2,acts-2,Y,777,104,94.928167,0
MAXMIN|BR|GAUSSIAN,exec-left-turn,S_W,<10-Y/R,LOW  SPEED,PEDESTRIAN,  RL  >  2,acts-2,Y,777,104,93.927167,0
MAXMIN|BR|GAUSSIAN,exec-left-turn,S_W,<10-Y/R,LOW  SPEED,NO  PEDESTRIAN,RL  0,acts-1,Y,777,7,0,0
MAXMIN|BR|GAUSSIAN,exec-left-turn,S_W,<10-Y/R,LOW  SPEED,NO  PEDESTRIAN,RL  0,acts-1,Y,777,7,1.001,0
MAXMIN|BR|GAUSSIAN,exec-left-turn,S_W,<10-Y/R,LOW  SPEED,NO  PEDESTRIAN,RL  0,acts-4,Y,777,6,6.006,0
MAXMIN|BR|GAUSSIAN,exec-left-turn,S_W,<10-Y/R,LOW  SPEED,NO  PEDESTRIAN,RL  0,acts-4,Y,777,6,7.007,0
MAXMIN|BR|GAUSSIAN,exec-left-turn,S_W,<10-Y/R,MEDIUM  SPEED,NO  PEDESTRIAN,RL  0,acts-1,Y,777,7,2.002,0
MAXMIN|BR|GAUSSIAN,exec-left-turn,S_W,>EQ  10-Y/R,LOW  SPEED,PEDESTRIAN,  RL  <EQ  2,acts-2,N,777,104,87.921167,0.04339000000000004
MAXMIN|BR|GAUSSIAN,exec-left-turn,S_W,>EQ  10-Y/R,LOW  SPEED,PEDESTRIAN,  RL  <EQ  2,acts-2,N,777,104,87.921167,0.04388700000000001
MAXMIN|BR|GAUSSIAN,exec-left-turn,S_W,>EQ  10-Y/R,LOW  SPEED,PEDESTRIAN,  RL  >  2,acts-2,N,777,104,88.922167,0.04285699999999992
MAXMIN|BR|GAUSSIAN,exec-left-turn,S_W,>EQ  10-Y/R,LOW  SPEED,PEDESTRIAN,  RL  >  2,acts-2,N,777,104,88.922167,0.043054999999999954
MAXMIN|BR|GAUSSIAN,exec-left-turn,S_W,>EQ  10-Y/R,LOW  SPEED,PEDESTRIAN,  RL  >  2,acts-2,N,777,104,89.923167,0.004354999999999998
MAXMIN|BR|GAUSSIAN,exec-left-turn,S_W,>EQ  10-Y/R,LOW  SPEED,PEDESTRIAN,  RL  >  2,acts-2,Y,777,104,90.924167,0.001262999999999903
MAXMIN|BR|GAUSSIAN,exec-left-turn,S_W,>EQ  10-Y/R,LOW  SPEED,PEDESTRIAN,  RL  >  2,acts-2,Y,777,104,91.925167,0
MAXMIN|BR|GAUSSIAN,exec-left-turn,S_W,>EQ  10-Y/R,LOW  SPEED,PEDESTRIAN,  RL  >  2,acts-2,Y,777,104,92.926167,0.00679200000000002
MAXMIN|BR|GAUSSIAN,exec-left-turn,S_W,>EQ  10-Y/R,LOW  SPEED,NO  PEDESTRIAN,RL  0,acts-1,Y,777,21,60.06,0.0014889999999999626
MAXMIN|BR|GAUSSIAN,exec-left-turn,S_W,>EQ  10-Y/R,MEDIUM  SPEED,NO  PEDESTRIAN,RL  0,acts-1,Y,777,21,61.061,0.0007630000000000692
MAXMIN|BR|GAUSSIAN,exec-left-turn,S_W,>EQ  10-G,LOW  SPEED,NO  PEDESTRIAN,RL  0,acts-4,Y,777,6,8.008,0.002122999999999986
MAXMIN|BR|GAUSSIAN,exec-left-turn,S_W,>EQ  10-G,MEDIUM  SPEED,NO  PEDESTRIAN,RL  0,acts-4,Y,777,6,9.009,0
MAXMIN|BR|GAUSSIAN,exec-left-turn,N_E,<10-Y/R,LOW  SPEED,NO  PEDESTRIAN,RL  0,acts-1,N,777,28,1.835167,0.06051800000000007
MAXMIN|BR|GAUSSIAN,exec-left-turn,N_E,<10-Y/R,LOW  SPEED,NO  PEDESTRIAN,RL  0,acts-1,N,777,28,2.836167,0.05527699999999991
MAXMIN|BR|GAUSSIAN,exec-left-turn,N_E,<10-Y/R,LOW  SPEED,NO  PEDESTRIAN,RL  0,acts-1,N,777,28,3.837167,0.06194299999999997
MAXMIN|BR|GAUSSIAN,exec-left-turn,N_E,<10-Y/R,LOW  SPEED,NO  PEDESTRIAN,RL  0,acts-1,Y,777,28,4.838167,0
MAXMIN|BR|GAUSSIAN,exec-left-turn,N_E,<10-Y/R,LOW  SPEED,NO  PEDESTRIAN,RL  0,acts-1,N,777,96,93.259833,0.059872999999999954
MAXMIN|BR|GAUSSIAN,exec-left-turn,N_E,<10-Y/R,LOW  SPEED,NO  PEDESTRIAN,RL  0,acts-1,N,777,96,94.260833,0.06100099999999997
MAXMIN|BR|GAUSSIAN,exec-left-turn,N_E,<10-Y/R,LOW  SPEED,NO  PEDESTRIAN,RL  0,acts-1,Y,777,96,95.261833,0.027409000000000017
MAXMIN|BR|GAUSSIAN,exec-left-turn,N_E,<10-Y/R,LOW  SPEED,NO  PEDESTRIAN,RL  0,acts-1,Y,777,96,96.262833,0
MAXMIN|BR|GAUSSIAN,exec-left-turn,N_E,<10-Y/R,LOW  SPEED,NO  PEDESTRIAN,RL  0,acts-1,Y,777,96,99.265833,0
MAXMIN|BR|GAUSSIAN,exec-left-turn,N_E,<10-Y/R,LOW  SPEED,NO  PEDESTRIAN,RL  0,acts-1,N,777,103,101.267833,0
MAXMIN|BR|GAUSSIAN,exec-left-turn,N_E,<10-Y/R,LOW  SPEED,NO  PEDESTRIAN,RL  0,acts-1,Y,777,103,102.268833,0
MAXMIN|BR|GAUSSIAN,exec-left-turn,N_E,<10-Y/R,LOW  SPEED,NO  PEDESTRIAN,RL  0,acts-4,Y,777,28,5.839167,0.004183000000000048
MAXMIN|BR|GAUSSIAN,exec-left-turn,N_E,<10-Y/R,LOW  SPEED,NO  PEDESTRIAN,RL  0,acts-4,Y,777,28,6.840167,0
MAXMIN|BR|GAUSSIAN,exec-left-turn,N_E,<10-Y/R,LOW  SPEED,NO  PEDESTRIAN,RL  0,acts-4,N,777,28,7.841167,0
MAXMIN|BR|GAUSSIAN,exec-left-turn,N_E,<10-Y/R,LOW  SPEED,NO  PEDESTRIAN,RL  0,acts-4,N,777,103,103.269833,0.00658000000000003
MAXMIN|BR|GAUSSIAN,exec-left-turn,N_E,<10-Y/R,LOW  SPEED,NO  PEDESTRIAN,RL  0,acts-4,N,777,103,104.270833,0.011271999999999949
MAXMIN|BR|GAUSSIAN,exec-left-turn,N_E,<10-Y/R,LOW  SPEED,NO  PEDESTRIAN,RL  0,acts-4,Y,777,103,105.271833,0.005350999999999995
MAXMIN|BR|GAUSSIAN,exec-left-turn,N_E,<10-Y/R,LOW  SPEED,NO  PEDESTRIAN,RL  0,acts-4,Y,777,103,106.272833,0.00017599999999995397
MAXMIN|BR|GAUSSIAN,exec-left-turn,N_E,<10-Y/R,LOW  SPEED,NO  PEDESTRIAN,RL  0,acts-4,Y,777,103,107.273833,0
MAXMIN|BR|GAUSSIAN,exec-left-turn,N_E,<10-Y/R,LOW  SPEED,NO  PEDESTRIAN,RL  0,acts-4,Y,777,103,108.274833,0.002899000000000096
MAXMIN|BR|GAUSSIAN,exec-left-turn,N_E,<10-Y/R,MEDIUM  SPEED,NO  PEDESTRIAN,RL  0,acts-1,Y,777,96,100.266833,0.0019859999999999323
MAXMIN|BR|GAUSSIAN,exec-left-turn,N_E,>EQ  10-Y/R,LOW  SPEED,NO  PEDESTRIAN,RL  0,acts-1,Y,777,71,71.738333,0.004672999999999927
MAXMIN|BR|GAUSSIAN,exec-left-turn,N_E,>EQ  10-Y/R,LOW  SPEED,NO  PEDESTRIAN,RL  0,acts-1,Y,777,71,72.739333,0.0016849999999999365
MAXMIN|BR|GAUSSIAN,exec-left-turn,N_E,>EQ  10-Y/R,LOW  SPEED,NO  PEDESTRIAN,RL  0,acts-1,Y,777,71,73.740333,0
MAXMIN|BR|GAUSSIAN,exec-left-turn,N_E,>EQ  10-Y/R,LOW  SPEED,NO  PEDESTRIAN,RL  0,acts-1,N,777,96,84.250833,0.04642199999999996
MAXMIN|BR|GAUSSIAN,exec-left-turn,N_E,>EQ  10-Y/R,LOW  SPEED,NO  PEDESTRIAN,RL  0,acts-1,N,777,96,85.251833,0.05276399999999992
MAXMIN|BR|GAUSSIAN,exec-left-turn,N_E,>EQ  10-Y/R,LOW  SPEED,NO  PEDESTRIAN,RL  0,acts-1,N,777,96,86.252833,0.0004150000000000542
MAXMIN|BR|GAUSSIAN,exec-left-turn,N_E,>EQ  10-Y/R,LOW  SPEED,NO  PEDESTRIAN,RL  0,acts-1,N,777,96,87.253833,0.0027449999999999974
MAXMIN|BR|GAUSSIAN,exec-left-turn,N_E,>EQ  10-Y/R,LOW  SPEED,NO  PEDESTRIAN,RL  0,acts-1,N,777,96,88.254833,0.0009919999999999929
MAXMIN|BR|GAUSSIAN,exec-left-turn,N_E,>EQ  10-Y/R,LOW  SPEED,NO  PEDESTRIAN,RL  0,acts-1,N,777,96,91.257833,0.06500100000000009
MAXMIN|BR|GAUSSIAN,exec-left-turn,N_E,>EQ  10-Y/R,LOW  SPEED,NO  PEDESTRIAN,RL  0,acts-1,N,777,96,92.258833,0.055055999999999994
MAXMIN|BR|GAUSSIAN,exec-left-turn,N_E,>EQ  10-Y/R,LOW  SPEED,NO  PEDESTRIAN,RL  0,acts-5,N,777,96,89.255833,0.06459199999999998
MAXMIN|BR|GAUSSIAN,exec-left-turn,N_E,>EQ  10-Y/R,LOW  SPEED,NO  PEDESTRIAN,RL  0,acts-5,N,777,96,90.256833,0.06815499999999997
MAXMIN|BR|GAUSSIAN,exec-left-turn,N_E,>EQ  10-Y/R,MEDIUM  SPEED,NO  PEDESTRIAN,RL  0,acts-1,Y,777,71,74.741333,0.0019529999999999825
MAXMIN|BR|GAUSSIAN,exec-left-turn,N_E,>EQ  10-Y/R,MEDIUM  SPEED,NO  PEDESTRIAN,RL  0,acts-1,Y,777,71,75.742333,0.00014099999999994672
MAXMIN|BR|GAUSSIAN,exec-left-turn,N_E,>EQ  10-G,LOW  SPEED,NO  PEDESTRIAN,RL  0,acts-4,Y,777,28,8.842167,0
MAXMIN|BR|GAUSSIAN,exec-left-turn,N_E,>EQ  10-G,MEDIUM  SPEED,NO  PEDESTRIAN,RL  0,acts-4,Y,777,28,9.843167,0.0005030000000000312
MAXMIN|BR|GAUSSIAN,exec-left-turn,N_E,>EQ  10-G,MEDIUM  SPEED,NO  PEDESTRIAN,RL  0,acts-4,Y,777,103,109.275833,0
MAXMIN|BR|GAUSSIAN,exec-left-turn,N_E,>EQ  10-G,MEDIUM  SPEED,NO  PEDESTRIAN,RL  0,acts-4,Y,777,103,110.276833,0
MAXMIN|BR|GAUSSIAN,exec-left-turn,W_N,<10-Y/R,LOW  SPEED,NO  PEDESTRIAN,RL  0,acts-1,Y,777,9,45.045,0.002190999999999943
MAXMIN|BR|GAUSSIAN,exec-left-turn,W_N,<10-Y/R,LOW  SPEED,NO  PEDESTRIAN,RL  0,acts-1,Y,777,9,46.046,3.0000000000085514e-05
MAXMIN|BR|GAUSSIAN,exec-left-turn,W_N,<10-Y/R,LOW  SPEED,NO  PEDESTRIAN,RL  0,acts-4,Y,777,156,151.484667,0
MAXMIN|BR|GAUSSIAN,exec-left-turn,W_N,<10-Y/R,LOW  SPEED,NO  PEDESTRIAN,RL  0,acts-4,Y,777,156,152.485667,0
MAXMIN|BR|GAUSSIAN,exec-left-turn,W_N,<10-Y/R,LOW  SPEED,NO  PEDESTRIAN,RL  0,acts-4,Y,777,156,153.486667,0.002838999999999925
MAXMIN|BR|GAUSSIAN,exec-left-turn,W_N,<10-Y/R,LOW  SPEED,NO  PEDESTRIAN,RL  0,acts-4,Y,777,156,154.487667,0.0006220000000000114
MAXMIN|BR|GAUSSIAN,exec-left-turn,W_N,<10-Y/R,LOW  SPEED,NO  PEDESTRIAN,  RL  >  2,acts-1,N,777,156,143.476667,0.004365999999999981
MAXMIN|BR|GAUSSIAN,exec-left-turn,W_N,<10-Y/R,LOW  SPEED,NO  PEDESTRIAN,  RL  >  2,acts-1,N,777,156,144.477667,0.0018799999999999928
MAXMIN|BR|GAUSSIAN,exec-left-turn,W_N,<10-Y/R,LOW  SPEED,NO  PEDESTRIAN,  RL  >  2,acts-1,N,777,156,145.478667,0
MAXMIN|BR|GAUSSIAN,exec-left-turn,W_N,<10-Y/R,LOW  SPEED,NO  PEDESTRIAN,  RL  >  2,acts-1,N,777,156,146.479667,0.005802000000000085
MAXMIN|BR|GAUSSIAN,exec-left-turn,W_N,<10-Y/R,LOW  SPEED,NO  PEDESTRIAN,  RL  >  2,acts-1,N,777,156,147.480667,0.0012750000000000261
MAXMIN|BR|GAUSSIAN,exec-left-turn,W_N,<10-Y/R,LOW  SPEED,NO  PEDESTRIAN,  RL  >  2,acts-1,N,777,156,148.481667,0
MAXMIN|BR|GAUSSIAN,exec-left-turn,W_N,<10-Y/R,MEDIUM  SPEED,NO  PEDESTRIAN,RL  0,acts-1,Y,777,9,47.047,0.002851000000000048
MAXMIN|BR|GAUSSIAN,exec-left-turn,W_N,>EQ  10-Y/R,LOW  SPEED,NO  PEDESTRIAN,RL  0,acts-1,Y,777,8,13.013,0.00571200000000005
MAXMIN|BR|GAUSSIAN,exec-left-turn,W_N,>EQ  10-Y/R,LOW  SPEED,NO  PEDESTRIAN,  RL  <EQ  2,acts-1,N,777,18,19.019,0.0009029999999999871
MAXMIN|BR|GAUSSIAN,exec-left-turn,W_N,>EQ  10-Y/R,MEDIUM  SPEED,NO  PEDESTRIAN,RL  0,acts-1,Y,777,8,14.014,0.0006810000000000427
MAXMIN|BR|GAUSSIAN,exec-left-turn,W_N,>EQ  10-Y/R,MEDIUM  SPEED,NO  PEDESTRIAN,RL  0,acts-1,N,777,8,15.015,0.010741
MAXMIN|BR|GAUSSIAN,exec-left-turn,W_N,>EQ  10-Y/R,MEDIUM  SPEED,NO  PEDESTRIAN,RL  0,acts-1,N,777,2,17.017,0.0033570000000000544
MAXMIN|BR|GAUSSIAN,exec-left-turn,E_S,<10-Y/R,LOW  SPEED,NO  PEDESTRIAN,RL  0,acts-4,Y,777,55,49.215833,0
MAXMIN|BR|GAUSSIAN,exec-left-turn,E_S,<10-Y/R,LOW  SPEED,NO  PEDESTRIAN,RL  0,acts-4,Y,777,55,50.216833,0.0036360000000000836
MAXMIN|BR|GAUSSIAN,exec-left-turn,E_S,<10-Y/R,LOW  SPEED,NO  PEDESTRIAN,RL  0,acts-4,Y,777,55,51.217833,0.0018740000000000423
MAXMIN|BR|GAUSSIAN,exec-left-turn,E_S,<10-Y/R,LOW  SPEED,NO  PEDESTRIAN,RL  0,acts-4,Y,777,157,153.486667,0.0028880000000000017
MAXMIN|BR|GAUSSIAN,exec-left-turn,E_S,<10-Y/R,LOW  SPEED,NO  PEDESTRIAN,RL  0,acts-4,Y,777,157,154.487667,0.0011039999999999939
MAXMIN|BR|GAUSSIAN,exec-left-turn,E_S,<10-Y/R,LOW  SPEED,NO  PEDESTRIAN,RL  0,acts-4,Y,777,157,155.488667,0
MAXMIN|BR|GAUSSIAN,exec-left-turn,E_S,<10-Y/R,LOW  SPEED,NO  PEDESTRIAN,  RL  <EQ  2,acts-1,N,777,55,42.208833,0.004395000000000038
MAXMIN|BR|GAUSSIAN,exec-left-turn,E_S,<10-Y/R,LOW  SPEED,NO  PEDESTRIAN,  RL  <EQ  2,acts-1,Y,777,55,43.209833,0.01557199999999992
MAXMIN|BR|GAUSSIAN,exec-left-turn,E_S,<10-Y/R,LOW  SPEED,NO  PEDESTRIAN,  RL  <EQ  2,acts-1,Y,777,55,44.210833,0.017112000000000016
MAXMIN|BR|GAUSSIAN,exec-left-turn,E_S,>EQ  10-Y/R,LOW  SPEED,PEDESTRIAN,RL  0,acts-2,Y,777,65,114.447667,0.0023100000000000342
MAXMIN|BR|GAUSSIAN,exec-left-turn,E_S,>EQ  10-Y/R,LOW  SPEED,PEDESTRIAN,RL  0,acts-2,Y,777,65,115.448667,0.0026359999999999717
MAXMIN|BR|GAUSSIAN,exec-left-turn,E_S,>EQ  10-Y/R,LOW  SPEED,NO  PEDESTRIAN,RL  0,acts-1,N,777,10,14.014,0
MAXMIN|BR|GAUSSIAN,exec-left-turn,E_S,>EQ  10-Y/R,LOW  SPEED,NO  PEDESTRIAN,RL  0,acts-1,Y,777,10,15.015,0
MAXMIN|BR|GAUSSIAN,exec-left-turn,E_S,>EQ  10-Y/R,LOW  SPEED,NO  PEDESTRIAN,RL  0,acts-1,Y,777,10,16.016,0
MAXMIN|BR|GAUSSIAN,exec-left-turn,E_S,>EQ  10-Y/R,LOW  SPEED,NO  PEDESTRIAN,RL  0,acts-1,N,777,5,21.021,0
MAXMIN|BR|GAUSSIAN,exec-left-turn,E_S,>EQ  10-Y/R,LOW  SPEED,NO  PEDESTRIAN,RL  0,acts-5,N,777,31,18.351667,0.018059000000000047
MAXMIN|BR|GAUSSIAN,exec-left-turn,E_S,>EQ  10-Y/R,LOW  SPEED,NO  PEDESTRIAN,  RL  <EQ  2,acts-1,Y,777,5,19.019,0.0007960000000000189
MAXMIN|BR|GAUSSIAN,exec-left-turn,E_S,>EQ  10-Y/R,LOW  SPEED,NO  PEDESTRIAN,  RL  <EQ  2,acts-1,Y,777,5,20.02,0
MAXMIN|BR|GAUSSIAN,exec-left-turn,E_S,>EQ  10-Y/R,MEDIUM  SPEED,PEDESTRIAN,RL  0,acts-2,N,777,65,116.449667,1.5000000000098268e-05
MAXMIN|BR|GAUSSIAN,exec-left-turn,E_S,>EQ  10-Y/R,MEDIUM  SPEED,PEDESTRIAN,RL  0,acts-2,N,777,65,116.449667,7.80000000000225e-05
MAXMIN|BR|GAUSSIAN,exec-left-turn,E_S,>EQ  10-Y/R,MEDIUM  SPEED,NO  PEDESTRIAN,RL  0,acts-1,Y,777,10,17.017,0.003878000000000048
MAXMIN|BR|GAUSSIAN,exec-left-turn,E_S,>EQ  10-G,LOW  SPEED,NO  PEDESTRIAN,RL  0,acts-4,Y,777,64,53.887167,0.002578999999999998
MAXMIN|BR|GAUSSIAN,exec-left-turn,E_S,>EQ  10-G,LOW  SPEED,NO  PEDESTRIAN,RL  0,acts-4,Y,777,64,54.888167,0
MAXMIN|BR|GAUSSIAN,OTHER  LANES,W_S,<10-Y/R,LOW  SPEED,NO  PEDESTRIAN,RL  0,acts-6,Y,777,174,150.984167,0.03901399999999999
MAXMIN|BR|GAUSSIAN,OTHER  LANES,W_S,<10-Y/R,LOW  SPEED,NO  PEDESTRIAN,  RL  <EQ  2,acts-6,Y,777,59,40.373667,0.014728000000000074
MAXMIN|BR|GAUSSIAN,OTHER  LANES,W_S,<10-Y/R,LOW  SPEED,NO  PEDESTRIAN,  RL  <EQ  2,acts-6,N,777,59,41.374667,0.034968
MAXMIN|BR|GAUSSIAN,OTHER  LANES,W_S,<10-Y/R,LOW  SPEED,NO  PEDESTRIAN,  RL  >  2,acts-6,Y,777,59,42.375667,0.03507499999999997
MAXMIN|BR|GAUSSIAN,OTHER  LANES,W_S,<10-Y/R,MEDIUM  SPEED,NO  PEDESTRIAN,RL  0,acts-6,Y,777,174,149.983167,0.03863700000000003
MAXMIN|BR|GAUSSIAN,OTHER  LANES,W_S,<10-G,LOW  SPEED,PEDESTRIAN,RL  0,acts-7,N,777,111,117.6175,0.03452900000000003
MAXMIN|BR|GAUSSIAN,OTHER  LANES,W_S,<10-G,LOW  SPEED,PEDESTRIAN,RL  0,acts-7,N,777,111,118.6185,0.03770299999999993
MAXMIN|BR|GAUSSIAN,OTHER  LANES,W_S,>EQ  10-Y/R,LOW  SPEED,PEDESTRIAN,RL  0,acts-7,N,777,111,119.6195,0.01108000000000009
MAXMIN|BR|GAUSSIAN,OTHER  LANES,W_S,>EQ  10-Y/R,LOW  SPEED,PEDESTRIAN,RL  0,acts-7,Y,777,111,120.6205,0
MAXMIN|BR|GAUSSIAN,OTHER  LANES,W_S,>EQ  10-Y/R,LOW  SPEED,PEDESTRIAN,RL  0,acts-7,Y,777,111,121.6215,0.0001140000000000585
MAXMIN|BR|GAUSSIAN,OTHER  LANES,W_S,>EQ  10-Y/R,LOW  SPEED,NO  PEDESTRIAN,RL  0,acts-6,Y,777,42,24.5245,0.0332070000000001
MAXMIN|BR|GAUSSIAN,OTHER  LANES,W_S,>EQ  10-Y/R,LOW  SPEED,NO  PEDESTRIAN,RL  0,acts-6,Y,777,47,26.192833,0.03808300000000009
MAXMIN|BR|GAUSSIAN,OTHER  LANES,W_S,>EQ  10-Y/R,LOW  SPEED,NO  PEDESTRIAN,RL  0,acts-6,N,777,47,27.193833,0.0019970000000000265
MAXMIN|BR|GAUSSIAN,OTHER  LANES,W_S,>EQ  10-Y/R,LOW  SPEED,NO  PEDESTRIAN,RL  0,acts-6,Y,777,47,28.194833,0.0024520000000000097
MAXMIN|BR|GAUSSIAN,OTHER  LANES,W_S,>EQ  10-Y/R,LOW  SPEED,NO  PEDESTRIAN,RL  0,acts-6,Y,777,47,29.195833,0.03570099999999998
MAXMIN|BR|GAUSSIAN,OTHER  LANES,W_S,>EQ  10-Y/R,LOW  SPEED,NO  PEDESTRIAN,RL  0,acts-6,Y,777,47,30.196833,0.04155500000000001
MAXMIN|BR|GAUSSIAN,OTHER  LANES,W_S,>EQ  10-Y/R,LOW  SPEED,NO  PEDESTRIAN,RL  0,acts-6,N,777,47,31.197833,0.029710000000000014
MAXMIN|BR|GAUSSIAN,OTHER  LANES,W_S,>EQ  10-Y/R,LOW  SPEED,NO  PEDESTRIAN,  RL  <EQ  2,acts-6,Y,777,42,19.5195,0.008385000000000087
MAXMIN|BR|GAUSSIAN,OTHER  LANES,W_S,>EQ  10-Y/R,LOW  SPEED,NO  PEDESTRIAN,  RL  <EQ  2,acts-6,N,777,42,20.5205,0.025469000000000075
MAXMIN|BR|GAUSSIAN,OTHER  LANES,W_S,>EQ  10-Y/R,LOW  SPEED,NO  PEDESTRIAN,  RL  <EQ  2,acts-6,Y,777,42,21.5215,0
MAXMIN|BR|GAUSSIAN,OTHER  LANES,W_S,>EQ  10-G,LOW  SPEED,PEDESTRIAN,RL  0,acts-7,Y,777,99,103.103,0.004666999999999977
MAXMIN|BR|GAUSSIAN,OTHER  LANES,W_S,>EQ  10-G,LOW  SPEED,PEDESTRIAN,RL  0,acts-7,N,777,111,105.6055,0.011365999999999987
MAXMIN|BR|GAUSSIAN,OTHER  LANES,W_S,>EQ  10-G,LOW  SPEED,PEDESTRIAN,RL  0,acts-7,N,777,111,106.6065,0.03675000000000006
MAXMIN|BR|GAUSSIAN,OTHER  LANES,W_S,>EQ  10-G,LOW  SPEED,PEDESTRIAN,RL  0,acts-7,N,777,111,107.6075,0.04044199999999998
MAXMIN|BR|GAUSSIAN,OTHER  LANES,W_S,>EQ  10-G,LOW  SPEED,PEDESTRIAN,RL  0,acts-7,Y,777,111,108.6085,0.039382999999999946
MAXMIN|BR|GAUSSIAN,OTHER  LANES,W_S,>EQ  10-G,LOW  SPEED,PEDESTRIAN,  RL  <EQ  2,acts-7,N,777,99,100.1,0.009815000000000018
MAXMIN|BR|GAUSSIAN,OTHER  LANES,W_S,>EQ  10-G,LOW  SPEED,PEDESTRIAN,  RL  <EQ  2,acts-7,Y,777,99,101.101,0
MAXMIN|BR|GAUSSIAN,OTHER  LANES,W_S,>EQ  10-G,LOW  SPEED,PEDESTRIAN,  RL  <EQ  2,acts-7,Y,777,99,102.102,0.0005570000000000297
MAXMIN|BR|GAUSSIAN,OTHER  LANES,W_S,>EQ  10-G,LOW  SPEED,PEDESTRIAN,  RL  <EQ  2,acts-7,Y,777,99,88.088,0
MAXMIN|BR|GAUSSIAN,OTHER  LANES,W_S,>EQ  10-G,LOW  SPEED,PEDESTRIAN,  RL  <EQ  2,acts-7,N,777,99,95.095,0.03130299999999997
MAXMIN|BR|GAUSSIAN,OTHER  LANES,W_S,>EQ  10-G,LOW  SPEED,PEDESTRIAN,  RL  <EQ  2,acts-7,N,777,99,96.096,0.032391999999999976
MAXMIN|BR|GAUSSIAN,OTHER  LANES,W_S,>EQ  10-G,LOW  SPEED,PEDESTRIAN,  RL  <EQ  2,acts-7,N,777,99,97.097,0.035055999999999976
MAXMIN|BR|GAUSSIAN,OTHER  LANES,W_S,>EQ  10-G,LOW  SPEED,PEDESTRIAN,  RL  <EQ  2,acts-7,N,777,99,98.098,0.037686
MAXMIN|BR|GAUSSIAN,OTHER  LANES,W_S,>EQ  10-G,LOW  SPEED,PEDESTRIAN,  RL  <EQ  2,acts-7,N,777,99,99.099,0.03281400000000001
MAXMIN|BR|GAUSSIAN,OTHER  LANES,W_S,>EQ  10-G,LOW  SPEED,PEDESTRIAN,  RL  >  2,acts-7,Y,777,85,71.5715,0.013458999999999999
MAXMIN|BR|GAUSSIAN,OTHER  LANES,W_S,>EQ  10-G,LOW  SPEED,PEDESTRIAN,  RL  >  2,acts-7,N,777,99,89.089,0.035165
MAXMIN|BR|GAUSSIAN,OTHER  LANES,W_S,>EQ  10-G,LOW  SPEED,PEDESTRIAN,  RL  >  2,acts-7,Y,777,99,90.09,0.039605
MAXMIN|BR|GAUSSIAN,OTHER  LANES,W_S,>EQ  10-G,LOW  SPEED,PEDESTRIAN,  RL  >  2,acts-7,N,777,99,91.091,0.02883799999999992
MAXMIN|BR|GAUSSIAN,OTHER  LANES,W_S,>EQ  10-G,LOW  SPEED,PEDESTRIAN,  RL  >  2,acts-7,N,777,99,92.092,0.03170300000000004
MAXMIN|BR|GAUSSIAN,OTHER  LANES,W_S,>EQ  10-G,LOW  SPEED,PEDESTRIAN,  RL  >  2,acts-7,N,777,99,93.093,0.034452999999999956
MAXMIN|BR|GAUSSIAN,OTHER  LANES,W_S,>EQ  10-G,LOW  SPEED,PEDESTRIAN,  RL  >  2,acts-7,N,777,99,94.094,0.03865200000000002
MAXMIN|BR|GAUSSIAN,OTHER  LANES,W_S,>EQ  10-G,LOW  SPEED,NO  PEDESTRIAN,RL  0,acts-6,N,777,16,0,0
MAXMIN|BR|GAUSSIAN,OTHER  LANES,W_S,>EQ  10-G,LOW  SPEED,NO  PEDESTRIAN,RL  0,acts-6,N,777,16,1.001,0
MAXMIN|BR|GAUSSIAN,OTHER  LANES,W_S,>EQ  10-G,LOW  SPEED,NO  PEDESTRIAN,RL  0,acts-6,N,777,16,2.002,0.03505999999999998
MAXMIN|BR|GAUSSIAN,OTHER  LANES,W_S,>EQ  10-G,LOW  SPEED,NO  PEDESTRIAN,RL  0,acts-6,N,777,19,6.006,0.04155200000000003
MAXMIN|BR|GAUSSIAN,OTHER  LANES,W_S,>EQ  10-G,LOW  SPEED,NO  PEDESTRIAN,RL  0,acts-6,N,777,19,7.007,0
MAXMIN|BR|GAUSSIAN,OTHER  LANES,W_S,>EQ  10-G,LOW  SPEED,NO  PEDESTRIAN,RL  0,acts-6,Y,777,69,54.888167,0.025449000000000055
MAXMIN|BR|GAUSSIAN,OTHER  LANES,W_S,>EQ  10-G,LOW  SPEED,NO  PEDESTRIAN,RL  0,acts-6,Y,777,69,55.889167,0.035129999999999995
MAXMIN|BR|GAUSSIAN,OTHER  LANES,W_S,>EQ  10-G,LOW  SPEED,NO  PEDESTRIAN,RL  0,acts-6,Y,777,69,56.890167,0.04164900000000005
MAXMIN|BR|GAUSSIAN,OTHER  LANES,W_S,>EQ  10-G,LOW  SPEED,NO  PEDESTRIAN,RL  0,acts-6,Y,777,69,57.891167,0.038134
MAXMIN|BR|GAUSSIAN,OTHER  LANES,W_S,>EQ  10-G,LOW  SPEED,NO  PEDESTRIAN,RL  0,acts-6,Y,777,69,58.892167,0.0021930000000000005
MAXMIN|BR|GAUSSIAN,OTHER  LANES,W_S,>EQ  10-G,LOW  SPEED,NO  PEDESTRIAN,RL  0,acts-6,Y,777,69,59.893167,0
MAXMIN|BR|GAUSSIAN,OTHER  LANES,W_S,>EQ  10-G,LOW  SPEED,NO  PEDESTRIAN,  RL  >  2,acts-6,Y,777,85,68.5685,0.022540000000000004
MAXMIN|BR|GAUSSIAN,OTHER  LANES,W_S,>EQ  10-G,LOW  SPEED,NO  PEDESTRIAN,  RL  >  2,acts-6,Y,777,85,69.5695,0.03226300000000004
MAXMIN|BR|GAUSSIAN,OTHER  LANES,W_S,>EQ  10-G,LOW  SPEED,NO  PEDESTRIAN,  RL  >  2,acts-6,Y,777,85,70.5705,0.01904499999999998
MAXMIN|BR|GAUSSIAN,OTHER  LANES,W_S,>EQ  10-G,MEDIUM  SPEED,NO  PEDESTRIAN,RL  0,acts-6,Y,777,69,53.887167,0.0006180000000000074
MAXMIN|BR|GAUSSIAN,OTHER  LANES,W_S,>EQ  10-G,MEDIUM  SPEED,NO  PEDESTRIAN,  RL  >  2,acts-6,N,777,85,66.5665,0.0009329999999999616
MAXMIN|BR|GAUSSIAN,OTHER  LANES,W_S,>EQ  10-G,MEDIUM  SPEED,NO  PEDESTRIAN,  RL  >  2,acts-6,Y,777,85,67.5675,0
MAXMIN|BR|GAUSSIAN,OTHER  LANES,S_W,<10-G,LOW  SPEED,NO  PEDESTRIAN,RL  0,acts-8,N,777,26,46.5465,0.00026599999999998847
MAXMIN|BR|GAUSSIAN,OTHER  LANES,S_W,<10-G,LOW  SPEED,NO  PEDESTRIAN,RL  0,acts-8,N,777,26,47.5475,0
MAXMIN|BR|GAUSSIAN,OTHER  LANES,S_W,<10-G,LOW  SPEED,NO  PEDESTRIAN,RL  0,acts-8,N,777,26,48.5485,9.699999999990272e-05
MAXMIN|BR|GAUSSIAN,OTHER  LANES,S_W,<10-G,LOW  SPEED,NO  PEDESTRIAN,RL  0,acts-8,N,777,26,49.5495,0.0001060000000000505
MAXMIN|BR|GAUSSIAN,OTHER  LANES,S_W,<10-G,LOW  SPEED,NO  PEDESTRIAN,RL  0,acts-8,N,777,26,50.5505,0.00013300000000004975
MAXMIN|BR|GAUSSIAN,OTHER  LANES,S_W,<10-G,LOW  SPEED,NO  PEDESTRIAN,RL  0,acts-8,N,777,26,51.5515,0.0003109999999999502
MAXMIN|BR|GAUSSIAN,OTHER  LANES,S_W,<10-G,LOW  SPEED,NO  PEDESTRIAN,RL  0,acts-8,N,777,26,52.5525,0.0002949999999999342
MAXMIN|BR|GAUSSIAN,OTHER  LANES,S_W,<10-G,LOW  SPEED,NO  PEDESTRIAN,RL  0,acts-8,N,777,26,53.5535,0.00018200000000001548
MAXMIN|BR|GAUSSIAN,OTHER  LANES,S_W,<10-G,LOW  SPEED,NO  PEDESTRIAN,RL  0,acts-8,N,777,26,54.5545,0.0002889999999999837
MAXMIN|BR|GAUSSIAN,OTHER  LANES,S_W,<10-G,LOW  SPEED,NO  PEDESTRIAN,RL  0,acts-8,N,777,26,55.5555,0.0003029999999999422
MAXMIN|BR|GAUSSIAN,OTHER  LANES,S_W,<10-G,LOW  SPEED,NO  PEDESTRIAN,RL  0,acts-8,N,777,150,146.146,0.00014399999999992197
MAXMIN|BR|GAUSSIAN,OTHER  LANES,S_W,<10-G,LOW  SPEED,NO  PEDESTRIAN,RL  0,acts-8,N,777,150,147.147,0.00018499999999999073
MAXMIN|BR|GAUSSIAN,OTHER  LANES,S_W,<10-G,LOW  SPEED,NO  PEDESTRIAN,RL  0,acts-8,N,777,150,148.148,0
MAXMIN|BR|GAUSSIAN,OTHER  LANES,S_W,<10-G,LOW  SPEED,NO  PEDESTRIAN,RL  0,acts-8,N,777,150,149.149,0
MAXMIN|BR|GAUSSIAN,OTHER  LANES,S_W,<10-G,LOW  SPEED,NO  PEDESTRIAN,RL  0,acts-8,N,777,150,150.15,0.00016299999999991321
MAXMIN|BR|GAUSSIAN,OTHER  LANES,S_W,<10-G,LOW  SPEED,NO  PEDESTRIAN,RL  0,acts-8,N,777,150,151.151,0.00017500000000003624
MAXMIN|BR|GAUSSIAN,OTHER  LANES,S_W,<10-G,LOW  SPEED,NO  PEDESTRIAN,RL  0,acts-8,N,777,150,152.152,0.00021000000000004349
MAXMIN|BR|GAUSSIAN,OTHER  LANES,S_W,<10-G,LOW  SPEED,NO  PEDESTRIAN,RL  0,acts-8,N,777,150,153.153,0
MAXMIN|BR|GAUSSIAN,OTHER  LANES,S_W,<10-G,LOW  SPEED,NO  PEDESTRIAN,RL  0,acts-8,N,777,150,154.154,0
MAXMIN|BR|GAUSSIAN,OTHER  LANES,S_W,<10-G,LOW  SPEED,NO  PEDESTRIAN,RL  0,acts-8,N,777,150,155.155,0
MAXMIN|BR|GAUSSIAN,OTHER  LANES,S_W,>EQ  10-G,LOW  SPEED,NO  PEDESTRIAN,RL  0,acts-8,N,777,26,10.5105,0.00024199999999996447
MAXMIN|BR|GAUSSIAN,OTHER  LANES,S_W,>EQ  10-G,LOW  SPEED,NO  PEDESTRIAN,RL  0,acts-8,N,777,26,11.5115,0
MAXMIN|BR|GAUSSIAN,OTHER  LANES,S_W,>EQ  10-G,LOW  SPEED,NO  PEDESTRIAN,RL  0,acts-8,N,777,26,12.5125,0
MAXMIN|BR|GAUSSIAN,OTHER  LANES,S_W,>EQ  10-G,LOW  SPEED,NO  PEDESTRIAN,RL  0,acts-8,N,777,26,13.5135,0.00013199999999990997
MAXMIN|BR|GAUSSIAN,OTHER  LANES,S_W,>EQ  10-G,LOW  SPEED,NO  PEDESTRIAN,RL  0,acts-8,N,777,26,14.5145,0.00012700000000009926
MAXMIN|BR|GAUSSIAN,OTHER  LANES,S_W,>EQ  10-G,LOW  SPEED,NO  PEDESTRIAN,RL  0,acts-8,N,777,26,15.5155,0.00027399999999999647
MAXMIN|BR|GAUSSIAN,OTHER  LANES,S_W,>EQ  10-G,LOW  SPEED,NO  PEDESTRIAN,RL  0,acts-8,N,777,26,16.5165,0
MAXMIN|BR|GAUSSIAN,OTHER  LANES,S_W,>EQ  10-G,LOW  SPEED,NO  PEDESTRIAN,RL  0,acts-8,N,777,26,17.5175,1.999999999946489e-06
MAXMIN|BR|GAUSSIAN,OTHER  LANES,S_W,>EQ  10-G,LOW  SPEED,NO  PEDESTRIAN,RL  0,acts-8,N,777,26,18.5185,0.0002709999999999102
MAXMIN|BR|GAUSSIAN,OTHER  LANES,S_W,>EQ  10-G,LOW  SPEED,NO  PEDESTRIAN,RL  0,acts-8,N,777,26,19.5195,0.00015300000000006975
MAXMIN|BR|GAUSSIAN,OTHER  LANES,S_W,>EQ  10-G,LOW  SPEED,NO  PEDESTRIAN,RL  0,acts-8,N,777,26,20.5205,0.00027999999999994696
MAXMIN|BR|GAUSSIAN,OTHER  LANES,S_W,>EQ  10-G,LOW  SPEED,NO  PEDESTRIAN,RL  0,acts-8,N,777,26,21.5215,0.00017800000000001148
MAXMIN|BR|GAUSSIAN,OTHER  LANES,S_W,>EQ  10-G,LOW  SPEED,NO  PEDESTRIAN,RL  0,acts-8,N,777,26,22.5225,0.00010299999999996423
MAXMIN|BR|GAUSSIAN,OTHER  LANES,S_W,>EQ  10-G,LOW  SPEED,NO  PEDESTRIAN,RL  0,acts-8,N,777,26,23.5235,0
MAXMIN|BR|GAUSSIAN,OTHER  LANES,S_W,>EQ  10-G,LOW  SPEED,NO  PEDESTRIAN,RL  0,acts-8,N,777,26,24.5245,0
MAXMIN|BR|GAUSSIAN,OTHER  LANES,S_W,>EQ  10-G,LOW  SPEED,NO  PEDESTRIAN,RL  0,acts-8,N,777,26,25.5255,0.00029800000000002047
MAXMIN|BR|GAUSSIAN,OTHER  LANES,S_W,>EQ  10-G,LOW  SPEED,NO  PEDESTRIAN,RL  0,acts-8,N,777,26,26.5265,0.00016700000000002824
MAXMIN|BR|GAUSSIAN,OTHER  LANES,S_W,>EQ  10-G,LOW  SPEED,NO  PEDESTRIAN,RL  0,acts-8,N,777,26,27.5275,2.9999999999752447e-06
MAXMIN|BR|GAUSSIAN,OTHER  LANES,S_W,>EQ  10-G,LOW  SPEED,NO  PEDESTRIAN,RL  0,acts-8,N,777,26,28.5285,0.00017000000000000348
MAXMIN|BR|GAUSSIAN,OTHER  LANES,S_W,>EQ  10-G,LOW  SPEED,NO  PEDESTRIAN,RL  0,acts-8,N,777,26,29.5295,0.0003049999999999997
MAXMIN|BR|GAUSSIAN,OTHER  LANES,S_W,>EQ  10-G,LOW  SPEED,NO  PEDESTRIAN,RL  0,acts-8,N,777,26,30.5305,0
MAXMIN|BR|GAUSSIAN,OTHER  LANES,S_W,>EQ  10-G,LOW  SPEED,NO  PEDESTRIAN,RL  0,acts-8,N,777,26,31.5315,0.0003210000000000157
MAXMIN|BR|GAUSSIAN,OTHER  LANES,S_W,>EQ  10-G,LOW  SPEED,NO  PEDESTRIAN,RL  0,acts-8,N,777,26,32.5325,0.00010100000000001774
MAXMIN|BR|GAUSSIAN,OTHER  LANES,S_W,>EQ  10-G,LOW  SPEED,NO  PEDESTRIAN,RL  0,acts-8,N,777,26,33.5335,6.799999999995698e-05
MAXMIN|BR|GAUSSIAN,OTHER  LANES,S_W,>EQ  10-G,LOW  SPEED,NO  PEDESTRIAN,RL  0,acts-8,N,777,26,34.5345,0
MAXMIN|BR|GAUSSIAN,OTHER  LANES,S_W,>EQ  10-G,LOW  SPEED,NO  PEDESTRIAN,RL  0,acts-8,N,777,26,35.5355,0.00015500000000001624
MAXMIN|BR|GAUSSIAN,OTHER  LANES,S_W,>EQ  10-G,LOW  SPEED,NO  PEDESTRIAN,RL  0,acts-8,N,777,26,36.5365,0.0004210000000000047
MAXMIN|BR|GAUSSIAN,OTHER  LANES,S_W,>EQ  10-G,LOW  SPEED,NO  PEDESTRIAN,RL  0,acts-8,N,777,26,37.5375,0.00018200000000001548
MAXMIN|BR|GAUSSIAN,OTHER  LANES,S_W,>EQ  10-G,LOW  SPEED,NO  PEDESTRIAN,RL  0,acts-8,N,777,26,38.5385,0.00020799999999998597
MAXMIN|BR|GAUSSIAN,OTHER  LANES,S_W,>EQ  10-G,LOW  SPEED,NO  PEDESTRIAN,RL  0,acts-8,N,777,26,39.5395,5.499999999991623e-05
MAXMIN|BR|GAUSSIAN,OTHER  LANES,S_W,>EQ  10-G,LOW  SPEED,NO  PEDESTRIAN,RL  0,acts-8,N,777,26,40.5405,0.000124000000000013
MAXMIN|BR|GAUSSIAN,OTHER  LANES,S_W,>EQ  10-G,LOW  SPEED,NO  PEDESTRIAN,RL  0,acts-8,N,777,26,41.5415,6.199999999989547e-05
MAXMIN|BR|GAUSSIAN,OTHER  LANES,S_W,>EQ  10-G,LOW  SPEED,NO  PEDESTRIAN,RL  0,acts-8,N,777,26,42.5425,0.00016599999999999948
MAXMIN|BR|GAUSSIAN,OTHER  LANES,S_W,>EQ  10-G,LOW  SPEED,NO  PEDESTRIAN,RL  0,acts-8,N,777,26,43.5435,0.00020699999999995722
MAXMIN|BR|GAUSSIAN,OTHER  LANES,S_W,>EQ  10-G,LOW  SPEED,NO  PEDESTRIAN,RL  0,acts-8,N,777,26,44.5445,0.00015799999999999148
MAXMIN|BR|GAUSSIAN,OTHER  LANES,S_W,>EQ  10-G,LOW  SPEED,NO  PEDESTRIAN,RL  0,acts-8,N,777,26,45.5455,7.80000000000225e-05
MAXMIN|BR|GAUSSIAN,OTHER  LANES,S_W,>EQ  10-G,LOW  SPEED,NO  PEDESTRIAN,RL  0,acts-8,N,777,26,8.5085,0.0002870000000000372
MAXMIN|BR|GAUSSIAN,OTHER  LANES,S_W,>EQ  10-G,LOW  SPEED,NO  PEDESTRIAN,RL  0,acts-8,N,777,26,9.5095,2.0000000000575113e-06
MAXMIN|BR|GAUSSIAN,OTHER  LANES,S_W,>EQ  10-G,LOW  SPEED,NO  PEDESTRIAN,RL  0,acts-8,Y,777,150,133.133,0.001182999999999934
MAXMIN|BR|GAUSSIAN,OTHER  LANES,S_W,>EQ  10-G,LOW  SPEED,NO  PEDESTRIAN,RL  0,acts-8,Y,777,150,134.134,0.0011950000000000571
MAXMIN|BR|GAUSSIAN,OTHER  LANES,S_W,>EQ  10-G,LOW  SPEED,NO  PEDESTRIAN,RL  0,acts-8,Y,777,150,135.135,0
MAXMIN|BR|GAUSSIAN,OTHER  LANES,S_W,>EQ  10-G,LOW  SPEED,NO  PEDESTRIAN,RL  0,acts-8,N,777,150,136.136,0
MAXMIN|BR|GAUSSIAN,OTHER  LANES,S_W,>EQ  10-G,LOW  SPEED,NO  PEDESTRIAN,RL  0,acts-8,N,777,150,137.137,0.00010500000000002174
MAXMIN|BR|GAUSSIAN,OTHER  LANES,S_W,>EQ  10-G,LOW  SPEED,NO  PEDESTRIAN,RL  0,acts-8,N,777,150,138.138,0.00020100000000000673
MAXMIN|BR|GAUSSIAN,OTHER  LANES,S_W,>EQ  10-G,LOW  SPEED,NO  PEDESTRIAN,RL  0,acts-8,N,777,150,139.139,0.0003450000000000397
MAXMIN|BR|GAUSSIAN,OTHER  LANES,S_W,>EQ  10-G,LOW  SPEED,NO  PEDESTRIAN,RL  0,acts-8,N,777,150,140.14,0.00011200000000000099
MAXMIN|BR|GAUSSIAN,OTHER  LANES,S_W,>EQ  10-G,LOW  SPEED,NO  PEDESTRIAN,RL  0,acts-8,N,777,150,141.141,3.6000000000036e-05
MAXMIN|BR|GAUSSIAN,OTHER  LANES,S_W,>EQ  10-G,LOW  SPEED,NO  PEDESTRIAN,RL  0,acts-8,N,777,150,142.142,1.0000000000065512e-05
MAXMIN|BR|GAUSSIAN,OTHER  LANES,S_W,>EQ  10-G,LOW  SPEED,NO  PEDESTRIAN,RL  0,acts-8,N,777,150,143.143,0
MAXMIN|BR|GAUSSIAN,OTHER  LANES,S_W,>EQ  10-G,LOW  SPEED,NO  PEDESTRIAN,RL  0,acts-8,N,777,150,144.144,0
MAXMIN|BR|GAUSSIAN,OTHER  LANES,S_W,>EQ  10-G,LOW  SPEED,NO  PEDESTRIAN,RL  0,acts-8,N,777,150,145.145,0.000268000000000046
MAXMIN|BR|GAUSSIAN,OTHER  LANES,N_E,<10-G,LOW  SPEED,PEDESTRIAN,RL  0,acts-8,N,777,145,147.147,0.0002590000000000092
MAXMIN|BR|GAUSSIAN,OTHER  LANES,N_E,<10-G,LOW  SPEED,PEDESTRIAN,RL  0,acts-8,N,777,145,148.148,0.00016300000000002424
MAXMIN|BR|GAUSSIAN,OTHER  LANES,N_E,<10-G,LOW  SPEED,PEDESTRIAN,RL  0,acts-8,N,777,145,149.149,0.0003030000000000532
MAXMIN|BR|GAUSSIAN,OTHER  LANES,N_E,<10-G,LOW  SPEED,PEDESTRIAN,RL  0,acts-8,N,777,145,150.15,0.0002409999999999357
MAXMIN|BR|GAUSSIAN,OTHER  LANES,N_E,<10-G,LOW  SPEED,PEDESTRIAN,RL  0,acts-8,N,777,145,151.151,0.00044600000000005746
MAXMIN|BR|GAUSSIAN,OTHER  LANES,N_E,<10-G,LOW  SPEED,PEDESTRIAN,RL  0,acts-8,N,777,145,152.152,0.00016300000000002424
MAXMIN|BR|GAUSSIAN,OTHER  LANES,N_E,<10-G,LOW  SPEED,PEDESTRIAN,RL  0,acts-8,N,777,145,153.153,0.0003589999999999982
MAXMIN|BR|GAUSSIAN,OTHER  LANES,N_E,<10-G,LOW  SPEED,PEDESTRIAN,RL  0,acts-8,N,777,145,154.154,0
MAXMIN|BR|GAUSSIAN,OTHER  LANES,N_E,<10-G,LOW  SPEED,PEDESTRIAN,RL  0,acts-8,N,777,145,155.155,0.00012499999999993072
MAXMIN|BR|GAUSSIAN,OTHER  LANES,N_E,<10-G,LOW  SPEED,NO  PEDESTRIAN,RL  0,acts-8,N,777,71,56.723333,0.00019199999999996997
MAXMIN|BR|GAUSSIAN,OTHER  LANES,N_E,<10-G,LOW  SPEED,NO  PEDESTRIAN,RL  0,acts-8,N,777,71,57.724333,0.00012699999999998823
MAXMIN|BR|GAUSSIAN,OTHER  LANES,N_E,<10-G,LOW  SPEED,NO  PEDESTRIAN,RL  0,acts-8,N,777,71,58.725333,3.100000000000325e-05
MAXMIN|BR|GAUSSIAN,OTHER  LANES,N_E,<10-G,LOW  SPEED,NO  PEDESTRIAN,RL  0,acts-8,N,777,71,59.726333,2.599999999997049e-05
MAXMIN|BR|GAUSSIAN,OTHER  LANES,N_E,<10-G,LOW  SPEED,NO  PEDESTRIAN,RL  0,acts-8,N,777,71,60.727333,0.00016899999999997473
MAXMIN|BR|GAUSSIAN,OTHER  LANES,N_E,<10-G,LOW  SPEED,NO  PEDESTRIAN,RL  0,acts-8,N,777,71,61.728333,0
MAXMIN|BR|GAUSSIAN,OTHER  LANES,N_E,<10-G,LOW  SPEED,NO  PEDESTRIAN,RL  0,acts-8,N,777,71,62.729333,9.999999999998899e-05
MAXMIN|BR|GAUSSIAN,OTHER  LANES,N_E,<10-G,LOW  SPEED,NO  PEDESTRIAN,RL  0,acts-8,N,777,71,63.730333,0.00014799999999992597
MAXMIN|BR|GAUSSIAN,OTHER  LANES,N_E,<10-G,LOW  SPEED,NO  PEDESTRIAN,RL  0,acts-8,N,777,71,64.731333,0
MAXMIN|BR|GAUSSIAN,OTHER  LANES,N_E,<10-G,LOW  SPEED,NO  PEDESTRIAN,RL  0,acts-8,N,777,71,65.732333,3.4000000000089514e-05
MAXMIN|BR|GAUSSIAN,OTHER  LANES,N_E,<10-G,LOW  SPEED,NO  PEDESTRIAN,RL  0,acts-8,N,777,145,146.146,0.0002889999999999837
MAXMIN|BR|GAUSSIAN,OTHER  LANES,N_E,>EQ  10-Y/R,LOW  SPEED,NO  PEDESTRIAN,RL  0,acts-1,Y,777,71,66.733333,0
MAXMIN|BR|GAUSSIAN,OTHER  LANES,N_E,>EQ  10-Y/R,LOW  SPEED,NO  PEDESTRIAN,RL  0,acts-1,Y,777,71,67.734333,0.0004979999999999984
MAXMIN|BR|GAUSSIAN,OTHER  LANES,N_E,>EQ  10-Y/R,LOW  SPEED,NO  PEDESTRIAN,RL  0,acts-1,Y,777,71,68.735333,0
MAXMIN|BR|GAUSSIAN,OTHER  LANES,N_E,>EQ  10-Y/R,LOW  SPEED,NO  PEDESTRIAN,RL  0,acts-1,Y,777,103,85.251833,0.005568000000000017
MAXMIN|BR|GAUSSIAN,OTHER  LANES,N_E,>EQ  10-G,LOW  SPEED,NO  PEDESTRIAN,RL  0,acts-8,Y,777,71,53.720333,1.6000000000016e-05
MAXMIN|BR|GAUSSIAN,OTHER  LANES,N_E,>EQ  10-G,LOW  SPEED,NO  PEDESTRIAN,RL  0,acts-8,Y,777,71,54.721333,3.6000000000036e-05
MAXMIN|BR|GAUSSIAN,OTHER  LANES,N_E,>EQ  10-G,LOW  SPEED,NO  PEDESTRIAN,RL  0,acts-8,N,777,71,55.722333,0.0003250000000000197
MAXMIN|BR|GAUSSIAN,OTHER  LANES,N_E,>EQ  10-G,LOW  SPEED,NO  PEDESTRIAN,RL  0,acts-8,Y,777,145,129.129,0.0006099999999999994
MAXMIN|BR|GAUSSIAN,OTHER  LANES,N_E,>EQ  10-G,LOW  SPEED,NO  PEDESTRIAN,RL  0,acts-8,N,777,145,130.13,0.00019800000000003148
MAXMIN|BR|GAUSSIAN,OTHER  LANES,N_E,>EQ  10-G,LOW  SPEED,NO  PEDESTRIAN,RL  0,acts-8,Y,777,145,131.131,0
MAXMIN|BR|GAUSSIAN,OTHER  LANES,N_E,>EQ  10-G,LOW  SPEED,NO  PEDESTRIAN,RL  0,acts-8,N,777,145,132.132,0
MAXMIN|BR|GAUSSIAN,OTHER  LANES,N_E,>EQ  10-G,LOW  SPEED,NO  PEDESTRIAN,RL  0,acts-8,N,777,145,133.133,0.00015599999999993397
MAXMIN|BR|GAUSSIAN,OTHER  LANES,N_E,>EQ  10-G,LOW  SPEED,NO  PEDESTRIAN,RL  0,acts-8,N,777,145,134.134,0.00042799999999998395
MAXMIN|BR|GAUSSIAN,OTHER  LANES,N_E,>EQ  10-G,LOW  SPEED,NO  PEDESTRIAN,RL  0,acts-8,N,777,145,135.135,0.0003269999999999662
MAXMIN|BR|GAUSSIAN,OTHER  LANES,N_E,>EQ  10-G,LOW  SPEED,NO  PEDESTRIAN,RL  0,acts-8,N,777,145,136.136,0.0004650000000000487
MAXMIN|BR|GAUSSIAN,OTHER  LANES,N_E,>EQ  10-G,LOW  SPEED,NO  PEDESTRIAN,RL  0,acts-8,N,777,145,137.137,0.00022400000000000198
MAXMIN|BR|GAUSSIAN,OTHER  LANES,N_E,>EQ  10-G,LOW  SPEED,NO  PEDESTRIAN,RL  0,acts-8,N,777,145,138.138,0
MAXMIN|BR|GAUSSIAN,OTHER  LANES,N_E,>EQ  10-G,LOW  SPEED,NO  PEDESTRIAN,RL  0,acts-8,N,777,145,139.139,0
MAXMIN|BR|GAUSSIAN,OTHER  LANES,N_E,>EQ  10-G,LOW  SPEED,NO  PEDESTRIAN,RL  0,acts-8,N,777,145,140.14,0.0003420000000000645
MAXMIN|BR|GAUSSIAN,OTHER  LANES,N_E,>EQ  10-G,LOW  SPEED,NO  PEDESTRIAN,RL  0,acts-8,N,777,145,141.141,0.00016700000000002824
MAXMIN|BR|GAUSSIAN,OTHER  LANES,N_E,>EQ  10-G,LOW  SPEED,NO  PEDESTRIAN,RL  0,acts-8,N,777,145,142.142,0
MAXMIN|BR|GAUSSIAN,OTHER  LANES,N_E,>EQ  10-G,LOW  SPEED,NO  PEDESTRIAN,RL  0,acts-8,N,777,145,143.143,0
MAXMIN|BR|GAUSSIAN,OTHER  LANES,N_E,>EQ  10-G,LOW  SPEED,NO  PEDESTRIAN,RL  0,acts-8,N,777,145,144.144,0
MAXMIN|BR|GAUSSIAN,OTHER  LANES,N_E,>EQ  10-G,LOW  SPEED,NO  PEDESTRIAN,RL  0,acts-8,N,777,145,145.145,0
MAXMIN|BR|GAUSSIAN,OTHER  LANES,W_N,<10-G,LOW  SPEED,NO  PEDESTRIAN,RL  0,acts-8,N,777,8,1.001,2.999999999997449e-05
MAXMIN|BR|GAUSSIAN,OTHER  LANES,W_N,<10-G,LOW  SPEED,NO  PEDESTRIAN,RL  0,acts-8,Y,777,8,10.01,0.0010699999999999044
MAXMIN|BR|GAUSSIAN,OTHER  LANES,W_N,<10-G,LOW  SPEED,NO  PEDESTRIAN,RL  0,acts-8,N,777,8,2.002,0.00021999999999999797
MAXMIN|BR|GAUSSIAN,OTHER  LANES,W_N,<10-G,LOW  SPEED,NO  PEDESTRIAN,RL  0,acts-8,N,777,8,3.003,0
MAXMIN|BR|GAUSSIAN,OTHER  LANES,W_N,<10-G,LOW  SPEED,NO  PEDESTRIAN,RL  0,acts-8,N,777,8,4.004,0
MAXMIN|BR|GAUSSIAN,OTHER  LANES,W_N,<10-G,LOW  SPEED,NO  PEDESTRIAN,RL  0,acts-8,N,777,8,5.005,0.00017400000000000748
MAXMIN|BR|GAUSSIAN,OTHER  LANES,W_N,<10-G,LOW  SPEED,NO  PEDESTRIAN,RL  0,acts-8,N,777,8,6.006,6.799999999995698e-05
MAXMIN|BR|GAUSSIAN,OTHER  LANES,W_N,<10-G,LOW  SPEED,NO  PEDESTRIAN,RL  0,acts-8,N,777,8,7.007,2.999999999997449e-05
MAXMIN|BR|GAUSSIAN,OTHER  LANES,W_N,<10-G,LOW  SPEED,NO  PEDESTRIAN,RL  0,acts-8,N,777,8,8.008,0.00016199999999999548
MAXMIN|BR|GAUSSIAN,OTHER  LANES,W_N,<10-G,LOW  SPEED,NO  PEDESTRIAN,RL  0,acts-8,Y,777,8,9.009,8.60000000000305e-05
MAXMIN|BR|GAUSSIAN,OTHER  LANES,W_N,>EQ  10-Y/R,LOW  SPEED,NO  PEDESTRIAN,RL  0,acts-1,Y,777,2,13.013,0.007629999999999915
MAXMIN|BR|GAUSSIAN,OTHER  LANES,W_N,>EQ  10-Y/R,LOW  SPEED,NO  PEDESTRIAN,RL  0,acts-1,N,777,2,14.014,0
MAXMIN|BR|GAUSSIAN,OTHER  LANES,W_N,>EQ  10-Y/R,LOW  SPEED,NO  PEDESTRIAN,RL  0,acts-1,Y,777,8,11.011,0
MAXMIN|BR|GAUSSIAN,OTHER  LANES,W_N,>EQ  10-G,LOW  SPEED,NO  PEDESTRIAN,RL  0,acts-8,N,777,8,0,0.0007439999999999669
MAXMIN|BR|GAUSSIAN,OTHER  LANES,S_E,<10-G,LOW  SPEED,PEDESTRIAN,RL  0,acts-7,Y,777,173,168.334833,0.0005169999999999897
MAXMIN|BR|GAUSSIAN,OTHER  LANES,S_E,<10-G,LOW  SPEED,PEDESTRIAN,  RL  <EQ  2,acts-7,N,777,173,161.327833,0.003785999999999956
MAXMIN|BR|GAUSSIAN,OTHER  LANES,S_E,<10-G,LOW  SPEED,PEDESTRIAN,  RL  <EQ  2,acts-7,N,777,173,162.328833,0
MAXMIN|BR|GAUSSIAN,OTHER  LANES,S_E,<10-G,LOW  SPEED,PEDESTRIAN,  RL  <EQ  2,acts-7,N,777,173,163.329833,2.599999999997049e-05
MAXMIN|BR|GAUSSIAN,OTHER  LANES,S_E,<10-G,LOW  SPEED,PEDESTRIAN,  RL  <EQ  2,acts-7,N,777,173,164.330833,0
MAXMIN|BR|GAUSSIAN,OTHER  LANES,S_E,<10-G,LOW  SPEED,PEDESTRIAN,  RL  <EQ  2,acts-7,N,777,173,165.331833,0
MAXMIN|BR|GAUSSIAN,OTHER  LANES,S_E,<10-G,LOW  SPEED,NO  PEDESTRIAN,RL  0,acts-6,Y,777,51,54.054,0.005059999999999953
MAXMIN|BR|GAUSSIAN,OTHER  LANES,S_E,<10-G,LOW  SPEED,NO  PEDESTRIAN,RL  0,acts-6,Y,777,51,55.055,0
MAXMIN|BR|GAUSSIAN,OTHER  LANES,S_E,>EQ  10-Y/R,LOW  SPEED,PEDESTRIAN,  RL  <EQ  2,acts-7,N,777,116,91.257833,0.0017019999999999813
MAXMIN|BR|GAUSSIAN,OTHER  LANES,S_E,>EQ  10-Y/R,LOW  SPEED,PEDESTRIAN,  RL  <EQ  2,acts-7,Y,777,116,92.258833,0.0035439999999999916
MAXMIN|BR|GAUSSIAN,OTHER  LANES,S_E,>EQ  10-Y/R,LOW  SPEED,NO  PEDESTRIAN,RL  0,acts-6,N,777,51,56.056,0.0045840000000000325
MAXMIN|BR|GAUSSIAN,OTHER  LANES,S_E,>EQ  10-Y/R,LOW  SPEED,NO  PEDESTRIAN,RL  0,acts-6,Y,777,51,57.057,0.00345899999999999
MAXMIN|BR|GAUSSIAN,OTHER  LANES,S_E,>EQ  10-Y/R,LOW  SPEED,NO  PEDESTRIAN,RL  0,acts-6,N,777,73,59.726333,0
MAXMIN|BR|GAUSSIAN,OTHER  LANES,S_E,>EQ  10-Y/R,LOW  SPEED,NO  PEDESTRIAN,RL  0,acts-6,N,777,82,64.731333,0.019828999999999986
MAXMIN|BR|GAUSSIAN,OTHER  LANES,S_E,>EQ  10-Y/R,LOW  SPEED,NO  PEDESTRIAN,RL  0,acts-6,Y,777,78,61.895167,0.004686000000000079
MAXMIN|BR|GAUSSIAN,OTHER  LANES,S_E,>EQ  10-Y/R,LOW  SPEED,NO  PEDESTRIAN,  RL  <EQ  2,acts-6,N,777,106,83.5835,0.0022839999999999527
MAXMIN|BR|GAUSSIAN,OTHER  LANES,S_E,>EQ  10-Y/R,LOW  SPEED,NO  PEDESTRIAN,  RL  <EQ  2,acts-6,N,777,106,84.5845,0.018530000000000046
MAXMIN|BR|GAUSSIAN,OTHER  LANES,S_E,>EQ  10-G,LOW  SPEED,PEDESTRIAN,  RL  <EQ  2,acts-7,N,777,173,160.326833,0.007450999999999985
MAXMIN|BR|GAUSSIAN,OTHER  LANES,S_E,>EQ  10-G,LOW  SPEED,NO  PEDESTRIAN,  RL  <EQ  2,acts-6,N,777,51,33.033,0.0048180000000001
MAXMIN|BR|GAUSSIAN,OTHER  LANES,S_E,>EQ  10-G,LOW  SPEED,NO  PEDESTRIAN,  RL  <EQ  2,acts-6,Y,777,164,140.807333,7.500000000004725e-05
MAXMIN|BR|GAUSSIAN,OTHER  LANES,S_E,>EQ  10-G,LOW  SPEED,NO  PEDESTRIAN,  RL  <EQ  2,acts-6,Y,777,164,142.809333,0.0008640000000000869
MAXMIN|BR|GAUSSIAN,OTHER  LANES,S_E,>EQ  10-G,LOW  SPEED,NO  PEDESTRIAN,  RL  >  2,acts-6,N,777,51,29.029,0
MAXMIN|BR|GAUSSIAN,OTHER  LANES,S_E,>EQ  10-G,LOW  SPEED,NO  PEDESTRIAN,  RL  >  2,acts-6,Y,777,51,30.03,0.006248000000000031
MAXMIN|BR|GAUSSIAN,OTHER  LANES,S_E,>EQ  10-G,LOW  SPEED,NO  PEDESTRIAN,  RL  >  2,acts-6,Y,777,51,31.031,0.014893999999999963
MAXMIN|BR|GAUSSIAN,OTHER  LANES,S_E,>EQ  10-G,LOW  SPEED,NO  PEDESTRIAN,  RL  >  2,acts-6,N,777,51,32.032,0.0035330000000000084
MAXMIN|BR|GAUSSIAN,OTHER  LANES,S_E,>EQ  10-G,LOW  SPEED,NO  PEDESTRIAN,  RL  >  2,acts-6,N,777,164,141.808333,0.007372000000000045
MAXMIN|BR|GAUSSIAN,OTHER  LANES,E_S,<10-Y/R,MEDIUM  SPEED,NO  PEDESTRIAN,  RL  <EQ  2,acts-1,N,777,64,41.875167,0.004454999999999987
MAXMIN|BR|GAUSSIAN,OTHER  LANES,E_S,<10-G,LOW  SPEED,PEDESTRIAN,RL  0,acts-8,N,777,65,100.433667,0.0008090000000000597
MAXMIN|BR|GAUSSIAN,OTHER  LANES,E_S,<10-G,LOW  SPEED,PEDESTRIAN,RL  0,acts-8,N,777,65,101.434667,0.0004889999999999617
MAXMIN|BR|GAUSSIAN,OTHER  LANES,E_S,<10-G,LOW  SPEED,PEDESTRIAN,RL  0,acts-8,N,777,65,102.435667,0.00011100000000008325
MAXMIN|BR|GAUSSIAN,OTHER  LANES,E_S,<10-G,LOW  SPEED,PEDESTRIAN,RL  0,acts-8,N,777,65,103.436667,0
MAXMIN|BR|GAUSSIAN,OTHER  LANES,E_S,<10-G,LOW  SPEED,PEDESTRIAN,RL  0,acts-8,N,777,65,104.437667,0
MAXMIN|BR|GAUSSIAN,OTHER  LANES,E_S,<10-G,LOW  SPEED,PEDESTRIAN,RL  0,acts-8,N,777,65,105.438667,0
MAXMIN|BR|GAUSSIAN,OTHER  LANES,E_S,<10-G,LOW  SPEED,PEDESTRIAN,RL  0,acts-8,N,777,65,106.439667,0.0008730000000000127
MAXMIN|BR|GAUSSIAN,OTHER  LANES,E_S,<10-G,LOW  SPEED,PEDESTRIAN,RL  0,acts-8,N,777,65,107.440667,0.00045799999999995844
MAXMIN|BR|GAUSSIAN,OTHER  LANES,E_S,<10-G,LOW  SPEED,PEDESTRIAN,RL  0,acts-8,N,777,65,108.441667,0.0006880000000000219
MAXMIN|BR|GAUSSIAN,OTHER  LANES,E_S,<10-G,LOW  SPEED,PEDESTRIAN,RL  0,acts-8,N,777,65,99.432667,0.00015799999999999148
MAXMIN|BR|GAUSSIAN,OTHER  LANES,E_S,<10-G,LOW  SPEED,NO  PEDESTRIAN,RL  0,acts-8,N,777,10,1.001,0.0003269999999999662
MAXMIN|BR|GAUSSIAN,OTHER  LANES,E_S,<10-G,LOW  SPEED,NO  PEDESTRIAN,RL  0,acts-8,Y,777,10,10.01,0.0012110000000000731
MAXMIN|BR|GAUSSIAN,OTHER  LANES,E_S,<10-G,LOW  SPEED,NO  PEDESTRIAN,RL  0,acts-8,N,777,10,2.002,0.00014500000000006175
MAXMIN|BR|GAUSSIAN,OTHER  LANES,E_S,<10-G,LOW  SPEED,NO  PEDESTRIAN,RL  0,acts-8,N,777,10,3.003,0.0006309999999999372
MAXMIN|BR|GAUSSIAN,OTHER  LANES,E_S,<10-G,LOW  SPEED,NO  PEDESTRIAN,RL  0,acts-8,N,777,10,4.004,0.0009619999999999074
MAXMIN|BR|GAUSSIAN,OTHER  LANES,E_S,<10-G,LOW  SPEED,NO  PEDESTRIAN,RL  0,acts-8,N,777,10,5.005,0.0007070000000000132
MAXMIN|BR|GAUSSIAN,OTHER  LANES,E_S,<10-G,LOW  SPEED,NO  PEDESTRIAN,RL  0,acts-8,N,777,10,6.006,0.00028799999999995496
MAXMIN|BR|GAUSSIAN,OTHER  LANES,E_S,<10-G,LOW  SPEED,NO  PEDESTRIAN,RL  0,acts-8,N,777,10,7.007,0.0004999999999999449
MAXMIN|BR|GAUSSIAN,OTHER  LANES,E_S,<10-G,LOW  SPEED,NO  PEDESTRIAN,RL  0,acts-8,N,777,10,8.008,0
MAXMIN|BR|GAUSSIAN,OTHER  LANES,E_S,<10-G,LOW  SPEED,NO  PEDESTRIAN,RL  0,acts-8,N,777,10,9.009,0
MAXMIN|BR|GAUSSIAN,OTHER  LANES,E_S,>EQ  10-Y/R,LOW  SPEED,PEDESTRIAN,RL  0,acts-1,Y,777,65,109.442667,0
MAXMIN|BR|GAUSSIAN,OTHER  LANES,E_S,>EQ  10-Y/R,LOW  SPEED,PEDESTRIAN,RL  0,acts-1,Y,777,65,110.443667,0.002719000000000027
MAXMIN|BR|GAUSSIAN,OTHER  LANES,E_S,>EQ  10-Y/R,LOW  SPEED,PEDESTRIAN,RL  0,acts-1,Y,777,65,111.444667,0
MAXMIN|BR|GAUSSIAN,OTHER  LANES,E_S,>EQ  10-Y/R,LOW  SPEED,NO  PEDESTRIAN,RL  0,acts-1,Y,777,10,11.011,0.007955000000000045
MAXMIN|BR|GAUSSIAN,OTHER  LANES,E_S,>EQ  10-Y/R,LOW  SPEED,NO  PEDESTRIAN,RL  0,acts-1,Y,777,10,12.012,0.0017500000000000293
MAXMIN|BR|GAUSSIAN,OTHER  LANES,E_S,>EQ  10-Y/R,LOW  SPEED,NO  PEDESTRIAN,  RL  >  2,acts-1,Y,777,55,34.200833,0.00033199999999999896
MAXMIN|BR|GAUSSIAN,OTHER  LANES,E_S,>EQ  10-Y/R,MEDIUM  SPEED,PEDESTRIAN,  RL  >  2,acts-1,N,777,157,136.469667,0.0040879999999999805
MAXMIN|BR|GAUSSIAN,OTHER  LANES,E_S,>EQ  10-G,LOW  SPEED,PEDESTRIAN,RL  0,acts-8,N,777,65,90.423667,0.0005880000000000329
MAXMIN|BR|GAUSSIAN,OTHER  LANES,E_S,>EQ  10-G,LOW  SPEED,PEDESTRIAN,RL  0,acts-8,N,777,65,91.424667,0.0004850000000000687
MAXMIN|BR|GAUSSIAN,OTHER  LANES,E_S,>EQ  10-G,LOW  SPEED,PEDESTRIAN,RL  0,acts-8,N,777,65,92.425667,0.0008930000000000327
MAXMIN|BR|GAUSSIAN,OTHER  LANES,E_S,>EQ  10-G,LOW  SPEED,PEDESTRIAN,RL  0,acts-8,N,777,65,93.426667,0.0002929999999999877
MAXMIN|BR|GAUSSIAN,OTHER  LANES,E_S,>EQ  10-G,LOW  SPEED,PEDESTRIAN,RL  0,acts-8,N,777,65,94.427667,0.00043000000000004146
MAXMIN|BR|GAUSSIAN,OTHER  LANES,E_S,>EQ  10-G,LOW  SPEED,PEDESTRIAN,RL  0,acts-8,N,777,65,95.428667,0.00013900000000000023
MAXMIN|BR|GAUSSIAN,OTHER  LANES,E_S,>EQ  10-G,LOW  SPEED,PEDESTRIAN,RL  0,acts-8,N,777,65,96.429667,0.0007450000000001067
MAXMIN|BR|GAUSSIAN,OTHER  LANES,E_S,>EQ  10-G,LOW  SPEED,PEDESTRIAN,RL  0,acts-8,N,777,65,97.430667,0.0006550000000000722
MAXMIN|BR|GAUSSIAN,OTHER  LANES,E_S,>EQ  10-G,LOW  SPEED,PEDESTRIAN,RL  0,acts-8,N,777,65,98.431667,0.0009850000000000136
MAXMIN|BR|GAUSSIAN,OTHER  LANES,E_S,>EQ  10-G,LOW  SPEED,NO  PEDESTRIAN,RL  0,acts-8,N,777,10,0,0
MAXMIN|BR|GAUSSIAN,OTHER  LANES,E_S,>EQ  10-G,LOW  SPEED,NO  PEDESTRIAN,RL  0,acts-8,N,777,65,53.386667,0.00031400000000003647
MAXMIN|BR|GAUSSIAN,OTHER  LANES,E_S,>EQ  10-G,LOW  SPEED,NO  PEDESTRIAN,RL  0,acts-8,N,777,65,54.387667,0
MAXMIN|BR|GAUSSIAN,OTHER  LANES,E_S,>EQ  10-G,LOW  SPEED,NO  PEDESTRIAN,RL  0,acts-8,N,777,65,55.388667,0.0005770000000000497
MAXMIN|BR|GAUSSIAN,OTHER  LANES,E_S,>EQ  10-G,LOW  SPEED,NO  PEDESTRIAN,RL  0,acts-8,N,777,65,56.389667,0.00013299999999993872
MAXMIN|BR|GAUSSIAN,OTHER  LANES,E_S,>EQ  10-G,LOW  SPEED,NO  PEDESTRIAN,RL  0,acts-8,N,777,65,57.390667,0
MAXMIN|BR|GAUSSIAN,OTHER  LANES,E_S,>EQ  10-G,LOW  SPEED,NO  PEDESTRIAN,RL  0,acts-8,N,777,65,58.391667,0.0006820000000000714
MAXMIN|BR|GAUSSIAN,OTHER  LANES,E_S,>EQ  10-G,LOW  SPEED,NO  PEDESTRIAN,RL  0,acts-8,N,777,65,59.392667,0.0008009999999999406
MAXMIN|BR|GAUSSIAN,OTHER  LANES,E_S,>EQ  10-G,LOW  SPEED,NO  PEDESTRIAN,RL  0,acts-8,N,777,65,60.393667,0.0008850000000000247
MAXMIN|BR|GAUSSIAN,OTHER  LANES,E_S,>EQ  10-G,LOW  SPEED,NO  PEDESTRIAN,RL  0,acts-8,N,777,65,61.394667,0.0006930000000000547
MAXMIN|BR|GAUSSIAN,OTHER  LANES,E_S,>EQ  10-G,LOW  SPEED,NO  PEDESTRIAN,RL  0,acts-8,N,777,65,62.395667,0.00037199999999992794
MAXMIN|BR|GAUSSIAN,OTHER  LANES,E_S,>EQ  10-G,LOW  SPEED,NO  PEDESTRIAN,RL  0,acts-8,N,777,65,63.396667,0.000500000000000056
MAXMIN|BR|GAUSSIAN,OTHER  LANES,E_S,>EQ  10-G,LOW  SPEED,NO  PEDESTRIAN,RL  0,acts-8,N,777,65,64.397667,0.0006960000000000299
MAXMIN|BR|GAUSSIAN,OTHER  LANES,E_S,>EQ  10-G,LOW  SPEED,NO  PEDESTRIAN,RL  0,acts-8,N,777,65,65.398667,0.0002909999999999302
MAXMIN|BR|GAUSSIAN,OTHER  LANES,E_S,>EQ  10-G,LOW  SPEED,NO  PEDESTRIAN,RL  0,acts-8,N,777,65,66.399667,0.0003260000000000485
MAXMIN|BR|GAUSSIAN,OTHER  LANES,E_S,>EQ  10-G,LOW  SPEED,NO  PEDESTRIAN,RL  0,acts-8,N,777,65,67.400667,0.00010599999999993948
MAXMIN|BR|GAUSSIAN,OTHER  LANES,E_S,>EQ  10-G,LOW  SPEED,NO  PEDESTRIAN,RL  0,acts-8,N,777,65,68.401667,0.0004449999999999177
MAXMIN|BR|GAUSSIAN,OTHER  LANES,E_S,>EQ  10-G,LOW  SPEED,NO  PEDESTRIAN,RL  0,acts-8,N,777,65,69.402667,0.0003300000000000525
MAXMIN|BR|GAUSSIAN,OTHER  LANES,E_S,>EQ  10-G,LOW  SPEED,NO  PEDESTRIAN,RL  0,acts-8,N,777,65,70.403667,0.0010250000000000536
MAXMIN|BR|GAUSSIAN,OTHER  LANES,E_S,>EQ  10-G,LOW  SPEED,NO  PEDESTRIAN,RL  0,acts-8,N,777,65,71.404667,0
MAXMIN|BR|GAUSSIAN,OTHER  LANES,E_S,>EQ  10-G,LOW  SPEED,NO  PEDESTRIAN,RL  0,acts-8,N,777,65,72.405667,0.00015900000000002024
MAXMIN|BR|GAUSSIAN,OTHER  LANES,E_S,>EQ  10-G,LOW  SPEED,NO  PEDESTRIAN,RL  0,acts-8,N,777,65,73.406667,0.0010050000000000336
MAXMIN|BR|GAUSSIAN,OTHER  LANES,E_S,>EQ  10-G,LOW  SPEED,NO  PEDESTRIAN,RL  0,acts-8,N,777,65,74.407667,0.00039400000000000546
MAXMIN|BR|GAUSSIAN,OTHER  LANES,E_S,>EQ  10-G,LOW  SPEED,NO  PEDESTRIAN,RL  0,acts-8,N,777,65,75.408667,0
MAXMIN|BR|GAUSSIAN,OTHER  LANES,E_S,>EQ  10-G,LOW  SPEED,NO  PEDESTRIAN,RL  0,acts-8,N,777,65,76.409667,0.0010000000000000009
MAXMIN|BR|GAUSSIAN,OTHER  LANES,E_S,>EQ  10-G,LOW  SPEED,NO  PEDESTRIAN,RL  0,acts-8,N,777,65,77.410667,0
MAXMIN|BR|GAUSSIAN,OTHER  LANES,E_S,>EQ  10-G,LOW  SPEED,NO  PEDESTRIAN,RL  0,acts-8,N,777,65,78.411667,0
MAXMIN|BR|GAUSSIAN,OTHER  LANES,E_S,>EQ  10-G,LOW  SPEED,NO  PEDESTRIAN,RL  0,acts-8,N,777,65,79.412667,0
MAXMIN|BR|GAUSSIAN,OTHER  LANES,E_S,>EQ  10-G,LOW  SPEED,NO  PEDESTRIAN,RL  0,acts-8,N,777,65,80.413667,0
MAXMIN|BR|GAUSSIAN,OTHER  LANES,E_S,>EQ  10-G,LOW  SPEED,NO  PEDESTRIAN,RL  0,acts-8,N,777,65,81.414667,0.0007190000000000252
MAXMIN|BR|GAUSSIAN,OTHER  LANES,E_S,>EQ  10-G,LOW  SPEED,NO  PEDESTRIAN,RL  0,acts-8,N,777,65,82.415667,0
MAXMIN|BR|GAUSSIAN,OTHER  LANES,E_S,>EQ  10-G,LOW  SPEED,NO  PEDESTRIAN,RL  0,acts-8,N,777,65,83.416667,0.0005519999999999969
MAXMIN|BR|GAUSSIAN,OTHER  LANES,E_S,>EQ  10-G,LOW  SPEED,NO  PEDESTRIAN,RL  0,acts-8,N,777,65,84.417667,0
MAXMIN|BR|GAUSSIAN,OTHER  LANES,E_S,>EQ  10-G,LOW  SPEED,NO  PEDESTRIAN,RL  0,acts-8,N,777,65,85.418667,0.0006120000000000569
MAXMIN|BR|GAUSSIAN,OTHER  LANES,E_S,>EQ  10-G,LOW  SPEED,NO  PEDESTRIAN,RL  0,acts-8,N,777,65,86.419667,0.00012599999999995948
MAXMIN|BR|GAUSSIAN,OTHER  LANES,E_S,>EQ  10-G,LOW  SPEED,NO  PEDESTRIAN,RL  0,acts-8,N,777,65,87.420667,0.00024299999999999322
MAXMIN|BR|GAUSSIAN,OTHER  LANES,E_S,>EQ  10-G,LOW  SPEED,NO  PEDESTRIAN,RL  0,acts-8,N,777,65,88.421667,0
MAXMIN|BR|GAUSSIAN,OTHER  LANES,E_S,>EQ  10-G,LOW  SPEED,NO  PEDESTRIAN,RL  0,acts-8,N,777,65,89.422667,0.00021499999999996522
MAXMIN|BR|GAUSSIAN,prep-right-turn,W_S,<10-Y/R,LOW  SPEED,NO  PEDESTRIAN,RL  0,acts-1,N,777,174,151.985167,0.020218999999999987
MAXMIN|BR|GAUSSIAN,prep-right-turn,W_S,<10-Y/R,LOW  SPEED,NO  PEDESTRIAN,  RL  <EQ  2,acts-1,N,777,59,43.376667,0
MAXMIN|BR|GAUSSIAN,prep-right-turn,W_S,<10-G,LOW  SPEED,NO  PEDESTRIAN,RL  0,acts-1,N,777,19,10.01,0.02771900000000005
MAXMIN|BR|GAUSSIAN,prep-right-turn,W_S,<10-G,LOW  SPEED,NO  PEDESTRIAN,RL  0,acts-1,N,777,19,9.009,0.030702999999999925
MAXMIN|BR|GAUSSIAN,prep-right-turn,W_S,>EQ  10-Y/R,LOW  SPEED,PEDESTRIAN,RL  0,acts-7,Y,777,111,122.6225,0
MAXMIN|BR|GAUSSIAN,prep-right-turn,W_S,>EQ  10-Y/R,LOW  SPEED,PEDESTRIAN,RL  0,acts-7,Y,777,111,123.6235,0.0004870000000000152
MAXMIN|BR|GAUSSIAN,prep-right-turn,W_S,>EQ  10-Y/R,LOW  SPEED,NO  PEDESTRIAN,RL  0,acts-1,N,777,42,25.5255,0.01990000000000003
MAXMIN|BR|GAUSSIAN,prep-right-turn,W_S,>EQ  10-G,LOW  SPEED,PEDESTRIAN,RL  0,acts-7,Y,777,99,104.104,0.0019419999999999993
MAXMIN|BR|GAUSSIAN,prep-right-turn,W_S,>EQ  10-G,LOW  SPEED,PEDESTRIAN,  RL  <EQ  2,acts-7,N,777,85,75.5755,0.00012099999999992672
MAXMIN|BR|GAUSSIAN,prep-right-turn,W_S,>EQ  10-G,LOW  SPEED,PEDESTRIAN,  RL  <EQ  2,acts-7,N,777,85,76.5765,0.0007070000000000132
MAXMIN|BR|GAUSSIAN,prep-right-turn,W_S,>EQ  10-G,LOW  SPEED,PEDESTRIAN,  RL  <EQ  2,acts-7,Y,777,85,77.5775,0.02994399999999997
MAXMIN|BR|GAUSSIAN,prep-right-turn,W_S,>EQ  10-G,LOW  SPEED,PEDESTRIAN,  RL  <EQ  2,acts-7,N,777,85,81.5815,0.03514499999999998
MAXMIN|BR|GAUSSIAN,prep-right-turn,W_S,>EQ  10-G,LOW  SPEED,PEDESTRIAN,  RL  <EQ  2,acts-7,Y,777,85,85.5855,0
MAXMIN|BR|GAUSSIAN,prep-right-turn,W_S,>EQ  10-G,LOW  SPEED,PEDESTRIAN,  RL  <EQ  2,acts-7,Y,777,85,86.5865,0.0018520000000000758
MAXMIN|BR|GAUSSIAN,prep-right-turn,W_S,>EQ  10-G,LOW  SPEED,PEDESTRIAN,  RL  >  2,acts-7,N,777,85,72.5725,0.00520200000000004
MAXMIN|BR|GAUSSIAN,prep-right-turn,W_S,>EQ  10-G,LOW  SPEED,PEDESTRIAN,  RL  >  2,acts-7,N,777,85,73.5735,0.016403000000000056
MAXMIN|BR|GAUSSIAN,prep-right-turn,W_S,>EQ  10-G,LOW  SPEED,PEDESTRIAN,  RL  >  2,acts-7,N,777,85,74.5745,0.005001999999999951
MAXMIN|BR|GAUSSIAN,prep-right-turn,W_S,>EQ  10-G,LOW  SPEED,PEDESTRIAN,  RL  >  2,acts-7,N,777,85,78.5785,0.031572000000000044
MAXMIN|BR|GAUSSIAN,prep-right-turn,W_S,>EQ  10-G,LOW  SPEED,PEDESTRIAN,  RL  >  2,acts-7,N,777,85,79.5795,0.03256999999999999
MAXMIN|BR|GAUSSIAN,prep-right-turn,W_S,>EQ  10-G,LOW  SPEED,PEDESTRIAN,  RL  >  2,acts-7,N,777,85,80.5805,0.033182000000000045
MAXMIN|BR|GAUSSIAN,prep-right-turn,W_S,>EQ  10-G,LOW  SPEED,PEDESTRIAN,  RL  >  2,acts-7,N,777,85,82.5825,0.03276699999999999
MAXMIN|BR|GAUSSIAN,prep-right-turn,W_S,>EQ  10-G,LOW  SPEED,PEDESTRIAN,  RL  >  2,acts-7,N,777,85,83.5835,0.031790000000000096
MAXMIN|BR|GAUSSIAN,prep-right-turn,W_S,>EQ  10-G,LOW  SPEED,PEDESTRIAN,  RL  >  2,acts-7,N,777,85,84.5845,0.0010850000000000026
MAXMIN|BR|GAUSSIAN,prep-right-turn,W_S,>EQ  10-G,LOW  SPEED,NO  PEDESTRIAN,RL  0,acts-1,Y,777,16,3.003,0.0016140000000000043
MAXMIN|BR|GAUSSIAN,prep-right-turn,W_S,>EQ  10-G,LOW  SPEED,NO  PEDESTRIAN,RL  0,acts-1,Y,777,16,4.004,0.0023760000000000447
MAXMIN|BR|GAUSSIAN,prep-right-turn,W_S,>EQ  10-G,LOW  SPEED,NO  PEDESTRIAN,RL  0,acts-1,Y,777,16,5.005,0
MAXMIN|BR|GAUSSIAN,prep-right-turn,W_S,>EQ  10-G,LOW  SPEED,NO  PEDESTRIAN,RL  0,acts-1,Y,777,19,8.008,0.031090000000000062
MAXMIN|BR|GAUSSIAN,prep-right-turn,W_S,>EQ  10-G,LOW  SPEED,NO  PEDESTRIAN,RL  0,acts-1,Y,777,69,60.894167,0.0024210000000000065
MAXMIN|BR|GAUSSIAN,prep-right-turn,S_E,<10-Y/R,LOW  SPEED,PEDESTRIAN,  RL  <EQ  2,acts-7,N,777,116,93.259833,0.003734000000000015
MAXMIN|BR|GAUSSIAN,prep-right-turn,S_E,<10-Y/R,LOW  SPEED,PEDESTRIAN,  RL  <EQ  2,acts-7,Y,777,116,94.260833,0.004978000000000038
MAXMIN|BR|GAUSSIAN,prep-right-turn,S_E,<10-G,LOW  SPEED,PEDESTRIAN,RL  0,acts-7,Y,777,173,169.335833,0
MAXMIN|BR|GAUSSIAN,prep-right-turn,S_E,<10-G,LOW  SPEED,PEDESTRIAN,RL  0,acts-7,Y,777,173,170.336833,0
MAXMIN|BR|GAUSSIAN,prep-right-turn,S_E,>EQ  10-Y/R,LOW  SPEED,NO  PEDESTRIAN,RL  0,acts-1,Y,777,51,58.058,0
MAXMIN|BR|GAUSSIAN,prep-right-turn,S_E,>EQ  10-Y/R,LOW  SPEED,NO  PEDESTRIAN,RL  0,acts-1,Y,777,51,59.059,0.00026599999999998847
MAXMIN|BR|GAUSSIAN,prep-right-turn,S_E,>EQ  10-Y/R,LOW  SPEED,NO  PEDESTRIAN,  RL  <EQ  2,acts-1,N,777,106,85.5855,0.05984500000000004
MAXMIN|BR|GAUSSIAN,prep-right-turn,S_E,>EQ  10-G,LOW  SPEED,PEDESTRIAN,RL  0,acts-7,N,777,164,153.820333,0.03705700000000001
MAXMIN|BR|GAUSSIAN,prep-right-turn,S_E,>EQ  10-G,LOW  SPEED,PEDESTRIAN,RL  0,acts-7,N,777,164,154.821333,0
MAXMIN|BR|GAUSSIAN,prep-right-turn,S_E,>EQ  10-G,LOW  SPEED,PEDESTRIAN,RL  0,acts-7,Y,777,164,155.822333,0.005102000000000051
MAXMIN|BR|GAUSSIAN,prep-right-turn,S_E,>EQ  10-G,LOW  SPEED,PEDESTRIAN,  RL  <EQ  2,acts-7,Y,777,164,148.815333,0.0016260000000000163
MAXMIN|BR|GAUSSIAN,prep-right-turn,S_E,>EQ  10-G,LOW  SPEED,PEDESTRIAN,  RL  >  2,acts-7,N,777,164,146.813333,3.6999999999953737e-05
MAXMIN|BR|GAUSSIAN,prep-right-turn,S_E,>EQ  10-G,LOW  SPEED,PEDESTRIAN,  RL  >  2,acts-7,N,777,164,147.814333,0
MAXMIN|BR|GAUSSIAN,prep-right-turn,S_E,>EQ  10-G,LOW  SPEED,NO  PEDESTRIAN,  RL  <EQ  2,acts-1,Y,777,164,144.811333,0.017822000000000005
MAXMIN|BR|GAUSSIAN,prep-right-turn,S_E,>EQ  10-G,LOW  SPEED,NO  PEDESTRIAN,  RL  >  2,acts-1,N,777,164,145.812333,0.015616999999999992
MAXMIN|BR|GAUSSIAN,exec-right-turn,W_S,<10-Y/R,LOW  SPEED,NO  PEDESTRIAN,RL  0,acts-1,N,777,53,40.5405,0.0039639999999999675
MAXMIN|BR|GAUSSIAN,exec-right-turn,W_S,<10-Y/R,LOW  SPEED,NO  PEDESTRIAN,RL  0,acts-1,N,777,174,152.986167,0
MAXMIN|BR|GAUSSIAN,exec-right-turn,W_S,<10-Y/R,LOW  SPEED,NO  PEDESTRIAN,  RL  <EQ  2,acts-1,N,777,59,44.377667,0.00025799999999998047
MAXMIN|BR|GAUSSIAN,exec-right-turn,W_S,<10-G,LOW  SPEED,NO  PEDESTRIAN,  RL  <EQ  2,acts-1,N,777,19,14.014,0.46792200000000006
MAXMIN|BR|GAUSSIAN,exec-right-turn,W_S,>EQ  10-Y/R,LOW  SPEED,PEDESTRIAN,RL  0,acts-1,Y,777,111,124.6245,0.0017929999999999335
MAXMIN|BR|GAUSSIAN,exec-right-turn,W_S,>EQ  10-Y/R,LOW  SPEED,PEDESTRIAN,RL  0,acts-1,Y,777,111,125.6255,0.002909999999999968
MAXMIN|BR|GAUSSIAN,exec-right-turn,W_S,>EQ  10-Y/R,LOW  SPEED,PEDESTRIAN,RL  0,acts-5,N,777,127,127.6275,0.00011099999999997223
MAXMIN|BR|GAUSSIAN,exec-right-turn,W_S,>EQ  10-Y/R,LOW  SPEED,NO  PEDESTRIAN,RL  0,acts-1,N,777,42,26.5265,0.007021999999999973
MAXMIN|BR|GAUSSIAN,exec-right-turn,W_S,>EQ  10-Y/R,LOW  SPEED,NO  PEDESTRIAN,RL  0,acts-1,N,777,42,27.5275,0
MAXMIN|BR|GAUSSIAN,exec-right-turn,W_S,>EQ  10-Y/R,LOW  SPEED,NO  PEDESTRIAN,RL  0,acts-1,N,777,47,34.200833,0.004774999999999974
MAXMIN|BR|GAUSSIAN,exec-right-turn,W_S,>EQ  10-Y/R,LOW  SPEED,NO  PEDESTRIAN,RL  0,acts-1,N,777,47,35.201833,0.00019599999999997397
MAXMIN|BR|GAUSSIAN,exec-right-turn,W_S,>EQ  10-G,LOW  SPEED,PEDESTRIAN,RL  0,acts-1,Y,777,99,105.105,0.00033599999999989194
MAXMIN|BR|GAUSSIAN,exec-right-turn,W_S,>EQ  10-G,LOW  SPEED,PEDESTRIAN,RL  0,acts-1,Y,777,99,106.106,0.0011099999999999444
MAXMIN|BR|GAUSSIAN,exec-right-turn,W_S,>EQ  10-G,LOW  SPEED,NO  PEDESTRIAN,RL  0,acts-1,Y,777,11,0,0.0014210000000000056
MAXMIN|BR|GAUSSIAN,exec-right-turn,W_S,>EQ  10-G,LOW  SPEED,NO  PEDESTRIAN,RL  0,acts-1,Y,777,11,1.001,0
MAXMIN|BR|GAUSSIAN,exec-right-turn,W_S,>EQ  10-G,LOW  SPEED,NO  PEDESTRIAN,RL  0,acts-1,Y,777,16,6.006,0
MAXMIN|BR|GAUSSIAN,exec-right-turn,W_S,>EQ  10-G,LOW  SPEED,NO  PEDESTRIAN,RL  0,acts-1,N,777,16,7.007,0
MAXMIN|BR|GAUSSIAN,exec-right-turn,W_S,>EQ  10-G,LOW  SPEED,NO  PEDESTRIAN,RL  0,acts-1,Y,777,69,61.895167,0
MAXMIN|BR|GAUSSIAN,exec-right-turn,W_S,>EQ  10-G,LOW  SPEED,NO  PEDESTRIAN,RL  0,acts-1,Y,777,69,62.896167,0.0034969999999999724
MAXMIN|BR|GAUSSIAN,exec-right-turn,S_E,<10-Y/R,LOW  SPEED,PEDESTRIAN,  RL  <EQ  2,acts-1,Y,777,116,95.261833,0.0011769999999999836
MAXMIN|BR|GAUSSIAN,exec-right-turn,S_E,<10-Y/R,MEDIUM  SPEED,PEDESTRIAN,RL  0,acts-1,Y,777,116,96.262833,0.0009700000000000264
MAXMIN|BR|GAUSSIAN,exec-right-turn,S_E,<10-Y/R,MEDIUM  SPEED,NO  PEDESTRIAN,RL  0,acts-1,Y,777,27,5.839167,0.00014899999999995472
MAXMIN|BR|GAUSSIAN,exec-right-turn,S_E,>EQ  10-Y/R,LOW  SPEED,NO  PEDESTRIAN,RL  0,acts-1,Y,777,51,60.06,0
MAXMIN|BR|GAUSSIAN,exec-right-turn,S_E,>EQ  10-Y/R,LOW  SPEED,NO  PEDESTRIAN,RL  0,acts-1,Y,777,51,61.061,0
MAXMIN|BR|GAUSSIAN,exec-right-turn,S_E,>EQ  10-Y/R,LOW  SPEED,NO  PEDESTRIAN,RL  0,acts-1,Y,777,106,87.5875,0
MAXMIN|BR|GAUSSIAN,exec-right-turn,S_E,>EQ  10-Y/R,LOW  SPEED,NO  PEDESTRIAN,  RL  <EQ  2,acts-1,Y,777,106,86.5865,0
MAXMIN|BR|GAUSSIAN,exec-right-turn,S_E,>EQ  10-G,LOW  SPEED,PEDESTRIAN,RL  0,acts-1,Y,777,164,158.825333,0.005507999999999957
MAXMIN|BR|GAUSSIAN,exec-right-turn,S_E,>EQ  10-G,LOW  SPEED,PEDESTRIAN,RL  0,acts-1,Y,777,164,159.826333,7.80000000000225e-05
