EQ_TYPE,SEGMENT,TASK,NEXT_CHANGE,SPEED,PEDESTRIAN,RELEV_VEHICLE,ACTIONS,AGGRESSIVE,FILE_ID,TRACK_ID,TIME,ON_EQ
NASH|BR|GAUSSIAN,prep-left-turn,S_W,<10-Y/R,LOW  SPEED,NO  PEDESTRIAN,RL  0,acts-1,Y,777,6,3.003,0.00040000000000006697
NASH|BR|GAUSSIAN,prep-left-turn,S_W,<10-Y/R,LOW  SPEED,NO  PEDESTRIAN,RL  0,acts-1,Y,777,6,4.004,0.007613000000000092
NASH|BR|GAUSSIAN,prep-left-turn,S_W,<10-Y/R,LOW  SPEED,NO  PEDESTRIAN,  RL  <EQ  2,acts-2,N,777,6,0,8.399999999997299e-05
NASH|BR|GAUSSIAN,prep-left-turn,S_W,>EQ  10-Y/R,LOW  SPEED,PEDESTRIAN,  RL  <EQ  2,acts-3,Y,777,104,84.918167,0.06882199999999994
NASH|BR|GAUSSIAN,prep-left-turn,S_W,>EQ  10-Y/R,LOW  SPEED,PEDESTRIAN,  RL  <EQ  2,acts-3,Y,777,104,84.918167,0.06885299999999994
NASH|BR|GAUSSIAN,prep-left-turn,S_W,>EQ  10-Y/R,LOW  SPEED,PEDESTRIAN,  RL  <EQ  2,acts-3,Y,777,104,86.920167,0.07463799999999998
NASH|BR|GAUSSIAN,prep-left-turn,S_W,>EQ  10-Y/R,LOW  SPEED,PEDESTRIAN,  RL  <EQ  2,acts-3,Y,777,104,86.920167,0.07439300000000004
NASH|BR|GAUSSIAN,prep-left-turn,S_W,>EQ  10-Y/R,LOW  SPEED,PEDESTRIAN,  RL  >  2,acts-3,Y,777,104,85.919167,0.07473200000000002
NASH|BR|GAUSSIAN,prep-left-turn,S_W,>EQ  10-Y/R,LOW  SPEED,PEDESTRIAN,  RL  >  2,acts-3,Y,777,104,85.919167,0.07474000000000003
NASH|BR|GAUSSIAN,prep-left-turn,S_W,>EQ  10-Y/R,LOW  SPEED,NO  PEDESTRIAN,RL  0,acts-1,Y,777,21,56.056,0
NASH|BR|GAUSSIAN,prep-left-turn,S_W,>EQ  10-Y/R,LOW  SPEED,NO  PEDESTRIAN,RL  0,acts-1,Y,777,21,57.057,0
NASH|BR|GAUSSIAN,prep-left-turn,S_W,>EQ  10-Y/R,LOW  SPEED,NO  PEDESTRIAN,RL  0,acts-1,Y,777,21,58.058,0
NASH|BR|GAUSSIAN,prep-left-turn,S_W,>EQ  10-Y/R,LOW  SPEED,NO  PEDESTRIAN,RL  0,acts-1,Y,777,21,59.059,0
NASH|BR|GAUSSIAN,prep-left-turn,N_E,>EQ  10-Y/R,LOW  SPEED,NO  PEDESTRIAN,RL  0,acts-1,Y,777,71,69.736333,0
NASH|BR|GAUSSIAN,prep-left-turn,N_E,>EQ  10-Y/R,LOW  SPEED,NO  PEDESTRIAN,RL  0,acts-1,Y,777,71,70.737333,0
NASH|BR|GAUSSIAN,prep-left-turn,N_E,>EQ  10-Y/R,LOW  SPEED,NO  PEDESTRIAN,RL  0,acts-1,Y,777,96,80.246833,0.07594400000000001
NASH|BR|GAUSSIAN,prep-left-turn,N_E,>EQ  10-Y/R,LOW  SPEED,NO  PEDESTRIAN,RL  0,acts-1,N,777,96,81.247833,0.07661600000000002
NASH|BR|GAUSSIAN,prep-left-turn,N_E,>EQ  10-Y/R,LOW  SPEED,NO  PEDESTRIAN,RL  0,acts-1,N,777,96,82.248833,0.07908300000000001
NASH|BR|GAUSSIAN,prep-left-turn,N_E,>EQ  10-Y/R,LOW  SPEED,NO  PEDESTRIAN,RL  0,acts-1,N,777,96,83.249833,0.07427700000000004
NASH|BR|GAUSSIAN,prep-left-turn,W_N,<10-Y/R,LOW  SPEED,NO  PEDESTRIAN,  RL  <EQ  2,acts-1,N,777,9,39.039,0.11014900000000005
NASH|BR|GAUSSIAN,prep-left-turn,W_N,<10-Y/R,LOW  SPEED,NO  PEDESTRIAN,  RL  <EQ  2,acts-1,Y,777,156,141.474667,0.024654000000000065
NASH|BR|GAUSSIAN,prep-left-turn,W_N,<10-Y/R,LOW  SPEED,NO  PEDESTRIAN,  RL  <EQ  2,acts-1,Y,777,156,142.475667,0.02665099999999998
NASH|BR|GAUSSIAN,prep-left-turn,W_N,<10-Y/R,LOW  SPEED,NO  PEDESTRIAN,  RL  >  2,acts-1,Y,777,156,140.473667,0.027915000000000023
NASH|BR|GAUSSIAN,prep-left-turn,W_N,>EQ  10-Y/R,LOW  SPEED,NO  PEDESTRIAN,RL  0,acts-1,Y,777,8,12.012,0.0005650000000000377
NASH|BR|GAUSSIAN,prep-left-turn,W_N,>EQ  10-Y/R,LOW  SPEED,NO  PEDESTRIAN,  RL  <EQ  2,acts-2,Y,777,2,15.015,8.799999999997699e-05
NASH|BR|GAUSSIAN,prep-left-turn,W_N,>EQ  10-Y/R,LOW  SPEED,NO  PEDESTRIAN,  RL  <EQ  2,acts-1,N,777,9,34.034,0.02724199999999999
NASH|BR|GAUSSIAN,prep-left-turn,W_N,>EQ  10-Y/R,LOW  SPEED,NO  PEDESTRIAN,  RL  <EQ  2,acts-1,N,777,9,35.035,0.252467
NASH|BR|GAUSSIAN,prep-left-turn,W_N,>EQ  10-Y/R,LOW  SPEED,NO  PEDESTRIAN,  RL  <EQ  2,acts-1,N,777,9,37.037,0.030042000000000013
NASH|BR|GAUSSIAN,prep-left-turn,W_N,>EQ  10-Y/R,LOW  SPEED,NO  PEDESTRIAN,  RL  >  2,acts-1,Y,777,9,21.021,0.03482000000000007
NASH|BR|GAUSSIAN,prep-left-turn,W_N,>EQ  10-Y/R,LOW  SPEED,NO  PEDESTRIAN,  RL  >  2,acts-1,Y,777,9,23.023,0.0300720000000001
NASH|BR|GAUSSIAN,prep-left-turn,W_N,>EQ  10-Y/R,LOW  SPEED,NO  PEDESTRIAN,  RL  >  2,acts-1,N,777,9,24.024,0.029484999999999983
NASH|BR|GAUSSIAN,prep-left-turn,W_N,>EQ  10-Y/R,LOW  SPEED,NO  PEDESTRIAN,  RL  >  2,acts-1,N,777,9,25.025,0.07291900000000007
NASH|BR|GAUSSIAN,prep-left-turn,W_N,>EQ  10-Y/R,LOW  SPEED,NO  PEDESTRIAN,  RL  >  2,acts-1,N,777,9,27.027,0.028212999999999933
NASH|BR|GAUSSIAN,prep-left-turn,W_N,>EQ  10-Y/R,LOW  SPEED,NO  PEDESTRIAN,  RL  >  2,acts-1,N,777,9,28.028,0.015239000000000003
NASH|BR|GAUSSIAN,prep-left-turn,W_N,>EQ  10-Y/R,LOW  SPEED,NO  PEDESTRIAN,  RL  >  2,acts-1,N,777,9,29.029,0.04460300000000006
NASH|BR|GAUSSIAN,prep-left-turn,W_N,>EQ  10-Y/R,LOW  SPEED,NO  PEDESTRIAN,  RL  >  2,acts-1,N,777,9,30.03,0.048911999999999956
NASH|BR|GAUSSIAN,prep-left-turn,W_N,>EQ  10-Y/R,LOW  SPEED,NO  PEDESTRIAN,  RL  >  2,acts-1,N,777,9,32.032,0.013283000000000045
NASH|BR|GAUSSIAN,prep-left-turn,W_N,>EQ  10-Y/R,LOW  SPEED,NO  PEDESTRIAN,  RL  >  2,acts-1,N,777,9,33.033,0.34836900000000004
NASH|BR|GAUSSIAN,prep-left-turn,E_S,<10-Y/R,LOW  SPEED,NO  PEDESTRIAN,  RL  <EQ  2,acts-1,Y,777,55,39.205833,0.036892000000000036
NASH|BR|GAUSSIAN,prep-left-turn,E_S,<10-Y/R,LOW  SPEED,NO  PEDESTRIAN,  RL  <EQ  2,acts-1,Y,777,55,41.207833,0.028568999999999956
NASH|BR|GAUSSIAN,prep-left-turn,E_S,<10-Y/R,LOW  SPEED,NO  PEDESTRIAN,  RL  <EQ  2,acts-1,Y,777,157,142.475667,0.05916900000000003
NASH|BR|GAUSSIAN,prep-left-turn,E_S,<10-Y/R,LOW  SPEED,NO  PEDESTRIAN,  RL  <EQ  2,acts-1,Y,777,157,143.476667,0.05922800000000006
NASH|BR|GAUSSIAN,prep-left-turn,E_S,<10-Y/R,LOW  SPEED,NO  PEDESTRIAN,  RL  <EQ  2,acts-2,N,777,64,46.880167,0
NASH|BR|GAUSSIAN,prep-left-turn,E_S,<10-Y/R,LOW  SPEED,NO  PEDESTRIAN,  RL  <EQ  2,acts-2,N,777,64,48.882167,0
NASH|BR|GAUSSIAN,prep-left-turn,E_S,<10-Y/R,LOW  SPEED,NO  PEDESTRIAN,  RL  >  2,acts-1,Y,777,55,40.206833,0.030525999999999942
NASH|BR|GAUSSIAN,prep-left-turn,E_S,<10-Y/R,LOW  SPEED,NO  PEDESTRIAN,  RL  >  2,acts-1,N,777,157,144.477667,0.03928299999999996
NASH|BR|GAUSSIAN,prep-left-turn,E_S,<10-Y/R,LOW  SPEED,NO  PEDESTRIAN,  RL  >  2,acts-1,N,777,157,145.478667,0.038310999999999984
NASH|BR|GAUSSIAN,prep-left-turn,E_S,<10-Y/R,LOW  SPEED,NO  PEDESTRIAN,  RL  >  2,acts-2,Y,777,64,47.881167,0
NASH|BR|GAUSSIAN,prep-left-turn,E_S,>EQ  10-Y/R,LOW  SPEED,PEDESTRIAN,RL  0,acts-3,Y,777,65,112.445667,0
NASH|BR|GAUSSIAN,prep-left-turn,E_S,>EQ  10-Y/R,LOW  SPEED,PEDESTRIAN,RL  0,acts-3,Y,777,65,113.446667,0
NASH|BR|GAUSSIAN,prep-left-turn,E_S,>EQ  10-Y/R,LOW  SPEED,NO  PEDESTRIAN,RL  0,acts-1,Y,777,10,13.013,0.005498000000000003
NASH|BR|GAUSSIAN,exec-left-turn,S_W,<10-Y/R,LOW  SPEED,PEDESTRIAN,RL  0,acts-3,Y,777,104,95.929167,0.0011729999999999796
NASH|BR|GAUSSIAN,exec-left-turn,S_W,<10-Y/R,LOW  SPEED,PEDESTRIAN,  RL  <EQ  2,acts-3,Y,777,104,94.928167,0
NASH|BR|GAUSSIAN,exec-left-turn,S_W,<10-Y/R,LOW  SPEED,PEDESTRIAN,  RL  >  2,acts-3,Y,777,104,93.927167,0.001190999999999942
NASH|BR|GAUSSIAN,exec-left-turn,S_W,<10-Y/R,LOW  SPEED,NO  PEDESTRIAN,RL  0,acts-1,Y,777,7,0,0.0034850000000000714
NASH|BR|GAUSSIAN,exec-left-turn,S_W,<10-Y/R,LOW  SPEED,NO  PEDESTRIAN,RL  0,acts-1,Y,777,7,1.001,0.0030569999999999764
NASH|BR|GAUSSIAN,exec-left-turn,S_W,<10-Y/R,LOW  SPEED,NO  PEDESTRIAN,RL  0,acts-4,Y,777,6,6.006,0
NASH|BR|GAUSSIAN,exec-left-turn,S_W,<10-Y/R,LOW  SPEED,NO  PEDESTRIAN,RL  0,acts-4,Y,777,6,7.007,0
NASH|BR|GAUSSIAN,exec-left-turn,S_W,<10-Y/R,MEDIUM  SPEED,NO  PEDESTRIAN,RL  0,acts-1,Y,777,7,2.002,0
NASH|BR|GAUSSIAN,exec-left-turn,S_W,>EQ  10-Y/R,LOW  SPEED,PEDESTRIAN,  RL  <EQ  2,acts-3,N,777,104,87.921167,0.050358000000000014
NASH|BR|GAUSSIAN,exec-left-turn,S_W,>EQ  10-Y/R,LOW  SPEED,PEDESTRIAN,  RL  <EQ  2,acts-3,N,777,104,87.921167,0.05128299999999997
NASH|BR|GAUSSIAN,exec-left-turn,S_W,>EQ  10-Y/R,LOW  SPEED,PEDESTRIAN,  RL  >  2,acts-3,N,777,104,89.923167,0.012380999999999975
NASH|BR|GAUSSIAN,exec-left-turn,S_W,>EQ  10-Y/R,LOW  SPEED,PEDESTRIAN,  RL  >  2,acts-3,Y,777,104,90.924167,0.005099999999999993
NASH|BR|GAUSSIAN,exec-left-turn,S_W,>EQ  10-Y/R,LOW  SPEED,PEDESTRIAN,  RL  >  2,acts-3,Y,777,104,91.925167,0
NASH|BR|GAUSSIAN,exec-left-turn,S_W,>EQ  10-Y/R,LOW  SPEED,PEDESTRIAN,  RL  >  2,acts-3,Y,777,104,92.926167,0.01331300000000002
NASH|BR|GAUSSIAN,exec-left-turn,S_W,>EQ  10-Y/R,LOW  SPEED,NO  PEDESTRIAN,RL  0,acts-1,Y,777,21,60.06,0.006153000000000075
NASH|BR|GAUSSIAN,exec-left-turn,S_W,>EQ  10-Y/R,MEDIUM  SPEED,NO  PEDESTRIAN,RL  0,acts-1,Y,777,21,61.061,0.0020160000000000178
NASH|BR|GAUSSIAN,exec-left-turn,S_W,>EQ  10-G,LOW  SPEED,NO  PEDESTRIAN,RL  0,acts-4,Y,777,6,8.008,0
NASH|BR|GAUSSIAN,exec-left-turn,S_W,>EQ  10-G,MEDIUM  SPEED,NO  PEDESTRIAN,RL  0,acts-4,Y,777,6,9.009,0.0010950000000000681
NASH|BR|GAUSSIAN,exec-left-turn,N_E,<10-Y/R,LOW  SPEED,NO  PEDESTRIAN,RL  0,acts-1,N,777,28,1.835167,0.06057699999999999
NASH|BR|GAUSSIAN,exec-left-turn,N_E,<10-Y/R,LOW  SPEED,NO  PEDESTRIAN,RL  0,acts-1,N,777,28,2.836167,0.059230000000000005
NASH|BR|GAUSSIAN,exec-left-turn,N_E,<10-Y/R,LOW  SPEED,NO  PEDESTRIAN,RL  0,acts-1,N,777,28,3.837167,0.057077000000000044
NASH|BR|GAUSSIAN,exec-left-turn,N_E,<10-Y/R,LOW  SPEED,NO  PEDESTRIAN,RL  0,acts-1,Y,777,28,4.838167,0
NASH|BR|GAUSSIAN,exec-left-turn,N_E,<10-Y/R,LOW  SPEED,NO  PEDESTRIAN,RL  0,acts-1,N,777,96,93.259833,0.06052999999999997
NASH|BR|GAUSSIAN,exec-left-turn,N_E,<10-Y/R,LOW  SPEED,NO  PEDESTRIAN,RL  0,acts-1,N,777,96,94.260833,0.061894000000000005
NASH|BR|GAUSSIAN,exec-left-turn,N_E,<10-Y/R,LOW  SPEED,NO  PEDESTRIAN,RL  0,acts-1,Y,777,96,95.261833,0.011364999999999958
NASH|BR|GAUSSIAN,exec-left-turn,N_E,<10-Y/R,LOW  SPEED,NO  PEDESTRIAN,RL  0,acts-1,Y,777,96,96.262833,0.003154000000000101
NASH|BR|GAUSSIAN,exec-left-turn,N_E,<10-Y/R,LOW  SPEED,NO  PEDESTRIAN,RL  0,acts-1,Y,777,96,99.265833,0.0014800000000000368
NASH|BR|GAUSSIAN,exec-left-turn,N_E,<10-Y/R,LOW  SPEED,NO  PEDESTRIAN,RL  0,acts-1,N,777,103,101.267833,0
NASH|BR|GAUSSIAN,exec-left-turn,N_E,<10-Y/R,LOW  SPEED,NO  PEDESTRIAN,RL  0,acts-1,Y,777,103,102.268833,0
NASH|BR|GAUSSIAN,exec-left-turn,N_E,<10-Y/R,LOW  SPEED,NO  PEDESTRIAN,RL  0,acts-4,Y,777,28,5.839167,0.010776000000000008
NASH|BR|GAUSSIAN,exec-left-turn,N_E,<10-Y/R,LOW  SPEED,NO  PEDESTRIAN,RL  0,acts-4,Y,777,28,6.840167,0
NASH|BR|GAUSSIAN,exec-left-turn,N_E,<10-Y/R,LOW  SPEED,NO  PEDESTRIAN,RL  0,acts-4,N,777,28,7.841167,0
NASH|BR|GAUSSIAN,exec-left-turn,N_E,<10-Y/R,LOW  SPEED,NO  PEDESTRIAN,RL  0,acts-4,N,777,103,103.269833,0.0006309999999999372
NASH|BR|GAUSSIAN,exec-left-turn,N_E,<10-Y/R,LOW  SPEED,NO  PEDESTRIAN,RL  0,acts-4,N,777,103,104.270833,0
NASH|BR|GAUSSIAN,exec-left-turn,N_E,<10-Y/R,LOW  SPEED,NO  PEDESTRIAN,RL  0,acts-4,Y,777,103,105.271833,0.0026359999999999717
NASH|BR|GAUSSIAN,exec-left-turn,N_E,<10-Y/R,LOW  SPEED,NO  PEDESTRIAN,RL  0,acts-4,Y,777,103,106.272833,0.012056999999999984
NASH|BR|GAUSSIAN,exec-left-turn,N_E,<10-Y/R,LOW  SPEED,NO  PEDESTRIAN,RL  0,acts-4,Y,777,103,107.273833,0.0034159999999999746
NASH|BR|GAUSSIAN,exec-left-turn,N_E,<10-Y/R,LOW  SPEED,NO  PEDESTRIAN,RL  0,acts-4,Y,777,103,108.274833,0
NASH|BR|GAUSSIAN,exec-left-turn,N_E,<10-Y/R,MEDIUM  SPEED,NO  PEDESTRIAN,RL  0,acts-1,Y,777,96,100.266833,0.0011710000000000331
NASH|BR|GAUSSIAN,exec-left-turn,N_E,>EQ  10-Y/R,LOW  SPEED,NO  PEDESTRIAN,RL  0,acts-1,Y,777,71,71.738333,0.0014159999999999728
NASH|BR|GAUSSIAN,exec-left-turn,N_E,>EQ  10-Y/R,LOW  SPEED,NO  PEDESTRIAN,RL  0,acts-1,Y,777,71,72.739333,0
NASH|BR|GAUSSIAN,exec-left-turn,N_E,>EQ  10-Y/R,LOW  SPEED,NO  PEDESTRIAN,RL  0,acts-1,Y,777,71,73.740333,0
NASH|BR|GAUSSIAN,exec-left-turn,N_E,>EQ  10-Y/R,LOW  SPEED,NO  PEDESTRIAN,RL  0,acts-1,N,777,96,84.250833,0.04209599999999991
NASH|BR|GAUSSIAN,exec-left-turn,N_E,>EQ  10-Y/R,LOW  SPEED,NO  PEDESTRIAN,RL  0,acts-1,N,777,96,85.251833,0.04883900000000008
NASH|BR|GAUSSIAN,exec-left-turn,N_E,>EQ  10-Y/R,LOW  SPEED,NO  PEDESTRIAN,RL  0,acts-1,N,777,96,86.252833,0.0041600000000000525
NASH|BR|GAUSSIAN,exec-left-turn,N_E,>EQ  10-Y/R,LOW  SPEED,NO  PEDESTRIAN,RL  0,acts-1,N,777,96,87.253833,0
NASH|BR|GAUSSIAN,exec-left-turn,N_E,>EQ  10-Y/R,LOW  SPEED,NO  PEDESTRIAN,RL  0,acts-1,N,777,96,88.254833,0.00301499999999999
NASH|BR|GAUSSIAN,exec-left-turn,N_E,>EQ  10-Y/R,LOW  SPEED,NO  PEDESTRIAN,RL  0,acts-1,N,777,96,91.257833,0.06483099999999997
NASH|BR|GAUSSIAN,exec-left-turn,N_E,>EQ  10-Y/R,LOW  SPEED,NO  PEDESTRIAN,RL  0,acts-1,N,777,96,92.258833,0.06431299999999995
NASH|BR|GAUSSIAN,exec-left-turn,N_E,>EQ  10-Y/R,LOW  SPEED,NO  PEDESTRIAN,RL  0,acts-5,N,777,96,89.255833,0.06355099999999991
NASH|BR|GAUSSIAN,exec-left-turn,N_E,>EQ  10-Y/R,LOW  SPEED,NO  PEDESTRIAN,RL  0,acts-5,N,777,96,90.256833,0.05719299999999994
NASH|BR|GAUSSIAN,exec-left-turn,N_E,>EQ  10-Y/R,MEDIUM  SPEED,NO  PEDESTRIAN,RL  0,acts-1,Y,777,71,74.741333,0.0006570000000000187
NASH|BR|GAUSSIAN,exec-left-turn,N_E,>EQ  10-Y/R,MEDIUM  SPEED,NO  PEDESTRIAN,RL  0,acts-1,Y,777,71,75.742333,0
NASH|BR|GAUSSIAN,exec-left-turn,N_E,>EQ  10-G,LOW  SPEED,NO  PEDESTRIAN,RL  0,acts-4,Y,777,28,8.842167,0
NASH|BR|GAUSSIAN,exec-left-turn,N_E,>EQ  10-G,MEDIUM  SPEED,NO  PEDESTRIAN,RL  0,acts-4,Y,777,28,9.843167,0.0018739999999999313
NASH|BR|GAUSSIAN,exec-left-turn,N_E,>EQ  10-G,MEDIUM  SPEED,NO  PEDESTRIAN,RL  0,acts-4,Y,777,103,109.275833,0.00040799999999996395
NASH|BR|GAUSSIAN,exec-left-turn,N_E,>EQ  10-G,MEDIUM  SPEED,NO  PEDESTRIAN,RL  0,acts-4,Y,777,103,110.276833,0.0005079999999999529
NASH|BR|GAUSSIAN,exec-left-turn,W_N,<10-Y/R,LOW  SPEED,NO  PEDESTRIAN,RL  0,acts-1,Y,777,9,45.045,0
NASH|BR|GAUSSIAN,exec-left-turn,W_N,<10-Y/R,LOW  SPEED,NO  PEDESTRIAN,RL  0,acts-1,Y,777,9,46.046,0.0003790000000000182
NASH|BR|GAUSSIAN,exec-left-turn,W_N,<10-Y/R,LOW  SPEED,NO  PEDESTRIAN,RL  0,acts-4,Y,777,156,151.484667,0
NASH|BR|GAUSSIAN,exec-left-turn,W_N,<10-Y/R,LOW  SPEED,NO  PEDESTRIAN,RL  0,acts-4,Y,777,156,152.485667,0
NASH|BR|GAUSSIAN,exec-left-turn,W_N,<10-Y/R,LOW  SPEED,NO  PEDESTRIAN,RL  0,acts-4,Y,777,156,153.486667,0
NASH|BR|GAUSSIAN,exec-left-turn,W_N,<10-Y/R,LOW  SPEED,NO  PEDESTRIAN,RL  0,acts-4,Y,777,156,154.487667,0
NASH|BR|GAUSSIAN,exec-left-turn,W_N,<10-Y/R,LOW  SPEED,NO  PEDESTRIAN,  RL  >  2,acts-1,N,777,156,144.477667,0.004058000000000006
NASH|BR|GAUSSIAN,exec-left-turn,W_N,<10-Y/R,LOW  SPEED,NO  PEDESTRIAN,  RL  >  2,acts-1,N,777,156,145.478667,0
NASH|BR|GAUSSIAN,exec-left-turn,W_N,<10-Y/R,LOW  SPEED,NO  PEDESTRIAN,  RL  >  2,acts-1,N,777,156,146.479667,0.007419999999999982
NASH|BR|GAUSSIAN,exec-left-turn,W_N,<10-Y/R,LOW  SPEED,NO  PEDESTRIAN,  RL  >  2,acts-1,N,777,156,148.481667,0
NASH|BR|GAUSSIAN,exec-left-turn,W_N,<10-Y/R,MEDIUM  SPEED,NO  PEDESTRIAN,RL  0,acts-1,Y,777,9,47.047,0
NASH|BR|GAUSSIAN,exec-left-turn,W_N,>EQ  10-Y/R,LOW  SPEED,NO  PEDESTRIAN,RL  0,acts-1,Y,777,8,13.013,0.0016849999999999365
NASH|BR|GAUSSIAN,exec-left-turn,W_N,>EQ  10-Y/R,LOW  SPEED,NO  PEDESTRIAN,  RL  <EQ  2,acts-1,N,777,18,19.019,0
NASH|BR|GAUSSIAN,exec-left-turn,W_N,>EQ  10-Y/R,MEDIUM  SPEED,NO  PEDESTRIAN,RL  0,acts-1,Y,777,8,14.014,0.0013980000000000103
NASH|BR|GAUSSIAN,exec-left-turn,W_N,>EQ  10-Y/R,MEDIUM  SPEED,NO  PEDESTRIAN,RL  0,acts-1,N,777,8,15.015,0.010804000000000036
NASH|BR|GAUSSIAN,exec-left-turn,W_N,>EQ  10-Y/R,MEDIUM  SPEED,NO  PEDESTRIAN,RL  0,acts-1,N,777,2,17.017,0.003167000000000031
NASH|BR|GAUSSIAN,exec-left-turn,E_S,<10-Y/R,LOW  SPEED,NO  PEDESTRIAN,RL  0,acts-4,Y,777,55,49.215833,0
NASH|BR|GAUSSIAN,exec-left-turn,E_S,<10-Y/R,LOW  SPEED,NO  PEDESTRIAN,RL  0,acts-4,Y,777,55,50.216833,0.001064000000000065
NASH|BR|GAUSSIAN,exec-left-turn,E_S,<10-Y/R,LOW  SPEED,NO  PEDESTRIAN,RL  0,acts-4,Y,777,55,51.217833,0
NASH|BR|GAUSSIAN,exec-left-turn,E_S,<10-Y/R,LOW  SPEED,NO  PEDESTRIAN,RL  0,acts-4,Y,777,157,153.486667,0.003027000000000002
NASH|BR|GAUSSIAN,exec-left-turn,E_S,<10-Y/R,LOW  SPEED,NO  PEDESTRIAN,RL  0,acts-4,Y,777,157,154.487667,0.0011039999999999939
NASH|BR|GAUSSIAN,exec-left-turn,E_S,<10-Y/R,LOW  SPEED,NO  PEDESTRIAN,RL  0,acts-4,Y,777,157,155.488667,0.0067869999999999875
NASH|BR|GAUSSIAN,exec-left-turn,E_S,<10-Y/R,LOW  SPEED,NO  PEDESTRIAN,  RL  <EQ  2,acts-1,N,777,55,42.208833,0.012910000000000088
NASH|BR|GAUSSIAN,exec-left-turn,E_S,<10-Y/R,LOW  SPEED,NO  PEDESTRIAN,  RL  >  2,acts-1,Y,777,55,43.209833,0
NASH|BR|GAUSSIAN,exec-left-turn,E_S,<10-Y/R,LOW  SPEED,NO  PEDESTRIAN,  RL  >  2,acts-1,Y,777,55,44.210833,0
NASH|BR|GAUSSIAN,exec-left-turn,E_S,>EQ  10-Y/R,LOW  SPEED,PEDESTRIAN,RL  0,acts-3,Y,777,65,114.447667,0.0020239999999999148
NASH|BR|GAUSSIAN,exec-left-turn,E_S,>EQ  10-Y/R,LOW  SPEED,PEDESTRIAN,RL  0,acts-3,Y,777,65,115.448667,0.007740999999999998
NASH|BR|GAUSSIAN,exec-left-turn,E_S,>EQ  10-Y/R,LOW  SPEED,NO  PEDESTRIAN,RL  0,acts-1,N,777,10,14.014,0
NASH|BR|GAUSSIAN,exec-left-turn,E_S,>EQ  10-Y/R,LOW  SPEED,NO  PEDESTRIAN,RL  0,acts-1,Y,777,10,15.015,0
NASH|BR|GAUSSIAN,exec-left-turn,E_S,>EQ  10-Y/R,LOW  SPEED,NO  PEDESTRIAN,RL  0,acts-1,Y,777,10,16.016,0
NASH|BR|GAUSSIAN,exec-left-turn,E_S,>EQ  10-Y/R,LOW  SPEED,NO  PEDESTRIAN,RL  0,acts-1,N,777,5,21.021,0
NASH|BR|GAUSSIAN,exec-left-turn,E_S,>EQ  10-Y/R,LOW  SPEED,NO  PEDESTRIAN,RL  0,acts-5,N,777,31,18.351667,0.023045000000000093
NASH|BR|GAUSSIAN,exec-left-turn,E_S,>EQ  10-Y/R,LOW  SPEED,NO  PEDESTRIAN,  RL  <EQ  2,acts-1,Y,777,5,19.019,0.0048280000000000545
NASH|BR|GAUSSIAN,exec-left-turn,E_S,>EQ  10-Y/R,LOW  SPEED,NO  PEDESTRIAN,  RL  >  2,acts-1,Y,777,5,20.02,0
NASH|BR|GAUSSIAN,exec-left-turn,E_S,>EQ  10-Y/R,MEDIUM  SPEED,PEDESTRIAN,RL  0,acts-3,N,777,65,116.449667,6.399999999995298e-05
NASH|BR|GAUSSIAN,exec-left-turn,E_S,>EQ  10-Y/R,MEDIUM  SPEED,PEDESTRIAN,RL  0,acts-3,N,777,65,116.449667,0
NASH|BR|GAUSSIAN,exec-left-turn,E_S,>EQ  10-Y/R,MEDIUM  SPEED,NO  PEDESTRIAN,RL  0,acts-1,Y,777,10,17.017,0.007510000000000017
NASH|BR|GAUSSIAN,exec-left-turn,E_S,>EQ  10-G,LOW  SPEED,NO  PEDESTRIAN,RL  0,acts-4,Y,777,64,53.887167,0.0023050000000000015
NASH|BR|GAUSSIAN,exec-left-turn,E_S,>EQ  10-G,LOW  SPEED,NO  PEDESTRIAN,RL  0,acts-4,Y,777,64,54.888167,0.002797999999999967
NASH|BR|GAUSSIAN,OTHER  LANES,W_S,<10-Y/R,LOW  SPEED,NO  PEDESTRIAN,RL  0,acts-6,Y,777,174,150.984167,0.042120999999999964
NASH|BR|GAUSSIAN,OTHER  LANES,W_S,<10-Y/R,LOW  SPEED,NO  PEDESTRIAN,  RL  <EQ  2,acts-6,Y,777,59,40.373667,0.013679999999999914
NASH|BR|GAUSSIAN,OTHER  LANES,W_S,<10-Y/R,LOW  SPEED,NO  PEDESTRIAN,  RL  <EQ  2,acts-6,N,777,59,41.374667,0.035188
NASH|BR|GAUSSIAN,OTHER  LANES,W_S,<10-Y/R,LOW  SPEED,NO  PEDESTRIAN,  RL  >  2,acts-6,Y,777,59,42.375667,0.038887000000000005
NASH|BR|GAUSSIAN,OTHER  LANES,W_S,<10-Y/R,MEDIUM  SPEED,NO  PEDESTRIAN,RL  0,acts-6,Y,777,174,149.983167,0.03741800000000006
NASH|BR|GAUSSIAN,OTHER  LANES,W_S,<10-G,LOW  SPEED,PEDESTRIAN,RL  0,acts-7,N,777,111,117.6175,0.034818000000000016
NASH|BR|GAUSSIAN,OTHER  LANES,W_S,<10-G,LOW  SPEED,PEDESTRIAN,RL  0,acts-7,N,777,111,118.6185,0.03545900000000002
NASH|BR|GAUSSIAN,OTHER  LANES,W_S,<10-G,LOW  SPEED,PEDESTRIAN,  RL  <EQ  2,acts-7,Y,777,111,109.6095,0.043683999999999945
NASH|BR|GAUSSIAN,OTHER  LANES,W_S,<10-G,LOW  SPEED,PEDESTRIAN,  RL  <EQ  2,acts-7,N,777,111,111.6115,0
NASH|BR|GAUSSIAN,OTHER  LANES,W_S,<10-G,LOW  SPEED,PEDESTRIAN,  RL  <EQ  2,acts-7,N,777,111,113.6135,0
NASH|BR|GAUSSIAN,OTHER  LANES,W_S,<10-G,LOW  SPEED,PEDESTRIAN,  RL  <EQ  2,acts-7,N,777,111,116.6165,0.00040200000000001346
NASH|BR|GAUSSIAN,OTHER  LANES,W_S,<10-G,LOW  SPEED,PEDESTRIAN,  RL  >  2,acts-7,N,777,111,112.6125,0
NASH|BR|GAUSSIAN,OTHER  LANES,W_S,>EQ  10-Y/R,LOW  SPEED,PEDESTRIAN,RL  0,acts-7,N,777,111,119.6195,0
NASH|BR|GAUSSIAN,OTHER  LANES,W_S,>EQ  10-Y/R,LOW  SPEED,PEDESTRIAN,RL  0,acts-7,Y,777,111,120.6205,0
NASH|BR|GAUSSIAN,OTHER  LANES,W_S,>EQ  10-Y/R,LOW  SPEED,PEDESTRIAN,RL  0,acts-7,Y,777,111,121.6215,0
NASH|BR|GAUSSIAN,OTHER  LANES,W_S,>EQ  10-Y/R,LOW  SPEED,NO  PEDESTRIAN,RL  0,acts-6,Y,777,42,24.5245,0.03759699999999999
NASH|BR|GAUSSIAN,OTHER  LANES,W_S,>EQ  10-Y/R,LOW  SPEED,NO  PEDESTRIAN,RL  0,acts-6,Y,777,47,26.192833,0.008700000000000041
NASH|BR|GAUSSIAN,OTHER  LANES,W_S,>EQ  10-Y/R,LOW  SPEED,NO  PEDESTRIAN,RL  0,acts-6,N,777,47,27.193833,0
NASH|BR|GAUSSIAN,OTHER  LANES,W_S,>EQ  10-Y/R,LOW  SPEED,NO  PEDESTRIAN,RL  0,acts-6,Y,777,47,28.194833,0
NASH|BR|GAUSSIAN,OTHER  LANES,W_S,>EQ  10-Y/R,LOW  SPEED,NO  PEDESTRIAN,RL  0,acts-6,Y,777,47,29.195833,0.031735999999999986
NASH|BR|GAUSSIAN,OTHER  LANES,W_S,>EQ  10-Y/R,LOW  SPEED,NO  PEDESTRIAN,RL  0,acts-6,Y,777,47,30.196833,0.04359999999999997
NASH|BR|GAUSSIAN,OTHER  LANES,W_S,>EQ  10-Y/R,LOW  SPEED,NO  PEDESTRIAN,RL  0,acts-6,N,777,47,31.197833,0.03030899999999992
NASH|BR|GAUSSIAN,OTHER  LANES,W_S,>EQ  10-Y/R,LOW  SPEED,NO  PEDESTRIAN,  RL  <EQ  2,acts-6,Y,777,42,19.5195,0.05248900000000001
NASH|BR|GAUSSIAN,OTHER  LANES,W_S,>EQ  10-Y/R,LOW  SPEED,NO  PEDESTRIAN,  RL  <EQ  2,acts-6,N,777,42,20.5205,0.024356000000000044
NASH|BR|GAUSSIAN,OTHER  LANES,W_S,>EQ  10-Y/R,LOW  SPEED,NO  PEDESTRIAN,  RL  <EQ  2,acts-6,Y,777,42,21.5215,0
NASH|BR|GAUSSIAN,OTHER  LANES,W_S,>EQ  10-Y/R,LOW  SPEED,NO  PEDESTRIAN,  RL  <EQ  2,acts-6,Y,777,53,36.5365,0.04078599999999999
NASH|BR|GAUSSIAN,OTHER  LANES,W_S,>EQ  10-G,LOW  SPEED,PEDESTRIAN,RL  0,acts-7,Y,777,99,103.103,0.006372000000000044
NASH|BR|GAUSSIAN,OTHER  LANES,W_S,>EQ  10-G,LOW  SPEED,PEDESTRIAN,RL  0,acts-7,N,777,111,105.6055,0.0023649999999999505
NASH|BR|GAUSSIAN,OTHER  LANES,W_S,>EQ  10-G,LOW  SPEED,PEDESTRIAN,RL  0,acts-7,N,777,111,106.6065,0.030332000000000026
NASH|BR|GAUSSIAN,OTHER  LANES,W_S,>EQ  10-G,LOW  SPEED,PEDESTRIAN,RL  0,acts-7,N,777,111,107.6075,0.03994500000000001
NASH|BR|GAUSSIAN,OTHER  LANES,W_S,>EQ  10-G,LOW  SPEED,PEDESTRIAN,RL  0,acts-7,Y,777,111,108.6085,0.03823399999999999
NASH|BR|GAUSSIAN,OTHER  LANES,W_S,>EQ  10-G,LOW  SPEED,PEDESTRIAN,  RL  <EQ  2,acts-7,N,777,99,100.1,0
NASH|BR|GAUSSIAN,OTHER  LANES,W_S,>EQ  10-G,LOW  SPEED,PEDESTRIAN,  RL  <EQ  2,acts-7,Y,777,99,101.101,0
NASH|BR|GAUSSIAN,OTHER  LANES,W_S,>EQ  10-G,LOW  SPEED,PEDESTRIAN,  RL  <EQ  2,acts-7,Y,777,99,102.102,0
NASH|BR|GAUSSIAN,OTHER  LANES,W_S,>EQ  10-G,LOW  SPEED,PEDESTRIAN,  RL  <EQ  2,acts-7,N,777,99,96.096,0.04096600000000006
NASH|BR|GAUSSIAN,OTHER  LANES,W_S,>EQ  10-G,LOW  SPEED,PEDESTRIAN,  RL  <EQ  2,acts-7,N,777,99,97.097,0.03532399999999991
NASH|BR|GAUSSIAN,OTHER  LANES,W_S,>EQ  10-G,LOW  SPEED,PEDESTRIAN,  RL  <EQ  2,acts-7,N,777,99,98.098,0.039462999999999915
NASH|BR|GAUSSIAN,OTHER  LANES,W_S,>EQ  10-G,LOW  SPEED,PEDESTRIAN,  RL  <EQ  2,acts-8,N,777,127,101.6015,0.003786000000000067
NASH|BR|GAUSSIAN,OTHER  LANES,W_S,>EQ  10-G,LOW  SPEED,PEDESTRIAN,  RL  <EQ  2,acts-8,Y,777,127,102.6025,0.005161000000000082
NASH|BR|GAUSSIAN,OTHER  LANES,W_S,>EQ  10-G,LOW  SPEED,PEDESTRIAN,  RL  >  2,acts-7,Y,777,85,71.5715,0.01577800000000007
NASH|BR|GAUSSIAN,OTHER  LANES,W_S,>EQ  10-G,LOW  SPEED,PEDESTRIAN,  RL  >  2,acts-7,Y,777,99,88.088,0
NASH|BR|GAUSSIAN,OTHER  LANES,W_S,>EQ  10-G,LOW  SPEED,PEDESTRIAN,  RL  >  2,acts-7,N,777,99,89.089,0.03715600000000008
NASH|BR|GAUSSIAN,OTHER  LANES,W_S,>EQ  10-G,LOW  SPEED,PEDESTRIAN,  RL  >  2,acts-7,Y,777,99,90.09,0.03940199999999994
NASH|BR|GAUSSIAN,OTHER  LANES,W_S,>EQ  10-G,LOW  SPEED,PEDESTRIAN,  RL  >  2,acts-7,N,777,99,91.091,0.04381999999999997
NASH|BR|GAUSSIAN,OTHER  LANES,W_S,>EQ  10-G,LOW  SPEED,PEDESTRIAN,  RL  >  2,acts-7,N,777,99,92.092,0.03046900000000008
NASH|BR|GAUSSIAN,OTHER  LANES,W_S,>EQ  10-G,LOW  SPEED,PEDESTRIAN,  RL  >  2,acts-7,N,777,99,94.094,0.04171899999999995
NASH|BR|GAUSSIAN,OTHER  LANES,W_S,>EQ  10-G,LOW  SPEED,NO  PEDESTRIAN,RL  0,acts-6,N,777,16,0,0.007705000000000073
NASH|BR|GAUSSIAN,OTHER  LANES,W_S,>EQ  10-G,LOW  SPEED,NO  PEDESTRIAN,RL  0,acts-6,N,777,16,1.001,0
NASH|BR|GAUSSIAN,OTHER  LANES,W_S,>EQ  10-G,LOW  SPEED,NO  PEDESTRIAN,RL  0,acts-6,N,777,16,2.002,0.03512099999999996
NASH|BR|GAUSSIAN,OTHER  LANES,W_S,>EQ  10-G,LOW  SPEED,NO  PEDESTRIAN,RL  0,acts-6,N,777,19,6.006,0.03896199999999994
NASH|BR|GAUSSIAN,OTHER  LANES,W_S,>EQ  10-G,LOW  SPEED,NO  PEDESTRIAN,RL  0,acts-6,N,777,19,7.007,0.004786999999999986
NASH|BR|GAUSSIAN,OTHER  LANES,W_S,>EQ  10-G,LOW  SPEED,NO  PEDESTRIAN,RL  0,acts-6,Y,777,69,54.888167,0.014893999999999963
NASH|BR|GAUSSIAN,OTHER  LANES,W_S,>EQ  10-G,LOW  SPEED,NO  PEDESTRIAN,RL  0,acts-6,Y,777,69,55.889167,0.033021999999999996
NASH|BR|GAUSSIAN,OTHER  LANES,W_S,>EQ  10-G,LOW  SPEED,NO  PEDESTRIAN,RL  0,acts-6,Y,777,69,56.890167,0.04454400000000003
NASH|BR|GAUSSIAN,OTHER  LANES,W_S,>EQ  10-G,LOW  SPEED,NO  PEDESTRIAN,RL  0,acts-6,Y,777,69,57.891167,0.03804099999999999
NASH|BR|GAUSSIAN,OTHER  LANES,W_S,>EQ  10-G,LOW  SPEED,NO  PEDESTRIAN,RL  0,acts-6,Y,777,69,58.892167,0.0023980000000000112
NASH|BR|GAUSSIAN,OTHER  LANES,W_S,>EQ  10-G,LOW  SPEED,NO  PEDESTRIAN,RL  0,acts-6,Y,777,69,59.893167,0
NASH|BR|GAUSSIAN,OTHER  LANES,W_S,>EQ  10-G,LOW  SPEED,NO  PEDESTRIAN,  RL  <EQ  2,acts-9,N,777,19,5.005,0
NASH|BR|GAUSSIAN,OTHER  LANES,W_S,>EQ  10-G,LOW  SPEED,NO  PEDESTRIAN,  RL  >  2,acts-6,Y,777,85,68.5685,0.02500199999999997
NASH|BR|GAUSSIAN,OTHER  LANES,W_S,>EQ  10-G,LOW  SPEED,NO  PEDESTRIAN,  RL  >  2,acts-6,Y,777,85,69.5695,0.041060000000000096
NASH|BR|GAUSSIAN,OTHER  LANES,W_S,>EQ  10-G,LOW  SPEED,NO  PEDESTRIAN,  RL  >  2,acts-6,Y,777,85,70.5705,0.036248999999999976
NASH|BR|GAUSSIAN,OTHER  LANES,W_S,>EQ  10-G,MEDIUM  SPEED,NO  PEDESTRIAN,RL  0,acts-6,Y,777,69,53.887167,0.0005769999999999387
NASH|BR|GAUSSIAN,OTHER  LANES,W_S,>EQ  10-G,MEDIUM  SPEED,NO  PEDESTRIAN,  RL  >  2,acts-6,N,777,85,66.5665,0.0009879999999999889
NASH|BR|GAUSSIAN,OTHER  LANES,W_S,>EQ  10-G,MEDIUM  SPEED,NO  PEDESTRIAN,  RL  >  2,acts-6,Y,777,85,67.5675,0
NASH|BR|GAUSSIAN,OTHER  LANES,S_W,<10-Y/R,LOW  SPEED,NO  PEDESTRIAN,  RL  <EQ  2,acts-10,Y,777,21,0,0.00043000000000004146
NASH|BR|GAUSSIAN,OTHER  LANES,S_W,<10-Y/R,LOW  SPEED,NO  PEDESTRIAN,  RL  <EQ  2,acts-10,N,777,26,1.5015,0.0005290000000000017
NASH|BR|GAUSSIAN,OTHER  LANES,S_W,<10-G,LOW  SPEED,NO  PEDESTRIAN,RL  0,acts-11,N,777,26,46.5465,0.00020500000000001073
NASH|BR|GAUSSIAN,OTHER  LANES,S_W,<10-G,LOW  SPEED,NO  PEDESTRIAN,RL  0,acts-11,N,777,26,47.5475,0
NASH|BR|GAUSSIAN,OTHER  LANES,S_W,<10-G,LOW  SPEED,NO  PEDESTRIAN,RL  0,acts-11,N,777,26,48.5485,0
NASH|BR|GAUSSIAN,OTHER  LANES,S_W,<10-G,LOW  SPEED,NO  PEDESTRIAN,RL  0,acts-11,N,777,26,49.5495,0
NASH|BR|GAUSSIAN,OTHER  LANES,S_W,<10-G,LOW  SPEED,NO  PEDESTRIAN,RL  0,acts-11,N,777,26,50.5505,0
NASH|BR|GAUSSIAN,OTHER  LANES,S_W,<10-G,LOW  SPEED,NO  PEDESTRIAN,RL  0,acts-11,N,777,26,51.5515,6.899999999998574e-05
NASH|BR|GAUSSIAN,OTHER  LANES,S_W,<10-G,LOW  SPEED,NO  PEDESTRIAN,RL  0,acts-11,N,777,26,52.5525,0.000148000000000037
NASH|BR|GAUSSIAN,OTHER  LANES,S_W,<10-G,LOW  SPEED,NO  PEDESTRIAN,RL  0,acts-11,N,777,26,53.5535,0.00030200000000002447
NASH|BR|GAUSSIAN,OTHER  LANES,S_W,<10-G,LOW  SPEED,NO  PEDESTRIAN,RL  0,acts-11,N,777,26,54.5545,0.0002889999999999837
NASH|BR|GAUSSIAN,OTHER  LANES,S_W,<10-G,LOW  SPEED,NO  PEDESTRIAN,RL  0,acts-11,N,777,26,55.5555,0.00034400000000001096
NASH|BR|GAUSSIAN,OTHER  LANES,S_W,<10-G,LOW  SPEED,NO  PEDESTRIAN,RL  0,acts-11,N,777,150,146.146,0.00014499999999995072
NASH|BR|GAUSSIAN,OTHER  LANES,S_W,<10-G,LOW  SPEED,NO  PEDESTRIAN,RL  0,acts-11,N,777,150,147.147,7.299999999998974e-05
NASH|BR|GAUSSIAN,OTHER  LANES,S_W,<10-G,LOW  SPEED,NO  PEDESTRIAN,RL  0,acts-11,N,777,150,148.148,4.999999999999449e-05
NASH|BR|GAUSSIAN,OTHER  LANES,S_W,<10-G,LOW  SPEED,NO  PEDESTRIAN,RL  0,acts-11,N,777,150,149.149,0.00013499999999999623
NASH|BR|GAUSSIAN,OTHER  LANES,S_W,<10-G,LOW  SPEED,NO  PEDESTRIAN,RL  0,acts-11,N,777,150,150.15,0
NASH|BR|GAUSSIAN,OTHER  LANES,S_W,<10-G,LOW  SPEED,NO  PEDESTRIAN,RL  0,acts-11,N,777,150,151.151,0.0003649999999999487
NASH|BR|GAUSSIAN,OTHER  LANES,S_W,<10-G,LOW  SPEED,NO  PEDESTRIAN,RL  0,acts-11,N,777,150,152.152,0
NASH|BR|GAUSSIAN,OTHER  LANES,S_W,<10-G,LOW  SPEED,NO  PEDESTRIAN,RL  0,acts-11,N,777,150,153.153,0.00019499999999994522
NASH|BR|GAUSSIAN,OTHER  LANES,S_W,<10-G,LOW  SPEED,NO  PEDESTRIAN,RL  0,acts-11,N,777,150,154.154,0
NASH|BR|GAUSSIAN,OTHER  LANES,S_W,<10-G,LOW  SPEED,NO  PEDESTRIAN,RL  0,acts-11,N,777,150,155.155,0.0004149999999999432
NASH|BR|GAUSSIAN,OTHER  LANES,S_W,<10-G,LOW  SPEED,NO  PEDESTRIAN,  RL  <EQ  2,acts-11,N,777,155,147.313833,0.00011300000000002974
NASH|BR|GAUSSIAN,OTHER  LANES,S_W,<10-G,LOW  SPEED,NO  PEDESTRIAN,  RL  <EQ  2,acts-11,N,777,155,148.314833,0.000260000000000038
NASH|BR|GAUSSIAN,OTHER  LANES,S_W,<10-G,LOW  SPEED,NO  PEDESTRIAN,  RL  <EQ  2,acts-11,N,777,155,151.317833,0.00040400000000001546
NASH|BR|GAUSSIAN,OTHER  LANES,S_W,<10-G,LOW  SPEED,NO  PEDESTRIAN,  RL  <EQ  2,acts-11,N,777,155,152.318833,5.3999999999998494e-05
NASH|BR|GAUSSIAN,OTHER  LANES,S_W,<10-G,LOW  SPEED,NO  PEDESTRIAN,  RL  <EQ  2,acts-11,N,777,155,153.319833,0.0002590000000000092
NASH|BR|GAUSSIAN,OTHER  LANES,S_W,<10-G,LOW  SPEED,NO  PEDESTRIAN,  RL  <EQ  2,acts-11,N,777,155,155.321833,0
NASH|BR|GAUSSIAN,OTHER  LANES,S_W,>EQ  10-G,LOW  SPEED,NO  PEDESTRIAN,RL  0,acts-11,N,777,26,10.5105,0.00010699999999996823
NASH|BR|GAUSSIAN,OTHER  LANES,S_W,>EQ  10-G,LOW  SPEED,NO  PEDESTRIAN,RL  0,acts-11,N,777,26,11.5115,3.599999999992498e-05
NASH|BR|GAUSSIAN,OTHER  LANES,S_W,>EQ  10-G,LOW  SPEED,NO  PEDESTRIAN,RL  0,acts-11,N,777,26,12.5125,7.699999999999374e-05
NASH|BR|GAUSSIAN,OTHER  LANES,S_W,>EQ  10-G,LOW  SPEED,NO  PEDESTRIAN,RL  0,acts-11,N,777,26,13.5135,0.0004070000000000462
NASH|BR|GAUSSIAN,OTHER  LANES,S_W,>EQ  10-G,LOW  SPEED,NO  PEDESTRIAN,RL  0,acts-11,N,777,26,14.5145,1.5000000000098268e-05
NASH|BR|GAUSSIAN,OTHER  LANES,S_W,>EQ  10-G,LOW  SPEED,NO  PEDESTRIAN,RL  0,acts-11,N,777,26,15.5155,0.00017800000000001148
NASH|BR|GAUSSIAN,OTHER  LANES,S_W,>EQ  10-G,LOW  SPEED,NO  PEDESTRIAN,RL  0,acts-11,N,777,26,16.5165,0
NASH|BR|GAUSSIAN,OTHER  LANES,S_W,>EQ  10-G,LOW  SPEED,NO  PEDESTRIAN,RL  0,acts-11,N,777,26,17.5175,0.00025200000000003
NASH|BR|GAUSSIAN,OTHER  LANES,S_W,>EQ  10-G,LOW  SPEED,NO  PEDESTRIAN,RL  0,acts-11,N,777,26,18.5185,0.00026599999999998847
NASH|BR|GAUSSIAN,OTHER  LANES,S_W,>EQ  10-G,LOW  SPEED,NO  PEDESTRIAN,RL  0,acts-11,N,777,26,19.5195,4.6000000000101515e-05
NASH|BR|GAUSSIAN,OTHER  LANES,S_W,>EQ  10-G,LOW  SPEED,NO  PEDESTRIAN,RL  0,acts-11,N,777,26,20.5205,7.999999999996898e-05
NASH|BR|GAUSSIAN,OTHER  LANES,S_W,>EQ  10-G,LOW  SPEED,NO  PEDESTRIAN,RL  0,acts-11,N,777,26,21.5215,0.00036999999999998145
NASH|BR|GAUSSIAN,OTHER  LANES,S_W,>EQ  10-G,LOW  SPEED,NO  PEDESTRIAN,RL  0,acts-11,N,777,26,22.5225,6.60000000000105e-05
NASH|BR|GAUSSIAN,OTHER  LANES,S_W,>EQ  10-G,LOW  SPEED,NO  PEDESTRIAN,RL  0,acts-11,N,777,26,23.5235,0
NASH|BR|GAUSSIAN,OTHER  LANES,S_W,>EQ  10-G,LOW  SPEED,NO  PEDESTRIAN,RL  0,acts-11,N,777,26,24.5245,0.00010699999999996823
NASH|BR|GAUSSIAN,OTHER  LANES,S_W,>EQ  10-G,LOW  SPEED,NO  PEDESTRIAN,RL  0,acts-11,N,777,26,25.5255,0.00017100000000003224
NASH|BR|GAUSSIAN,OTHER  LANES,S_W,>EQ  10-G,LOW  SPEED,NO  PEDESTRIAN,RL  0,acts-11,N,777,26,26.5265,0
NASH|BR|GAUSSIAN,OTHER  LANES,S_W,>EQ  10-G,LOW  SPEED,NO  PEDESTRIAN,RL  0,acts-11,N,777,26,27.5275,0.00018799999999996597
NASH|BR|GAUSSIAN,OTHER  LANES,S_W,>EQ  10-G,LOW  SPEED,NO  PEDESTRIAN,RL  0,acts-11,N,777,26,28.5285,0
NASH|BR|GAUSSIAN,OTHER  LANES,S_W,>EQ  10-G,LOW  SPEED,NO  PEDESTRIAN,RL  0,acts-11,N,777,26,29.5295,0.00028200000000000447
NASH|BR|GAUSSIAN,OTHER  LANES,S_W,>EQ  10-G,LOW  SPEED,NO  PEDESTRIAN,RL  0,acts-11,N,777,26,30.5305,5.999999999950489e-06
NASH|BR|GAUSSIAN,OTHER  LANES,S_W,>EQ  10-G,LOW  SPEED,NO  PEDESTRIAN,RL  0,acts-11,N,777,26,31.5315,0.0003710000000000102
NASH|BR|GAUSSIAN,OTHER  LANES,S_W,>EQ  10-G,LOW  SPEED,NO  PEDESTRIAN,RL  0,acts-11,N,777,26,32.5325,0.00017299999999997873
NASH|BR|GAUSSIAN,OTHER  LANES,S_W,>EQ  10-G,LOW  SPEED,NO  PEDESTRIAN,RL  0,acts-11,N,777,26,33.5335,0
NASH|BR|GAUSSIAN,OTHER  LANES,S_W,>EQ  10-G,LOW  SPEED,NO  PEDESTRIAN,RL  0,acts-11,N,777,26,34.5345,0.00023399999999995647
NASH|BR|GAUSSIAN,OTHER  LANES,S_W,>EQ  10-G,LOW  SPEED,NO  PEDESTRIAN,RL  0,acts-11,N,777,26,35.5355,0.00019299999999999873
NASH|BR|GAUSSIAN,OTHER  LANES,S_W,>EQ  10-G,LOW  SPEED,NO  PEDESTRIAN,RL  0,acts-11,N,777,26,36.5365,0.0004210000000000047
NASH|BR|GAUSSIAN,OTHER  LANES,S_W,>EQ  10-G,LOW  SPEED,NO  PEDESTRIAN,RL  0,acts-11,N,777,26,37.5375,6.60000000000105e-05
NASH|BR|GAUSSIAN,OTHER  LANES,S_W,>EQ  10-G,LOW  SPEED,NO  PEDESTRIAN,RL  0,acts-11,N,777,26,38.5385,7.599999999996498e-05
NASH|BR|GAUSSIAN,OTHER  LANES,S_W,>EQ  10-G,LOW  SPEED,NO  PEDESTRIAN,RL  0,acts-11,N,777,26,39.5395,6.100000000008876e-05
NASH|BR|GAUSSIAN,OTHER  LANES,S_W,>EQ  10-G,LOW  SPEED,NO  PEDESTRIAN,RL  0,acts-11,N,777,26,40.5405,2.599999999997049e-05
NASH|BR|GAUSSIAN,OTHER  LANES,S_W,>EQ  10-G,LOW  SPEED,NO  PEDESTRIAN,RL  0,acts-11,N,777,26,41.5415,0
NASH|BR|GAUSSIAN,OTHER  LANES,S_W,>EQ  10-G,LOW  SPEED,NO  PEDESTRIAN,RL  0,acts-11,N,777,26,42.5425,0.00024000000000001798
NASH|BR|GAUSSIAN,OTHER  LANES,S_W,>EQ  10-G,LOW  SPEED,NO  PEDESTRIAN,RL  0,acts-11,N,777,26,43.5435,0.000124000000000013
NASH|BR|GAUSSIAN,OTHER  LANES,S_W,>EQ  10-G,LOW  SPEED,NO  PEDESTRIAN,RL  0,acts-11,N,777,26,44.5445,0.00021199999999998997
NASH|BR|GAUSSIAN,OTHER  LANES,S_W,>EQ  10-G,LOW  SPEED,NO  PEDESTRIAN,RL  0,acts-11,N,777,26,45.5455,0.00015100000000001224
NASH|BR|GAUSSIAN,OTHER  LANES,S_W,>EQ  10-G,LOW  SPEED,NO  PEDESTRIAN,RL  0,acts-11,N,777,26,8.5085,0
NASH|BR|GAUSSIAN,OTHER  LANES,S_W,>EQ  10-G,LOW  SPEED,NO  PEDESTRIAN,RL  0,acts-11,N,777,26,9.5095,0.00018700000000004824
NASH|BR|GAUSSIAN,OTHER  LANES,S_W,>EQ  10-G,LOW  SPEED,NO  PEDESTRIAN,RL  0,acts-11,Y,777,150,133.133,0.0006199999999999539
NASH|BR|GAUSSIAN,OTHER  LANES,S_W,>EQ  10-G,LOW  SPEED,NO  PEDESTRIAN,RL  0,acts-11,Y,777,150,134.134,0
NASH|BR|GAUSSIAN,OTHER  LANES,S_W,>EQ  10-G,LOW  SPEED,NO  PEDESTRIAN,RL  0,acts-11,Y,777,150,135.135,0.000248000000000026
NASH|BR|GAUSSIAN,OTHER  LANES,S_W,>EQ  10-G,LOW  SPEED,NO  PEDESTRIAN,RL  0,acts-11,N,777,150,136.136,0.00041000000000002146
NASH|BR|GAUSSIAN,OTHER  LANES,S_W,>EQ  10-G,LOW  SPEED,NO  PEDESTRIAN,RL  0,acts-11,N,777,150,137.137,0.00019700000000000273
NASH|BR|GAUSSIAN,OTHER  LANES,S_W,>EQ  10-G,LOW  SPEED,NO  PEDESTRIAN,RL  0,acts-11,N,777,150,138.138,0.00041999999999997595
NASH|BR|GAUSSIAN,OTHER  LANES,S_W,>EQ  10-G,LOW  SPEED,NO  PEDESTRIAN,RL  0,acts-11,N,777,150,139.139,0.000248000000000026
NASH|BR|GAUSSIAN,OTHER  LANES,S_W,>EQ  10-G,LOW  SPEED,NO  PEDESTRIAN,RL  0,acts-11,N,777,150,140.14,4.899999999996574e-05
NASH|BR|GAUSSIAN,OTHER  LANES,S_W,>EQ  10-G,LOW  SPEED,NO  PEDESTRIAN,RL  0,acts-11,N,777,150,141.141,0.00015100000000001224
NASH|BR|GAUSSIAN,OTHER  LANES,S_W,>EQ  10-G,LOW  SPEED,NO  PEDESTRIAN,RL  0,acts-11,N,777,150,142.142,0
NASH|BR|GAUSSIAN,OTHER  LANES,S_W,>EQ  10-G,LOW  SPEED,NO  PEDESTRIAN,RL  0,acts-11,N,777,150,143.143,0
NASH|BR|GAUSSIAN,OTHER  LANES,S_W,>EQ  10-G,LOW  SPEED,NO  PEDESTRIAN,RL  0,acts-11,N,777,150,144.144,7.2000000000072e-05
NASH|BR|GAUSSIAN,OTHER  LANES,S_W,>EQ  10-G,LOW  SPEED,NO  PEDESTRIAN,RL  0,acts-11,N,777,150,145.145,0.0001100000000000545
NASH|BR|GAUSSIAN,OTHER  LANES,S_W,>EQ  10-G,LOW  SPEED,NO  PEDESTRIAN,  RL  <EQ  2,acts-11,N,777,155,136.302833,0
NASH|BR|GAUSSIAN,OTHER  LANES,S_W,>EQ  10-G,LOW  SPEED,NO  PEDESTRIAN,  RL  <EQ  2,acts-11,N,777,155,137.303833,0.00020500000000001073
NASH|BR|GAUSSIAN,OTHER  LANES,S_W,>EQ  10-G,LOW  SPEED,NO  PEDESTRIAN,  RL  <EQ  2,acts-11,N,777,155,140.306833,0.00020299999999995322
NASH|BR|GAUSSIAN,OTHER  LANES,S_W,>EQ  10-G,LOW  SPEED,NO  PEDESTRIAN,  RL  <EQ  2,acts-11,N,777,155,141.307833,0
NASH|BR|GAUSSIAN,OTHER  LANES,S_W,>EQ  10-G,LOW  SPEED,NO  PEDESTRIAN,  RL  <EQ  2,acts-11,N,777,155,144.310833,9.999999999998899e-05
NASH|BR|GAUSSIAN,OTHER  LANES,S_W,>EQ  10-G,LOW  SPEED,NO  PEDESTRIAN,  RL  <EQ  2,acts-11,N,777,155,145.311833,0.00019799999999997597
NASH|BR|GAUSSIAN,OTHER  LANES,N_E,<10-G,LOW  SPEED,PEDESTRIAN,RL  0,acts-11,N,777,145,147.147,2.6999999999999247e-05
NASH|BR|GAUSSIAN,OTHER  LANES,N_E,<10-G,LOW  SPEED,PEDESTRIAN,RL  0,acts-11,N,777,145,148.148,0.00023099999999998122
NASH|BR|GAUSSIAN,OTHER  LANES,N_E,<10-G,LOW  SPEED,PEDESTRIAN,RL  0,acts-11,N,777,145,149.149,0.00024299999999999322
NASH|BR|GAUSSIAN,OTHER  LANES,N_E,<10-G,LOW  SPEED,PEDESTRIAN,RL  0,acts-11,N,777,145,150.15,0.00014300000000000423
NASH|BR|GAUSSIAN,OTHER  LANES,N_E,<10-G,LOW  SPEED,PEDESTRIAN,RL  0,acts-11,N,777,145,151.151,0
NASH|BR|GAUSSIAN,OTHER  LANES,N_E,<10-G,LOW  SPEED,PEDESTRIAN,RL  0,acts-11,N,777,145,152.152,0.0004009999999999847
NASH|BR|GAUSSIAN,OTHER  LANES,N_E,<10-G,LOW  SPEED,PEDESTRIAN,RL  0,acts-11,N,777,145,153.153,0.0001340000000000785
NASH|BR|GAUSSIAN,OTHER  LANES,N_E,<10-G,LOW  SPEED,PEDESTRIAN,RL  0,acts-11,N,777,145,154.154,0.00019999999999997797
NASH|BR|GAUSSIAN,OTHER  LANES,N_E,<10-G,LOW  SPEED,PEDESTRIAN,RL  0,acts-11,N,777,145,155.155,0
NASH|BR|GAUSSIAN,OTHER  LANES,N_E,<10-G,LOW  SPEED,NO  PEDESTRIAN,RL  0,acts-11,N,777,71,56.723333,0.00028500000000009074
NASH|BR|GAUSSIAN,OTHER  LANES,N_E,<10-G,LOW  SPEED,NO  PEDESTRIAN,RL  0,acts-11,N,777,71,57.724333,0.000156000000000045
NASH|BR|GAUSSIAN,OTHER  LANES,N_E,<10-G,LOW  SPEED,NO  PEDESTRIAN,RL  0,acts-11,N,777,71,58.725333,7.899999999994023e-05
NASH|BR|GAUSSIAN,OTHER  LANES,N_E,<10-G,LOW  SPEED,NO  PEDESTRIAN,RL  0,acts-11,N,777,71,59.726333,0.00032799999999999496
NASH|BR|GAUSSIAN,OTHER  LANES,N_E,<10-G,LOW  SPEED,NO  PEDESTRIAN,RL  0,acts-11,N,777,71,60.727333,0.00015900000000002024
NASH|BR|GAUSSIAN,OTHER  LANES,N_E,<10-G,LOW  SPEED,NO  PEDESTRIAN,RL  0,acts-11,N,777,71,61.728333,0.00012599999999995948
NASH|BR|GAUSSIAN,OTHER  LANES,N_E,<10-G,LOW  SPEED,NO  PEDESTRIAN,RL  0,acts-11,N,777,71,62.729333,0.0002809999999999757
NASH|BR|GAUSSIAN,OTHER  LANES,N_E,<10-G,LOW  SPEED,NO  PEDESTRIAN,RL  0,acts-11,N,777,71,63.730333,0.00025399999999997647
NASH|BR|GAUSSIAN,OTHER  LANES,N_E,<10-G,LOW  SPEED,NO  PEDESTRIAN,RL  0,acts-11,N,777,71,64.731333,0
NASH|BR|GAUSSIAN,OTHER  LANES,N_E,<10-G,LOW  SPEED,NO  PEDESTRIAN,RL  0,acts-11,N,777,71,65.732333,2.4000000000024002e-05
NASH|BR|GAUSSIAN,OTHER  LANES,N_E,<10-G,LOW  SPEED,NO  PEDESTRIAN,RL  0,acts-11,N,777,145,146.146,0.0003989999999999272
NASH|BR|GAUSSIAN,OTHER  LANES,N_E,>EQ  10-Y/R,LOW  SPEED,NO  PEDESTRIAN,RL  0,acts-1,Y,777,71,66.733333,0
NASH|BR|GAUSSIAN,OTHER  LANES,N_E,>EQ  10-Y/R,LOW  SPEED,NO  PEDESTRIAN,RL  0,acts-1,Y,777,71,67.734333,0
NASH|BR|GAUSSIAN,OTHER  LANES,N_E,>EQ  10-Y/R,LOW  SPEED,NO  PEDESTRIAN,RL  0,acts-1,Y,777,71,68.735333,0
NASH|BR|GAUSSIAN,OTHER  LANES,N_E,>EQ  10-Y/R,LOW  SPEED,NO  PEDESTRIAN,RL  0,acts-1,Y,777,103,85.251833,0.013616000000000072
NASH|BR|GAUSSIAN,OTHER  LANES,N_E,>EQ  10-G,LOW  SPEED,NO  PEDESTRIAN,RL  0,acts-11,Y,777,71,53.720333,7.699999999999374e-05
NASH|BR|GAUSSIAN,OTHER  LANES,N_E,>EQ  10-G,LOW  SPEED,NO  PEDESTRIAN,RL  0,acts-11,Y,777,71,54.721333,0.00035399999999996545
NASH|BR|GAUSSIAN,OTHER  LANES,N_E,>EQ  10-G,LOW  SPEED,NO  PEDESTRIAN,RL  0,acts-11,N,777,71,55.722333,0
NASH|BR|GAUSSIAN,OTHER  LANES,N_E,>EQ  10-G,LOW  SPEED,NO  PEDESTRIAN,RL  0,acts-11,Y,777,145,129.129,5.699999999997374e-05
NASH|BR|GAUSSIAN,OTHER  LANES,N_E,>EQ  10-G,LOW  SPEED,NO  PEDESTRIAN,RL  0,acts-11,N,777,145,130.13,0
NASH|BR|GAUSSIAN,OTHER  LANES,N_E,>EQ  10-G,LOW  SPEED,NO  PEDESTRIAN,RL  0,acts-11,Y,777,145,131.131,0.0004709999999999992
NASH|BR|GAUSSIAN,OTHER  LANES,N_E,>EQ  10-G,LOW  SPEED,NO  PEDESTRIAN,RL  0,acts-11,N,777,145,132.132,5.3999999999998494e-05
NASH|BR|GAUSSIAN,OTHER  LANES,N_E,>EQ  10-G,LOW  SPEED,NO  PEDESTRIAN,RL  0,acts-11,N,777,145,133.133,9.599999999998499e-05
NASH|BR|GAUSSIAN,OTHER  LANES,N_E,>EQ  10-G,LOW  SPEED,NO  PEDESTRIAN,RL  0,acts-11,N,777,145,134.134,0.0002769999999999717
NASH|BR|GAUSSIAN,OTHER  LANES,N_E,>EQ  10-G,LOW  SPEED,NO  PEDESTRIAN,RL  0,acts-11,N,777,145,135.135,0
NASH|BR|GAUSSIAN,OTHER  LANES,N_E,>EQ  10-G,LOW  SPEED,NO  PEDESTRIAN,RL  0,acts-11,N,777,145,136.136,0.00025700000000006273
NASH|BR|GAUSSIAN,OTHER  LANES,N_E,>EQ  10-G,LOW  SPEED,NO  PEDESTRIAN,RL  0,acts-11,N,777,145,137.137,9.199999999998099e-05
NASH|BR|GAUSSIAN,OTHER  LANES,N_E,>EQ  10-G,LOW  SPEED,NO  PEDESTRIAN,RL  0,acts-11,N,777,145,138.138,0
NASH|BR|GAUSSIAN,OTHER  LANES,N_E,>EQ  10-G,LOW  SPEED,NO  PEDESTRIAN,RL  0,acts-11,N,777,145,139.139,0.00011200000000000099
NASH|BR|GAUSSIAN,OTHER  LANES,N_E,>EQ  10-G,LOW  SPEED,NO  PEDESTRIAN,RL  0,acts-11,N,777,145,140.14,0
NASH|BR|GAUSSIAN,OTHER  LANES,N_E,>EQ  10-G,LOW  SPEED,NO  PEDESTRIAN,RL  0,acts-11,N,777,145,141.141,0.0003049999999999997
NASH|BR|GAUSSIAN,OTHER  LANES,N_E,>EQ  10-G,LOW  SPEED,NO  PEDESTRIAN,RL  0,acts-11,N,777,145,142.142,0.00026599999999998847
NASH|BR|GAUSSIAN,OTHER  LANES,N_E,>EQ  10-G,LOW  SPEED,NO  PEDESTRIAN,RL  0,acts-11,N,777,145,143.143,0.00012699999999998823
NASH|BR|GAUSSIAN,OTHER  LANES,N_E,>EQ  10-G,LOW  SPEED,NO  PEDESTRIAN,RL  0,acts-11,N,777,145,144.144,2.5000000000052758e-05
NASH|BR|GAUSSIAN,OTHER  LANES,N_E,>EQ  10-G,LOW  SPEED,NO  PEDESTRIAN,RL  0,acts-11,N,777,145,145.145,0.00011300000000002974
NASH|BR|GAUSSIAN,OTHER  LANES,W_N,<10-G,LOW  SPEED,NO  PEDESTRIAN,RL  0,acts-11,N,777,8,1.001,0
NASH|BR|GAUSSIAN,OTHER  LANES,W_N,<10-G,LOW  SPEED,NO  PEDESTRIAN,RL  0,acts-11,Y,777,8,10.01,0
NASH|BR|GAUSSIAN,OTHER  LANES,W_N,<10-G,LOW  SPEED,NO  PEDESTRIAN,RL  0,acts-11,N,777,8,2.002,5.100000000002325e-05
NASH|BR|GAUSSIAN,OTHER  LANES,W_N,<10-G,LOW  SPEED,NO  PEDESTRIAN,RL  0,acts-11,N,777,8,3.003,0.0011039999999999939
NASH|BR|GAUSSIAN,OTHER  LANES,W_N,<10-G,LOW  SPEED,NO  PEDESTRIAN,RL  0,acts-11,N,777,8,4.004,0
NASH|BR|GAUSSIAN,OTHER  LANES,W_N,<10-G,LOW  SPEED,NO  PEDESTRIAN,RL  0,acts-11,N,777,8,5.005,9.80000000000425e-05
NASH|BR|GAUSSIAN,OTHER  LANES,W_N,<10-G,LOW  SPEED,NO  PEDESTRIAN,RL  0,acts-11,N,777,8,6.006,0.00046400000000001995
NASH|BR|GAUSSIAN,OTHER  LANES,W_N,<10-G,LOW  SPEED,NO  PEDESTRIAN,RL  0,acts-11,N,777,8,7.007,0
NASH|BR|GAUSSIAN,OTHER  LANES,W_N,<10-G,LOW  SPEED,NO  PEDESTRIAN,RL  0,acts-11,N,777,8,8.008,5.2000000000052005e-05
NASH|BR|GAUSSIAN,OTHER  LANES,W_N,<10-G,LOW  SPEED,NO  PEDESTRIAN,RL  0,acts-11,Y,777,8,9.009,8.60000000000305e-05
NASH|BR|GAUSSIAN,OTHER  LANES,W_N,<10-G,LOW  SPEED,NO  PEDESTRIAN,  RL  <EQ  2,acts-11,N,777,2,1.001,0
NASH|BR|GAUSSIAN,OTHER  LANES,W_N,<10-G,LOW  SPEED,NO  PEDESTRIAN,  RL  <EQ  2,acts-11,N,777,9,1.001,0
NASH|BR|GAUSSIAN,OTHER  LANES,W_N,<10-G,LOW  SPEED,NO  PEDESTRIAN,  RL  <EQ  2,acts-11,N,777,9,10.01,0
NASH|BR|GAUSSIAN,OTHER  LANES,W_N,<10-G,LOW  SPEED,NO  PEDESTRIAN,  RL  <EQ  2,acts-11,Y,777,18,10.01,0.0036159999999999526
NASH|BR|GAUSSIAN,OTHER  LANES,W_N,<10-G,LOW  SPEED,NO  PEDESTRIAN,  RL  <EQ  2,acts-11,N,777,2,2.002,3.2000000000032e-05
NASH|BR|GAUSSIAN,OTHER  LANES,W_N,<10-G,LOW  SPEED,NO  PEDESTRIAN,  RL  <EQ  2,acts-11,N,777,2,3.003,0.00021500000000007624
NASH|BR|GAUSSIAN,OTHER  LANES,W_N,<10-G,LOW  SPEED,NO  PEDESTRIAN,  RL  <EQ  2,acts-11,N,777,9,4.004,0.00021700000000002273
NASH|BR|GAUSSIAN,OTHER  LANES,W_N,<10-G,LOW  SPEED,NO  PEDESTRIAN,  RL  <EQ  2,acts-11,N,777,18,4.004,0
NASH|BR|GAUSSIAN,OTHER  LANES,W_N,<10-G,LOW  SPEED,NO  PEDESTRIAN,  RL  <EQ  2,acts-11,N,777,2,5.005,8.399999999997299e-05
NASH|BR|GAUSSIAN,OTHER  LANES,W_N,<10-G,LOW  SPEED,NO  PEDESTRIAN,  RL  <EQ  2,acts-11,N,777,9,5.005,0
NASH|BR|GAUSSIAN,OTHER  LANES,W_N,<10-G,LOW  SPEED,NO  PEDESTRIAN,  RL  <EQ  2,acts-11,N,777,18,5.005,0
NASH|BR|GAUSSIAN,OTHER  LANES,W_N,<10-G,LOW  SPEED,NO  PEDESTRIAN,  RL  <EQ  2,acts-11,N,777,9,6.006,0
NASH|BR|GAUSSIAN,OTHER  LANES,W_N,<10-G,LOW  SPEED,NO  PEDESTRIAN,  RL  <EQ  2,acts-11,N,777,9,7.007,0.005479000000000012
NASH|BR|GAUSSIAN,OTHER  LANES,W_N,<10-G,LOW  SPEED,NO  PEDESTRIAN,  RL  <EQ  2,acts-11,N,777,2,8.008,6.999999999979245e-06
NASH|BR|GAUSSIAN,OTHER  LANES,W_N,<10-G,LOW  SPEED,NO  PEDESTRIAN,  RL  <EQ  2,acts-11,N,777,9,8.008,0.01080200000000009
NASH|BR|GAUSSIAN,OTHER  LANES,W_N,<10-G,LOW  SPEED,NO  PEDESTRIAN,  RL  <EQ  2,acts-11,N,777,9,9.009,0.0015330000000000066
NASH|BR|GAUSSIAN,OTHER  LANES,W_N,<10-G,LOW  SPEED,NO  PEDESTRIAN,  RL  <EQ  2,acts-11,N,777,18,9.009,0
NASH|BR|GAUSSIAN,OTHER  LANES,W_N,>EQ  10-Y/R,LOW  SPEED,NO  PEDESTRIAN,RL  0,acts-1,Y,777,2,13.013,0.0023440000000000127
NASH|BR|GAUSSIAN,OTHER  LANES,W_N,>EQ  10-Y/R,LOW  SPEED,NO  PEDESTRIAN,RL  0,acts-1,N,777,2,14.014,0.0021019999999999373
NASH|BR|GAUSSIAN,OTHER  LANES,W_N,>EQ  10-Y/R,LOW  SPEED,NO  PEDESTRIAN,RL  0,acts-1,Y,777,8,11.011,0
NASH|BR|GAUSSIAN,OTHER  LANES,W_N,>EQ  10-Y/R,LOW  SPEED,NO  PEDESTRIAN,  RL  <EQ  2,acts-10,Y,777,9,14.014,0.00045799999999995844
NASH|BR|GAUSSIAN,OTHER  LANES,W_N,>EQ  10-G,LOW  SPEED,NO  PEDESTRIAN,RL  0,acts-11,N,777,8,0,0.0004149999999999432
NASH|BR|GAUSSIAN,OTHER  LANES,W_N,>EQ  10-G,LOW  SPEED,NO  PEDESTRIAN,  RL  <EQ  2,acts-11,N,777,9,0,0.004632999999999998
NASH|BR|GAUSSIAN,OTHER  LANES,S_E,<10-Y/R,LOW  SPEED,NO  PEDESTRIAN,  RL  <EQ  2,acts-6,N,777,27,2.836167,0
NASH|BR|GAUSSIAN,OTHER  LANES,S_E,<10-G,LOW  SPEED,PEDESTRIAN,RL  0,acts-7,Y,777,173,168.334833,0.00977399999999995
NASH|BR|GAUSSIAN,OTHER  LANES,S_E,<10-G,LOW  SPEED,PEDESTRIAN,  RL  <EQ  2,acts-7,N,777,173,161.327833,0.007730000000000015
NASH|BR|GAUSSIAN,OTHER  LANES,S_E,<10-G,LOW  SPEED,PEDESTRIAN,  RL  <EQ  2,acts-7,N,777,173,162.328833,0.016090999999999966
NASH|BR|GAUSSIAN,OTHER  LANES,S_E,<10-G,LOW  SPEED,PEDESTRIAN,  RL  <EQ  2,acts-7,N,777,173,163.329833,0.005608000000000057
NASH|BR|GAUSSIAN,OTHER  LANES,S_E,<10-G,LOW  SPEED,PEDESTRIAN,  RL  <EQ  2,acts-7,N,777,173,165.331833,0.0016279999999999628
NASH|BR|GAUSSIAN,OTHER  LANES,S_E,<10-G,LOW  SPEED,PEDESTRIAN,  RL  >  2,acts-7,N,777,173,164.330833,0.011092999999999908
NASH|BR|GAUSSIAN,OTHER  LANES,S_E,<10-G,LOW  SPEED,NO  PEDESTRIAN,RL  0,acts-6,Y,777,51,54.054,0
NASH|BR|GAUSSIAN,OTHER  LANES,S_E,<10-G,LOW  SPEED,NO  PEDESTRIAN,RL  0,acts-6,Y,777,51,55.055,0
NASH|BR|GAUSSIAN,OTHER  LANES,S_E,>EQ  10-Y/R,LOW  SPEED,PEDESTRIAN,  RL  <EQ  2,acts-7,N,777,116,91.257833,0.0008110000000000062
NASH|BR|GAUSSIAN,OTHER  LANES,S_E,>EQ  10-Y/R,LOW  SPEED,NO  PEDESTRIAN,RL  0,acts-6,N,777,51,56.056,0
NASH|BR|GAUSSIAN,OTHER  LANES,S_E,>EQ  10-Y/R,LOW  SPEED,NO  PEDESTRIAN,RL  0,acts-6,Y,777,51,57.057,0.001591000000000009
NASH|BR|GAUSSIAN,OTHER  LANES,S_E,>EQ  10-Y/R,LOW  SPEED,NO  PEDESTRIAN,RL  0,acts-6,N,777,73,59.726333,0.005641000000000007
NASH|BR|GAUSSIAN,OTHER  LANES,S_E,>EQ  10-Y/R,LOW  SPEED,NO  PEDESTRIAN,RL  0,acts-6,N,777,82,64.731333,0.025885999999999965
NASH|BR|GAUSSIAN,OTHER  LANES,S_E,>EQ  10-Y/R,LOW  SPEED,NO  PEDESTRIAN,RL  0,acts-6,Y,777,78,61.895167,0.00023600000000001398
NASH|BR|GAUSSIAN,OTHER  LANES,S_E,>EQ  10-Y/R,LOW  SPEED,NO  PEDESTRIAN,  RL  <EQ  2,acts-9,Y,777,82,62.729333,0.21131299999999997
NASH|BR|GAUSSIAN,OTHER  LANES,S_E,>EQ  10-Y/R,LOW  SPEED,NO  PEDESTRIAN,  RL  <EQ  2,acts-6,N,777,106,83.5835,0.006485999999999992
NASH|BR|GAUSSIAN,OTHER  LANES,S_E,>EQ  10-Y/R,LOW  SPEED,NO  PEDESTRIAN,  RL  >  2,acts-6,N,777,106,84.5845,0.019015000000000004
NASH|BR|GAUSSIAN,OTHER  LANES,S_E,>EQ  10-G,LOW  SPEED,PEDESTRIAN,  RL  <EQ  2,acts-7,Y,777,173,159.325833,0
NASH|BR|GAUSSIAN,OTHER  LANES,S_E,>EQ  10-G,LOW  SPEED,PEDESTRIAN,  RL  <EQ  2,acts-7,N,777,173,160.326833,0.017923000000000022
NASH|BR|GAUSSIAN,OTHER  LANES,S_E,>EQ  10-G,LOW  SPEED,NO  PEDESTRIAN,  RL  <EQ  2,acts-6,N,777,51,33.033,0.011865999999999932
NASH|BR|GAUSSIAN,OTHER  LANES,S_E,>EQ  10-G,LOW  SPEED,NO  PEDESTRIAN,  RL  <EQ  2,acts-6,Y,777,164,140.807333,0
NASH|BR|GAUSSIAN,OTHER  LANES,S_E,>EQ  10-G,LOW  SPEED,NO  PEDESTRIAN,  RL  <EQ  2,acts-6,Y,777,164,142.809333,0.0035399999999999876
NASH|BR|GAUSSIAN,OTHER  LANES,S_E,>EQ  10-G,LOW  SPEED,NO  PEDESTRIAN,  RL  >  2,acts-6,N,777,51,32.032,0.00469799999999998
NASH|BR|GAUSSIAN,OTHER  LANES,S_E,>EQ  10-G,LOW  SPEED,NO  PEDESTRIAN,  RL  >  2,acts-6,N,777,164,141.808333,0.007295999999999969
NASH|BR|GAUSSIAN,OTHER  LANES,E_S,<10-G,LOW  SPEED,PEDESTRIAN,RL  0,acts-11,N,777,65,100.433667,0
NASH|BR|GAUSSIAN,OTHER  LANES,E_S,<10-G,LOW  SPEED,PEDESTRIAN,RL  0,acts-11,N,777,65,101.434667,8.299999999994423e-05
NASH|BR|GAUSSIAN,OTHER  LANES,E_S,<10-G,LOW  SPEED,PEDESTRIAN,RL  0,acts-11,N,777,65,102.435667,3.799999999998249e-05
NASH|BR|GAUSSIAN,OTHER  LANES,E_S,<10-G,LOW  SPEED,PEDESTRIAN,RL  0,acts-11,N,777,65,103.436667,0.0009349999999999081
NASH|BR|GAUSSIAN,OTHER  LANES,E_S,<10-G,LOW  SPEED,PEDESTRIAN,RL  0,acts-11,N,777,65,104.437667,0.00014100000000005775
NASH|BR|GAUSSIAN,OTHER  LANES,E_S,<10-G,LOW  SPEED,PEDESTRIAN,RL  0,acts-11,N,777,65,105.438667,0
NASH|BR|GAUSSIAN,OTHER  LANES,E_S,<10-G,LOW  SPEED,PEDESTRIAN,RL  0,acts-11,N,777,65,106.439667,0.0003810000000000757
NASH|BR|GAUSSIAN,OTHER  LANES,E_S,<10-G,LOW  SPEED,PEDESTRIAN,RL  0,acts-11,N,777,65,107.440667,0.0002969999999999917
NASH|BR|GAUSSIAN,OTHER  LANES,E_S,<10-G,LOW  SPEED,PEDESTRIAN,RL  0,acts-11,N,777,65,108.441667,6.999999999979245e-06
NASH|BR|GAUSSIAN,OTHER  LANES,E_S,<10-G,LOW  SPEED,PEDESTRIAN,RL  0,acts-11,N,777,65,99.432667,0
NASH|BR|GAUSSIAN,OTHER  LANES,E_S,<10-G,LOW  SPEED,NO  PEDESTRIAN,RL  0,acts-11,N,777,10,1.001,0.0005989999999999052
NASH|BR|GAUSSIAN,OTHER  LANES,E_S,<10-G,LOW  SPEED,NO  PEDESTRIAN,RL  0,acts-11,Y,777,10,10.01,0.0012110000000000731
NASH|BR|GAUSSIAN,OTHER  LANES,E_S,<10-G,LOW  SPEED,NO  PEDESTRIAN,RL  0,acts-11,N,777,10,2.002,0.0008439999999999559
NASH|BR|GAUSSIAN,OTHER  LANES,E_S,<10-G,LOW  SPEED,NO  PEDESTRIAN,RL  0,acts-11,N,777,10,3.003,0.00012499999999993072
NASH|BR|GAUSSIAN,OTHER  LANES,E_S,<10-G,LOW  SPEED,NO  PEDESTRIAN,RL  0,acts-11,N,777,10,4.004,0.0008639999999999759
NASH|BR|GAUSSIAN,OTHER  LANES,E_S,<10-G,LOW  SPEED,NO  PEDESTRIAN,RL  0,acts-11,N,777,10,5.005,0.0011720000000000619
NASH|BR|GAUSSIAN,OTHER  LANES,E_S,<10-G,LOW  SPEED,NO  PEDESTRIAN,RL  0,acts-11,N,777,10,6.006,0.00023399999999995647
NASH|BR|GAUSSIAN,OTHER  LANES,E_S,<10-G,LOW  SPEED,NO  PEDESTRIAN,RL  0,acts-11,N,777,10,7.007,0.0009719999999999729
NASH|BR|GAUSSIAN,OTHER  LANES,E_S,<10-G,LOW  SPEED,NO  PEDESTRIAN,RL  0,acts-11,N,777,10,8.008,0.0005960000000000409
NASH|BR|GAUSSIAN,OTHER  LANES,E_S,<10-G,LOW  SPEED,NO  PEDESTRIAN,RL  0,acts-11,N,777,10,9.009,0
NASH|BR|GAUSSIAN,OTHER  LANES,E_S,<10-G,LOW  SPEED,NO  PEDESTRIAN,  RL  <EQ  2,acts-11,N,777,5,10.01,0.0009540000000000104
NASH|BR|GAUSSIAN,OTHER  LANES,E_S,<10-G,LOW  SPEED,NO  PEDESTRIAN,  RL  <EQ  2,acts-11,N,777,5,4.004,0
NASH|BR|GAUSSIAN,OTHER  LANES,E_S,<10-G,LOW  SPEED,NO  PEDESTRIAN,  RL  <EQ  2,acts-11,N,777,5,6.006,0
NASH|BR|GAUSSIAN,OTHER  LANES,E_S,<10-G,LOW  SPEED,NO  PEDESTRIAN,  RL  <EQ  2,acts-11,N,777,5,7.007,0.0009310000000000151
NASH|BR|GAUSSIAN,OTHER  LANES,E_S,<10-G,LOW  SPEED,NO  PEDESTRIAN,  RL  <EQ  2,acts-11,N,777,5,9.009,0.00018699999999999273
NASH|BR|GAUSSIAN,OTHER  LANES,E_S,<10-G,LOW  SPEED,NO  PEDESTRIAN,  RL  <EQ  2,acts-11,N,777,31,10.343667,0
NASH|BR|GAUSSIAN,OTHER  LANES,E_S,<10-G,LOW  SPEED,NO  PEDESTRIAN,  RL  <EQ  2,acts-11,Y,777,31,3.336667,0.07186999999999999
NASH|BR|GAUSSIAN,OTHER  LANES,E_S,<10-G,LOW  SPEED,NO  PEDESTRIAN,  RL  <EQ  2,acts-11,N,777,31,4.337667,0
NASH|BR|GAUSSIAN,OTHER  LANES,E_S,<10-G,LOW  SPEED,NO  PEDESTRIAN,  RL  <EQ  2,acts-11,Y,777,31,7.340667,0.04303000000000001
NASH|BR|GAUSSIAN,OTHER  LANES,E_S,<10-G,LOW  SPEED,NO  PEDESTRIAN,  RL  <EQ  2,acts-11,Y,777,31,8.341667,0
NASH|BR|GAUSSIAN,OTHER  LANES,E_S,<10-G,LOW  SPEED,NO  PEDESTRIAN,  RL  <EQ  2,acts-11,N,777,31,9.342667,0.0010229999999999961
NASH|BR|GAUSSIAN,OTHER  LANES,E_S,<10-G,LOW  SPEED,NO  PEDESTRIAN,  RL  >  2,acts-11,Y,777,31,5.338667,0.08440500000000006
NASH|BR|GAUSSIAN,OTHER  LANES,E_S,<10-G,LOW  SPEED,NO  PEDESTRIAN,  RL  >  2,acts-11,Y,777,31,6.339667,0
NASH|BR|GAUSSIAN,OTHER  LANES,E_S,>EQ  10-Y/R,LOW  SPEED,PEDESTRIAN,RL  0,acts-1,Y,777,65,109.442667,0.00582500000000008
NASH|BR|GAUSSIAN,OTHER  LANES,E_S,>EQ  10-Y/R,LOW  SPEED,PEDESTRIAN,RL  0,acts-1,Y,777,65,110.443667,0.00206699999999993
NASH|BR|GAUSSIAN,OTHER  LANES,E_S,>EQ  10-Y/R,LOW  SPEED,PEDESTRIAN,RL  0,acts-1,Y,777,65,111.444667,0
NASH|BR|GAUSSIAN,OTHER  LANES,E_S,>EQ  10-Y/R,LOW  SPEED,NO  PEDESTRIAN,RL  0,acts-1,Y,777,10,11.011,0.004350999999999994
NASH|BR|GAUSSIAN,OTHER  LANES,E_S,>EQ  10-Y/R,LOW  SPEED,NO  PEDESTRIAN,RL  0,acts-1,Y,777,10,12.012,0
NASH|BR|GAUSSIAN,OTHER  LANES,E_S,>EQ  10-Y/R,LOW  SPEED,NO  PEDESTRIAN,  RL  <EQ  2,acts-10,Y,777,5,11.011,0.0009750000000000036
NASH|BR|GAUSSIAN,OTHER  LANES,E_S,>EQ  10-Y/R,LOW  SPEED,NO  PEDESTRIAN,  RL  >  2,acts-1,Y,777,55,34.200833,0
NASH|BR|GAUSSIAN,OTHER  LANES,E_S,>EQ  10-Y/R,MEDIUM  SPEED,PEDESTRIAN,  RL  >  2,acts-1,N,777,157,136.469667,0
NASH|BR|GAUSSIAN,OTHER  LANES,E_S,>EQ  10-G,LOW  SPEED,PEDESTRIAN,RL  0,acts-11,N,777,65,90.423667,0.00039800000000000946
NASH|BR|GAUSSIAN,OTHER  LANES,E_S,>EQ  10-G,LOW  SPEED,PEDESTRIAN,RL  0,acts-11,N,777,65,91.424667,0
NASH|BR|GAUSSIAN,OTHER  LANES,E_S,>EQ  10-G,LOW  SPEED,PEDESTRIAN,RL  0,acts-11,N,777,65,92.425667,0.00014799999999992597
NASH|BR|GAUSSIAN,OTHER  LANES,E_S,>EQ  10-G,LOW  SPEED,PEDESTRIAN,RL  0,acts-11,N,777,65,93.426667,0
NASH|BR|GAUSSIAN,OTHER  LANES,E_S,>EQ  10-G,LOW  SPEED,PEDESTRIAN,RL  0,acts-11,N,777,65,94.427667,0
NASH|BR|GAUSSIAN,OTHER  LANES,E_S,>EQ  10-G,LOW  SPEED,PEDESTRIAN,RL  0,acts-11,N,777,65,95.428667,0
NASH|BR|GAUSSIAN,OTHER  LANES,E_S,>EQ  10-G,LOW  SPEED,PEDESTRIAN,RL  0,acts-11,N,777,65,96.429667,0.0009090000000000487
NASH|BR|GAUSSIAN,OTHER  LANES,E_S,>EQ  10-G,LOW  SPEED,PEDESTRIAN,RL  0,acts-11,N,777,65,97.430667,0.000184000000000073
NASH|BR|GAUSSIAN,OTHER  LANES,E_S,>EQ  10-G,LOW  SPEED,PEDESTRIAN,RL  0,acts-11,N,777,65,98.431667,0
NASH|BR|GAUSSIAN,OTHER  LANES,E_S,>EQ  10-G,LOW  SPEED,NO  PEDESTRIAN,RL  0,acts-11,N,777,10,0,0.0007599999999999829
NASH|BR|GAUSSIAN,OTHER  LANES,E_S,>EQ  10-G,LOW  SPEED,NO  PEDESTRIAN,RL  0,acts-11,N,777,65,53.386667,0
NASH|BR|GAUSSIAN,OTHER  LANES,E_S,>EQ  10-G,LOW  SPEED,NO  PEDESTRIAN,RL  0,acts-11,N,777,65,54.387667,0.0003330000000000277
NASH|BR|GAUSSIAN,OTHER  LANES,E_S,>EQ  10-G,LOW  SPEED,NO  PEDESTRIAN,RL  0,acts-11,N,777,65,55.388667,0.0003589999999999982
NASH|BR|GAUSSIAN,OTHER  LANES,E_S,>EQ  10-G,LOW  SPEED,NO  PEDESTRIAN,RL  0,acts-11,N,777,65,56.389667,0.0006059999999999954
NASH|BR|GAUSSIAN,OTHER  LANES,E_S,>EQ  10-G,LOW  SPEED,NO  PEDESTRIAN,RL  0,acts-11,N,777,65,57.390667,0
NASH|BR|GAUSSIAN,OTHER  LANES,E_S,>EQ  10-G,LOW  SPEED,NO  PEDESTRIAN,RL  0,acts-11,N,777,65,58.391667,0.0010390000000000121
NASH|BR|GAUSSIAN,OTHER  LANES,E_S,>EQ  10-G,LOW  SPEED,NO  PEDESTRIAN,RL  0,acts-11,N,777,65,59.392667,0.00014899999999995472
NASH|BR|GAUSSIAN,OTHER  LANES,E_S,>EQ  10-G,LOW  SPEED,NO  PEDESTRIAN,RL  0,acts-11,N,777,65,60.393667,0.0006800000000000139
NASH|BR|GAUSSIAN,OTHER  LANES,E_S,>EQ  10-G,LOW  SPEED,NO  PEDESTRIAN,RL  0,acts-11,N,777,65,61.394667,3.500000000000725e-05
NASH|BR|GAUSSIAN,OTHER  LANES,E_S,>EQ  10-G,LOW  SPEED,NO  PEDESTRIAN,RL  0,acts-11,N,777,65,62.395667,0
NASH|BR|GAUSSIAN,OTHER  LANES,E_S,>EQ  10-G,LOW  SPEED,NO  PEDESTRIAN,RL  0,acts-11,N,777,65,63.396667,0.0007869999999999822
NASH|BR|GAUSSIAN,OTHER  LANES,E_S,>EQ  10-G,LOW  SPEED,NO  PEDESTRIAN,RL  0,acts-11,N,777,65,64.397667,0.0008210000000000717
NASH|BR|GAUSSIAN,OTHER  LANES,E_S,>EQ  10-G,LOW  SPEED,NO  PEDESTRIAN,RL  0,acts-11,N,777,65,65.398667,0.0006660000000000554
NASH|BR|GAUSSIAN,OTHER  LANES,E_S,>EQ  10-G,LOW  SPEED,NO  PEDESTRIAN,RL  0,acts-11,N,777,65,66.399667,0
NASH|BR|GAUSSIAN,OTHER  LANES,E_S,>EQ  10-G,LOW  SPEED,NO  PEDESTRIAN,RL  0,acts-11,N,777,65,67.400667,0.00048000000000003595
NASH|BR|GAUSSIAN,OTHER  LANES,E_S,>EQ  10-G,LOW  SPEED,NO  PEDESTRIAN,RL  0,acts-11,N,777,65,68.401667,0.00042399999999997995
NASH|BR|GAUSSIAN,OTHER  LANES,E_S,>EQ  10-G,LOW  SPEED,NO  PEDESTRIAN,RL  0,acts-11,N,777,65,69.402667,0.0005079999999999529
NASH|BR|GAUSSIAN,OTHER  LANES,E_S,>EQ  10-G,LOW  SPEED,NO  PEDESTRIAN,RL  0,acts-11,N,777,65,70.403667,0
NASH|BR|GAUSSIAN,OTHER  LANES,E_S,>EQ  10-G,LOW  SPEED,NO  PEDESTRIAN,RL  0,acts-11,N,777,65,71.404667,0
NASH|BR|GAUSSIAN,OTHER  LANES,E_S,>EQ  10-G,LOW  SPEED,NO  PEDESTRIAN,RL  0,acts-11,N,777,65,72.405667,0.00015900000000002024
NASH|BR|GAUSSIAN,OTHER  LANES,E_S,>EQ  10-G,LOW  SPEED,NO  PEDESTRIAN,RL  0,acts-11,N,777,65,73.406667,0.0005389999999999562
NASH|BR|GAUSSIAN,OTHER  LANES,E_S,>EQ  10-G,LOW  SPEED,NO  PEDESTRIAN,RL  0,acts-11,N,777,65,74.407667,4.0000000000040004e-05
NASH|BR|GAUSSIAN,OTHER  LANES,E_S,>EQ  10-G,LOW  SPEED,NO  PEDESTRIAN,RL  0,acts-11,N,777,65,75.408667,4.999999999999449e-05
NASH|BR|GAUSSIAN,OTHER  LANES,E_S,>EQ  10-G,LOW  SPEED,NO  PEDESTRIAN,RL  0,acts-11,N,777,65,76.409667,0
NASH|BR|GAUSSIAN,OTHER  LANES,E_S,>EQ  10-G,LOW  SPEED,NO  PEDESTRIAN,RL  0,acts-11,N,777,65,77.410667,0
NASH|BR|GAUSSIAN,OTHER  LANES,E_S,>EQ  10-G,LOW  SPEED,NO  PEDESTRIAN,RL  0,acts-11,N,777,65,78.411667,0
NASH|BR|GAUSSIAN,OTHER  LANES,E_S,>EQ  10-G,LOW  SPEED,NO  PEDESTRIAN,RL  0,acts-11,N,777,65,79.412667,0
NASH|BR|GAUSSIAN,OTHER  LANES,E_S,>EQ  10-G,LOW  SPEED,NO  PEDESTRIAN,RL  0,acts-11,N,777,65,80.413667,0.00043799999999993844
NASH|BR|GAUSSIAN,OTHER  LANES,E_S,>EQ  10-G,LOW  SPEED,NO  PEDESTRIAN,RL  0,acts-11,N,777,65,81.414667,0.0005740000000000745
NASH|BR|GAUSSIAN,OTHER  LANES,E_S,>EQ  10-G,LOW  SPEED,NO  PEDESTRIAN,RL  0,acts-11,N,777,65,82.415667,0
NASH|BR|GAUSSIAN,OTHER  LANES,E_S,>EQ  10-G,LOW  SPEED,NO  PEDESTRIAN,RL  0,acts-11,N,777,65,83.416667,0.00040200000000001346
NASH|BR|GAUSSIAN,OTHER  LANES,E_S,>EQ  10-G,LOW  SPEED,NO  PEDESTRIAN,RL  0,acts-11,N,777,65,84.417667,0
NASH|BR|GAUSSIAN,OTHER  LANES,E_S,>EQ  10-G,LOW  SPEED,NO  PEDESTRIAN,RL  0,acts-11,N,777,65,85.418667,0.0005310000000000592
NASH|BR|GAUSSIAN,OTHER  LANES,E_S,>EQ  10-G,LOW  SPEED,NO  PEDESTRIAN,RL  0,acts-11,N,777,65,86.419667,0.00038199999999999346
NASH|BR|GAUSSIAN,OTHER  LANES,E_S,>EQ  10-G,LOW  SPEED,NO  PEDESTRIAN,RL  0,acts-11,N,777,65,87.420667,0.0004370000000000207
NASH|BR|GAUSSIAN,OTHER  LANES,E_S,>EQ  10-G,LOW  SPEED,NO  PEDESTRIAN,RL  0,acts-11,N,777,65,88.421667,0.00021400000000004749
NASH|BR|GAUSSIAN,OTHER  LANES,E_S,>EQ  10-G,LOW  SPEED,NO  PEDESTRIAN,RL  0,acts-11,N,777,65,89.422667,0
NASH|BR|GAUSSIAN,OTHER  LANES,E_S,>EQ  10-G,LOW  SPEED,NO  PEDESTRIAN,  RL  <EQ  2,acts-11,N,777,5,0,0
NASH|BR|GAUSSIAN,prep-right-turn,W_S,<10-Y/R,LOW  SPEED,NO  PEDESTRIAN,RL  0,acts-1,N,777,174,151.985167,0.023486000000000007
NASH|BR|GAUSSIAN,prep-right-turn,W_S,<10-Y/R,LOW  SPEED,NO  PEDESTRIAN,  RL  <EQ  2,acts-1,N,777,59,43.376667,0
NASH|BR|GAUSSIAN,prep-right-turn,W_S,<10-G,LOW  SPEED,NO  PEDESTRIAN,RL  0,acts-1,N,777,19,10.01,0.028687000000000018
NASH|BR|GAUSSIAN,prep-right-turn,W_S,<10-G,LOW  SPEED,NO  PEDESTRIAN,RL  0,acts-1,N,777,19,9.009,0.02972599999999992
NASH|BR|GAUSSIAN,prep-right-turn,W_S,>EQ  10-Y/R,LOW  SPEED,PEDESTRIAN,RL  0,acts-7,Y,777,111,122.6225,0
NASH|BR|GAUSSIAN,prep-right-turn,W_S,>EQ  10-Y/R,LOW  SPEED,PEDESTRIAN,RL  0,acts-7,Y,777,111,123.6235,0.0014959999999999418
NASH|BR|GAUSSIAN,prep-right-turn,W_S,>EQ  10-Y/R,LOW  SPEED,NO  PEDESTRIAN,RL  0,acts-1,N,777,42,25.5255,0.019939999999999958
NASH|BR|GAUSSIAN,prep-right-turn,W_S,>EQ  10-G,LOW  SPEED,PEDESTRIAN,RL  0,acts-7,Y,777,99,104.104,0.0011010000000000186
NASH|BR|GAUSSIAN,prep-right-turn,W_S,>EQ  10-G,LOW  SPEED,PEDESTRIAN,  RL  <EQ  2,acts-7,N,777,85,75.5755,0
NASH|BR|GAUSSIAN,prep-right-turn,W_S,>EQ  10-G,LOW  SPEED,PEDESTRIAN,  RL  <EQ  2,acts-7,Y,777,85,77.5775,0.030309999999999948
NASH|BR|GAUSSIAN,prep-right-turn,W_S,>EQ  10-G,LOW  SPEED,PEDESTRIAN,  RL  <EQ  2,acts-7,N,777,85,81.5815,0.03440500000000002
NASH|BR|GAUSSIAN,prep-right-turn,W_S,>EQ  10-G,LOW  SPEED,PEDESTRIAN,  RL  <EQ  2,acts-7,Y,777,85,85.5855,0.004598000000000102
NASH|BR|GAUSSIAN,prep-right-turn,W_S,>EQ  10-G,LOW  SPEED,PEDESTRIAN,  RL  <EQ  2,acts-7,Y,777,85,86.5865,0.0009889999999999066
NASH|BR|GAUSSIAN,prep-right-turn,W_S,>EQ  10-G,LOW  SPEED,PEDESTRIAN,  RL  >  2,acts-7,N,777,85,72.5725,0.00830199999999992
NASH|BR|GAUSSIAN,prep-right-turn,W_S,>EQ  10-G,LOW  SPEED,PEDESTRIAN,  RL  >  2,acts-7,N,777,85,73.5735,0.019428
NASH|BR|GAUSSIAN,prep-right-turn,W_S,>EQ  10-G,LOW  SPEED,PEDESTRIAN,  RL  >  2,acts-7,N,777,85,74.5745,0.006265999999999994
NASH|BR|GAUSSIAN,prep-right-turn,W_S,>EQ  10-G,LOW  SPEED,PEDESTRIAN,  RL  >  2,acts-7,N,777,85,76.5765,0.00032799999999999496
NASH|BR|GAUSSIAN,prep-right-turn,W_S,>EQ  10-G,LOW  SPEED,PEDESTRIAN,  RL  >  2,acts-7,N,777,85,78.5785,0.03193900000000005
NASH|BR|GAUSSIAN,prep-right-turn,W_S,>EQ  10-G,LOW  SPEED,PEDESTRIAN,  RL  >  2,acts-7,N,777,85,79.5795,0.03483700000000001
NASH|BR|GAUSSIAN,prep-right-turn,W_S,>EQ  10-G,LOW  SPEED,PEDESTRIAN,  RL  >  2,acts-7,N,777,85,80.5805,0.03368699999999991
NASH|BR|GAUSSIAN,prep-right-turn,W_S,>EQ  10-G,LOW  SPEED,PEDESTRIAN,  RL  >  2,acts-7,N,777,85,83.5835,0.03288100000000005
NASH|BR|GAUSSIAN,prep-right-turn,W_S,>EQ  10-G,LOW  SPEED,PEDESTRIAN,  RL  >  2,acts-7,N,777,85,84.5845,0
NASH|BR|GAUSSIAN,prep-right-turn,W_S,>EQ  10-G,LOW  SPEED,NO  PEDESTRIAN,RL  0,acts-1,Y,777,16,3.003,0.0005600000000000049
NASH|BR|GAUSSIAN,prep-right-turn,W_S,>EQ  10-G,LOW  SPEED,NO  PEDESTRIAN,RL  0,acts-1,Y,777,16,4.004,0.0006660000000000554
NASH|BR|GAUSSIAN,prep-right-turn,W_S,>EQ  10-G,LOW  SPEED,NO  PEDESTRIAN,RL  0,acts-1,Y,777,16,5.005,0
NASH|BR|GAUSSIAN,prep-right-turn,W_S,>EQ  10-G,LOW  SPEED,NO  PEDESTRIAN,RL  0,acts-1,Y,777,19,8.008,0.034062999999999954
NASH|BR|GAUSSIAN,prep-right-turn,W_S,>EQ  10-G,LOW  SPEED,NO  PEDESTRIAN,RL  0,acts-1,Y,777,69,60.894167,0
NASH|BR|GAUSSIAN,prep-right-turn,S_E,<10-Y/R,LOW  SPEED,PEDESTRIAN,  RL  <EQ  2,acts-7,Y,777,116,94.260833,0.0004750000000000032
NASH|BR|GAUSSIAN,prep-right-turn,S_E,<10-Y/R,LOW  SPEED,PEDESTRIAN,  RL  >  2,acts-7,N,777,116,93.259833,0
NASH|BR|GAUSSIAN,prep-right-turn,S_E,<10-G,LOW  SPEED,PEDESTRIAN,RL  0,acts-7,Y,777,173,169.335833,0
NASH|BR|GAUSSIAN,prep-right-turn,S_E,<10-G,LOW  SPEED,PEDESTRIAN,RL  0,acts-7,Y,777,173,170.336833,0.005899999999999905
NASH|BR|GAUSSIAN,prep-right-turn,S_E,>EQ  10-Y/R,LOW  SPEED,NO  PEDESTRIAN,RL  0,acts-1,Y,777,51,58.058,0.003553999999999946
NASH|BR|GAUSSIAN,prep-right-turn,S_E,>EQ  10-Y/R,LOW  SPEED,NO  PEDESTRIAN,RL  0,acts-1,Y,777,51,59.059,0.0008270000000000222
NASH|BR|GAUSSIAN,prep-right-turn,S_E,>EQ  10-Y/R,LOW  SPEED,NO  PEDESTRIAN,  RL  <EQ  2,acts-2,N,777,73,60.727333,0.0006730000000000347
NASH|BR|GAUSSIAN,prep-right-turn,S_E,>EQ  10-G,LOW  SPEED,PEDESTRIAN,RL  0,acts-7,N,777,164,153.820333,0.03705700000000001
NASH|BR|GAUSSIAN,prep-right-turn,S_E,>EQ  10-G,LOW  SPEED,PEDESTRIAN,RL  0,acts-7,N,777,164,154.821333,0.0017920000000000158
NASH|BR|GAUSSIAN,prep-right-turn,S_E,>EQ  10-G,LOW  SPEED,PEDESTRIAN,RL  0,acts-7,Y,777,164,155.822333,0.00015100000000001224
NASH|BR|GAUSSIAN,prep-right-turn,S_E,>EQ  10-G,LOW  SPEED,PEDESTRIAN,  RL  <EQ  2,acts-7,N,777,164,152.819333,0
NASH|BR|GAUSSIAN,prep-right-turn,S_E,>EQ  10-G,LOW  SPEED,PEDESTRIAN,  RL  >  2,acts-7,N,777,164,146.813333,0
NASH|BR|GAUSSIAN,prep-right-turn,S_E,>EQ  10-G,LOW  SPEED,PEDESTRIAN,  RL  >  2,acts-7,N,777,164,147.814333,0.004909000000000052
NASH|BR|GAUSSIAN,prep-right-turn,S_E,>EQ  10-G,LOW  SPEED,NO  PEDESTRIAN,  RL  <EQ  2,acts-1,Y,777,164,144.811333,0.018855999999999984
NASH|BR|GAUSSIAN,exec-right-turn,W_S,<10-Y/R,LOW  SPEED,NO  PEDESTRIAN,RL  0,acts-1,N,777,53,40.5405,0.00431400000000004
NASH|BR|GAUSSIAN,exec-right-turn,W_S,<10-Y/R,LOW  SPEED,NO  PEDESTRIAN,RL  0,acts-1,N,777,174,152.986167,0.0022330000000000405
NASH|BR|GAUSSIAN,exec-right-turn,W_S,<10-Y/R,LOW  SPEED,NO  PEDESTRIAN,  RL  <EQ  2,acts-1,N,777,59,44.377667,0.0023959999999999537
NASH|BR|GAUSSIAN,exec-right-turn,W_S,<10-G,LOW  SPEED,NO  PEDESTRIAN,  RL  <EQ  2,acts-1,N,777,19,14.014,0.31887400000000005
NASH|BR|GAUSSIAN,exec-right-turn,W_S,>EQ  10-Y/R,LOW  SPEED,PEDESTRIAN,RL  0,acts-1,Y,777,111,124.6245,6.899999999998574e-05
NASH|BR|GAUSSIAN,exec-right-turn,W_S,>EQ  10-Y/R,LOW  SPEED,PEDESTRIAN,RL  0,acts-1,Y,777,111,125.6255,0.001434999999999964
NASH|BR|GAUSSIAN,exec-right-turn,W_S,>EQ  10-Y/R,LOW  SPEED,PEDESTRIAN,RL  0,acts-5,N,777,127,127.6275,0.00016499999999997073
NASH|BR|GAUSSIAN,exec-right-turn,W_S,>EQ  10-Y/R,LOW  SPEED,NO  PEDESTRIAN,RL  0,acts-1,N,777,42,26.5265,0.007560999999999929
NASH|BR|GAUSSIAN,exec-right-turn,W_S,>EQ  10-Y/R,LOW  SPEED,NO  PEDESTRIAN,RL  0,acts-1,N,777,42,27.5275,0.0004569999999999297
NASH|BR|GAUSSIAN,exec-right-turn,W_S,>EQ  10-Y/R,LOW  SPEED,NO  PEDESTRIAN,RL  0,acts-1,N,777,47,34.200833,0.004666999999999977
NASH|BR|GAUSSIAN,exec-right-turn,W_S,>EQ  10-Y/R,LOW  SPEED,NO  PEDESTRIAN,RL  0,acts-1,N,777,47,35.201833,0.00013199999999990997
NASH|BR|GAUSSIAN,exec-right-turn,W_S,>EQ  10-G,LOW  SPEED,PEDESTRIAN,RL  0,acts-1,Y,777,99,105.105,0.0011579999999999924
NASH|BR|GAUSSIAN,exec-right-turn,W_S,>EQ  10-G,LOW  SPEED,PEDESTRIAN,RL  0,acts-1,Y,777,99,106.106,0.00119899999999995
NASH|BR|GAUSSIAN,exec-right-turn,W_S,>EQ  10-G,LOW  SPEED,NO  PEDESTRIAN,RL  0,acts-1,Y,777,11,0,0
NASH|BR|GAUSSIAN,exec-right-turn,W_S,>EQ  10-G,LOW  SPEED,NO  PEDESTRIAN,RL  0,acts-1,Y,777,11,1.001,0
NASH|BR|GAUSSIAN,exec-right-turn,W_S,>EQ  10-G,LOW  SPEED,NO  PEDESTRIAN,RL  0,acts-1,Y,777,16,6.006,0.0031090000000000284
NASH|BR|GAUSSIAN,exec-right-turn,W_S,>EQ  10-G,LOW  SPEED,NO  PEDESTRIAN,RL  0,acts-1,N,777,16,7.007,0
NASH|BR|GAUSSIAN,exec-right-turn,W_S,>EQ  10-G,LOW  SPEED,NO  PEDESTRIAN,RL  0,acts-1,Y,777,69,61.895167,0
NASH|BR|GAUSSIAN,exec-right-turn,W_S,>EQ  10-G,LOW  SPEED,NO  PEDESTRIAN,RL  0,acts-1,Y,777,69,62.896167,0
NASH|BR|GAUSSIAN,exec-right-turn,S_E,<10-Y/R,LOW  SPEED,PEDESTRIAN,  RL  <EQ  2,acts-1,Y,777,116,95.261833,0.015731999999999968
NASH|BR|GAUSSIAN,exec-right-turn,S_E,<10-Y/R,MEDIUM  SPEED,PEDESTRIAN,RL  0,acts-1,Y,777,116,96.262833,0.0004549999999999832
NASH|BR|GAUSSIAN,exec-right-turn,S_E,<10-Y/R,MEDIUM  SPEED,NO  PEDESTRIAN,RL  0,acts-1,Y,777,27,5.839167,0
NASH|BR|GAUSSIAN,exec-right-turn,S_E,>EQ  10-Y/R,LOW  SPEED,NO  PEDESTRIAN,RL  0,acts-1,Y,777,51,60.06,0
NASH|BR|GAUSSIAN,exec-right-turn,S_E,>EQ  10-Y/R,LOW  SPEED,NO  PEDESTRIAN,RL  0,acts-1,Y,777,51,61.061,0.00030200000000002447
NASH|BR|GAUSSIAN,exec-right-turn,S_E,>EQ  10-Y/R,LOW  SPEED,NO  PEDESTRIAN,RL  0,acts-1,Y,777,106,87.5875,0
NASH|BR|GAUSSIAN,exec-right-turn,S_E,>EQ  10-G,LOW  SPEED,PEDESTRIAN,RL  0,acts-1,Y,777,164,158.825333,0
NASH|BR|GAUSSIAN,exec-right-turn,S_E,>EQ  10-G,LOW  SPEED,PEDESTRIAN,RL  0,acts-1,Y,777,164,159.826333,0
