EQ_TYPE,SEGMENT,TASK,NEXT_CHANGE,SPEED,PEDESTRIAN,RELEV_VEHICLE,ACTIONS,AGGRESSIVE,FILE_ID,TRACK_ID,TIME,ON_EQ
L1MAXMIN|MAXMIN|BOUNDARY,prep-left-turn,S_W,<10-Y/R,LOW  SPEED,NO  PEDESTRIAN,RL  0,acts-1,N,783,19,6.339667,0.07364199999999999
L1MAXMIN|MAXMIN|BOUNDARY,prep-left-turn,S_W,<10-Y/R,MEDIUM  SPEED,PEDESTRIAN,RL  0,acts-2,Y,783,120,106.940167,0.08537500000000009
L1MAXMIN|MAXMIN|BOUNDARY,prep-left-turn,S_W,<10-Y/R,MEDIUM  SPEED,PEDESTRIAN,RL  0,acts-2,Y,783,120,106.940167,0.08537500000000009
L1MAXMIN|MAXMIN|BOUNDARY,prep-left-turn,S_W,>EQ  10-Y/R,LOW  SPEED,PEDESTRIAN,  RL  <EQ  2,acts-2,Y,783,98,92.258833,0
L1MAXMIN|MAXMIN|BOUNDARY,prep-left-turn,S_W,>EQ  10-Y/R,LOW  SPEED,PEDESTRIAN,  RL  <EQ  2,acts-2,Y,783,98,92.258833,0.11609399999999992
L1MAXMIN|MAXMIN|BOUNDARY,prep-left-turn,S_W,>EQ  10-Y/R,LOW  SPEED,PEDESTRIAN,  RL  >  2,acts-2,Y,783,98,91.257833,0.37128700000000003
L1MAXMIN|MAXMIN|BOUNDARY,prep-left-turn,S_W,>EQ  10-Y/R,LOW  SPEED,PEDESTRIAN,  RL  >  2,acts-2,Y,783,98,91.257833,0.386587
L1MAXMIN|MAXMIN|BOUNDARY,prep-left-turn,S_W,>EQ  10-Y/R,LOW  SPEED,PEDESTRIAN,  RL  >  2,acts-2,N,783,98,93.259833,0.025977999999999946
L1MAXMIN|MAXMIN|BOUNDARY,prep-left-turn,S_W,>EQ  10-Y/R,LOW  SPEED,PEDESTRIAN,  RL  >  2,acts-2,N,783,98,93.259833,0.025667999999999913
L1MAXMIN|MAXMIN|BOUNDARY,prep-left-turn,N_E,<10-Y/R,LOW  SPEED,NO  PEDESTRIAN,RL  0,acts-1,Y,783,119,104.938167,0.08334300000000006
L1MAXMIN|MAXMIN|BOUNDARY,prep-left-turn,N_E,<10-Y/R,LOW  SPEED,NO  PEDESTRIAN,RL  0,acts-1,Y,783,119,105.939167,0.07640999999999998
L1MAXMIN|MAXMIN|BOUNDARY,prep-left-turn,N_E,>EQ  10-Y/R,LOW  SPEED,PEDESTRIAN,RL  0,acts-2,Y,783,54,62.896167,0
L1MAXMIN|MAXMIN|BOUNDARY,prep-left-turn,N_E,>EQ  10-Y/R,LOW  SPEED,PEDESTRIAN,RL  0,acts-2,N,783,54,63.897167,0
L1MAXMIN|MAXMIN|BOUNDARY,prep-left-turn,N_E,>EQ  10-Y/R,LOW  SPEED,PEDESTRIAN,RL  0,acts-2,N,783,90,84.918167,0.07532699999999992
L1MAXMIN|MAXMIN|BOUNDARY,prep-left-turn,N_E,>EQ  10-Y/R,LOW  SPEED,PEDESTRIAN,RL  0,acts-2,N,783,90,84.918167,0.07532699999999992
L1MAXMIN|MAXMIN|BOUNDARY,prep-left-turn,N_E,>EQ  10-Y/R,LOW  SPEED,PEDESTRIAN,RL  0,acts-2,Y,783,90,85.919167,0.081789
L1MAXMIN|MAXMIN|BOUNDARY,prep-left-turn,N_E,>EQ  10-Y/R,LOW  SPEED,PEDESTRIAN,RL  0,acts-2,Y,783,90,85.919167,0.081789
L1MAXMIN|MAXMIN|BOUNDARY,prep-left-turn,N_E,>EQ  10-Y/R,LOW  SPEED,PEDESTRIAN,RL  0,acts-2,N,783,90,86.920167,0
L1MAXMIN|MAXMIN|BOUNDARY,prep-left-turn,N_E,>EQ  10-Y/R,LOW  SPEED,PEDESTRIAN,RL  0,acts-2,Y,783,90,87.921167,0
L1MAXMIN|MAXMIN|BOUNDARY,prep-left-turn,N_E,>EQ  10-Y/R,LOW  SPEED,PEDESTRIAN,RL  0,acts-2,N,783,90,88.922167,0.0004030000000000422
L1MAXMIN|MAXMIN|BOUNDARY,prep-left-turn,W_N,<10-Y/R,LOW  SPEED,NO  PEDESTRIAN,  RL  >  2,acts-1,N,783,93,143.810333,0.097273
L1MAXMIN|MAXMIN|BOUNDARY,prep-left-turn,W_N,<10-Y/R,LOW  SPEED,NO  PEDESTRIAN,  RL  >  2,acts-1,Y,783,93,144.811333,0
L1MAXMIN|MAXMIN|BOUNDARY,prep-left-turn,W_N,<10-Y/R,LOW  SPEED,NO  PEDESTRIAN,  RL  >  2,acts-1,Y,783,93,145.812333,0
L1MAXMIN|MAXMIN|BOUNDARY,prep-left-turn,W_N,<10-Y/R,LOW  SPEED,NO  PEDESTRIAN,  RL  >  2,acts-1,Y,783,93,146.813333,0
L1MAXMIN|MAXMIN|BOUNDARY,prep-left-turn,W_N,<10-Y/R,LOW  SPEED,NO  PEDESTRIAN,  RL  >  2,acts-1,Y,783,129,151.151,0.14631
L1MAXMIN|MAXMIN|BOUNDARY,prep-left-turn,W_N,<10-Y/R,LOW  SPEED,NO  PEDESTRIAN,  RL  >  2,acts-1,N,783,129,152.152,0.06511299999999998
L1MAXMIN|MAXMIN|BOUNDARY,prep-left-turn,W_N,<10-Y/R,LOW  SPEED,NO  PEDESTRIAN,  RL  >  2,acts-3,Y,783,129,149.149,0.0021079999999999988
L1MAXMIN|MAXMIN|BOUNDARY,prep-left-turn,W_N,<10-Y/R,LOW  SPEED,NO  PEDESTRIAN,  RL  >  2,acts-3,Y,783,129,150.15,0.0018569999999999975
L1MAXMIN|MAXMIN|BOUNDARY,prep-left-turn,W_N,>EQ  10-Y/R,LOW  SPEED,PEDESTRIAN,RL  0,acts-2,Y,783,56,117.951167,0.005892000000000008
L1MAXMIN|MAXMIN|BOUNDARY,prep-left-turn,W_N,>EQ  10-Y/R,LOW  SPEED,PEDESTRIAN,  RL  >  2,acts-2,N,783,93,129.796333,0.01678099999999999
L1MAXMIN|MAXMIN|BOUNDARY,prep-left-turn,W_N,>EQ  10-Y/R,LOW  SPEED,PEDESTRIAN,  RL  >  2,acts-2,N,783,93,129.796333,0.007114000000000009
L1MAXMIN|MAXMIN|BOUNDARY,prep-left-turn,W_N,>EQ  10-Y/R,LOW  SPEED,PEDESTRIAN,  RL  >  2,acts-2,N,783,93,130.797333,0.119948
L1MAXMIN|MAXMIN|BOUNDARY,prep-left-turn,W_N,>EQ  10-Y/R,LOW  SPEED,PEDESTRIAN,  RL  >  2,acts-2,N,783,93,130.797333,0.125228
L1MAXMIN|MAXMIN|BOUNDARY,prep-left-turn,W_N,>EQ  10-Y/R,LOW  SPEED,PEDESTRIAN,  RL  >  2,acts-2,N,783,93,131.798333,0.022977000000000025
L1MAXMIN|MAXMIN|BOUNDARY,prep-left-turn,W_N,>EQ  10-Y/R,LOW  SPEED,PEDESTRIAN,  RL  >  2,acts-2,N,783,93,131.798333,0.022977000000000025
L1MAXMIN|MAXMIN|BOUNDARY,prep-left-turn,W_N,>EQ  10-Y/R,LOW  SPEED,PEDESTRIAN,  RL  >  2,acts-2,N,783,93,132.799333,0.06725300000000001
L1MAXMIN|MAXMIN|BOUNDARY,prep-left-turn,W_N,>EQ  10-Y/R,LOW  SPEED,PEDESTRIAN,  RL  >  2,acts-2,N,783,93,132.799333,0.06725300000000001
L1MAXMIN|MAXMIN|BOUNDARY,prep-left-turn,W_N,>EQ  10-Y/R,LOW  SPEED,PEDESTRIAN,  RL  >  2,acts-2,N,783,93,133.800333,0.030622000000000038
L1MAXMIN|MAXMIN|BOUNDARY,prep-left-turn,W_N,>EQ  10-Y/R,LOW  SPEED,PEDESTRIAN,  RL  >  2,acts-2,N,783,93,133.800333,0.029037000000000035
L1MAXMIN|MAXMIN|BOUNDARY,prep-left-turn,W_N,>EQ  10-Y/R,LOW  SPEED,PEDESTRIAN,  RL  >  2,acts-2,N,783,93,134.801333,0.03425400000000001
L1MAXMIN|MAXMIN|BOUNDARY,prep-left-turn,W_N,>EQ  10-Y/R,LOW  SPEED,PEDESTRIAN,  RL  >  2,acts-2,N,783,93,134.801333,0.029981000000000035
L1MAXMIN|MAXMIN|BOUNDARY,prep-left-turn,W_N,>EQ  10-Y/R,LOW  SPEED,PEDESTRIAN,  RL  >  2,acts-2,N,783,93,135.802333,0.02929200000000004
L1MAXMIN|MAXMIN|BOUNDARY,prep-left-turn,W_N,>EQ  10-Y/R,LOW  SPEED,PEDESTRIAN,  RL  >  2,acts-2,N,783,93,135.802333,0.03388600000000003
L1MAXMIN|MAXMIN|BOUNDARY,prep-left-turn,W_N,>EQ  10-Y/R,LOW  SPEED,PEDESTRIAN,  RL  >  2,acts-2,N,783,93,136.803333,0.028697000000000028
L1MAXMIN|MAXMIN|BOUNDARY,prep-left-turn,W_N,>EQ  10-Y/R,LOW  SPEED,PEDESTRIAN,  RL  >  2,acts-2,N,783,93,136.803333,0.028697000000000028
L1MAXMIN|MAXMIN|BOUNDARY,prep-left-turn,W_N,>EQ  10-Y/R,LOW  SPEED,PEDESTRIAN,  RL  >  2,acts-2,N,783,93,137.804333,0.03631699999999999
L1MAXMIN|MAXMIN|BOUNDARY,prep-left-turn,W_N,>EQ  10-Y/R,LOW  SPEED,PEDESTRIAN,  RL  >  2,acts-2,N,783,93,137.804333,0.03631699999999999
L1MAXMIN|MAXMIN|BOUNDARY,prep-left-turn,W_N,>EQ  10-Y/R,LOW  SPEED,PEDESTRIAN,  RL  >  2,acts-2,N,783,93,138.805333,0.366992
L1MAXMIN|MAXMIN|BOUNDARY,prep-left-turn,W_N,>EQ  10-Y/R,LOW  SPEED,PEDESTRIAN,  RL  >  2,acts-2,N,783,93,138.805333,0.368012
L1MAXMIN|MAXMIN|BOUNDARY,prep-left-turn,W_N,>EQ  10-Y/R,LOW  SPEED,PEDESTRIAN,  RL  >  2,acts-2,N,783,93,139.806333,0.05063099999999998
L1MAXMIN|MAXMIN|BOUNDARY,prep-left-turn,W_N,>EQ  10-Y/R,LOW  SPEED,PEDESTRIAN,  RL  >  2,acts-2,N,783,93,139.806333,0.05063099999999998
L1MAXMIN|MAXMIN|BOUNDARY,prep-left-turn,W_N,>EQ  10-Y/R,LOW  SPEED,NO  PEDESTRIAN,RL  0,acts-1,Y,783,13,17.017,0
L1MAXMIN|MAXMIN|BOUNDARY,prep-left-turn,W_N,>EQ  10-Y/R,LOW  SPEED,NO  PEDESTRIAN,  RL  >  2,acts-1,N,783,93,140.807333,0.017064000000000024
L1MAXMIN|MAXMIN|BOUNDARY,prep-left-turn,W_N,>EQ  10-Y/R,LOW  SPEED,NO  PEDESTRIAN,  RL  >  2,acts-1,N,783,93,141.808333,0.10291599999999995
L1MAXMIN|MAXMIN|BOUNDARY,prep-left-turn,W_N,>EQ  10-Y/R,LOW  SPEED,NO  PEDESTRIAN,  RL  >  2,acts-1,N,783,93,142.809333,0
L1MAXMIN|MAXMIN|BOUNDARY,prep-left-turn,E_S,<10-Y/R,LOW  SPEED,NO  PEDESTRIAN,  RL  <EQ  2,acts-3,N,783,20,43.043,0.0008809999999999651
L1MAXMIN|MAXMIN|BOUNDARY,prep-left-turn,E_S,<10-Y/R,LOW  SPEED,NO  PEDESTRIAN,  RL  <EQ  2,acts-3,N,783,20,44.044,0
L1MAXMIN|MAXMIN|BOUNDARY,prep-left-turn,E_S,>EQ  10-Y/R,LOW  SPEED,NO  PEDESTRIAN,RL  0,acts-1,Y,783,102,117.283833,0.0014520000000000088
L1MAXMIN|MAXMIN|BOUNDARY,prep-left-turn,E_S,>EQ  10-Y/R,LOW  SPEED,NO  PEDESTRIAN,RL  0,acts-1,Y,783,102,118.284833,0.0008409999999999807
L1MAXMIN|MAXMIN|BOUNDARY,prep-left-turn,E_S,>EQ  10-Y/R,LOW  SPEED,NO  PEDESTRIAN,  RL  <EQ  2,acts-3,Y,783,20,42.042,0.01517799999999997
L1MAXMIN|MAXMIN|BOUNDARY,prep-left-turn,E_S,>EQ  10-Y/R,LOW  SPEED,NO  PEDESTRIAN,  RL  >  2,acts-1,N,783,4,28.028,0.03907100000000002
L1MAXMIN|MAXMIN|BOUNDARY,prep-left-turn,E_S,>EQ  10-Y/R,LOW  SPEED,NO  PEDESTRIAN,  RL  >  2,acts-1,Y,783,4,29.029,0.025605000000000044
L1MAXMIN|MAXMIN|BOUNDARY,prep-left-turn,E_S,>EQ  10-Y/R,LOW  SPEED,NO  PEDESTRIAN,  RL  >  2,acts-1,N,783,4,30.03,0.03057399999999999
L1MAXMIN|MAXMIN|BOUNDARY,prep-left-turn,E_S,>EQ  10-Y/R,LOW  SPEED,NO  PEDESTRIAN,  RL  >  2,acts-1,N,783,4,31.031,0.06952000000000003
L1MAXMIN|MAXMIN|BOUNDARY,prep-left-turn,E_S,>EQ  10-Y/R,LOW  SPEED,NO  PEDESTRIAN,  RL  >  2,acts-1,N,783,4,32.032,0.015759999999999996
L1MAXMIN|MAXMIN|BOUNDARY,prep-left-turn,E_S,>EQ  10-Y/R,LOW  SPEED,NO  PEDESTRIAN,  RL  >  2,acts-3,N,783,20,40.04,0
L1MAXMIN|MAXMIN|BOUNDARY,prep-left-turn,E_S,>EQ  10-Y/R,LOW  SPEED,NO  PEDESTRIAN,  RL  >  2,acts-3,N,783,20,41.041,0.010934
L1MAXMIN|MAXMIN|BOUNDARY,exec-left-turn,S_W,<10-Y/R,LOW  SPEED,PEDESTRIAN,RL  0,acts-2,Y,783,114,103.937167,0
L1MAXMIN|MAXMIN|BOUNDARY,exec-left-turn,S_W,<10-Y/R,LOW  SPEED,PEDESTRIAN,RL  0,acts-2,Y,783,114,104.938167,0.00018300000000004424
L1MAXMIN|MAXMIN|BOUNDARY,exec-left-turn,S_W,<10-Y/R,LOW  SPEED,NO  PEDESTRIAN,RL  0,acts-4,N,783,19,7.340667,0
L1MAXMIN|MAXMIN|BOUNDARY,exec-left-turn,S_W,<10-Y/R,LOW  SPEED,NO  PEDESTRIAN,RL  0,acts-4,Y,783,19,8.341667,0
L1MAXMIN|MAXMIN|BOUNDARY,exec-left-turn,S_W,<10-Y/R,LOW  SPEED,NO  PEDESTRIAN,RL  0,acts-4,Y,783,19,9.342667,0
L1MAXMIN|MAXMIN|BOUNDARY,exec-left-turn,S_W,<10-Y/R,LOW  SPEED,NO  PEDESTRIAN,RL  0,acts-1,Y,783,98,98.264833,0.0019730000000000025
L1MAXMIN|MAXMIN|BOUNDARY,exec-left-turn,S_W,<10-Y/R,MEDIUM  SPEED,PEDESTRIAN,RL  0,acts-2,Y,783,114,105.939167,0.0006749999999999812
L1MAXMIN|MAXMIN|BOUNDARY,exec-left-turn,S_W,<10-Y/R,MEDIUM  SPEED,NO  PEDESTRIAN,RL  0,acts-4,Y,783,19,10.343667,0.003197999999999923
L1MAXMIN|MAXMIN|BOUNDARY,exec-left-turn,S_W,<10-Y/R,MEDIUM  SPEED,NO  PEDESTRIAN,RL  0,acts-1,Y,783,98,99.265833,0.0005209999999999937
L1MAXMIN|MAXMIN|BOUNDARY,exec-left-turn,N_E,<10-Y/R,LOW  SPEED,NO  PEDESTRIAN,RL  0,acts-1,Y,783,2,0,0.004445000000000032
L1MAXMIN|MAXMIN|BOUNDARY,exec-left-turn,N_E,<10-Y/R,LOW  SPEED,NO  PEDESTRIAN,RL  0,acts-1,Y,783,2,1.001,0.0003309999999999702
L1MAXMIN|MAXMIN|BOUNDARY,exec-left-turn,N_E,<10-Y/R,LOW  SPEED,NO  PEDESTRIAN,RL  0,acts-1,Y,783,2,2.002,0.004498000000000002
L1MAXMIN|MAXMIN|BOUNDARY,exec-left-turn,N_E,<10-Y/R,LOW  SPEED,NO  PEDESTRIAN,RL  0,acts-1,Y,783,2,3.003,0.0010670000000000401
L1MAXMIN|MAXMIN|BOUNDARY,exec-left-turn,N_E,<10-Y/R,LOW  SPEED,NO  PEDESTRIAN,RL  0,acts-1,Y,783,2,4.004,0
L1MAXMIN|MAXMIN|BOUNDARY,exec-left-turn,N_E,<10-Y/R,LOW  SPEED,NO  PEDESTRIAN,RL  0,acts-1,N,783,2,5.005,0.05999600000000005
L1MAXMIN|MAXMIN|BOUNDARY,exec-left-turn,N_E,<10-Y/R,LOW  SPEED,NO  PEDESTRIAN,RL  0,acts-1,Y,783,119,106.940167,0.0002540000000000875
L1MAXMIN|MAXMIN|BOUNDARY,exec-left-turn,N_E,<10-Y/R,LOW  SPEED,NO  PEDESTRIAN,RL  0,acts-4,Y,783,119,107.941167,0
L1MAXMIN|MAXMIN|BOUNDARY,exec-left-turn,N_E,<10-Y/R,LOW  SPEED,NO  PEDESTRIAN,RL  0,acts-4,Y,783,119,108.942167,0
L1MAXMIN|MAXMIN|BOUNDARY,exec-left-turn,N_E,<10-Y/R,LOW  SPEED,NO  PEDESTRIAN,RL  0,acts-4,Y,783,119,109.943167,0
L1MAXMIN|MAXMIN|BOUNDARY,exec-left-turn,N_E,<10-Y/R,LOW  SPEED,NO  PEDESTRIAN,RL  0,acts-4,Y,783,119,110.944167,0.00043999999999999595
L1MAXMIN|MAXMIN|BOUNDARY,exec-left-turn,N_E,<10-Y/R,MEDIUM  SPEED,NO  PEDESTRIAN,RL  0,acts-4,Y,783,119,111.945167,0.0009719999999999729
L1MAXMIN|MAXMIN|BOUNDARY,exec-left-turn,N_E,>EQ  10-Y/R,LOW  SPEED,PEDESTRIAN,RL  0,acts-2,N,783,54,64.898167,0
L1MAXMIN|MAXMIN|BOUNDARY,exec-left-turn,N_E,>EQ  10-Y/R,LOW  SPEED,PEDESTRIAN,RL  0,acts-2,N,783,54,65.899167,0
L1MAXMIN|MAXMIN|BOUNDARY,exec-left-turn,N_E,>EQ  10-Y/R,LOW  SPEED,PEDESTRIAN,RL  0,acts-2,N,783,54,66.900167,0.0032679999999999376
L1MAXMIN|MAXMIN|BOUNDARY,exec-left-turn,N_E,>EQ  10-Y/R,LOW  SPEED,PEDESTRIAN,RL  0,acts-2,Y,783,54,67.901167,0.0011270000000001001
L1MAXMIN|MAXMIN|BOUNDARY,exec-left-turn,N_E,>EQ  10-Y/R,LOW  SPEED,PEDESTRIAN,RL  0,acts-2,Y,783,90,89.923167,0
L1MAXMIN|MAXMIN|BOUNDARY,exec-left-turn,N_E,>EQ  10-Y/R,LOW  SPEED,PEDESTRIAN,RL  0,acts-2,Y,783,90,90.924167,0.00636800000000004
L1MAXMIN|MAXMIN|BOUNDARY,exec-left-turn,N_E,>EQ  10-Y/R,LOW  SPEED,NO  PEDESTRIAN,RL  0,acts-1,Y,783,90,91.925167,0
L1MAXMIN|MAXMIN|BOUNDARY,exec-left-turn,N_E,>EQ  10-Y/R,LOW  SPEED,NO  PEDESTRIAN,RL  0,acts-1,Y,783,90,92.926167,0.0025260000000000282
L1MAXMIN|MAXMIN|BOUNDARY,exec-left-turn,N_E,>EQ  10-Y/R,MEDIUM  SPEED,PEDESTRIAN,RL  0,acts-2,Y,783,54,68.902167,0.0007719999999999949
L1MAXMIN|MAXMIN|BOUNDARY,exec-left-turn,N_E,>EQ  10-Y/R,MEDIUM  SPEED,PEDESTRIAN,RL  0,acts-2,Y,783,78,77.077,0.00032399999999999096
L1MAXMIN|MAXMIN|BOUNDARY,exec-left-turn,N_E,>EQ  10-Y/R,MEDIUM  SPEED,NO  PEDESTRIAN,RL  0,acts-1,Y,783,90,93.927167,0
L1MAXMIN|MAXMIN|BOUNDARY,exec-left-turn,N_E,>EQ  10-Y/R,MEDIUM  SPEED,NO  PEDESTRIAN,RL  0,acts-1,Y,783,90,94.928167,0.004579
L1MAXMIN|MAXMIN|BOUNDARY,exec-left-turn,W_N,<10-Y/R,LOW  SPEED,NO  PEDESTRIAN,RL  0,acts-4,Y,783,129,157.157,0.0005680000000000129
L1MAXMIN|MAXMIN|BOUNDARY,exec-left-turn,W_N,<10-Y/R,LOW  SPEED,NO  PEDESTRIAN,RL  0,acts-4,Y,783,129,158.158,0
L1MAXMIN|MAXMIN|BOUNDARY,exec-left-turn,W_N,<10-Y/R,LOW  SPEED,NO  PEDESTRIAN,  RL  <EQ  2,acts-1,Y,783,93,147.814333,0
L1MAXMIN|MAXMIN|BOUNDARY,exec-left-turn,W_N,<10-Y/R,LOW  SPEED,NO  PEDESTRIAN,  RL  <EQ  2,acts-4,Y,783,129,155.155,0
L1MAXMIN|MAXMIN|BOUNDARY,exec-left-turn,W_N,<10-Y/R,LOW  SPEED,NO  PEDESTRIAN,  RL  >  2,acts-1,Y,783,93,148.815333,0
L1MAXMIN|MAXMIN|BOUNDARY,exec-left-turn,W_N,<10-Y/R,MEDIUM  SPEED,NO  PEDESTRIAN,RL  0,acts-1,N,783,93,149.816333,0.014149999999999996
L1MAXMIN|MAXMIN|BOUNDARY,exec-left-turn,W_N,<10-Y/R,MEDIUM  SPEED,NO  PEDESTRIAN,RL  0,acts-4,N,783,129,159.159,0.0004650000000000487
L1MAXMIN|MAXMIN|BOUNDARY,exec-left-turn,W_N,>EQ  10-Y/R,LOW  SPEED,PEDESTRIAN,RL  0,acts-2,Y,783,13,18.018,0
L1MAXMIN|MAXMIN|BOUNDARY,exec-left-turn,W_N,>EQ  10-Y/R,LOW  SPEED,PEDESTRIAN,RL  0,acts-2,Y,783,13,19.019,8.099999999999774e-05
L1MAXMIN|MAXMIN|BOUNDARY,exec-left-turn,W_N,>EQ  10-Y/R,LOW  SPEED,PEDESTRIAN,RL  0,acts-2,Y,783,56,118.952167,0
L1MAXMIN|MAXMIN|BOUNDARY,exec-left-turn,W_N,>EQ  10-Y/R,LOW  SPEED,PEDESTRIAN,RL  0,acts-2,Y,783,56,119.953167,0.0003349999999999742
L1MAXMIN|MAXMIN|BOUNDARY,exec-left-turn,W_N,>EQ  10-Y/R,LOW  SPEED,PEDESTRIAN,RL  0,acts-2,Y,783,56,120.954167,0
L1MAXMIN|MAXMIN|BOUNDARY,exec-left-turn,W_N,>EQ  10-Y/R,LOW  SPEED,PEDESTRIAN,RL  0,acts-2,Y,783,80,122.956167,0.00034000000000000696
L1MAXMIN|MAXMIN|BOUNDARY,exec-left-turn,W_N,>EQ  10-Y/R,MEDIUM  SPEED,PEDESTRIAN,RL  0,acts-2,Y,783,13,20.02,0.015337000000000045
L1MAXMIN|MAXMIN|BOUNDARY,exec-left-turn,W_N,>EQ  10-Y/R,MEDIUM  SPEED,PEDESTRIAN,RL  0,acts-2,Y,783,13,20.02,0.015337000000000045
L1MAXMIN|MAXMIN|BOUNDARY,exec-left-turn,W_N,>EQ  10-Y/R,MEDIUM  SPEED,PEDESTRIAN,RL  0,acts-2,Y,783,80,123.957167,0.016275999999999957
L1MAXMIN|MAXMIN|BOUNDARY,exec-left-turn,W_N,>EQ  10-Y/R,MEDIUM  SPEED,PEDESTRIAN,RL  0,acts-2,Y,783,80,123.957167,0.016275999999999957
L1MAXMIN|MAXMIN|BOUNDARY,exec-left-turn,W_N,>EQ  10-Y/R,MEDIUM  SPEED,PEDESTRIAN,RL  0,acts-2,N,783,83,125.125,0.01806399999999997
L1MAXMIN|MAXMIN|BOUNDARY,exec-left-turn,W_N,>EQ  10-Y/R,MEDIUM  SPEED,PEDESTRIAN,RL  0,acts-2,N,783,83,125.125,0.01806399999999997
L1MAXMIN|MAXMIN|BOUNDARY,exec-left-turn,E_S,<10-Y/R,LOW  SPEED,NO  PEDESTRIAN,RL  0,acts-1,N,783,20,48.048,0.0014679999999999138
L1MAXMIN|MAXMIN|BOUNDARY,exec-left-turn,E_S,<10-Y/R,LOW  SPEED,NO  PEDESTRIAN,RL  0,acts-1,N,783,20,49.049,0.016858999999999957
L1MAXMIN|MAXMIN|BOUNDARY,exec-left-turn,E_S,<10-Y/R,LOW  SPEED,NO  PEDESTRIAN,RL  0,acts-1,Y,783,20,50.05,0.0005450000000000177
L1MAXMIN|MAXMIN|BOUNDARY,exec-left-turn,E_S,<10-Y/R,LOW  SPEED,NO  PEDESTRIAN,RL  0,acts-1,Y,783,20,51.051,0
L1MAXMIN|MAXMIN|BOUNDARY,exec-left-turn,E_S,<10-Y/R,LOW  SPEED,NO  PEDESTRIAN,RL  0,acts-1,Y,783,20,52.052,0
L1MAXMIN|MAXMIN|BOUNDARY,exec-left-turn,E_S,<10-Y/R,LOW  SPEED,NO  PEDESTRIAN,RL  0,acts-4,Y,783,20,53.053,0.0003630000000000022
L1MAXMIN|MAXMIN|BOUNDARY,exec-left-turn,E_S,<10-Y/R,LOW  SPEED,NO  PEDESTRIAN,RL  0,acts-4,Y,783,20,54.054,0.0004890000000000727
L1MAXMIN|MAXMIN|BOUNDARY,exec-left-turn,E_S,<10-Y/R,LOW  SPEED,NO  PEDESTRIAN,RL  0,acts-4,Y,783,48,57.057,0
L1MAXMIN|MAXMIN|BOUNDARY,exec-left-turn,E_S,<10-Y/R,MEDIUM  SPEED,NO  PEDESTRIAN,RL  0,acts-4,N,783,20,55.055,0.0007270000000000332
L1MAXMIN|MAXMIN|BOUNDARY,exec-left-turn,E_S,<10-Y/R,MEDIUM  SPEED,NO  PEDESTRIAN,RL  0,acts-4,Y,783,48,58.058,0
L1MAXMIN|MAXMIN|BOUNDARY,exec-left-turn,E_S,>EQ  10-Y/R,LOW  SPEED,NO  PEDESTRIAN,RL  0,acts-1,Y,783,102,119.285833,7.500000000004725e-05
L1MAXMIN|MAXMIN|BOUNDARY,exec-left-turn,E_S,>EQ  10-Y/R,LOW  SPEED,NO  PEDESTRIAN,RL  0,acts-1,Y,783,112,123.123,0
L1MAXMIN|MAXMIN|BOUNDARY,exec-left-turn,E_S,>EQ  10-Y/R,LOW  SPEED,NO  PEDESTRIAN,  RL  <EQ  2,acts-1,N,783,4,38.038,0.07653699999999997
L1MAXMIN|MAXMIN|BOUNDARY,exec-left-turn,E_S,>EQ  10-Y/R,LOW  SPEED,NO  PEDESTRIAN,  RL  <EQ  2,acts-1,Y,783,4,40.04,0
L1MAXMIN|MAXMIN|BOUNDARY,exec-left-turn,E_S,>EQ  10-Y/R,LOW  SPEED,NO  PEDESTRIAN,  RL  <EQ  2,acts-1,Y,783,4,41.041,0
L1MAXMIN|MAXMIN|BOUNDARY,exec-left-turn,E_S,>EQ  10-Y/R,LOW  SPEED,NO  PEDESTRIAN,  RL  >  2,acts-1,Y,783,4,33.033,0.04933599999999999
L1MAXMIN|MAXMIN|BOUNDARY,exec-left-turn,E_S,>EQ  10-Y/R,LOW  SPEED,NO  PEDESTRIAN,  RL  >  2,acts-1,N,783,4,34.034,0.06932099999999997
L1MAXMIN|MAXMIN|BOUNDARY,exec-left-turn,E_S,>EQ  10-Y/R,LOW  SPEED,NO  PEDESTRIAN,  RL  >  2,acts-1,N,783,4,35.035,0.129538
L1MAXMIN|MAXMIN|BOUNDARY,exec-left-turn,E_S,>EQ  10-Y/R,LOW  SPEED,NO  PEDESTRIAN,  RL  >  2,acts-1,N,783,4,36.036,0.03078499999999995
L1MAXMIN|MAXMIN|BOUNDARY,exec-left-turn,E_S,>EQ  10-Y/R,LOW  SPEED,NO  PEDESTRIAN,  RL  >  2,acts-1,Y,783,4,37.037,0
L1MAXMIN|MAXMIN|BOUNDARY,exec-left-turn,E_S,>EQ  10-Y/R,MEDIUM  SPEED,NO  PEDESTRIAN,RL  0,acts-1,Y,783,102,120.286833,0.0007810000000000317
L1MAXMIN|MAXMIN|BOUNDARY,exec-left-turn,E_S,>EQ  10-Y/R,MEDIUM  SPEED,NO  PEDESTRIAN,RL  0,acts-1,Y,783,102,121.287833,0
L1MAXMIN|MAXMIN|BOUNDARY,exec-left-turn,E_S,>EQ  10-Y/R,MEDIUM  SPEED,NO  PEDESTRIAN,RL  0,acts-1,N,783,112,124.124,0.005566000000000071
L1MAXMIN|MAXMIN|BOUNDARY,OTHER  LANES,W_S,<10-Y/R,LOW  SPEED,NO  PEDESTRIAN,RL  0,acts-7,Y,783,146,144.310833,0.04546899999999998
L1MAXMIN|MAXMIN|BOUNDARY,OTHER  LANES,W_S,<10-Y/R,LOW  SPEED,NO  PEDESTRIAN,RL  0,acts-7,N,783,146,145.311833,0.03987700000000005
L1MAXMIN|MAXMIN|BOUNDARY,OTHER  LANES,W_S,<10-Y/R,LOW  SPEED,NO  PEDESTRIAN,  RL  <EQ  2,acts-7,Y,783,49,50.05,0
L1MAXMIN|MAXMIN|BOUNDARY,OTHER  LANES,W_S,<10-Y/R,LOW  SPEED,NO  PEDESTRIAN,  RL  <EQ  2,acts-7,N,783,49,51.051,0.030052999999999996
L1MAXMIN|MAXMIN|BOUNDARY,OTHER  LANES,W_S,<10-Y/R,MEDIUM  SPEED,NO  PEDESTRIAN,RL  0,acts-7,Y,783,146,143.309833,0.025965999999999934
L1MAXMIN|MAXMIN|BOUNDARY,OTHER  LANES,W_S,<10-Y/R,MEDIUM  SPEED,NO  PEDESTRIAN,  RL  <EQ  2,acts-7,N,783,49,48.048,0.0015759999999999108
L1MAXMIN|MAXMIN|BOUNDARY,OTHER  LANES,W_S,<10-Y/R,MEDIUM  SPEED,NO  PEDESTRIAN,  RL  <EQ  2,acts-7,Y,783,49,49.049,0.0
L1MAXMIN|MAXMIN|BOUNDARY,OTHER  LANES,W_S,>EQ  10-Y/R,LOW  SPEED,NO  PEDESTRIAN,RL  0,acts-7,N,783,130,127.961167,0.04054100000000005
L1MAXMIN|MAXMIN|BOUNDARY,OTHER  LANES,W_S,>EQ  10-Y/R,LOW  SPEED,NO  PEDESTRIAN,RL  0,acts-7,N,783,130,128.962167,0.006058000000000008
L1MAXMIN|MAXMIN|BOUNDARY,OTHER  LANES,W_S,>EQ  10-Y/R,LOW  SPEED,NO  PEDESTRIAN,RL  0,acts-7,N,783,130,129.963167,0
L1MAXMIN|MAXMIN|BOUNDARY,OTHER  LANES,W_S,>EQ  10-Y/R,LOW  SPEED,NO  PEDESTRIAN,RL  0,acts-7,Y,783,130,130.964167,0
L1MAXMIN|MAXMIN|BOUNDARY,OTHER  LANES,W_S,>EQ  10-Y/R,LOW  SPEED,NO  PEDESTRIAN,RL  0,acts-7,Y,783,132,133.466667,0
L1MAXMIN|MAXMIN|BOUNDARY,OTHER  LANES,W_S,>EQ  10-Y/R,LOW  SPEED,NO  PEDESTRIAN,  RL  <EQ  2,acts-7,Y,783,37,32.866167,0
L1MAXMIN|MAXMIN|BOUNDARY,OTHER  LANES,W_S,>EQ  10-Y/R,LOW  SPEED,NO  PEDESTRIAN,  RL  <EQ  2,acts-7,N,783,37,33.867167,0.025144999999999973
L1MAXMIN|MAXMIN|BOUNDARY,OTHER  LANES,W_S,>EQ  10-Y/R,MEDIUM  SPEED,NO  PEDESTRIAN,RL  0,acts-7,Y,783,146,141.307833,0.04557100000000003
L1MAXMIN|MAXMIN|BOUNDARY,OTHER  LANES,W_S,>EQ  10-Y/R,MEDIUM  SPEED,NO  PEDESTRIAN,RL  0,acts-7,Y,783,146,142.308833,0.0
L1MAXMIN|MAXMIN|BOUNDARY,OTHER  LANES,W_S,>EQ  10-G,LOW  SPEED,PEDESTRIAN,RL  0,acts-5,Y,783,116,107.273833,0.04529700000000003
L1MAXMIN|MAXMIN|BOUNDARY,OTHER  LANES,W_S,>EQ  10-G,LOW  SPEED,PEDESTRIAN,RL  0,acts-5,Y,783,116,108.274833,0.04168799999999995
L1MAXMIN|MAXMIN|BOUNDARY,OTHER  LANES,W_S,>EQ  10-G,LOW  SPEED,PEDESTRIAN,RL  0,acts-5,Y,783,116,109.275833,0.04374599999999995
L1MAXMIN|MAXMIN|BOUNDARY,OTHER  LANES,W_S,>EQ  10-G,LOW  SPEED,PEDESTRIAN,RL  0,acts-5,Y,783,116,110.276833,0
L1MAXMIN|MAXMIN|BOUNDARY,OTHER  LANES,W_S,>EQ  10-G,LOW  SPEED,PEDESTRIAN,RL  0,acts-5,N,783,116,111.277833,0
L1MAXMIN|MAXMIN|BOUNDARY,OTHER  LANES,W_S,>EQ  10-G,LOW  SPEED,PEDESTRIAN,RL  0,acts-5,N,783,116,112.278833,3.100000000000325e-05
L1MAXMIN|MAXMIN|BOUNDARY,OTHER  LANES,W_S,>EQ  10-G,LOW  SPEED,PEDESTRIAN,  RL  <EQ  2,acts-5,N,783,63,68.234833,0.0019770000000000065
L1MAXMIN|MAXMIN|BOUNDARY,OTHER  LANES,W_S,>EQ  10-G,LOW  SPEED,PEDESTRIAN,  RL  <EQ  2,acts-5,N,783,63,70.236833,0.0004999999999999449
L1MAXMIN|MAXMIN|BOUNDARY,OTHER  LANES,W_S,>EQ  10-G,LOW  SPEED,PEDESTRIAN,  RL  <EQ  2,acts-5,Y,783,63,74.240833,0
L1MAXMIN|MAXMIN|BOUNDARY,OTHER  LANES,W_S,>EQ  10-G,LOW  SPEED,PEDESTRIAN,  RL  >  2,acts-5,Y,783,63,66.232833,0.0008569999999999967
L1MAXMIN|MAXMIN|BOUNDARY,OTHER  LANES,W_S,>EQ  10-G,LOW  SPEED,PEDESTRIAN,  RL  >  2,acts-5,Y,783,63,67.233833,0
L1MAXMIN|MAXMIN|BOUNDARY,OTHER  LANES,W_S,>EQ  10-G,LOW  SPEED,PEDESTRIAN,  RL  >  2,acts-5,N,783,63,69.235833,0.0015240000000000808
L1MAXMIN|MAXMIN|BOUNDARY,OTHER  LANES,W_S,>EQ  10-G,LOW  SPEED,PEDESTRIAN,  RL  >  2,acts-5,N,783,63,71.237833,0
L1MAXMIN|MAXMIN|BOUNDARY,OTHER  LANES,W_S,>EQ  10-G,LOW  SPEED,PEDESTRIAN,  RL  >  2,acts-5,N,783,63,72.238833,0.0005699999999999594
L1MAXMIN|MAXMIN|BOUNDARY,OTHER  LANES,W_S,>EQ  10-G,LOW  SPEED,PEDESTRIAN,  RL  >  2,acts-5,Y,783,63,73.239833,1.0000000000287557e-06
L1MAXMIN|MAXMIN|BOUNDARY,OTHER  LANES,W_S,>EQ  10-G,LOW  SPEED,PEDESTRIAN,  RL  >  2,acts-5,Y,783,95,88.5885,0.007610000000000006
L1MAXMIN|MAXMIN|BOUNDARY,OTHER  LANES,W_S,>EQ  10-G,LOW  SPEED,PEDESTRIAN,  RL  >  2,acts-5,Y,783,95,89.5895,0.014450999999999992
L1MAXMIN|MAXMIN|BOUNDARY,OTHER  LANES,W_S,>EQ  10-G,LOW  SPEED,PEDESTRIAN,  RL  >  2,acts-5,Y,783,95,90.5905,0
L1MAXMIN|MAXMIN|BOUNDARY,OTHER  LANES,W_S,>EQ  10-G,LOW  SPEED,PEDESTRIAN,  RL  >  2,acts-5,N,783,95,91.5915,0.0014640000000000208
L1MAXMIN|MAXMIN|BOUNDARY,OTHER  LANES,W_S,>EQ  10-G,LOW  SPEED,PEDESTRIAN,  RL  >  2,acts-5,Y,783,95,92.5925,0.0013239999999999919
L1MAXMIN|MAXMIN|BOUNDARY,OTHER  LANES,W_S,>EQ  10-G,LOW  SPEED,PEDESTRIAN,  RL  >  2,acts-5,N,783,95,93.5935,0.0007120000000000459
L1MAXMIN|MAXMIN|BOUNDARY,OTHER  LANES,W_S,>EQ  10-G,MEDIUM  SPEED,PEDESTRIAN,  RL  <EQ  2,acts-5,Y,783,95,86.5865,0
L1MAXMIN|MAXMIN|BOUNDARY,OTHER  LANES,W_S,>EQ  10-G,MEDIUM  SPEED,PEDESTRIAN,  RL  >  2,acts-5,Y,783,63,63.229833,0.03496699999999997
L1MAXMIN|MAXMIN|BOUNDARY,OTHER  LANES,W_S,>EQ  10-G,MEDIUM  SPEED,PEDESTRIAN,  RL  >  2,acts-5,Y,783,63,64.230833,0.0
L1MAXMIN|MAXMIN|BOUNDARY,OTHER  LANES,W_S,>EQ  10-G,MEDIUM  SPEED,PEDESTRIAN,  RL  >  2,acts-5,Y,783,63,65.231833,0
L1MAXMIN|MAXMIN|BOUNDARY,OTHER  LANES,S_W,<10-G,LOW  SPEED,NO  PEDESTRIAN,RL  0,acts-8,N,783,128,150.15,0.0
L1MAXMIN|MAXMIN|BOUNDARY,OTHER  LANES,S_W,<10-G,LOW  SPEED,NO  PEDESTRIAN,RL  0,acts-8,N,783,128,151.151,0
L1MAXMIN|MAXMIN|BOUNDARY,OTHER  LANES,S_W,<10-G,LOW  SPEED,NO  PEDESTRIAN,RL  0,acts-8,N,783,128,152.152,0.0
L1MAXMIN|MAXMIN|BOUNDARY,OTHER  LANES,S_W,<10-G,LOW  SPEED,NO  PEDESTRIAN,RL  0,acts-8,N,783,128,153.153,0.0
L1MAXMIN|MAXMIN|BOUNDARY,OTHER  LANES,S_W,<10-G,LOW  SPEED,NO  PEDESTRIAN,RL  0,acts-8,N,783,128,154.154,0.0
L1MAXMIN|MAXMIN|BOUNDARY,OTHER  LANES,S_W,<10-G,LOW  SPEED,NO  PEDESTRIAN,RL  0,acts-8,N,783,128,155.155,0.0
L1MAXMIN|MAXMIN|BOUNDARY,OTHER  LANES,S_W,<10-G,LOW  SPEED,NO  PEDESTRIAN,RL  0,acts-8,N,783,128,156.156,0.0
L1MAXMIN|MAXMIN|BOUNDARY,OTHER  LANES,S_W,<10-G,LOW  SPEED,NO  PEDESTRIAN,RL  0,acts-8,N,783,128,157.157,0
L1MAXMIN|MAXMIN|BOUNDARY,OTHER  LANES,S_W,<10-G,LOW  SPEED,NO  PEDESTRIAN,RL  0,acts-8,N,783,128,158.158,0.0
L1MAXMIN|MAXMIN|BOUNDARY,OTHER  LANES,S_W,<10-G,LOW  SPEED,NO  PEDESTRIAN,RL  0,acts-8,N,783,128,159.159,0.0
L1MAXMIN|MAXMIN|BOUNDARY,OTHER  LANES,S_W,>EQ  10-Y/R,LOW  SPEED,PEDESTRIAN,  RL  <EQ  2,acts-1,Y,783,98,88.254833,0.005680000000000018
L1MAXMIN|MAXMIN|BOUNDARY,OTHER  LANES,S_W,>EQ  10-Y/R,LOW  SPEED,PEDESTRIAN,  RL  >  2,acts-1,N,783,98,89.255833,0.1276480000000001
L1MAXMIN|MAXMIN|BOUNDARY,OTHER  LANES,S_W,>EQ  10-G,LOW  SPEED,PEDESTRIAN,RL  0,acts-8,N,783,128,118.118,0.0
L1MAXMIN|MAXMIN|BOUNDARY,OTHER  LANES,S_W,>EQ  10-G,LOW  SPEED,PEDESTRIAN,RL  0,acts-8,Y,783,128,119.119,0.0
L1MAXMIN|MAXMIN|BOUNDARY,OTHER  LANES,S_W,>EQ  10-G,LOW  SPEED,NO  PEDESTRIAN,RL  0,acts-8,Y,783,128,120.12,0
L1MAXMIN|MAXMIN|BOUNDARY,OTHER  LANES,S_W,>EQ  10-G,LOW  SPEED,NO  PEDESTRIAN,RL  0,acts-8,Y,783,128,121.121,0.0
L1MAXMIN|MAXMIN|BOUNDARY,OTHER  LANES,S_W,>EQ  10-G,LOW  SPEED,NO  PEDESTRIAN,RL  0,acts-8,N,783,128,122.122,0.0
L1MAXMIN|MAXMIN|BOUNDARY,OTHER  LANES,S_W,>EQ  10-G,LOW  SPEED,NO  PEDESTRIAN,RL  0,acts-8,N,783,128,123.123,0.0
L1MAXMIN|MAXMIN|BOUNDARY,OTHER  LANES,S_W,>EQ  10-G,LOW  SPEED,NO  PEDESTRIAN,RL  0,acts-8,N,783,128,124.124,0.0
L1MAXMIN|MAXMIN|BOUNDARY,OTHER  LANES,S_W,>EQ  10-G,LOW  SPEED,NO  PEDESTRIAN,RL  0,acts-8,N,783,128,125.125,0.0
L1MAXMIN|MAXMIN|BOUNDARY,OTHER  LANES,S_W,>EQ  10-G,LOW  SPEED,NO  PEDESTRIAN,RL  0,acts-8,N,783,128,126.126,0.0
L1MAXMIN|MAXMIN|BOUNDARY,OTHER  LANES,S_W,>EQ  10-G,LOW  SPEED,NO  PEDESTRIAN,RL  0,acts-8,N,783,128,127.127,0.0
L1MAXMIN|MAXMIN|BOUNDARY,OTHER  LANES,S_W,>EQ  10-G,LOW  SPEED,NO  PEDESTRIAN,RL  0,acts-8,N,783,128,128.128,0.0
L1MAXMIN|MAXMIN|BOUNDARY,OTHER  LANES,S_W,>EQ  10-G,LOW  SPEED,NO  PEDESTRIAN,RL  0,acts-8,N,783,128,129.129,0.0
L1MAXMIN|MAXMIN|BOUNDARY,OTHER  LANES,S_W,>EQ  10-G,LOW  SPEED,NO  PEDESTRIAN,RL  0,acts-8,N,783,128,130.13,0.0
L1MAXMIN|MAXMIN|BOUNDARY,OTHER  LANES,S_W,>EQ  10-G,LOW  SPEED,NO  PEDESTRIAN,RL  0,acts-8,N,783,128,131.131,0.0
L1MAXMIN|MAXMIN|BOUNDARY,OTHER  LANES,S_W,>EQ  10-G,LOW  SPEED,NO  PEDESTRIAN,RL  0,acts-8,N,783,128,132.132,0.0
L1MAXMIN|MAXMIN|BOUNDARY,OTHER  LANES,S_W,>EQ  10-G,LOW  SPEED,NO  PEDESTRIAN,RL  0,acts-8,N,783,128,133.133,0
L1MAXMIN|MAXMIN|BOUNDARY,OTHER  LANES,S_W,>EQ  10-G,LOW  SPEED,NO  PEDESTRIAN,RL  0,acts-8,N,783,128,134.134,0.0
L1MAXMIN|MAXMIN|BOUNDARY,OTHER  LANES,S_W,>EQ  10-G,LOW  SPEED,NO  PEDESTRIAN,RL  0,acts-8,N,783,128,135.135,0.0
L1MAXMIN|MAXMIN|BOUNDARY,OTHER  LANES,S_W,>EQ  10-G,LOW  SPEED,NO  PEDESTRIAN,RL  0,acts-8,N,783,128,136.136,0.0
L1MAXMIN|MAXMIN|BOUNDARY,OTHER  LANES,S_W,>EQ  10-G,LOW  SPEED,NO  PEDESTRIAN,RL  0,acts-8,N,783,128,137.137,0.0
L1MAXMIN|MAXMIN|BOUNDARY,OTHER  LANES,S_W,>EQ  10-G,LOW  SPEED,NO  PEDESTRIAN,RL  0,acts-8,N,783,128,138.138,0.0
L1MAXMIN|MAXMIN|BOUNDARY,OTHER  LANES,S_W,>EQ  10-G,LOW  SPEED,NO  PEDESTRIAN,RL  0,acts-8,N,783,128,139.139,0
L1MAXMIN|MAXMIN|BOUNDARY,OTHER  LANES,S_W,>EQ  10-G,LOW  SPEED,NO  PEDESTRIAN,RL  0,acts-8,N,783,128,140.14,0.0
L1MAXMIN|MAXMIN|BOUNDARY,OTHER  LANES,S_W,>EQ  10-G,LOW  SPEED,NO  PEDESTRIAN,RL  0,acts-8,N,783,128,141.141,0.0
L1MAXMIN|MAXMIN|BOUNDARY,OTHER  LANES,S_W,>EQ  10-G,LOW  SPEED,NO  PEDESTRIAN,RL  0,acts-8,N,783,128,142.142,0.0
L1MAXMIN|MAXMIN|BOUNDARY,OTHER  LANES,S_W,>EQ  10-G,LOW  SPEED,NO  PEDESTRIAN,RL  0,acts-8,N,783,128,143.143,0.0
L1MAXMIN|MAXMIN|BOUNDARY,OTHER  LANES,S_W,>EQ  10-G,LOW  SPEED,NO  PEDESTRIAN,RL  0,acts-8,N,783,128,144.144,0.0
L1MAXMIN|MAXMIN|BOUNDARY,OTHER  LANES,S_W,>EQ  10-G,LOW  SPEED,NO  PEDESTRIAN,RL  0,acts-8,N,783,128,145.145,0
L1MAXMIN|MAXMIN|BOUNDARY,OTHER  LANES,S_W,>EQ  10-G,LOW  SPEED,NO  PEDESTRIAN,RL  0,acts-8,N,783,128,146.146,0.0
L1MAXMIN|MAXMIN|BOUNDARY,OTHER  LANES,S_W,>EQ  10-G,LOW  SPEED,NO  PEDESTRIAN,RL  0,acts-8,N,783,128,147.147,0.0
L1MAXMIN|MAXMIN|BOUNDARY,OTHER  LANES,S_W,>EQ  10-G,LOW  SPEED,NO  PEDESTRIAN,RL  0,acts-8,N,783,128,148.148,0.0
L1MAXMIN|MAXMIN|BOUNDARY,OTHER  LANES,S_W,>EQ  10-G,LOW  SPEED,NO  PEDESTRIAN,RL  0,acts-8,N,783,128,149.149,0.0
L1MAXMIN|MAXMIN|BOUNDARY,OTHER  LANES,N_E,<10-Y/R,LOW  SPEED,NO  PEDESTRIAN,RL  0,acts-1,Y,783,119,102.936167,0
L1MAXMIN|MAXMIN|BOUNDARY,OTHER  LANES,N_E,<10-G,LOW  SPEED,PEDESTRIAN,RL  0,acts-8,N,783,54,52.886167,0.0
L1MAXMIN|MAXMIN|BOUNDARY,OTHER  LANES,N_E,<10-G,LOW  SPEED,PEDESTRIAN,RL  0,acts-8,Y,783,54,53.887167,0
L1MAXMIN|MAXMIN|BOUNDARY,OTHER  LANES,N_E,<10-G,LOW  SPEED,PEDESTRIAN,RL  0,acts-8,N,783,54,54.888167,0.0
L1MAXMIN|MAXMIN|BOUNDARY,OTHER  LANES,N_E,<10-G,LOW  SPEED,PEDESTRIAN,RL  0,acts-8,N,783,54,55.889167,0.0
L1MAXMIN|MAXMIN|BOUNDARY,OTHER  LANES,N_E,<10-G,LOW  SPEED,PEDESTRIAN,RL  0,acts-8,N,783,54,56.890167,0.0
L1MAXMIN|MAXMIN|BOUNDARY,OTHER  LANES,N_E,<10-G,LOW  SPEED,PEDESTRIAN,RL  0,acts-8,N,783,54,57.891167,0.0
L1MAXMIN|MAXMIN|BOUNDARY,OTHER  LANES,N_E,<10-G,LOW  SPEED,PEDESTRIAN,RL  0,acts-8,N,783,54,58.892167,0.0
L1MAXMIN|MAXMIN|BOUNDARY,OTHER  LANES,N_E,<10-G,LOW  SPEED,PEDESTRIAN,RL  0,acts-8,N,783,54,59.893167,0.0
L1MAXMIN|MAXMIN|BOUNDARY,OTHER  LANES,N_E,<10-G,LOW  SPEED,NO  PEDESTRIAN,RL  0,acts-8,N,783,139,166.332833,0.0
L1MAXMIN|MAXMIN|BOUNDARY,OTHER  LANES,N_E,<10-G,LOW  SPEED,NO  PEDESTRIAN,RL  0,acts-8,N,783,139,167.333833,0.0
L1MAXMIN|MAXMIN|BOUNDARY,OTHER  LANES,N_E,<10-G,LOW  SPEED,NO  PEDESTRIAN,RL  0,acts-8,N,783,139,168.334833,0
L1MAXMIN|MAXMIN|BOUNDARY,OTHER  LANES,N_E,<10-G,LOW  SPEED,NO  PEDESTRIAN,RL  0,acts-8,N,783,139,169.335833,0.0
L1MAXMIN|MAXMIN|BOUNDARY,OTHER  LANES,N_E,<10-G,LOW  SPEED,NO  PEDESTRIAN,RL  0,acts-8,N,783,139,170.336833,0.0
L1MAXMIN|MAXMIN|BOUNDARY,OTHER  LANES,N_E,<10-G,LOW  SPEED,NO  PEDESTRIAN,RL  0,acts-8,N,783,139,171.337833,0.0
L1MAXMIN|MAXMIN|BOUNDARY,OTHER  LANES,N_E,<10-G,LOW  SPEED,NO  PEDESTRIAN,RL  0,acts-8,N,783,139,172.338833,0.0
L1MAXMIN|MAXMIN|BOUNDARY,OTHER  LANES,N_E,<10-G,LOW  SPEED,NO  PEDESTRIAN,RL  0,acts-8,N,783,139,173.339833,0.0
L1MAXMIN|MAXMIN|BOUNDARY,OTHER  LANES,N_E,<10-G,LOW  SPEED,NO  PEDESTRIAN,RL  0,acts-8,N,783,139,174.340833,0.0
L1MAXMIN|MAXMIN|BOUNDARY,OTHER  LANES,N_E,<10-G,LOW  SPEED,NO  PEDESTRIAN,RL  0,acts-8,N,783,139,175.341833,0.0
L1MAXMIN|MAXMIN|BOUNDARY,OTHER  LANES,N_E,>EQ  10-Y/R,LOW  SPEED,PEDESTRIAN,RL  0,acts-1,Y,783,54,60.894167,0
L1MAXMIN|MAXMIN|BOUNDARY,OTHER  LANES,N_E,>EQ  10-Y/R,LOW  SPEED,PEDESTRIAN,RL  0,acts-1,Y,783,54,61.895167,0.011240000000000028
L1MAXMIN|MAXMIN|BOUNDARY,OTHER  LANES,N_E,>EQ  10-Y/R,LOW  SPEED,PEDESTRIAN,RL  0,acts-1,Y,783,65,64.230833,0.003386
L1MAXMIN|MAXMIN|BOUNDARY,OTHER  LANES,N_E,>EQ  10-Y/R,LOW  SPEED,PEDESTRIAN,RL  0,acts-1,Y,783,65,65.231833,0.008687999999999918
L1MAXMIN|MAXMIN|BOUNDARY,OTHER  LANES,N_E,>EQ  10-Y/R,LOW  SPEED,PEDESTRIAN,RL  0,acts-1,Y,783,68,66.5665,0.00552700000000006
L1MAXMIN|MAXMIN|BOUNDARY,OTHER  LANES,N_E,>EQ  10-Y/R,MEDIUM  SPEED,PEDESTRIAN,RL  0,acts-1,N,783,78,72.072,0
L1MAXMIN|MAXMIN|BOUNDARY,OTHER  LANES,N_E,>EQ  10-G,LOW  SPEED,NO  PEDESTRIAN,RL  0,acts-8,N,783,139,137.303833,0.0
L1MAXMIN|MAXMIN|BOUNDARY,OTHER  LANES,N_E,>EQ  10-G,LOW  SPEED,NO  PEDESTRIAN,RL  0,acts-8,Y,783,139,138.304833,0
L1MAXMIN|MAXMIN|BOUNDARY,OTHER  LANES,N_E,>EQ  10-G,LOW  SPEED,NO  PEDESTRIAN,RL  0,acts-8,N,783,139,139.305833,0.0
L1MAXMIN|MAXMIN|BOUNDARY,OTHER  LANES,N_E,>EQ  10-G,LOW  SPEED,NO  PEDESTRIAN,RL  0,acts-8,N,783,139,140.306833,0.0
L1MAXMIN|MAXMIN|BOUNDARY,OTHER  LANES,N_E,>EQ  10-G,LOW  SPEED,NO  PEDESTRIAN,RL  0,acts-8,N,783,139,141.307833,0.0
L1MAXMIN|MAXMIN|BOUNDARY,OTHER  LANES,N_E,>EQ  10-G,LOW  SPEED,NO  PEDESTRIAN,RL  0,acts-8,N,783,139,142.308833,0.0
L1MAXMIN|MAXMIN|BOUNDARY,OTHER  LANES,N_E,>EQ  10-G,LOW  SPEED,NO  PEDESTRIAN,RL  0,acts-8,N,783,139,143.309833,0.0
L1MAXMIN|MAXMIN|BOUNDARY,OTHER  LANES,N_E,>EQ  10-G,LOW  SPEED,NO  PEDESTRIAN,RL  0,acts-8,N,783,139,144.310833,0
L1MAXMIN|MAXMIN|BOUNDARY,OTHER  LANES,N_E,>EQ  10-G,LOW  SPEED,NO  PEDESTRIAN,RL  0,acts-8,N,783,139,145.311833,0.0
L1MAXMIN|MAXMIN|BOUNDARY,OTHER  LANES,N_E,>EQ  10-G,LOW  SPEED,NO  PEDESTRIAN,RL  0,acts-8,N,783,139,146.312833,0.0
L1MAXMIN|MAXMIN|BOUNDARY,OTHER  LANES,N_E,>EQ  10-G,LOW  SPEED,NO  PEDESTRIAN,RL  0,acts-8,N,783,139,147.313833,0.0
L1MAXMIN|MAXMIN|BOUNDARY,OTHER  LANES,N_E,>EQ  10-G,LOW  SPEED,NO  PEDESTRIAN,RL  0,acts-8,N,783,139,148.314833,0.0
L1MAXMIN|MAXMIN|BOUNDARY,OTHER  LANES,N_E,>EQ  10-G,LOW  SPEED,NO  PEDESTRIAN,RL  0,acts-8,N,783,139,149.315833,0.0
L1MAXMIN|MAXMIN|BOUNDARY,OTHER  LANES,N_E,>EQ  10-G,LOW  SPEED,NO  PEDESTRIAN,RL  0,acts-8,N,783,139,150.316833,0
L1MAXMIN|MAXMIN|BOUNDARY,OTHER  LANES,N_E,>EQ  10-G,LOW  SPEED,NO  PEDESTRIAN,RL  0,acts-8,N,783,139,151.317833,0.0
L1MAXMIN|MAXMIN|BOUNDARY,OTHER  LANES,N_E,>EQ  10-G,LOW  SPEED,NO  PEDESTRIAN,RL  0,acts-8,N,783,139,152.318833,0.0
L1MAXMIN|MAXMIN|BOUNDARY,OTHER  LANES,N_E,>EQ  10-G,LOW  SPEED,NO  PEDESTRIAN,RL  0,acts-8,N,783,139,153.319833,0.0
L1MAXMIN|MAXMIN|BOUNDARY,OTHER  LANES,N_E,>EQ  10-G,LOW  SPEED,NO  PEDESTRIAN,RL  0,acts-8,N,783,139,154.320833,0.0
L1MAXMIN|MAXMIN|BOUNDARY,OTHER  LANES,N_E,>EQ  10-G,LOW  SPEED,NO  PEDESTRIAN,RL  0,acts-8,N,783,139,155.321833,0.0
L1MAXMIN|MAXMIN|BOUNDARY,OTHER  LANES,N_E,>EQ  10-G,LOW  SPEED,NO  PEDESTRIAN,RL  0,acts-8,N,783,139,156.322833,0
L1MAXMIN|MAXMIN|BOUNDARY,OTHER  LANES,N_E,>EQ  10-G,LOW  SPEED,NO  PEDESTRIAN,RL  0,acts-8,N,783,139,157.323833,0.0
L1MAXMIN|MAXMIN|BOUNDARY,OTHER  LANES,N_E,>EQ  10-G,LOW  SPEED,NO  PEDESTRIAN,RL  0,acts-8,N,783,139,158.324833,0.0
L1MAXMIN|MAXMIN|BOUNDARY,OTHER  LANES,N_E,>EQ  10-G,LOW  SPEED,NO  PEDESTRIAN,RL  0,acts-8,N,783,139,159.325833,0.0
L1MAXMIN|MAXMIN|BOUNDARY,OTHER  LANES,N_E,>EQ  10-G,LOW  SPEED,NO  PEDESTRIAN,RL  0,acts-8,N,783,139,160.326833,0.0
L1MAXMIN|MAXMIN|BOUNDARY,OTHER  LANES,N_E,>EQ  10-G,LOW  SPEED,NO  PEDESTRIAN,RL  0,acts-8,N,783,139,161.327833,0.0
L1MAXMIN|MAXMIN|BOUNDARY,OTHER  LANES,N_E,>EQ  10-G,LOW  SPEED,NO  PEDESTRIAN,RL  0,acts-8,N,783,139,162.328833,0
L1MAXMIN|MAXMIN|BOUNDARY,OTHER  LANES,N_E,>EQ  10-G,LOW  SPEED,NO  PEDESTRIAN,RL  0,acts-8,N,783,139,163.329833,0.0
L1MAXMIN|MAXMIN|BOUNDARY,OTHER  LANES,N_E,>EQ  10-G,LOW  SPEED,NO  PEDESTRIAN,RL  0,acts-8,N,783,139,164.330833,0.0
L1MAXMIN|MAXMIN|BOUNDARY,OTHER  LANES,N_E,>EQ  10-G,LOW  SPEED,NO  PEDESTRIAN,RL  0,acts-8,N,783,139,165.331833,0.0
L1MAXMIN|MAXMIN|BOUNDARY,OTHER  LANES,W_N,<10-Y/R,LOW  SPEED,NO  PEDESTRIAN,  RL  <EQ  2,acts-1,N,783,129,148.148,0.09455400000000003
L1MAXMIN|MAXMIN|BOUNDARY,OTHER  LANES,W_N,<10-Y/R,LOW  SPEED,NO  PEDESTRIAN,  RL  >  2,acts-9,N,783,129,143.143,0.02132099999999998
L1MAXMIN|MAXMIN|BOUNDARY,OTHER  LANES,W_N,<10-Y/R,LOW  SPEED,NO  PEDESTRIAN,  RL  >  2,acts-9,N,783,129,144.144,0.01781100000000002
L1MAXMIN|MAXMIN|BOUNDARY,OTHER  LANES,W_N,<10-Y/R,LOW  SPEED,NO  PEDESTRIAN,  RL  >  2,acts-9,N,783,129,145.145,0.0
L1MAXMIN|MAXMIN|BOUNDARY,OTHER  LANES,W_N,<10-Y/R,LOW  SPEED,NO  PEDESTRIAN,  RL  >  2,acts-9,Y,783,129,146.146,0
L1MAXMIN|MAXMIN|BOUNDARY,OTHER  LANES,W_N,<10-Y/R,LOW  SPEED,NO  PEDESTRIAN,  RL  >  2,acts-9,Y,783,129,147.147,0
L1MAXMIN|MAXMIN|BOUNDARY,OTHER  LANES,W_N,<10-G,LOW  SPEED,PEDESTRIAN,RL  0,acts-8,N,783,56,104.938167,0.0
L1MAXMIN|MAXMIN|BOUNDARY,OTHER  LANES,W_N,<10-G,LOW  SPEED,PEDESTRIAN,RL  0,acts-8,N,783,56,105.939167,0.0
L1MAXMIN|MAXMIN|BOUNDARY,OTHER  LANES,W_N,<10-G,LOW  SPEED,PEDESTRIAN,RL  0,acts-8,N,783,56,106.940167,0.0
L1MAXMIN|MAXMIN|BOUNDARY,OTHER  LANES,W_N,<10-G,LOW  SPEED,PEDESTRIAN,RL  0,acts-8,N,783,56,107.941167,0.0
L1MAXMIN|MAXMIN|BOUNDARY,OTHER  LANES,W_N,<10-G,LOW  SPEED,PEDESTRIAN,RL  0,acts-8,N,783,56,108.942167,0.0
L1MAXMIN|MAXMIN|BOUNDARY,OTHER  LANES,W_N,<10-G,LOW  SPEED,PEDESTRIAN,RL  0,acts-8,N,783,56,109.943167,0.0
L1MAXMIN|MAXMIN|BOUNDARY,OTHER  LANES,W_N,<10-G,LOW  SPEED,PEDESTRIAN,RL  0,acts-8,N,783,56,110.944167,0.0
L1MAXMIN|MAXMIN|BOUNDARY,OTHER  LANES,W_N,<10-G,LOW  SPEED,PEDESTRIAN,RL  0,acts-8,N,783,56,111.945167,0.0
L1MAXMIN|MAXMIN|BOUNDARY,OTHER  LANES,W_N,<10-G,LOW  SPEED,PEDESTRIAN,RL  0,acts-8,N,783,56,112.946167,0.0
L1MAXMIN|MAXMIN|BOUNDARY,OTHER  LANES,W_N,<10-G,LOW  SPEED,PEDESTRIAN,RL  0,acts-8,N,783,56,113.947167,0.0
L1MAXMIN|MAXMIN|BOUNDARY,OTHER  LANES,W_N,<10-G,LOW  SPEED,NO  PEDESTRIAN,RL  0,acts-8,N,783,13,10.01,0.0
L1MAXMIN|MAXMIN|BOUNDARY,OTHER  LANES,W_N,<10-G,LOW  SPEED,NO  PEDESTRIAN,RL  0,acts-8,N,783,13,11.011,0.0
L1MAXMIN|MAXMIN|BOUNDARY,OTHER  LANES,W_N,<10-G,LOW  SPEED,NO  PEDESTRIAN,RL  0,acts-8,N,783,13,12.012,0.0
L1MAXMIN|MAXMIN|BOUNDARY,OTHER  LANES,W_N,<10-G,LOW  SPEED,NO  PEDESTRIAN,RL  0,acts-8,N,783,13,13.013,0.0
L1MAXMIN|MAXMIN|BOUNDARY,OTHER  LANES,W_N,<10-G,LOW  SPEED,NO  PEDESTRIAN,RL  0,acts-8,Y,783,13,4.004,0.0
L1MAXMIN|MAXMIN|BOUNDARY,OTHER  LANES,W_N,<10-G,LOW  SPEED,NO  PEDESTRIAN,RL  0,acts-8,N,783,13,5.005,0.0
L1MAXMIN|MAXMIN|BOUNDARY,OTHER  LANES,W_N,<10-G,LOW  SPEED,NO  PEDESTRIAN,RL  0,acts-8,N,783,13,6.006,0.0
L1MAXMIN|MAXMIN|BOUNDARY,OTHER  LANES,W_N,<10-G,LOW  SPEED,NO  PEDESTRIAN,RL  0,acts-8,N,783,13,7.007,0.0
L1MAXMIN|MAXMIN|BOUNDARY,OTHER  LANES,W_N,<10-G,LOW  SPEED,NO  PEDESTRIAN,RL  0,acts-8,N,783,13,8.008,0.0
L1MAXMIN|MAXMIN|BOUNDARY,OTHER  LANES,W_N,<10-G,LOW  SPEED,NO  PEDESTRIAN,RL  0,acts-8,N,783,13,9.009,0.0
L1MAXMIN|MAXMIN|BOUNDARY,OTHER  LANES,W_N,>EQ  10-Y/R,LOW  SPEED,PEDESTRIAN,RL  0,acts-1,Y,783,56,114.948167,0.0008170000000000677
L1MAXMIN|MAXMIN|BOUNDARY,OTHER  LANES,W_N,>EQ  10-Y/R,LOW  SPEED,PEDESTRIAN,RL  0,acts-1,Y,783,56,115.949167,0
L1MAXMIN|MAXMIN|BOUNDARY,OTHER  LANES,W_N,>EQ  10-Y/R,LOW  SPEED,PEDESTRIAN,RL  0,acts-1,Y,783,56,116.950167,0.0026799999999999047
L1MAXMIN|MAXMIN|BOUNDARY,OTHER  LANES,W_N,>EQ  10-Y/R,LOW  SPEED,PEDESTRIAN,RL  0,acts-1,Y,783,80,118.952167,0
L1MAXMIN|MAXMIN|BOUNDARY,OTHER  LANES,W_N,>EQ  10-Y/R,LOW  SPEED,PEDESTRIAN,RL  0,acts-1,N,783,80,119.953167,0.0066109999999999225
L1MAXMIN|MAXMIN|BOUNDARY,OTHER  LANES,W_N,>EQ  10-Y/R,LOW  SPEED,PEDESTRIAN,RL  0,acts-1,N,783,83,122.122,0
L1MAXMIN|MAXMIN|BOUNDARY,OTHER  LANES,W_N,>EQ  10-Y/R,LOW  SPEED,PEDESTRIAN,  RL  >  2,acts-9,N,783,129,127.127,0
L1MAXMIN|MAXMIN|BOUNDARY,OTHER  LANES,W_N,>EQ  10-Y/R,LOW  SPEED,PEDESTRIAN,  RL  >  2,acts-9,N,783,129,134.134,0.012185000000000001
L1MAXMIN|MAXMIN|BOUNDARY,OTHER  LANES,W_N,>EQ  10-Y/R,LOW  SPEED,PEDESTRIAN,  RL  >  2,acts-9,N,783,129,135.135,0.015593000000000024
L1MAXMIN|MAXMIN|BOUNDARY,OTHER  LANES,W_N,>EQ  10-Y/R,LOW  SPEED,PEDESTRIAN,  RL  >  2,acts-9,N,783,129,136.136,0.014808000000000043
L1MAXMIN|MAXMIN|BOUNDARY,OTHER  LANES,W_N,>EQ  10-Y/R,LOW  SPEED,PEDESTRIAN,  RL  >  2,acts-9,N,783,129,137.137,0.018969999999999987
L1MAXMIN|MAXMIN|BOUNDARY,OTHER  LANES,W_N,>EQ  10-Y/R,LOW  SPEED,PEDESTRIAN,  RL  >  2,acts-9,N,783,129,138.138,0.018643999999999994
L1MAXMIN|MAXMIN|BOUNDARY,OTHER  LANES,W_N,>EQ  10-Y/R,LOW  SPEED,PEDESTRIAN,  RL  >  2,acts-9,N,783,129,139.139,0.01633800000000002
L1MAXMIN|MAXMIN|BOUNDARY,OTHER  LANES,W_N,>EQ  10-Y/R,LOW  SPEED,PEDESTRIAN,  RL  >  2,acts-9,N,783,129,140.14,0.01580999999999999
L1MAXMIN|MAXMIN|BOUNDARY,OTHER  LANES,W_N,>EQ  10-Y/R,LOW  SPEED,NO  PEDESTRIAN,RL  0,acts-1,Y,783,13,14.014,0.0023659999999999792
L1MAXMIN|MAXMIN|BOUNDARY,OTHER  LANES,W_N,>EQ  10-Y/R,LOW  SPEED,NO  PEDESTRIAN,RL  0,acts-1,Y,783,13,15.015,0
L1MAXMIN|MAXMIN|BOUNDARY,OTHER  LANES,W_N,>EQ  10-Y/R,LOW  SPEED,NO  PEDESTRIAN,RL  0,acts-1,Y,783,13,16.016,0
L1MAXMIN|MAXMIN|BOUNDARY,OTHER  LANES,W_N,>EQ  10-Y/R,LOW  SPEED,NO  PEDESTRIAN,  RL  >  2,acts-9,N,783,129,141.141,0.09229399999999999
L1MAXMIN|MAXMIN|BOUNDARY,OTHER  LANES,W_N,>EQ  10-Y/R,LOW  SPEED,NO  PEDESTRIAN,  RL  >  2,acts-9,N,783,129,142.142,0.020315000000000027
L1MAXMIN|MAXMIN|BOUNDARY,OTHER  LANES,W_N,>EQ  10-G,LOW  SPEED,PEDESTRIAN,RL  0,acts-8,N,783,56,100.934167,0.0
L1MAXMIN|MAXMIN|BOUNDARY,OTHER  LANES,W_N,>EQ  10-G,LOW  SPEED,PEDESTRIAN,RL  0,acts-8,N,783,56,101.935167,0.0
L1MAXMIN|MAXMIN|BOUNDARY,OTHER  LANES,W_N,>EQ  10-G,LOW  SPEED,PEDESTRIAN,RL  0,acts-8,N,783,56,102.936167,0.0
L1MAXMIN|MAXMIN|BOUNDARY,OTHER  LANES,W_N,>EQ  10-G,LOW  SPEED,PEDESTRIAN,RL  0,acts-8,N,783,56,103.937167,0.0
L1MAXMIN|MAXMIN|BOUNDARY,OTHER  LANES,W_N,>EQ  10-G,LOW  SPEED,PEDESTRIAN,RL  0,acts-8,N,783,56,60.894167,0.0
L1MAXMIN|MAXMIN|BOUNDARY,OTHER  LANES,W_N,>EQ  10-G,LOW  SPEED,PEDESTRIAN,RL  0,acts-8,N,783,56,61.895167,0.0
L1MAXMIN|MAXMIN|BOUNDARY,OTHER  LANES,W_N,>EQ  10-G,LOW  SPEED,PEDESTRIAN,RL  0,acts-8,N,783,56,62.896167,0.0
L1MAXMIN|MAXMIN|BOUNDARY,OTHER  LANES,W_N,>EQ  10-G,LOW  SPEED,PEDESTRIAN,RL  0,acts-8,N,783,56,63.897167,0.0
L1MAXMIN|MAXMIN|BOUNDARY,OTHER  LANES,W_N,>EQ  10-G,LOW  SPEED,PEDESTRIAN,RL  0,acts-8,N,783,56,64.898167,0.0
L1MAXMIN|MAXMIN|BOUNDARY,OTHER  LANES,W_N,>EQ  10-G,LOW  SPEED,PEDESTRIAN,RL  0,acts-8,N,783,56,65.899167,0.0
L1MAXMIN|MAXMIN|BOUNDARY,OTHER  LANES,W_N,>EQ  10-G,LOW  SPEED,PEDESTRIAN,RL  0,acts-8,N,783,56,66.900167,0.0
L1MAXMIN|MAXMIN|BOUNDARY,OTHER  LANES,W_N,>EQ  10-G,LOW  SPEED,PEDESTRIAN,RL  0,acts-8,N,783,56,67.901167,0.0
L1MAXMIN|MAXMIN|BOUNDARY,OTHER  LANES,W_N,>EQ  10-G,LOW  SPEED,PEDESTRIAN,RL  0,acts-8,N,783,56,68.902167,0.0
L1MAXMIN|MAXMIN|BOUNDARY,OTHER  LANES,W_N,>EQ  10-G,LOW  SPEED,PEDESTRIAN,RL  0,acts-8,N,783,56,69.903167,0.0
L1MAXMIN|MAXMIN|BOUNDARY,OTHER  LANES,W_N,>EQ  10-G,LOW  SPEED,PEDESTRIAN,RL  0,acts-8,N,783,56,70.904167,0.0
L1MAXMIN|MAXMIN|BOUNDARY,OTHER  LANES,W_N,>EQ  10-G,LOW  SPEED,PEDESTRIAN,RL  0,acts-8,N,783,56,71.905167,0.0
L1MAXMIN|MAXMIN|BOUNDARY,OTHER  LANES,W_N,>EQ  10-G,LOW  SPEED,PEDESTRIAN,RL  0,acts-8,N,783,56,72.906167,0.0
L1MAXMIN|MAXMIN|BOUNDARY,OTHER  LANES,W_N,>EQ  10-G,LOW  SPEED,PEDESTRIAN,RL  0,acts-8,N,783,56,73.907167,0.0
L1MAXMIN|MAXMIN|BOUNDARY,OTHER  LANES,W_N,>EQ  10-G,LOW  SPEED,PEDESTRIAN,RL  0,acts-8,N,783,56,74.908167,0.0
L1MAXMIN|MAXMIN|BOUNDARY,OTHER  LANES,W_N,>EQ  10-G,LOW  SPEED,PEDESTRIAN,RL  0,acts-8,N,783,56,75.909167,0.0
L1MAXMIN|MAXMIN|BOUNDARY,OTHER  LANES,W_N,>EQ  10-G,LOW  SPEED,PEDESTRIAN,RL  0,acts-8,N,783,56,76.910167,0.0
L1MAXMIN|MAXMIN|BOUNDARY,OTHER  LANES,W_N,>EQ  10-G,LOW  SPEED,PEDESTRIAN,RL  0,acts-8,N,783,56,77.911167,0.0
L1MAXMIN|MAXMIN|BOUNDARY,OTHER  LANES,W_N,>EQ  10-G,LOW  SPEED,PEDESTRIAN,RL  0,acts-8,N,783,56,78.912167,0.0
L1MAXMIN|MAXMIN|BOUNDARY,OTHER  LANES,W_N,>EQ  10-G,LOW  SPEED,PEDESTRIAN,RL  0,acts-8,N,783,56,79.913167,0.0
L1MAXMIN|MAXMIN|BOUNDARY,OTHER  LANES,W_N,>EQ  10-G,LOW  SPEED,PEDESTRIAN,RL  0,acts-8,N,783,56,80.914167,0.0
L1MAXMIN|MAXMIN|BOUNDARY,OTHER  LANES,W_N,>EQ  10-G,LOW  SPEED,PEDESTRIAN,RL  0,acts-8,N,783,56,81.915167,0.0
L1MAXMIN|MAXMIN|BOUNDARY,OTHER  LANES,W_N,>EQ  10-G,LOW  SPEED,PEDESTRIAN,RL  0,acts-8,N,783,56,82.916167,0.0
L1MAXMIN|MAXMIN|BOUNDARY,OTHER  LANES,W_N,>EQ  10-G,LOW  SPEED,PEDESTRIAN,RL  0,acts-8,N,783,56,83.917167,0.0
L1MAXMIN|MAXMIN|BOUNDARY,OTHER  LANES,W_N,>EQ  10-G,LOW  SPEED,PEDESTRIAN,RL  0,acts-8,N,783,56,84.918167,0.0
L1MAXMIN|MAXMIN|BOUNDARY,OTHER  LANES,W_N,>EQ  10-G,LOW  SPEED,PEDESTRIAN,RL  0,acts-8,N,783,56,85.919167,0.0
L1MAXMIN|MAXMIN|BOUNDARY,OTHER  LANES,W_N,>EQ  10-G,LOW  SPEED,PEDESTRIAN,RL  0,acts-8,N,783,56,86.920167,0.0
L1MAXMIN|MAXMIN|BOUNDARY,OTHER  LANES,W_N,>EQ  10-G,LOW  SPEED,PEDESTRIAN,RL  0,acts-8,N,783,56,87.921167,0.0
L1MAXMIN|MAXMIN|BOUNDARY,OTHER  LANES,W_N,>EQ  10-G,LOW  SPEED,PEDESTRIAN,RL  0,acts-8,N,783,56,88.922167,0.0
L1MAXMIN|MAXMIN|BOUNDARY,OTHER  LANES,W_N,>EQ  10-G,LOW  SPEED,PEDESTRIAN,RL  0,acts-8,N,783,56,89.923167,0.0
L1MAXMIN|MAXMIN|BOUNDARY,OTHER  LANES,W_N,>EQ  10-G,LOW  SPEED,PEDESTRIAN,RL  0,acts-8,N,783,56,90.924167,0.0
L1MAXMIN|MAXMIN|BOUNDARY,OTHER  LANES,W_N,>EQ  10-G,LOW  SPEED,PEDESTRIAN,RL  0,acts-8,N,783,56,91.925167,0.0
L1MAXMIN|MAXMIN|BOUNDARY,OTHER  LANES,W_N,>EQ  10-G,LOW  SPEED,PEDESTRIAN,RL  0,acts-8,N,783,56,92.926167,0.0
L1MAXMIN|MAXMIN|BOUNDARY,OTHER  LANES,W_N,>EQ  10-G,LOW  SPEED,PEDESTRIAN,RL  0,acts-8,N,783,56,93.927167,0.0
L1MAXMIN|MAXMIN|BOUNDARY,OTHER  LANES,W_N,>EQ  10-G,LOW  SPEED,PEDESTRIAN,RL  0,acts-8,N,783,56,94.928167,0.0
L1MAXMIN|MAXMIN|BOUNDARY,OTHER  LANES,W_N,>EQ  10-G,LOW  SPEED,PEDESTRIAN,RL  0,acts-8,N,783,56,95.929167,0.0
L1MAXMIN|MAXMIN|BOUNDARY,OTHER  LANES,W_N,>EQ  10-G,LOW  SPEED,PEDESTRIAN,RL  0,acts-8,N,783,56,96.930167,0.0
L1MAXMIN|MAXMIN|BOUNDARY,OTHER  LANES,W_N,>EQ  10-G,LOW  SPEED,PEDESTRIAN,RL  0,acts-8,N,783,56,97.931167,0.0
L1MAXMIN|MAXMIN|BOUNDARY,OTHER  LANES,W_N,>EQ  10-G,LOW  SPEED,PEDESTRIAN,RL  0,acts-8,N,783,56,98.932167,0.0
L1MAXMIN|MAXMIN|BOUNDARY,OTHER  LANES,W_N,>EQ  10-G,LOW  SPEED,PEDESTRIAN,RL  0,acts-8,N,783,56,99.933167,0.0
L1MAXMIN|MAXMIN|BOUNDARY,OTHER  LANES,W_N,>EQ  10-G,LOW  SPEED,NO  PEDESTRIAN,RL  0,acts-8,Y,783,13,1.001,0.0
L1MAXMIN|MAXMIN|BOUNDARY,OTHER  LANES,W_N,>EQ  10-G,LOW  SPEED,NO  PEDESTRIAN,RL  0,acts-8,Y,783,13,2.002,0.0
L1MAXMIN|MAXMIN|BOUNDARY,OTHER  LANES,W_N,>EQ  10-G,LOW  SPEED,NO  PEDESTRIAN,RL  0,acts-8,Y,783,13,3.003,0
L1MAXMIN|MAXMIN|BOUNDARY,OTHER  LANES,W_N,>EQ  10-G,MEDIUM  SPEED,NO  PEDESTRIAN,RL  0,acts-8,Y,783,13,0,0.0
L1MAXMIN|MAXMIN|BOUNDARY,OTHER  LANES,S_E,>EQ  10-G,LOW  SPEED,PEDESTRIAN,  RL  >  2,acts-5,Y,783,41,32.699333,6.000000000061512e-06
L1MAXMIN|MAXMIN|BOUNDARY,OTHER  LANES,S_E,>EQ  10-G,LOW  SPEED,PEDESTRIAN,  RL  >  2,acts-5,Y,783,41,33.700333,0.0015780000000000793
L1MAXMIN|MAXMIN|BOUNDARY,OTHER  LANES,S_E,>EQ  10-G,LOW  SPEED,PEDESTRIAN,  RL  >  2,acts-5,Y,783,41,34.701333,0
L1MAXMIN|MAXMIN|BOUNDARY,OTHER  LANES,S_E,>EQ  10-G,LOW  SPEED,NO  PEDESTRIAN,RL  0,acts-7,N,783,124,114.114,0
L1MAXMIN|MAXMIN|BOUNDARY,OTHER  LANES,S_E,>EQ  10-G,LOW  SPEED,NO  PEDESTRIAN,RL  0,acts-7,N,783,124,115.115,0.007143999999999928
L1MAXMIN|MAXMIN|BOUNDARY,OTHER  LANES,S_E,>EQ  10-G,LOW  SPEED,NO  PEDESTRIAN,RL  0,acts-7,N,783,124,116.116,0.010685999999999973
L1MAXMIN|MAXMIN|BOUNDARY,OTHER  LANES,S_E,>EQ  10-G,LOW  SPEED,NO  PEDESTRIAN,RL  0,acts-7,N,783,124,117.117,0.00020700000000006824
L1MAXMIN|MAXMIN|BOUNDARY,OTHER  LANES,S_E,>EQ  10-G,LOW  SPEED,NO  PEDESTRIAN,RL  0,acts-7,N,783,124,118.118,0.01026500000000008
L1MAXMIN|MAXMIN|BOUNDARY,OTHER  LANES,S_E,>EQ  10-G,LOW  SPEED,NO  PEDESTRIAN,RL  0,acts-7,N,783,124,119.119,0.015496999999999983
L1MAXMIN|MAXMIN|BOUNDARY,OTHER  LANES,S_E,>EQ  10-G,LOW  SPEED,NO  PEDESTRIAN,RL  0,acts-7,N,783,124,120.12,0.01681900000000003
L1MAXMIN|MAXMIN|BOUNDARY,OTHER  LANES,S_E,>EQ  10-G,LOW  SPEED,NO  PEDESTRIAN,RL  0,acts-7,N,783,124,121.121,0
L1MAXMIN|MAXMIN|BOUNDARY,OTHER  LANES,E_S,<10-Y/R,MEDIUM  SPEED,NO  PEDESTRIAN,  RL  <EQ  2,acts-9,Y,783,48,46.046,0.019091999999999998
L1MAXMIN|MAXMIN|BOUNDARY,OTHER  LANES,E_S,<10-G,LOW  SPEED,NO  PEDESTRIAN,RL  0,acts-8,N,783,4,14.014,0.0
L1MAXMIN|MAXMIN|BOUNDARY,OTHER  LANES,E_S,<10-G,LOW  SPEED,NO  PEDESTRIAN,RL  0,acts-8,N,783,4,15.015,0.0
L1MAXMIN|MAXMIN|BOUNDARY,OTHER  LANES,E_S,<10-G,LOW  SPEED,NO  PEDESTRIAN,RL  0,acts-8,N,783,4,16.016,0.0
L1MAXMIN|MAXMIN|BOUNDARY,OTHER  LANES,E_S,<10-G,LOW  SPEED,NO  PEDESTRIAN,RL  0,acts-8,N,783,4,17.017,0.0
L1MAXMIN|MAXMIN|BOUNDARY,OTHER  LANES,E_S,<10-G,LOW  SPEED,NO  PEDESTRIAN,RL  0,acts-8,N,783,4,18.018,0.0
L1MAXMIN|MAXMIN|BOUNDARY,OTHER  LANES,E_S,<10-G,LOW  SPEED,NO  PEDESTRIAN,RL  0,acts-8,N,783,4,19.019,0.0
L1MAXMIN|MAXMIN|BOUNDARY,OTHER  LANES,E_S,<10-G,LOW  SPEED,NO  PEDESTRIAN,RL  0,acts-8,N,783,4,20.02,0.0
L1MAXMIN|MAXMIN|BOUNDARY,OTHER  LANES,E_S,<10-G,LOW  SPEED,NO  PEDESTRIAN,RL  0,acts-8,N,783,4,21.021,0.0
L1MAXMIN|MAXMIN|BOUNDARY,OTHER  LANES,E_S,<10-G,LOW  SPEED,NO  PEDESTRIAN,RL  0,acts-8,N,783,4,22.022,0.0
L1MAXMIN|MAXMIN|BOUNDARY,OTHER  LANES,E_S,<10-G,LOW  SPEED,NO  PEDESTRIAN,RL  0,acts-8,N,783,4,23.023,0.0
L1MAXMIN|MAXMIN|BOUNDARY,OTHER  LANES,E_S,<10-G,LOW  SPEED,NO  PEDESTRIAN,RL  0,acts-8,N,783,102,104.270833,0.0
L1MAXMIN|MAXMIN|BOUNDARY,OTHER  LANES,E_S,<10-G,LOW  SPEED,NO  PEDESTRIAN,RL  0,acts-8,N,783,102,105.271833,0.0
L1MAXMIN|MAXMIN|BOUNDARY,OTHER  LANES,E_S,<10-G,LOW  SPEED,NO  PEDESTRIAN,RL  0,acts-8,N,783,102,106.272833,0.0
L1MAXMIN|MAXMIN|BOUNDARY,OTHER  LANES,E_S,<10-G,LOW  SPEED,NO  PEDESTRIAN,RL  0,acts-8,N,783,102,107.273833,0.0
L1MAXMIN|MAXMIN|BOUNDARY,OTHER  LANES,E_S,<10-G,LOW  SPEED,NO  PEDESTRIAN,RL  0,acts-8,N,783,102,108.274833,0.0
L1MAXMIN|MAXMIN|BOUNDARY,OTHER  LANES,E_S,<10-G,LOW  SPEED,NO  PEDESTRIAN,RL  0,acts-8,N,783,102,109.275833,0.0
L1MAXMIN|MAXMIN|BOUNDARY,OTHER  LANES,E_S,<10-G,LOW  SPEED,NO  PEDESTRIAN,RL  0,acts-8,N,783,102,110.276833,0.0
L1MAXMIN|MAXMIN|BOUNDARY,OTHER  LANES,E_S,<10-G,LOW  SPEED,NO  PEDESTRIAN,RL  0,acts-8,N,783,102,111.277833,0.0
L1MAXMIN|MAXMIN|BOUNDARY,OTHER  LANES,E_S,<10-G,LOW  SPEED,NO  PEDESTRIAN,RL  0,acts-8,N,783,102,112.278833,0.0
L1MAXMIN|MAXMIN|BOUNDARY,OTHER  LANES,E_S,<10-G,LOW  SPEED,NO  PEDESTRIAN,RL  0,acts-8,N,783,102,113.279833,0.0
L1MAXMIN|MAXMIN|BOUNDARY,OTHER  LANES,E_S,>EQ  10-Y/R,LOW  SPEED,NO  PEDESTRIAN,RL  0,acts-1,N,783,102,114.280833,0
L1MAXMIN|MAXMIN|BOUNDARY,OTHER  LANES,E_S,>EQ  10-Y/R,LOW  SPEED,NO  PEDESTRIAN,RL  0,acts-1,Y,783,102,115.281833,0
L1MAXMIN|MAXMIN|BOUNDARY,OTHER  LANES,E_S,>EQ  10-Y/R,LOW  SPEED,NO  PEDESTRIAN,RL  0,acts-1,Y,783,102,116.282833,0.01087400000000005
L1MAXMIN|MAXMIN|BOUNDARY,OTHER  LANES,E_S,>EQ  10-Y/R,LOW  SPEED,NO  PEDESTRIAN,RL  0,acts-1,Y,783,112,119.119,0
L1MAXMIN|MAXMIN|BOUNDARY,OTHER  LANES,E_S,>EQ  10-Y/R,LOW  SPEED,NO  PEDESTRIAN,  RL  <EQ  2,acts-1,Y,783,20,38.038,0.11444299999999996
L1MAXMIN|MAXMIN|BOUNDARY,OTHER  LANES,E_S,>EQ  10-Y/R,LOW  SPEED,NO  PEDESTRIAN,  RL  >  2,acts-1,N,783,4,24.024,0
L1MAXMIN|MAXMIN|BOUNDARY,OTHER  LANES,E_S,>EQ  10-Y/R,LOW  SPEED,NO  PEDESTRIAN,  RL  >  2,acts-1,Y,783,4,25.025,0
L1MAXMIN|MAXMIN|BOUNDARY,OTHER  LANES,E_S,>EQ  10-Y/R,LOW  SPEED,NO  PEDESTRIAN,  RL  >  2,acts-1,Y,783,4,26.026,0
L1MAXMIN|MAXMIN|BOUNDARY,OTHER  LANES,E_S,>EQ  10-Y/R,LOW  SPEED,NO  PEDESTRIAN,  RL  >  2,acts-1,N,783,20,37.037,0.009318999999999966
L1MAXMIN|MAXMIN|BOUNDARY,OTHER  LANES,E_S,>EQ  10-Y/R,LOW  SPEED,NO  PEDESTRIAN,  RL  >  2,acts-9,N,783,20,24.024,0.04080599999999995
L1MAXMIN|MAXMIN|BOUNDARY,OTHER  LANES,E_S,>EQ  10-Y/R,LOW  SPEED,NO  PEDESTRIAN,  RL  >  2,acts-9,N,783,20,25.025,0.03492200000000001
L1MAXMIN|MAXMIN|BOUNDARY,OTHER  LANES,E_S,>EQ  10-Y/R,LOW  SPEED,NO  PEDESTRIAN,  RL  >  2,acts-9,N,783,20,26.026,0.0007860000000000089
L1MAXMIN|MAXMIN|BOUNDARY,OTHER  LANES,E_S,>EQ  10-Y/R,LOW  SPEED,NO  PEDESTRIAN,  RL  >  2,acts-9,Y,783,20,27.027,0.0
L1MAXMIN|MAXMIN|BOUNDARY,OTHER  LANES,E_S,>EQ  10-Y/R,LOW  SPEED,NO  PEDESTRIAN,  RL  >  2,acts-9,N,783,20,28.028,0
L1MAXMIN|MAXMIN|BOUNDARY,OTHER  LANES,E_S,>EQ  10-Y/R,LOW  SPEED,NO  PEDESTRIAN,  RL  >  2,acts-9,N,783,20,31.031,0.03438399999999997
L1MAXMIN|MAXMIN|BOUNDARY,OTHER  LANES,E_S,>EQ  10-G,LOW  SPEED,NO  PEDESTRIAN,RL  0,acts-8,N,783,4,0,0.0
L1MAXMIN|MAXMIN|BOUNDARY,OTHER  LANES,E_S,>EQ  10-G,LOW  SPEED,NO  PEDESTRIAN,RL  0,acts-8,N,783,4,1.001,0.0
L1MAXMIN|MAXMIN|BOUNDARY,OTHER  LANES,E_S,>EQ  10-G,LOW  SPEED,NO  PEDESTRIAN,RL  0,acts-8,N,783,4,10.01,0.0
L1MAXMIN|MAXMIN|BOUNDARY,OTHER  LANES,E_S,>EQ  10-G,LOW  SPEED,NO  PEDESTRIAN,RL  0,acts-8,N,783,4,11.011,0.0
L1MAXMIN|MAXMIN|BOUNDARY,OTHER  LANES,E_S,>EQ  10-G,LOW  SPEED,NO  PEDESTRIAN,RL  0,acts-8,N,783,4,12.012,0.0
L1MAXMIN|MAXMIN|BOUNDARY,OTHER  LANES,E_S,>EQ  10-G,LOW  SPEED,NO  PEDESTRIAN,RL  0,acts-8,N,783,4,13.013,0.0
L1MAXMIN|MAXMIN|BOUNDARY,OTHER  LANES,E_S,>EQ  10-G,LOW  SPEED,NO  PEDESTRIAN,RL  0,acts-8,N,783,4,2.002,0.0
L1MAXMIN|MAXMIN|BOUNDARY,OTHER  LANES,E_S,>EQ  10-G,LOW  SPEED,NO  PEDESTRIAN,RL  0,acts-8,N,783,4,3.003,0.0
L1MAXMIN|MAXMIN|BOUNDARY,OTHER  LANES,E_S,>EQ  10-G,LOW  SPEED,NO  PEDESTRIAN,RL  0,acts-8,N,783,4,4.004,0.0
L1MAXMIN|MAXMIN|BOUNDARY,OTHER  LANES,E_S,>EQ  10-G,LOW  SPEED,NO  PEDESTRIAN,RL  0,acts-8,N,783,4,5.005,0.0
L1MAXMIN|MAXMIN|BOUNDARY,OTHER  LANES,E_S,>EQ  10-G,LOW  SPEED,NO  PEDESTRIAN,RL  0,acts-8,N,783,4,6.006,0.0
L1MAXMIN|MAXMIN|BOUNDARY,OTHER  LANES,E_S,>EQ  10-G,LOW  SPEED,NO  PEDESTRIAN,RL  0,acts-8,N,783,4,7.007,0.0
L1MAXMIN|MAXMIN|BOUNDARY,OTHER  LANES,E_S,>EQ  10-G,LOW  SPEED,NO  PEDESTRIAN,RL  0,acts-8,N,783,4,8.008,0.0
L1MAXMIN|MAXMIN|BOUNDARY,OTHER  LANES,E_S,>EQ  10-G,LOW  SPEED,NO  PEDESTRIAN,RL  0,acts-8,N,783,4,9.009,0.0
L1MAXMIN|MAXMIN|BOUNDARY,OTHER  LANES,E_S,>EQ  10-G,LOW  SPEED,NO  PEDESTRIAN,RL  0,acts-8,N,783,102,100.266833,0.0
L1MAXMIN|MAXMIN|BOUNDARY,OTHER  LANES,E_S,>EQ  10-G,LOW  SPEED,NO  PEDESTRIAN,RL  0,acts-8,N,783,102,101.267833,0.0
L1MAXMIN|MAXMIN|BOUNDARY,OTHER  LANES,E_S,>EQ  10-G,LOW  SPEED,NO  PEDESTRIAN,RL  0,acts-8,N,783,102,102.268833,0.0
L1MAXMIN|MAXMIN|BOUNDARY,OTHER  LANES,E_S,>EQ  10-G,LOW  SPEED,NO  PEDESTRIAN,RL  0,acts-8,N,783,102,103.269833,0.0
L1MAXMIN|MAXMIN|BOUNDARY,OTHER  LANES,E_S,>EQ  10-G,LOW  SPEED,NO  PEDESTRIAN,RL  0,acts-8,Y,783,102,90.256833,0
L1MAXMIN|MAXMIN|BOUNDARY,OTHER  LANES,E_S,>EQ  10-G,LOW  SPEED,NO  PEDESTRIAN,RL  0,acts-8,Y,783,102,92.258833,0
L1MAXMIN|MAXMIN|BOUNDARY,OTHER  LANES,E_S,>EQ  10-G,LOW  SPEED,NO  PEDESTRIAN,RL  0,acts-8,Y,783,102,93.259833,0.0
L1MAXMIN|MAXMIN|BOUNDARY,OTHER  LANES,E_S,>EQ  10-G,LOW  SPEED,NO  PEDESTRIAN,RL  0,acts-8,Y,783,102,94.260833,0.0
L1MAXMIN|MAXMIN|BOUNDARY,OTHER  LANES,E_S,>EQ  10-G,LOW  SPEED,NO  PEDESTRIAN,RL  0,acts-8,Y,783,102,95.261833,0
L1MAXMIN|MAXMIN|BOUNDARY,OTHER  LANES,E_S,>EQ  10-G,LOW  SPEED,NO  PEDESTRIAN,RL  0,acts-8,Y,783,102,96.262833,0.0
L1MAXMIN|MAXMIN|BOUNDARY,OTHER  LANES,E_S,>EQ  10-G,LOW  SPEED,NO  PEDESTRIAN,RL  0,acts-8,N,783,102,97.263833,0.0
L1MAXMIN|MAXMIN|BOUNDARY,OTHER  LANES,E_S,>EQ  10-G,LOW  SPEED,NO  PEDESTRIAN,RL  0,acts-8,N,783,102,98.264833,0.0
L1MAXMIN|MAXMIN|BOUNDARY,OTHER  LANES,E_S,>EQ  10-G,LOW  SPEED,NO  PEDESTRIAN,RL  0,acts-8,N,783,102,99.265833,0.0
L1MAXMIN|MAXMIN|BOUNDARY,OTHER  LANES,E_S,>EQ  10-G,MEDIUM  SPEED,NO  PEDESTRIAN,RL  0,acts-8,Y,783,102,91.257833,0
L1MAXMIN|MAXMIN|BOUNDARY,prep-right-turn,W_S,<10-Y/R,LOW  SPEED,NO  PEDESTRIAN,RL  0,acts-1,N,783,146,146.312833,0.0006610000000000227
L1MAXMIN|MAXMIN|BOUNDARY,prep-right-turn,W_S,<10-G,LOW  SPEED,PEDESTRIAN,  RL  <EQ  2,acts-5,N,783,123,119.6195,0
L1MAXMIN|MAXMIN|BOUNDARY,prep-right-turn,W_S,<10-G,LOW  SPEED,PEDESTRIAN,  RL  <EQ  2,acts-10,Y,783,123,117.6175,0.0
L1MAXMIN|MAXMIN|BOUNDARY,prep-right-turn,W_S,<10-G,LOW  SPEED,PEDESTRIAN,  RL  >  2,acts-10,N,783,123,118.6185,0.0032179999999999986
L1MAXMIN|MAXMIN|BOUNDARY,prep-right-turn,W_S,<10-G,LOW  SPEED,NO  PEDESTRIAN,RL  0,acts-1,Y,783,123,125.6255,0.024523000000000073
L1MAXMIN|MAXMIN|BOUNDARY,prep-right-turn,W_S,<10-G,LOW  SPEED,NO  PEDESTRIAN,  RL  <EQ  2,acts-1,N,783,123,120.6205,0
L1MAXMIN|MAXMIN|BOUNDARY,prep-right-turn,W_S,<10-G,LOW  SPEED,NO  PEDESTRIAN,  RL  <EQ  2,acts-1,N,783,123,121.6215,0.040663000000000005
L1MAXMIN|MAXMIN|BOUNDARY,prep-right-turn,W_S,>EQ  10-Y/R,LOW  SPEED,NO  PEDESTRIAN,RL  0,acts-1,N,783,123,126.6265,0.001419000000000059
L1MAXMIN|MAXMIN|BOUNDARY,prep-right-turn,W_S,>EQ  10-Y/R,LOW  SPEED,NO  PEDESTRIAN,RL  0,acts-1,Y,783,130,131.965167,0.0003610000000000557
L1MAXMIN|MAXMIN|BOUNDARY,prep-right-turn,W_S,>EQ  10-Y/R,LOW  SPEED,NO  PEDESTRIAN,RL  0,acts-1,Y,783,130,132.966167,0
L1MAXMIN|MAXMIN|BOUNDARY,prep-right-turn,W_S,>EQ  10-Y/R,LOW  SPEED,NO  PEDESTRIAN,  RL  <EQ  2,acts-1,Y,783,37,34.868167,0
L1MAXMIN|MAXMIN|BOUNDARY,prep-right-turn,W_S,>EQ  10-G,LOW  SPEED,PEDESTRIAN,RL  0,acts-5,Y,783,116,113.279833,0.0010529999999999706
L1MAXMIN|MAXMIN|BOUNDARY,prep-right-turn,W_S,>EQ  10-G,LOW  SPEED,PEDESTRIAN,  RL  <EQ  2,acts-5,Y,783,63,75.241833,0.00020699999999995722
L1MAXMIN|MAXMIN|BOUNDARY,prep-right-turn,W_S,>EQ  10-G,LOW  SPEED,NO  PEDESTRIAN,RL  0,acts-1,Y,783,15,2.002,0
L1MAXMIN|MAXMIN|BOUNDARY,prep-right-turn,W_S,>EQ  10-G,LOW  SPEED,NO  PEDESTRIAN,  RL  <EQ  2,acts-1,N,783,95,94.5945,0
L1MAXMIN|MAXMIN|BOUNDARY,prep-right-turn,S_E,>EQ  10-G,LOW  SPEED,PEDESTRIAN,  RL  <EQ  2,acts-5,Y,783,41,35.702333,0.0006819999999999604
L1MAXMIN|MAXMIN|BOUNDARY,prep-right-turn,S_E,>EQ  10-G,LOW  SPEED,PEDESTRIAN,  RL  >  2,acts-5,N,783,41,36.703333,0.19512399999999996
L1MAXMIN|MAXMIN|BOUNDARY,prep-right-turn,S_E,>EQ  10-G,LOW  SPEED,PEDESTRIAN,  RL  >  2,acts-5,N,783,41,37.704333,0
L1MAXMIN|MAXMIN|BOUNDARY,prep-right-turn,S_E,>EQ  10-G,LOW  SPEED,PEDESTRIAN,  RL  >  2,acts-5,N,783,41,38.705333,0.19006699999999999
L1MAXMIN|MAXMIN|BOUNDARY,prep-right-turn,S_E,>EQ  10-G,LOW  SPEED,PEDESTRIAN,  RL  >  2,acts-5,Y,783,41,40.707333,0.22050199999999998
L1MAXMIN|MAXMIN|BOUNDARY,prep-right-turn,S_E,>EQ  10-G,LOW  SPEED,NO  PEDESTRIAN,RL  0,acts-1,Y,783,124,122.122,0
L1MAXMIN|MAXMIN|BOUNDARY,prep-right-turn,S_E,>EQ  10-G,LOW  SPEED,NO  PEDESTRIAN,RL  0,acts-1,Y,783,124,123.123,0
L1MAXMIN|MAXMIN|BOUNDARY,prep-right-turn,S_E,>EQ  10-G,LOW  SPEED,NO  PEDESTRIAN,RL  0,acts-1,Y,783,124,124.124,0
L1MAXMIN|MAXMIN|BOUNDARY,exec-right-turn,W_S,<10-Y/R,LOW  SPEED,NO  PEDESTRIAN,RL  0,acts-1,N,783,49,53.053,0
L1MAXMIN|MAXMIN|BOUNDARY,exec-right-turn,W_S,<10-Y/R,LOW  SPEED,NO  PEDESTRIAN,RL  0,acts-1,Y,783,146,147.313833,7.40000000000185e-05
L1MAXMIN|MAXMIN|BOUNDARY,exec-right-turn,W_S,<10-Y/R,LOW  SPEED,NO  PEDESTRIAN,RL  0,acts-1,N,783,146,148.314833,0.0003269999999999662
L1MAXMIN|MAXMIN|BOUNDARY,exec-right-turn,W_S,<10-Y/R,LOW  SPEED,NO  PEDESTRIAN,  RL  <EQ  2,acts-1,Y,783,49,52.052,0
L1MAXMIN|MAXMIN|BOUNDARY,exec-right-turn,W_S,<10-G,LOW  SPEED,NO  PEDESTRIAN,RL  0,acts-1,N,783,15,4.004,0.0005319999999999769
L1MAXMIN|MAXMIN|BOUNDARY,exec-right-turn,W_S,>EQ  10-Y/R,LOW  SPEED,NO  PEDESTRIAN,RL  0,acts-1,Y,783,123,127.6275,0.002051000000000025
L1MAXMIN|MAXMIN|BOUNDARY,exec-right-turn,W_S,>EQ  10-Y/R,LOW  SPEED,NO  PEDESTRIAN,RL  0,acts-1,Y,783,123,128.6285,0.0011010000000000186
L1MAXMIN|MAXMIN|BOUNDARY,exec-right-turn,W_S,>EQ  10-Y/R,LOW  SPEED,NO  PEDESTRIAN,RL  0,acts-1,Y,783,123,129.6295,0
L1MAXMIN|MAXMIN|BOUNDARY,exec-right-turn,W_S,>EQ  10-Y/R,LOW  SPEED,NO  PEDESTRIAN,RL  0,acts-1,Y,783,123,130.6305,0.004273000000000082
L1MAXMIN|MAXMIN|BOUNDARY,exec-right-turn,W_S,>EQ  10-Y/R,LOW  SPEED,NO  PEDESTRIAN,RL  0,acts-1,Y,783,130,133.967167,0
L1MAXMIN|MAXMIN|BOUNDARY,exec-right-turn,W_S,>EQ  10-Y/R,LOW  SPEED,NO  PEDESTRIAN,RL  0,acts-1,N,783,130,134.968167,0
L1MAXMIN|MAXMIN|BOUNDARY,exec-right-turn,W_S,>EQ  10-Y/R,LOW  SPEED,NO  PEDESTRIAN,  RL  <EQ  2,acts-1,N,783,37,35.869167,0.0019099999999999673
L1MAXMIN|MAXMIN|BOUNDARY,exec-right-turn,W_S,>EQ  10-G,LOW  SPEED,PEDESTRIAN,RL  0,acts-1,N,783,95,100.6005,0
L1MAXMIN|MAXMIN|BOUNDARY,exec-right-turn,W_S,>EQ  10-G,LOW  SPEED,PEDESTRIAN,RL  0,acts-1,Y,783,103,104.437667,0.005193000000000003
L1MAXMIN|MAXMIN|BOUNDARY,exec-right-turn,W_S,>EQ  10-G,LOW  SPEED,PEDESTRIAN,RL  0,acts-1,Y,783,103,105.438667,0
L1MAXMIN|MAXMIN|BOUNDARY,exec-right-turn,W_S,>EQ  10-G,LOW  SPEED,PEDESTRIAN,RL  0,acts-1,Y,783,103,106.439667,0.003330999999999973
L1MAXMIN|MAXMIN|BOUNDARY,exec-right-turn,W_S,>EQ  10-G,LOW  SPEED,NO  PEDESTRIAN,RL  0,acts-1,Y,783,15,3.003,0
L1MAXMIN|MAXMIN|BOUNDARY,exec-right-turn,S_E,>EQ  10-G,LOW  SPEED,PEDESTRIAN,  RL  <EQ  2,acts-1,Y,783,41,41.708333,0.0010839999999999739
L1MAXMIN|MAXMIN|BOUNDARY,exec-right-turn,S_E,>EQ  10-G,LOW  SPEED,NO  PEDESTRIAN,RL  0,acts-1,Y,783,124,125.125,0.0007269999999999222
L1MAXMIN|MAXMIN|BOUNDARY,exec-right-turn,S_E,>EQ  10-G,MEDIUM  SPEED,NO  PEDESTRIAN,RL  0,acts-1,Y,783,124,126.126,0.0003290000000000237
