EQ_TYPE,SEGMENT,TASK,NEXT_CHANGE,SPEED,PEDESTRIAN,RELEV_VEHICLE,ACTIONS,AGGRESSIVE,FILE_ID,TRACK_ID,TIME,ON_EQ
L1MAXMIN|MAXMIN|BOUNDARY,prep-left-turn,S_W,<10-Y/R,LOW  SPEED,NO  PEDESTRIAN,RL  0,acts-1,Y,784,207,258.7585,0
L1MAXMIN|MAXMIN|BOUNDARY,prep-left-turn,S_W,>EQ  10-Y/R,LOW  SPEED,NO  PEDESTRIAN,RL  0,acts-1,Y,784,8,23.023,0.0006610000000000227
L1MAXMIN|MAXMIN|BOUNDARY,prep-left-turn,S_W,>EQ  10-Y/R,LOW  SPEED,NO  PEDESTRIAN,RL  0,acts-1,N,784,8,24.024,0
L1MAXMIN|MAXMIN|BOUNDARY,prep-left-turn,S_W,>EQ  10-Y/R,LOW  SPEED,NO  PEDESTRIAN,RL  0,acts-1,N,784,207,250.7505,0.08353699999999997
L1MAXMIN|MAXMIN|BOUNDARY,prep-left-turn,S_W,>EQ  10-Y/R,LOW  SPEED,NO  PEDESTRIAN,  RL  <EQ  2,acts-1,N,784,40,44.711333,0.05962299999999998
L1MAXMIN|MAXMIN|BOUNDARY,prep-left-turn,S_W,>EQ  10-Y/R,LOW  SPEED,NO  PEDESTRIAN,  RL  <EQ  2,acts-1,N,784,40,45.712333,0.27915199999999996
L1MAXMIN|MAXMIN|BOUNDARY,prep-left-turn,S_W,>EQ  10-Y/R,LOW  SPEED,NO  PEDESTRIAN,  RL  <EQ  2,acts-1,N,784,40,46.713333,0.05640400000000001
L1MAXMIN|MAXMIN|BOUNDARY,prep-left-turn,S_W,>EQ  10-Y/R,LOW  SPEED,NO  PEDESTRIAN,  RL  <EQ  2,acts-1,N,784,207,244.7445,0.18351
L1MAXMIN|MAXMIN|BOUNDARY,prep-left-turn,S_W,>EQ  10-Y/R,LOW  SPEED,NO  PEDESTRIAN,  RL  <EQ  2,acts-1,N,784,207,246.7465,0.27830800000000006
L1MAXMIN|MAXMIN|BOUNDARY,prep-left-turn,S_W,>EQ  10-Y/R,LOW  SPEED,NO  PEDESTRIAN,  RL  <EQ  2,acts-1,N,784,207,247.7475,0.29418099999999997
L1MAXMIN|MAXMIN|BOUNDARY,prep-left-turn,S_W,>EQ  10-Y/R,LOW  SPEED,NO  PEDESTRIAN,  RL  <EQ  2,acts-1,N,784,207,253.7535,0.13856200000000002
L1MAXMIN|MAXMIN|BOUNDARY,prep-left-turn,S_W,>EQ  10-Y/R,LOW  SPEED,NO  PEDESTRIAN,  RL  <EQ  2,acts-1,N,784,207,254.7545,0.17720600000000003
L1MAXMIN|MAXMIN|BOUNDARY,prep-left-turn,S_W,>EQ  10-Y/R,LOW  SPEED,NO  PEDESTRIAN,  RL  <EQ  2,acts-1,Y,784,207,255.7555,0
L1MAXMIN|MAXMIN|BOUNDARY,prep-left-turn,S_W,>EQ  10-Y/R,LOW  SPEED,NO  PEDESTRIAN,  RL  <EQ  2,acts-2,N,784,47,49.883167,0.0
L1MAXMIN|MAXMIN|BOUNDARY,prep-left-turn,S_W,>EQ  10-Y/R,LOW  SPEED,NO  PEDESTRIAN,  RL  <EQ  2,acts-2,N,784,47,52.886167,0
L1MAXMIN|MAXMIN|BOUNDARY,prep-left-turn,S_W,>EQ  10-Y/R,LOW  SPEED,NO  PEDESTRIAN,  RL  >  2,acts-1,N,784,40,41.708333,0.18277100000000002
L1MAXMIN|MAXMIN|BOUNDARY,prep-left-turn,S_W,>EQ  10-Y/R,LOW  SPEED,NO  PEDESTRIAN,  RL  >  2,acts-1,Y,784,40,42.709333,0.075289
L1MAXMIN|MAXMIN|BOUNDARY,prep-left-turn,S_W,>EQ  10-Y/R,LOW  SPEED,NO  PEDESTRIAN,  RL  >  2,acts-1,N,784,40,43.710333,0.02679300000000001
L1MAXMIN|MAXMIN|BOUNDARY,prep-left-turn,S_W,>EQ  10-Y/R,LOW  SPEED,NO  PEDESTRIAN,  RL  >  2,acts-1,N,784,207,241.7415,0.058518000000000014
L1MAXMIN|MAXMIN|BOUNDARY,prep-left-turn,S_W,>EQ  10-Y/R,LOW  SPEED,NO  PEDESTRIAN,  RL  >  2,acts-1,Y,784,207,242.7425,0.06174000000000002
L1MAXMIN|MAXMIN|BOUNDARY,prep-left-turn,S_W,>EQ  10-Y/R,LOW  SPEED,NO  PEDESTRIAN,  RL  >  2,acts-1,N,784,207,243.7435,0.13749100000000003
L1MAXMIN|MAXMIN|BOUNDARY,prep-left-turn,S_W,>EQ  10-Y/R,LOW  SPEED,NO  PEDESTRIAN,  RL  >  2,acts-1,N,784,207,245.7455,0.14506600000000003
L1MAXMIN|MAXMIN|BOUNDARY,prep-left-turn,N_E,>EQ  10-Y/R,LOW  SPEED,NO  PEDESTRIAN,RL  0,acts-1,N,784,14,35.035,0.01009799999999994
L1MAXMIN|MAXMIN|BOUNDARY,prep-left-turn,N_E,>EQ  10-Y/R,LOW  SPEED,NO  PEDESTRIAN,RL  0,acts-1,Y,784,14,36.036,0.013099000000000083
L1MAXMIN|MAXMIN|BOUNDARY,prep-left-turn,N_E,>EQ  10-Y/R,LOW  SPEED,NO  PEDESTRIAN,RL  0,acts-1,Y,784,115,121.6215,0.08070900000000003
L1MAXMIN|MAXMIN|BOUNDARY,prep-left-turn,N_E,>EQ  10-Y/R,LOW  SPEED,NO  PEDESTRIAN,RL  0,acts-1,Y,784,115,122.6225,0.07639300000000004
L1MAXMIN|MAXMIN|BOUNDARY,prep-left-turn,N_E,>EQ  10-Y/R,LOW  SPEED,NO  PEDESTRIAN,RL  0,acts-1,Y,784,143,140.974167,0.08248900000000003
L1MAXMIN|MAXMIN|BOUNDARY,prep-left-turn,N_E,>EQ  10-Y/R,LOW  SPEED,NO  PEDESTRIAN,RL  0,acts-1,Y,784,161,222.7225,0
L1MAXMIN|MAXMIN|BOUNDARY,prep-left-turn,N_E,>EQ  10-Y/R,LOW  SPEED,NO  PEDESTRIAN,RL  0,acts-1,Y,784,161,223.7235,0
L1MAXMIN|MAXMIN|BOUNDARY,prep-left-turn,N_E,>EQ  10-Y/R,LOW  SPEED,NO  PEDESTRIAN,RL  0,acts-1,Y,784,217,234.567667,0.088665
L1MAXMIN|MAXMIN|BOUNDARY,prep-left-turn,N_E,>EQ  10-Y/R,LOW  SPEED,NO  PEDESTRIAN,RL  0,acts-1,Y,784,217,235.568667,0.08404699999999998
L1MAXMIN|MAXMIN|BOUNDARY,prep-left-turn,W_N,<10-Y/R,LOW  SPEED,NO  PEDESTRIAN,RL  0,acts-1,Y,784,184,213.546667,0.00038800000000005497
L1MAXMIN|MAXMIN|BOUNDARY,prep-left-turn,W_N,<10-Y/R,LOW  SPEED,NO  PEDESTRIAN,  RL  <EQ  2,acts-1,N,784,184,210.543667,0
L1MAXMIN|MAXMIN|BOUNDARY,prep-left-turn,W_N,<10-Y/R,LOW  SPEED,NO  PEDESTRIAN,  RL  <EQ  2,acts-1,Y,784,184,211.544667,0
L1MAXMIN|MAXMIN|BOUNDARY,prep-left-turn,W_N,<10-Y/R,LOW  SPEED,NO  PEDESTRIAN,  RL  >  2,acts-1,N,784,184,204.537667,0.11780200000000002
L1MAXMIN|MAXMIN|BOUNDARY,prep-left-turn,W_N,<10-Y/R,LOW  SPEED,NO  PEDESTRIAN,  RL  >  2,acts-1,N,784,184,205.538667,0.21002699999999996
L1MAXMIN|MAXMIN|BOUNDARY,prep-left-turn,W_N,<10-Y/R,LOW  SPEED,NO  PEDESTRIAN,  RL  >  2,acts-1,N,784,184,206.539667,0.335715
L1MAXMIN|MAXMIN|BOUNDARY,prep-left-turn,W_N,<10-Y/R,LOW  SPEED,NO  PEDESTRIAN,  RL  >  2,acts-1,N,784,184,207.540667,0.33866700000000005
L1MAXMIN|MAXMIN|BOUNDARY,prep-left-turn,W_N,<10-Y/R,LOW  SPEED,NO  PEDESTRIAN,  RL  >  2,acts-1,N,784,184,208.541667,0.04649199999999998
L1MAXMIN|MAXMIN|BOUNDARY,prep-left-turn,W_N,<10-Y/R,LOW  SPEED,NO  PEDESTRIAN,  RL  >  2,acts-1,N,784,184,209.542667,0.07992500000000002
L1MAXMIN|MAXMIN|BOUNDARY,prep-left-turn,W_N,>EQ  10-Y/R,LOW  SPEED,PEDESTRIAN,RL  0,acts-3,N,784,124,177.343833,0.027059999999999973
L1MAXMIN|MAXMIN|BOUNDARY,prep-left-turn,W_N,>EQ  10-Y/R,LOW  SPEED,PEDESTRIAN,RL  0,acts-3,N,784,124,177.343833,0.027059999999999973
L1MAXMIN|MAXMIN|BOUNDARY,prep-left-turn,W_N,>EQ  10-Y/R,LOW  SPEED,NO  PEDESTRIAN,  RL  <EQ  2,acts-1,N,784,72,84.084,0.02954699999999999
L1MAXMIN|MAXMIN|BOUNDARY,prep-left-turn,W_N,>EQ  10-Y/R,LOW  SPEED,NO  PEDESTRIAN,  RL  <EQ  2,acts-1,N,784,72,85.085,0
L1MAXMIN|MAXMIN|BOUNDARY,prep-left-turn,W_N,>EQ  10-Y/R,LOW  SPEED,NO  PEDESTRIAN,  RL  >  2,acts-1,Y,784,72,82.082,0.039354
L1MAXMIN|MAXMIN|BOUNDARY,prep-left-turn,W_N,>EQ  10-Y/R,LOW  SPEED,NO  PEDESTRIAN,  RL  >  2,acts-1,N,784,72,83.083,0.19916700000000004
L1MAXMIN|MAXMIN|BOUNDARY,prep-left-turn,W_N,>EQ  10-Y/R,LOW  SPEED,NO  PEDESTRIAN,  RL  >  2,acts-1,Y,784,184,202.535667,0.027334999999999998
L1MAXMIN|MAXMIN|BOUNDARY,prep-left-turn,W_N,>EQ  10-Y/R,LOW  SPEED,NO  PEDESTRIAN,  RL  >  2,acts-1,Y,784,184,203.536667,0.11518400000000001
L1MAXMIN|MAXMIN|BOUNDARY,prep-left-turn,E_S,<10-Y/R,LOW  SPEED,NO  PEDESTRIAN,  RL  <EQ  2,acts-1,Y,784,20,10.176833,0.0017120000000000468
L1MAXMIN|MAXMIN|BOUNDARY,prep-left-turn,E_S,>EQ  10-Y/R,LOW  SPEED,PEDESTRIAN,  RL  <EQ  2,acts-3,N,784,175,196.529667,0.45273800000000003
L1MAXMIN|MAXMIN|BOUNDARY,prep-left-turn,E_S,>EQ  10-Y/R,LOW  SPEED,PEDESTRIAN,  RL  <EQ  2,acts-3,N,784,175,196.529667,0.45763400000000004
L1MAXMIN|MAXMIN|BOUNDARY,prep-left-turn,E_S,>EQ  10-Y/R,LOW  SPEED,PEDESTRIAN,  RL  <EQ  2,acts-3,N,784,175,197.530667,0.18934100000000004
L1MAXMIN|MAXMIN|BOUNDARY,prep-left-turn,E_S,>EQ  10-Y/R,LOW  SPEED,PEDESTRIAN,  RL  <EQ  2,acts-3,N,784,175,197.530667,0.19205700000000003
L1MAXMIN|MAXMIN|BOUNDARY,prep-left-turn,E_S,>EQ  10-Y/R,LOW  SPEED,PEDESTRIAN,  RL  >  2,acts-3,N,784,175,195.528667,0.09751399999999999
L1MAXMIN|MAXMIN|BOUNDARY,prep-left-turn,E_S,>EQ  10-Y/R,LOW  SPEED,PEDESTRIAN,  RL  >  2,acts-3,N,784,175,195.528667,0.10815599999999997
L1MAXMIN|MAXMIN|BOUNDARY,prep-left-turn,E_S,>EQ  10-Y/R,LOW  SPEED,NO  PEDESTRIAN,  RL  >  2,acts-1,Y,784,175,193.526667,0.035963999999999996
L1MAXMIN|MAXMIN|BOUNDARY,prep-left-turn,E_S,>EQ  10-Y/R,LOW  SPEED,NO  PEDESTRIAN,  RL  >  2,acts-1,Y,784,175,194.527667,0.018899
L1MAXMIN|MAXMIN|BOUNDARY,exec-left-turn,S_W,<10-Y/R,LOW  SPEED,NO  PEDESTRIAN,RL  0,acts-1,N,784,207,259.7595,0
L1MAXMIN|MAXMIN|BOUNDARY,exec-left-turn,S_W,<10-Y/R,LOW  SPEED,NO  PEDESTRIAN,RL  0,acts-1,Y,784,207,260.7605,0
L1MAXMIN|MAXMIN|BOUNDARY,exec-left-turn,S_W,<10-Y/R,LOW  SPEED,NO  PEDESTRIAN,RL  0,acts-1,Y,784,207,261.7615,0.003811000000000009
L1MAXMIN|MAXMIN|BOUNDARY,exec-left-turn,S_W,<10-Y/R,LOW  SPEED,NO  PEDESTRIAN,RL  0,acts-1,Y,784,207,262.7625,0
L1MAXMIN|MAXMIN|BOUNDARY,exec-left-turn,S_W,<10-Y/R,LOW  SPEED,NO  PEDESTRIAN,RL  0,acts-1,N,784,207,263.7635,0.00016499999999997073
L1MAXMIN|MAXMIN|BOUNDARY,exec-left-turn,S_W,<10-Y/R,MEDIUM  SPEED,NO  PEDESTRIAN,RL  0,acts-1,Y,784,47,57.891167,0.0017059999999999853
L1MAXMIN|MAXMIN|BOUNDARY,exec-left-turn,S_W,>EQ  10-Y/R,LOW  SPEED,NO  PEDESTRIAN,RL  0,acts-1,N,784,8,25.025,0.0005979999999999874
L1MAXMIN|MAXMIN|BOUNDARY,exec-left-turn,S_W,>EQ  10-Y/R,LOW  SPEED,NO  PEDESTRIAN,RL  0,acts-1,Y,784,8,26.026,0
L1MAXMIN|MAXMIN|BOUNDARY,exec-left-turn,S_W,>EQ  10-Y/R,LOW  SPEED,NO  PEDESTRIAN,RL  0,acts-1,Y,784,40,50.717333,0.003251000000000004
L1MAXMIN|MAXMIN|BOUNDARY,exec-left-turn,S_W,>EQ  10-Y/R,LOW  SPEED,NO  PEDESTRIAN,RL  0,acts-1,Y,784,40,51.718333,0.005484000000000044
L1MAXMIN|MAXMIN|BOUNDARY,exec-left-turn,S_W,>EQ  10-Y/R,LOW  SPEED,NO  PEDESTRIAN,RL  0,acts-1,Y,784,40,52.719333,0
L1MAXMIN|MAXMIN|BOUNDARY,exec-left-turn,S_W,>EQ  10-Y/R,LOW  SPEED,NO  PEDESTRIAN,RL  0,acts-1,Y,784,47,55.889167,0.0008730000000000127
L1MAXMIN|MAXMIN|BOUNDARY,exec-left-turn,S_W,>EQ  10-Y/R,LOW  SPEED,NO  PEDESTRIAN,RL  0,acts-1,Y,784,47,56.890167,0
L1MAXMIN|MAXMIN|BOUNDARY,exec-left-turn,S_W,>EQ  10-Y/R,LOW  SPEED,NO  PEDESTRIAN,  RL  <EQ  2,acts-1,N,784,40,47.714333,0.03274699999999997
L1MAXMIN|MAXMIN|BOUNDARY,exec-left-turn,S_W,>EQ  10-Y/R,MEDIUM  SPEED,NO  PEDESTRIAN,RL  0,acts-1,Y,784,8,27.027,0.0009770000000000056
L1MAXMIN|MAXMIN|BOUNDARY,exec-left-turn,S_W,>EQ  10-Y/R,MEDIUM  SPEED,NO  PEDESTRIAN,RL  0,acts-1,Y,784,40,53.720333,0.0009200000000000319
L1MAXMIN|MAXMIN|BOUNDARY,exec-left-turn,N_E,>EQ  10-Y/R,LOW  SPEED,PEDESTRIAN,RL  0,acts-3,Y,784,217,249.582667,0.01607500000000006
L1MAXMIN|MAXMIN|BOUNDARY,exec-left-turn,N_E,>EQ  10-Y/R,LOW  SPEED,PEDESTRIAN,RL  0,acts-3,Y,784,217,250.583667,0
L1MAXMIN|MAXMIN|BOUNDARY,exec-left-turn,N_E,>EQ  10-Y/R,LOW  SPEED,PEDESTRIAN,RL  0,acts-3,Y,784,217,251.584667,0.01184799999999997
L1MAXMIN|MAXMIN|BOUNDARY,exec-left-turn,N_E,>EQ  10-Y/R,LOW  SPEED,PEDESTRIAN,RL  0,acts-3,Y,784,217,252.585667,0
L1MAXMIN|MAXMIN|BOUNDARY,exec-left-turn,N_E,>EQ  10-Y/R,LOW  SPEED,PEDESTRIAN,RL  0,acts-3,Y,784,217,253.586667,0.0015959999999999308
L1MAXMIN|MAXMIN|BOUNDARY,exec-left-turn,N_E,>EQ  10-Y/R,LOW  SPEED,PEDESTRIAN,RL  0,acts-3,Y,784,217,254.587667,0.0008650000000000047
L1MAXMIN|MAXMIN|BOUNDARY,exec-left-turn,N_E,>EQ  10-Y/R,LOW  SPEED,NO  PEDESTRIAN,RL  0,acts-1,Y,784,14,37.037,0.005422999999999956
L1MAXMIN|MAXMIN|BOUNDARY,exec-left-turn,N_E,>EQ  10-Y/R,LOW  SPEED,NO  PEDESTRIAN,RL  0,acts-1,Y,784,115,123.6235,0.06877
L1MAXMIN|MAXMIN|BOUNDARY,exec-left-turn,N_E,>EQ  10-Y/R,LOW  SPEED,NO  PEDESTRIAN,RL  0,acts-1,Y,784,115,124.6245,0.05262800000000001
L1MAXMIN|MAXMIN|BOUNDARY,exec-left-turn,N_E,>EQ  10-Y/R,LOW  SPEED,NO  PEDESTRIAN,RL  0,acts-1,N,784,115,125.6255,0.05396500000000004
L1MAXMIN|MAXMIN|BOUNDARY,exec-left-turn,N_E,>EQ  10-Y/R,LOW  SPEED,NO  PEDESTRIAN,RL  0,acts-1,N,784,115,126.6265,0.05064599999999997
L1MAXMIN|MAXMIN|BOUNDARY,exec-left-turn,N_E,>EQ  10-Y/R,LOW  SPEED,NO  PEDESTRIAN,RL  0,acts-1,N,784,115,127.6275,0.04884500000000003
L1MAXMIN|MAXMIN|BOUNDARY,exec-left-turn,N_E,>EQ  10-Y/R,LOW  SPEED,NO  PEDESTRIAN,RL  0,acts-1,N,784,115,128.6285,0.008687
L1MAXMIN|MAXMIN|BOUNDARY,exec-left-turn,N_E,>EQ  10-Y/R,LOW  SPEED,NO  PEDESTRIAN,RL  0,acts-1,Y,784,115,129.6295,0
L1MAXMIN|MAXMIN|BOUNDARY,exec-left-turn,N_E,>EQ  10-Y/R,LOW  SPEED,NO  PEDESTRIAN,RL  0,acts-1,Y,784,115,130.6305,0.0018210000000000726
L1MAXMIN|MAXMIN|BOUNDARY,exec-left-turn,N_E,>EQ  10-Y/R,LOW  SPEED,NO  PEDESTRIAN,RL  0,acts-1,Y,784,115,131.6315,0
L1MAXMIN|MAXMIN|BOUNDARY,exec-left-turn,N_E,>EQ  10-Y/R,LOW  SPEED,NO  PEDESTRIAN,RL  0,acts-1,Y,784,115,132.6325,0
L1MAXMIN|MAXMIN|BOUNDARY,exec-left-turn,N_E,>EQ  10-Y/R,LOW  SPEED,NO  PEDESTRIAN,RL  0,acts-1,Y,784,115,133.6335,0
L1MAXMIN|MAXMIN|BOUNDARY,exec-left-turn,N_E,>EQ  10-Y/R,LOW  SPEED,NO  PEDESTRIAN,RL  0,acts-1,Y,784,115,134.6345,0
L1MAXMIN|MAXMIN|BOUNDARY,exec-left-turn,N_E,>EQ  10-Y/R,LOW  SPEED,NO  PEDESTRIAN,RL  0,acts-1,Y,784,143,141.975167,0.07391199999999998
L1MAXMIN|MAXMIN|BOUNDARY,exec-left-turn,N_E,>EQ  10-Y/R,LOW  SPEED,NO  PEDESTRIAN,RL  0,acts-1,Y,784,143,142.976167,0.07978099999999999
L1MAXMIN|MAXMIN|BOUNDARY,exec-left-turn,N_E,>EQ  10-Y/R,LOW  SPEED,NO  PEDESTRIAN,RL  0,acts-1,Y,784,143,143.977167,0.0005889999999999507
L1MAXMIN|MAXMIN|BOUNDARY,exec-left-turn,N_E,>EQ  10-Y/R,LOW  SPEED,NO  PEDESTRIAN,RL  0,acts-1,Y,784,143,144.978167,0.007399999999999962
L1MAXMIN|MAXMIN|BOUNDARY,exec-left-turn,N_E,>EQ  10-Y/R,LOW  SPEED,NO  PEDESTRIAN,RL  0,acts-1,Y,784,161,224.7245,0
L1MAXMIN|MAXMIN|BOUNDARY,exec-left-turn,N_E,>EQ  10-Y/R,LOW  SPEED,NO  PEDESTRIAN,RL  0,acts-1,Y,784,161,225.7255,0
L1MAXMIN|MAXMIN|BOUNDARY,exec-left-turn,N_E,>EQ  10-Y/R,LOW  SPEED,NO  PEDESTRIAN,RL  0,acts-1,Y,784,217,236.569667,0.06616299999999997
L1MAXMIN|MAXMIN|BOUNDARY,exec-left-turn,N_E,>EQ  10-Y/R,LOW  SPEED,NO  PEDESTRIAN,RL  0,acts-1,Y,784,217,237.570667,0.06738700000000009
L1MAXMIN|MAXMIN|BOUNDARY,exec-left-turn,N_E,>EQ  10-Y/R,LOW  SPEED,NO  PEDESTRIAN,RL  0,acts-1,N,784,217,238.571667,0.067056
L1MAXMIN|MAXMIN|BOUNDARY,exec-left-turn,N_E,>EQ  10-Y/R,LOW  SPEED,NO  PEDESTRIAN,RL  0,acts-1,N,784,217,239.572667,0.06531300000000007
L1MAXMIN|MAXMIN|BOUNDARY,exec-left-turn,N_E,>EQ  10-Y/R,LOW  SPEED,NO  PEDESTRIAN,RL  0,acts-1,N,784,217,240.573667,0.04107899999999998
L1MAXMIN|MAXMIN|BOUNDARY,exec-left-turn,N_E,>EQ  10-Y/R,LOW  SPEED,NO  PEDESTRIAN,RL  0,acts-1,N,784,217,241.574667,0.04597200000000001
L1MAXMIN|MAXMIN|BOUNDARY,exec-left-turn,N_E,>EQ  10-Y/R,LOW  SPEED,NO  PEDESTRIAN,RL  0,acts-1,N,784,217,242.575667,0.06267600000000006
L1MAXMIN|MAXMIN|BOUNDARY,exec-left-turn,N_E,>EQ  10-Y/R,LOW  SPEED,NO  PEDESTRIAN,RL  0,acts-1,N,784,217,243.576667,0.05526500000000001
L1MAXMIN|MAXMIN|BOUNDARY,exec-left-turn,N_E,>EQ  10-Y/R,LOW  SPEED,NO  PEDESTRIAN,RL  0,acts-1,N,784,217,244.577667,0.06608800000000004
L1MAXMIN|MAXMIN|BOUNDARY,exec-left-turn,N_E,>EQ  10-Y/R,LOW  SPEED,NO  PEDESTRIAN,RL  0,acts-1,N,784,217,245.578667,0.006817999999999991
L1MAXMIN|MAXMIN|BOUNDARY,exec-left-turn,N_E,>EQ  10-Y/R,LOW  SPEED,NO  PEDESTRIAN,RL  0,acts-1,Y,784,217,246.579667,0
L1MAXMIN|MAXMIN|BOUNDARY,exec-left-turn,N_E,>EQ  10-Y/R,LOW  SPEED,NO  PEDESTRIAN,RL  0,acts-1,Y,784,217,247.580667,0
L1MAXMIN|MAXMIN|BOUNDARY,exec-left-turn,N_E,>EQ  10-Y/R,LOW  SPEED,NO  PEDESTRIAN,RL  0,acts-1,Y,784,217,248.581667,0
L1MAXMIN|MAXMIN|BOUNDARY,exec-left-turn,N_E,>EQ  10-Y/R,MEDIUM  SPEED,NO  PEDESTRIAN,RL  0,acts-1,Y,784,38,41.708333,0.005923000000000012
L1MAXMIN|MAXMIN|BOUNDARY,exec-left-turn,N_E,>EQ  10-Y/R,MEDIUM  SPEED,NO  PEDESTRIAN,RL  0,acts-1,Y,784,38,42.709333,0.005595000000000017
L1MAXMIN|MAXMIN|BOUNDARY,exec-left-turn,N_E,>EQ  10-Y/R,MEDIUM  SPEED,NO  PEDESTRIAN,RL  0,acts-1,Y,784,115,135.6355,0
L1MAXMIN|MAXMIN|BOUNDARY,exec-left-turn,N_E,>EQ  10-Y/R,MEDIUM  SPEED,NO  PEDESTRIAN,RL  0,acts-1,Y,784,161,226.7265,0.0025359999999999827
L1MAXMIN|MAXMIN|BOUNDARY,exec-left-turn,N_E,>EQ  10-Y/R,MEDIUM  SPEED,NO  PEDESTRIAN,RL  0,acts-1,Y,784,161,227.7275,0.0006630000000000802
L1MAXMIN|MAXMIN|BOUNDARY,exec-left-turn,W_N,<10-Y/R,LOW  SPEED,PEDESTRIAN,RL  0,acts-5,N,784,184,216.549667,0.007970000000000033
L1MAXMIN|MAXMIN|BOUNDARY,exec-left-turn,W_N,<10-Y/R,LOW  SPEED,PEDESTRIAN,RL  0,acts-5,Y,784,184,217.550667,0
L1MAXMIN|MAXMIN|BOUNDARY,exec-left-turn,W_N,<10-Y/R,LOW  SPEED,PEDESTRIAN,RL  0,acts-5,Y,784,184,218.551667,0
L1MAXMIN|MAXMIN|BOUNDARY,exec-left-turn,W_N,<10-Y/R,LOW  SPEED,NO  PEDESTRIAN,RL  0,acts-6,Y,784,9,18.018,0.004622000000000015
L1MAXMIN|MAXMIN|BOUNDARY,exec-left-turn,W_N,<10-Y/R,LOW  SPEED,NO  PEDESTRIAN,RL  0,acts-6,Y,784,9,19.019,0
L1MAXMIN|MAXMIN|BOUNDARY,exec-left-turn,W_N,<10-Y/R,LOW  SPEED,NO  PEDESTRIAN,RL  0,acts-6,Y,784,184,214.547667,0.0025839999999999197
L1MAXMIN|MAXMIN|BOUNDARY,exec-left-turn,W_N,<10-Y/R,LOW  SPEED,NO  PEDESTRIAN,RL  0,acts-6,Y,784,184,215.548667,0.01040999999999992
L1MAXMIN|MAXMIN|BOUNDARY,exec-left-turn,W_N,>EQ  10-Y/R,LOW  SPEED,PEDESTRIAN,RL  0,acts-3,N,784,124,178.344833,0.018198000000000047
L1MAXMIN|MAXMIN|BOUNDARY,exec-left-turn,W_N,>EQ  10-Y/R,LOW  SPEED,PEDESTRIAN,RL  0,acts-3,N,784,124,178.344833,0.018198000000000047
L1MAXMIN|MAXMIN|BOUNDARY,exec-left-turn,W_N,>EQ  10-Y/R,LOW  SPEED,PEDESTRIAN,RL  0,acts-3,N,784,124,179.345833,0.002283000000000035
L1MAXMIN|MAXMIN|BOUNDARY,exec-left-turn,W_N,>EQ  10-Y/R,LOW  SPEED,PEDESTRIAN,RL  0,acts-3,Y,784,124,180.346833,0.0004309999999999592
L1MAXMIN|MAXMIN|BOUNDARY,exec-left-turn,W_N,>EQ  10-Y/R,LOW  SPEED,PEDESTRIAN,RL  0,acts-3,Y,784,124,181.347833,0.017588000000000048
L1MAXMIN|MAXMIN|BOUNDARY,exec-left-turn,W_N,>EQ  10-Y/R,LOW  SPEED,PEDESTRIAN,RL  0,acts-3,Y,784,124,181.347833,0.017588000000000048
L1MAXMIN|MAXMIN|BOUNDARY,exec-left-turn,W_N,>EQ  10-Y/R,LOW  SPEED,PEDESTRIAN,RL  0,acts-3,Y,784,130,182.849333,0.01999200000000001
L1MAXMIN|MAXMIN|BOUNDARY,exec-left-turn,W_N,>EQ  10-Y/R,LOW  SPEED,PEDESTRIAN,RL  0,acts-3,Y,784,130,182.849333,0.01999200000000001
L1MAXMIN|MAXMIN|BOUNDARY,exec-left-turn,W_N,>EQ  10-Y/R,LOW  SPEED,NO  PEDESTRIAN,RL  0,acts-1,Y,784,72,88.088,0.0017850000000000366
L1MAXMIN|MAXMIN|BOUNDARY,exec-left-turn,W_N,>EQ  10-Y/R,LOW  SPEED,NO  PEDESTRIAN,RL  0,acts-1,Y,784,72,89.089,0.0008230000000000182
L1MAXMIN|MAXMIN|BOUNDARY,exec-left-turn,W_N,>EQ  10-Y/R,LOW  SPEED,NO  PEDESTRIAN,RL  0,acts-1,Y,784,72,90.09,0.0009660000000000224
L1MAXMIN|MAXMIN|BOUNDARY,exec-left-turn,W_N,>EQ  10-Y/R,MEDIUM  SPEED,PEDESTRIAN,RL  0,acts-3,N,784,137,184.851333,0.019114999999999993
L1MAXMIN|MAXMIN|BOUNDARY,exec-left-turn,W_N,>EQ  10-Y/R,MEDIUM  SPEED,PEDESTRIAN,RL  0,acts-3,N,784,137,184.851333,0.019114999999999993
L1MAXMIN|MAXMIN|BOUNDARY,exec-left-turn,W_N,>EQ  10-Y/R,MEDIUM  SPEED,PEDESTRIAN,RL  0,acts-3,Y,784,157,186.352833,0.022631999999999985
L1MAXMIN|MAXMIN|BOUNDARY,exec-left-turn,W_N,>EQ  10-Y/R,MEDIUM  SPEED,PEDESTRIAN,RL  0,acts-3,Y,784,157,186.352833,0.022631999999999985
L1MAXMIN|MAXMIN|BOUNDARY,exec-left-turn,W_N,>EQ  10-Y/R,MEDIUM  SPEED,NO  PEDESTRIAN,RL  0,acts-1,N,784,72,91.091,0.011755999999999989
L1MAXMIN|MAXMIN|BOUNDARY,exec-left-turn,W_N,>EQ  10-G,LOW  SPEED,NO  PEDESTRIAN,RL  0,acts-6,N,784,9,21.021,0
L1MAXMIN|MAXMIN|BOUNDARY,exec-left-turn,W_N,>EQ  10-G,LOW  SPEED,NO  PEDESTRIAN,  RL  <EQ  2,acts-6,Y,784,9,20.02,0.0018939999999999513
L1MAXMIN|MAXMIN|BOUNDARY,exec-left-turn,E_S,<10-Y/R,LOW  SPEED,PEDESTRIAN,RL  0,acts-3,N,784,175,211.544667,0.014631999999999978
L1MAXMIN|MAXMIN|BOUNDARY,exec-left-turn,E_S,<10-Y/R,LOW  SPEED,PEDESTRIAN,RL  0,acts-3,N,784,175,211.544667,0.014631999999999978
L1MAXMIN|MAXMIN|BOUNDARY,exec-left-turn,E_S,<10-Y/R,LOW  SPEED,PEDESTRIAN,RL  0,acts-3,N,784,175,212.545667,0.016067000000000053
L1MAXMIN|MAXMIN|BOUNDARY,exec-left-turn,E_S,<10-Y/R,LOW  SPEED,PEDESTRIAN,RL  0,acts-3,N,784,175,212.545667,0.016067000000000053
L1MAXMIN|MAXMIN|BOUNDARY,exec-left-turn,E_S,<10-Y/R,LOW  SPEED,PEDESTRIAN,RL  0,acts-3,N,784,175,213.546667,0
L1MAXMIN|MAXMIN|BOUNDARY,exec-left-turn,E_S,<10-Y/R,LOW  SPEED,PEDESTRIAN,RL  0,acts-5,Y,784,175,214.547667,0
L1MAXMIN|MAXMIN|BOUNDARY,exec-left-turn,E_S,<10-Y/R,LOW  SPEED,PEDESTRIAN,RL  0,acts-5,Y,784,175,215.548667,0.0004070000000000462
L1MAXMIN|MAXMIN|BOUNDARY,exec-left-turn,E_S,<10-Y/R,LOW  SPEED,PEDESTRIAN,RL  0,acts-5,Y,784,175,216.549667,0.0009530000000000927
L1MAXMIN|MAXMIN|BOUNDARY,exec-left-turn,E_S,<10-Y/R,LOW  SPEED,PEDESTRIAN,RL  0,acts-5,Y,784,175,217.550667,0
L1MAXMIN|MAXMIN|BOUNDARY,exec-left-turn,E_S,<10-Y/R,LOW  SPEED,PEDESTRIAN,  RL  <EQ  2,acts-3,N,784,175,205.538667,0.04947400000000002
L1MAXMIN|MAXMIN|BOUNDARY,exec-left-turn,E_S,<10-Y/R,LOW  SPEED,PEDESTRIAN,  RL  <EQ  2,acts-3,N,784,175,205.538667,0.18267099999999992
L1MAXMIN|MAXMIN|BOUNDARY,exec-left-turn,E_S,<10-Y/R,LOW  SPEED,PEDESTRIAN,  RL  <EQ  2,acts-3,N,784,175,206.539667,0.005259999999999931
L1MAXMIN|MAXMIN|BOUNDARY,exec-left-turn,E_S,<10-Y/R,LOW  SPEED,PEDESTRIAN,  RL  <EQ  2,acts-3,N,784,175,206.539667,0.005259999999999931
L1MAXMIN|MAXMIN|BOUNDARY,exec-left-turn,E_S,<10-Y/R,LOW  SPEED,PEDESTRIAN,  RL  <EQ  2,acts-3,N,784,175,207.540667,0.170288
L1MAXMIN|MAXMIN|BOUNDARY,exec-left-turn,E_S,<10-Y/R,LOW  SPEED,PEDESTRIAN,  RL  <EQ  2,acts-3,N,784,175,207.540667,0
L1MAXMIN|MAXMIN|BOUNDARY,exec-left-turn,E_S,<10-Y/R,LOW  SPEED,NO  PEDESTRIAN,RL  0,acts-6,Y,784,197,220.386833,0.0009449999999999736
L1MAXMIN|MAXMIN|BOUNDARY,exec-left-turn,E_S,<10-Y/R,MEDIUM  SPEED,NO  PEDESTRIAN,RL  0,acts-6,N,784,20,13.179833,0
L1MAXMIN|MAXMIN|BOUNDARY,exec-left-turn,E_S,<10-Y/R,MEDIUM  SPEED,NO  PEDESTRIAN,RL  0,acts-6,Y,784,175,218.551667,0.00012100000000003774
L1MAXMIN|MAXMIN|BOUNDARY,exec-left-turn,E_S,<10-Y/R,MEDIUM  SPEED,NO  PEDESTRIAN,RL  0,acts-6,N,784,175,219.552667,0
L1MAXMIN|MAXMIN|BOUNDARY,exec-left-turn,E_S,<10-Y/R,MEDIUM  SPEED,NO  PEDESTRIAN,  RL  <EQ  2,acts-1,Y,784,20,11.177833,0.0016699999999999493
L1MAXMIN|MAXMIN|BOUNDARY,exec-left-turn,E_S,>EQ  10-Y/R,MEDIUM  SPEED,NO  PEDESTRIAN,RL  0,acts-1,N,784,4,0,0.0012730000000000796
L1MAXMIN|MAXMIN|BOUNDARY,exec-left-turn,E_S,>EQ  10-Y/R,MEDIUM  SPEED,NO  PEDESTRIAN,RL  0,acts-1,Y,784,13,2.002,0.0006460000000000354
L1MAXMIN|MAXMIN|BOUNDARY,exec-left-turn,E_S,>EQ  10-G,MEDIUM  SPEED,NO  PEDESTRIAN,RL  0,acts-6,Y,784,197,221.387833,0
L1MAXMIN|MAXMIN|BOUNDARY,OTHER  LANES,W_S,<10-Y/R,LOW  SPEED,PEDESTRIAN,RL  0,acts-5,N,784,101,105.438667,0.03234499999999996
L1MAXMIN|MAXMIN|BOUNDARY,OTHER  LANES,W_S,<10-Y/R,LOW  SPEED,PEDESTRIAN,RL  0,acts-5,Y,784,106,111.945167,0.040159999999999973
L1MAXMIN|MAXMIN|BOUNDARY,OTHER  LANES,W_S,<10-Y/R,LOW  SPEED,PEDESTRIAN,  RL  <EQ  2,acts-5,Y,784,192,208.374833,0.035309000000000035
L1MAXMIN|MAXMIN|BOUNDARY,OTHER  LANES,W_S,<10-Y/R,LOW  SPEED,PEDESTRIAN,  RL  <EQ  2,acts-5,Y,784,198,212.212,0
L1MAXMIN|MAXMIN|BOUNDARY,OTHER  LANES,W_S,<10-Y/R,LOW  SPEED,PEDESTRIAN,  RL  <EQ  2,acts-5,Y,784,198,213.213,0.02822800000000003
L1MAXMIN|MAXMIN|BOUNDARY,OTHER  LANES,W_S,<10-Y/R,MEDIUM  SPEED,PEDESTRIAN,RL  0,acts-5,N,784,106,108.942167,0
L1MAXMIN|MAXMIN|BOUNDARY,OTHER  LANES,W_S,<10-Y/R,MEDIUM  SPEED,PEDESTRIAN,RL  0,acts-5,Y,784,106,109.943167,0.01702300000000001
L1MAXMIN|MAXMIN|BOUNDARY,OTHER  LANES,W_S,<10-Y/R,MEDIUM  SPEED,PEDESTRIAN,RL  0,acts-5,Y,784,106,110.944167,0.046826000000000034
L1MAXMIN|MAXMIN|BOUNDARY,OTHER  LANES,W_S,<10-Y/R,MEDIUM  SPEED,PEDESTRIAN,  RL  <EQ  2,acts-5,Y,784,192,207.373833,0.045036999999999994
L1MAXMIN|MAXMIN|BOUNDARY,OTHER  LANES,W_S,<10-Y/R,MEDIUM  SPEED,PEDESTRIAN,  RL  >  2,acts-5,Y,784,198,211.211,0.006361999999999979
L1MAXMIN|MAXMIN|BOUNDARY,OTHER  LANES,W_S,<10-Y/R,MEDIUM  SPEED,NO  PEDESTRIAN,RL  0,acts-8,Y,784,101,102.435667,0
L1MAXMIN|MAXMIN|BOUNDARY,OTHER  LANES,W_S,<10-Y/R,MEDIUM  SPEED,NO  PEDESTRIAN,RL  0,acts-8,Y,784,101,103.436667,0.021573999999999982
L1MAXMIN|MAXMIN|BOUNDARY,OTHER  LANES,W_S,<10-Y/R,MEDIUM  SPEED,NO  PEDESTRIAN,RL  0,acts-8,Y,784,101,104.437667,0.04683999999999999
L1MAXMIN|MAXMIN|BOUNDARY,OTHER  LANES,W_S,<10-G,LOW  SPEED,PEDESTRIAN,RL  0,acts-5,N,784,65,64.898167,0.01285500000000006
L1MAXMIN|MAXMIN|BOUNDARY,OTHER  LANES,W_S,<10-G,LOW  SPEED,PEDESTRIAN,RL  0,acts-5,Y,784,65,65.899167,0.037860000000000005
L1MAXMIN|MAXMIN|BOUNDARY,OTHER  LANES,W_S,<10-G,LOW  SPEED,PEDESTRIAN,RL  0,acts-5,Y,784,65,66.900167,0.04289100000000001
L1MAXMIN|MAXMIN|BOUNDARY,OTHER  LANES,W_S,<10-G,LOW  SPEED,PEDESTRIAN,RL  0,acts-5,N,784,65,67.901167,0.04301900000000003
L1MAXMIN|MAXMIN|BOUNDARY,OTHER  LANES,W_S,<10-G,LOW  SPEED,PEDESTRIAN,RL  0,acts-5,N,784,65,68.902167,0
L1MAXMIN|MAXMIN|BOUNDARY,OTHER  LANES,W_S,<10-G,LOW  SPEED,PEDESTRIAN,RL  0,acts-5,Y,784,65,69.903167,0
L1MAXMIN|MAXMIN|BOUNDARY,OTHER  LANES,W_S,<10-G,LOW  SPEED,NO  PEDESTRIAN,RL  0,acts-8,Y,784,154,164.831333,0.044824000000000086
L1MAXMIN|MAXMIN|BOUNDARY,OTHER  LANES,W_S,<10-G,LOW  SPEED,NO  PEDESTRIAN,RL  0,acts-8,Y,784,154,165.832333,0.04468400000000006
L1MAXMIN|MAXMIN|BOUNDARY,OTHER  LANES,W_S,<10-G,LOW  SPEED,NO  PEDESTRIAN,RL  0,acts-8,Y,784,154,166.833333,0.04117099999999996
L1MAXMIN|MAXMIN|BOUNDARY,OTHER  LANES,W_S,<10-G,LOW  SPEED,NO  PEDESTRIAN,RL  0,acts-8,Y,784,154,167.834333,0.03634599999999999
L1MAXMIN|MAXMIN|BOUNDARY,OTHER  LANES,W_S,<10-G,LOW  SPEED,NO  PEDESTRIAN,RL  0,acts-8,Y,784,162,173.339833,0.01889699999999994
L1MAXMIN|MAXMIN|BOUNDARY,OTHER  LANES,W_S,>EQ  10-Y/R,LOW  SPEED,PEDESTRIAN,RL  0,acts-5,Y,784,78,83.083,0
L1MAXMIN|MAXMIN|BOUNDARY,OTHER  LANES,W_S,>EQ  10-Y/R,LOW  SPEED,PEDESTRIAN,RL  0,acts-5,N,784,78,84.084,0.0013679999999999248
L1MAXMIN|MAXMIN|BOUNDARY,OTHER  LANES,W_S,>EQ  10-Y/R,LOW  SPEED,PEDESTRIAN,RL  0,acts-5,N,784,78,85.085,0.033976000000000006
L1MAXMIN|MAXMIN|BOUNDARY,OTHER  LANES,W_S,>EQ  10-Y/R,LOW  SPEED,PEDESTRIAN,RL  0,acts-5,N,784,78,86.086,0.045645999999999964
L1MAXMIN|MAXMIN|BOUNDARY,OTHER  LANES,W_S,>EQ  10-Y/R,LOW  SPEED,PEDESTRIAN,RL  0,acts-5,N,784,78,87.087,0.03555199999999992
L1MAXMIN|MAXMIN|BOUNDARY,OTHER  LANES,W_S,>EQ  10-Y/R,LOW  SPEED,PEDESTRIAN,RL  0,acts-5,N,784,82,88.254833,0.04620599999999997
L1MAXMIN|MAXMIN|BOUNDARY,OTHER  LANES,W_S,>EQ  10-Y/R,LOW  SPEED,NO  PEDESTRIAN,RL  0,acts-8,Y,784,87,92.759333,0.04838399999999998
L1MAXMIN|MAXMIN|BOUNDARY,OTHER  LANES,W_S,>EQ  10-Y/R,LOW  SPEED,NO  PEDESTRIAN,RL  0,acts-8,N,784,87,93.760333,0.04230400000000001
L1MAXMIN|MAXMIN|BOUNDARY,OTHER  LANES,W_S,>EQ  10-Y/R,LOW  SPEED,NO  PEDESTRIAN,RL  0,acts-8,Y,784,162,174.340833,0.045189000000000035
L1MAXMIN|MAXMIN|BOUNDARY,OTHER  LANES,W_S,>EQ  10-Y/R,LOW  SPEED,NO  PEDESTRIAN,RL  0,acts-8,N,784,162,175.341833,0.041574
L1MAXMIN|MAXMIN|BOUNDARY,OTHER  LANES,W_S,>EQ  10-Y/R,MEDIUM  SPEED,PEDESTRIAN,RL  0,acts-5,N,784,87,90.757333,0.0
L1MAXMIN|MAXMIN|BOUNDARY,OTHER  LANES,W_S,>EQ  10-Y/R,MEDIUM  SPEED,PEDESTRIAN,RL  0,acts-5,Y,784,87,91.758333,0.014467000000000008
L1MAXMIN|MAXMIN|BOUNDARY,OTHER  LANES,W_S,>EQ  10-G,LOW  SPEED,PEDESTRIAN,RL  0,acts-5,Y,784,65,63.897167,0.007429000000000019
L1MAXMIN|MAXMIN|BOUNDARY,OTHER  LANES,W_S,>EQ  10-G,LOW  SPEED,PEDESTRIAN,  RL  <EQ  2,acts-5,Y,784,133,133.800333,0.002462999999999993
L1MAXMIN|MAXMIN|BOUNDARY,OTHER  LANES,W_S,>EQ  10-G,LOW  SPEED,PEDESTRIAN,  RL  <EQ  2,acts-5,Y,784,133,134.801333,0.01419999999999999
L1MAXMIN|MAXMIN|BOUNDARY,OTHER  LANES,W_S,>EQ  10-G,LOW  SPEED,PEDESTRIAN,  RL  <EQ  2,acts-5,Y,784,133,135.802333,0.0007949999999999902
L1MAXMIN|MAXMIN|BOUNDARY,OTHER  LANES,W_S,>EQ  10-G,LOW  SPEED,PEDESTRIAN,  RL  <EQ  2,acts-5,N,784,198,218.218,0
L1MAXMIN|MAXMIN|BOUNDARY,OTHER  LANES,W_S,>EQ  10-G,LOW  SPEED,PEDESTRIAN,  RL  <EQ  2,acts-5,N,784,198,219.219,0.07114899999999996
L1MAXMIN|MAXMIN|BOUNDARY,OTHER  LANES,W_S,>EQ  10-G,LOW  SPEED,PEDESTRIAN,  RL  >  2,acts-5,Y,784,133,130.797333,0.0006030000000000202
L1MAXMIN|MAXMIN|BOUNDARY,OTHER  LANES,W_S,>EQ  10-G,LOW  SPEED,PEDESTRIAN,  RL  >  2,acts-5,Y,784,133,132.799333,0.0
L1MAXMIN|MAXMIN|BOUNDARY,OTHER  LANES,W_S,>EQ  10-G,LOW  SPEED,NO  PEDESTRIAN,RL  0,acts-8,N,784,31,27.5275,0.04302399999999995
L1MAXMIN|MAXMIN|BOUNDARY,OTHER  LANES,W_S,>EQ  10-G,LOW  SPEED,NO  PEDESTRIAN,RL  0,acts-8,N,784,31,28.5285,0
L1MAXMIN|MAXMIN|BOUNDARY,OTHER  LANES,W_S,>EQ  10-G,LOW  SPEED,NO  PEDESTRIAN,RL  0,acts-8,Y,784,62,56.723333,0.030775999999999915
L1MAXMIN|MAXMIN|BOUNDARY,OTHER  LANES,W_S,>EQ  10-G,LOW  SPEED,NO  PEDESTRIAN,RL  0,acts-8,Y,784,62,57.724333,0.042094999999999994
L1MAXMIN|MAXMIN|BOUNDARY,OTHER  LANES,W_S,>EQ  10-G,LOW  SPEED,NO  PEDESTRIAN,RL  0,acts-8,N,784,62,58.725333,0.04171099999999994
L1MAXMIN|MAXMIN|BOUNDARY,OTHER  LANES,W_S,>EQ  10-G,LOW  SPEED,NO  PEDESTRIAN,RL  0,acts-8,Y,784,62,59.726333,0
L1MAXMIN|MAXMIN|BOUNDARY,OTHER  LANES,W_S,>EQ  10-G,LOW  SPEED,NO  PEDESTRIAN,RL  0,acts-8,Y,784,65,62.896167,0.0064429999999999765
L1MAXMIN|MAXMIN|BOUNDARY,OTHER  LANES,W_S,>EQ  10-G,LOW  SPEED,NO  PEDESTRIAN,RL  0,acts-8,Y,784,154,161.828333,0
L1MAXMIN|MAXMIN|BOUNDARY,OTHER  LANES,W_S,>EQ  10-G,LOW  SPEED,NO  PEDESTRIAN,RL  0,acts-8,N,784,154,162.829333,0.0007539999999999214
L1MAXMIN|MAXMIN|BOUNDARY,OTHER  LANES,W_S,>EQ  10-G,LOW  SPEED,NO  PEDESTRIAN,RL  0,acts-8,N,784,154,163.830333,0.018253999999999992
L1MAXMIN|MAXMIN|BOUNDARY,OTHER  LANES,W_S,>EQ  10-G,MEDIUM  SPEED,PEDESTRIAN,  RL  >  2,acts-5,Y,784,133,131.798333,0.0
L1MAXMIN|MAXMIN|BOUNDARY,OTHER  LANES,W_S,>EQ  10-G,MEDIUM  SPEED,NO  PEDESTRIAN,RL  0,acts-8,Y,784,31,25.5255,0
L1MAXMIN|MAXMIN|BOUNDARY,OTHER  LANES,W_S,>EQ  10-G,MEDIUM  SPEED,NO  PEDESTRIAN,RL  0,acts-8,Y,784,31,26.5265,0.014233000000000051
L1MAXMIN|MAXMIN|BOUNDARY,OTHER  LANES,S_W,<10-G,LOW  SPEED,PEDESTRIAN,RL  0,acts-9,N,784,207,223.7235,0.0
L1MAXMIN|MAXMIN|BOUNDARY,OTHER  LANES,S_W,<10-G,LOW  SPEED,PEDESTRIAN,RL  0,acts-9,Y,784,207,224.7245,0
L1MAXMIN|MAXMIN|BOUNDARY,OTHER  LANES,S_W,<10-G,LOW  SPEED,PEDESTRIAN,RL  0,acts-9,Y,784,207,225.7255,0
L1MAXMIN|MAXMIN|BOUNDARY,OTHER  LANES,S_W,<10-G,LOW  SPEED,PEDESTRIAN,RL  0,acts-9,N,784,207,226.7265,0.0
L1MAXMIN|MAXMIN|BOUNDARY,OTHER  LANES,S_W,<10-G,LOW  SPEED,PEDESTRIAN,RL  0,acts-9,N,784,207,227.7275,0.0
L1MAXMIN|MAXMIN|BOUNDARY,OTHER  LANES,S_W,<10-G,LOW  SPEED,PEDESTRIAN,RL  0,acts-9,N,784,207,228.7285,0.0
L1MAXMIN|MAXMIN|BOUNDARY,OTHER  LANES,S_W,<10-G,LOW  SPEED,PEDESTRIAN,RL  0,acts-9,N,784,207,229.7295,0.0
L1MAXMIN|MAXMIN|BOUNDARY,OTHER  LANES,S_W,<10-G,LOW  SPEED,PEDESTRIAN,RL  0,acts-9,N,784,207,230.7305,0.0
L1MAXMIN|MAXMIN|BOUNDARY,OTHER  LANES,S_W,<10-G,LOW  SPEED,PEDESTRIAN,RL  0,acts-9,N,784,207,231.7315,0
L1MAXMIN|MAXMIN|BOUNDARY,OTHER  LANES,S_W,<10-G,LOW  SPEED,PEDESTRIAN,RL  0,acts-9,N,784,207,232.7325,0.0
L1MAXMIN|MAXMIN|BOUNDARY,OTHER  LANES,S_W,<10-G,LOW  SPEED,NO  PEDESTRIAN,RL  0,acts-9,N,784,8,10.01,0.0
L1MAXMIN|MAXMIN|BOUNDARY,OTHER  LANES,S_W,<10-G,LOW  SPEED,NO  PEDESTRIAN,RL  0,acts-9,N,784,8,11.011,0.0
L1MAXMIN|MAXMIN|BOUNDARY,OTHER  LANES,S_W,<10-G,LOW  SPEED,NO  PEDESTRIAN,RL  0,acts-9,N,784,8,12.012,0.0
L1MAXMIN|MAXMIN|BOUNDARY,OTHER  LANES,S_W,<10-G,LOW  SPEED,NO  PEDESTRIAN,RL  0,acts-9,N,784,8,13.013,0.0
L1MAXMIN|MAXMIN|BOUNDARY,OTHER  LANES,S_W,<10-G,LOW  SPEED,NO  PEDESTRIAN,RL  0,acts-9,N,784,8,14.014,0.0
L1MAXMIN|MAXMIN|BOUNDARY,OTHER  LANES,S_W,<10-G,LOW  SPEED,NO  PEDESTRIAN,RL  0,acts-9,N,784,8,15.015,0.0
L1MAXMIN|MAXMIN|BOUNDARY,OTHER  LANES,S_W,<10-G,LOW  SPEED,NO  PEDESTRIAN,RL  0,acts-9,N,784,8,16.016,0.0
L1MAXMIN|MAXMIN|BOUNDARY,OTHER  LANES,S_W,<10-G,LOW  SPEED,NO  PEDESTRIAN,RL  0,acts-9,N,784,8,17.017,0.0
L1MAXMIN|MAXMIN|BOUNDARY,OTHER  LANES,S_W,<10-G,LOW  SPEED,NO  PEDESTRIAN,RL  0,acts-9,N,784,8,18.018,0.0
L1MAXMIN|MAXMIN|BOUNDARY,OTHER  LANES,S_W,<10-G,LOW  SPEED,NO  PEDESTRIAN,RL  0,acts-9,N,784,8,19.019,0.0
L1MAXMIN|MAXMIN|BOUNDARY,OTHER  LANES,S_W,>EQ  10-Y/R,LOW  SPEED,PEDESTRIAN,  RL  <EQ  2,acts-1,N,784,207,235.7355,0.122506
L1MAXMIN|MAXMIN|BOUNDARY,OTHER  LANES,S_W,>EQ  10-Y/R,LOW  SPEED,PEDESTRIAN,  RL  <EQ  2,acts-1,N,784,207,236.7365,0.10208799999999996
L1MAXMIN|MAXMIN|BOUNDARY,OTHER  LANES,S_W,>EQ  10-Y/R,LOW  SPEED,PEDESTRIAN,  RL  <EQ  2,acts-1,N,784,207,237.7375,0.011391999999999958
L1MAXMIN|MAXMIN|BOUNDARY,OTHER  LANES,S_W,>EQ  10-Y/R,LOW  SPEED,PEDESTRIAN,  RL  <EQ  2,acts-1,N,784,207,239.7395,0.06106900000000004
L1MAXMIN|MAXMIN|BOUNDARY,OTHER  LANES,S_W,>EQ  10-Y/R,LOW  SPEED,NO  PEDESTRIAN,RL  0,acts-1,N,784,8,20.02,0
L1MAXMIN|MAXMIN|BOUNDARY,OTHER  LANES,S_W,>EQ  10-Y/R,LOW  SPEED,NO  PEDESTRIAN,RL  0,acts-1,Y,784,8,21.021,0
L1MAXMIN|MAXMIN|BOUNDARY,OTHER  LANES,S_W,>EQ  10-Y/R,LOW  SPEED,NO  PEDESTRIAN,RL  0,acts-1,Y,784,8,22.022,0.006014999999999993
L1MAXMIN|MAXMIN|BOUNDARY,OTHER  LANES,S_W,>EQ  10-Y/R,LOW  SPEED,NO  PEDESTRIAN,RL  0,acts-1,Y,784,28,24.691333,0
L1MAXMIN|MAXMIN|BOUNDARY,OTHER  LANES,S_W,>EQ  10-Y/R,LOW  SPEED,NO  PEDESTRIAN,  RL  <EQ  2,acts-1,Y,784,47,47.881167,0.097526
L1MAXMIN|MAXMIN|BOUNDARY,OTHER  LANES,S_W,>EQ  10-Y/R,LOW  SPEED,NO  PEDESTRIAN,  RL  >  2,acts-10,N,784,47,41.875167,0.003359999999999974
L1MAXMIN|MAXMIN|BOUNDARY,OTHER  LANES,S_W,>EQ  10-Y/R,LOW  SPEED,NO  PEDESTRIAN,  RL  >  2,acts-10,Y,784,47,46.880167,0.0
L1MAXMIN|MAXMIN|BOUNDARY,OTHER  LANES,S_W,>EQ  10-G,LOW  SPEED,NO  PEDESTRIAN,RL  0,acts-9,N,784,8,0,0.0
L1MAXMIN|MAXMIN|BOUNDARY,OTHER  LANES,S_W,>EQ  10-G,LOW  SPEED,NO  PEDESTRIAN,RL  0,acts-9,N,784,8,1.001,0.0
L1MAXMIN|MAXMIN|BOUNDARY,OTHER  LANES,S_W,>EQ  10-G,LOW  SPEED,NO  PEDESTRIAN,RL  0,acts-9,N,784,8,2.002,0.0
L1MAXMIN|MAXMIN|BOUNDARY,OTHER  LANES,S_W,>EQ  10-G,LOW  SPEED,NO  PEDESTRIAN,RL  0,acts-9,N,784,8,3.003,0.0
L1MAXMIN|MAXMIN|BOUNDARY,OTHER  LANES,S_W,>EQ  10-G,LOW  SPEED,NO  PEDESTRIAN,RL  0,acts-9,N,784,8,4.004,0.0
L1MAXMIN|MAXMIN|BOUNDARY,OTHER  LANES,S_W,>EQ  10-G,LOW  SPEED,NO  PEDESTRIAN,RL  0,acts-9,N,784,8,5.005,0.0
L1MAXMIN|MAXMIN|BOUNDARY,OTHER  LANES,S_W,>EQ  10-G,LOW  SPEED,NO  PEDESTRIAN,RL  0,acts-9,N,784,8,6.006,0.0
L1MAXMIN|MAXMIN|BOUNDARY,OTHER  LANES,S_W,>EQ  10-G,LOW  SPEED,NO  PEDESTRIAN,RL  0,acts-9,N,784,8,7.007,0.0
L1MAXMIN|MAXMIN|BOUNDARY,OTHER  LANES,S_W,>EQ  10-G,LOW  SPEED,NO  PEDESTRIAN,RL  0,acts-9,N,784,8,8.008,0.0
L1MAXMIN|MAXMIN|BOUNDARY,OTHER  LANES,S_W,>EQ  10-G,LOW  SPEED,NO  PEDESTRIAN,RL  0,acts-9,N,784,8,9.009,0.0
L1MAXMIN|MAXMIN|BOUNDARY,OTHER  LANES,N_E,<10-G,LOW  SPEED,NO  PEDESTRIAN,RL  0,acts-9,N,784,14,24.024,0.0
L1MAXMIN|MAXMIN|BOUNDARY,OTHER  LANES,N_E,<10-G,LOW  SPEED,NO  PEDESTRIAN,RL  0,acts-9,N,784,14,25.025,0.0
L1MAXMIN|MAXMIN|BOUNDARY,OTHER  LANES,N_E,<10-G,LOW  SPEED,NO  PEDESTRIAN,RL  0,acts-9,N,784,14,26.026,0.0
L1MAXMIN|MAXMIN|BOUNDARY,OTHER  LANES,N_E,<10-G,LOW  SPEED,NO  PEDESTRIAN,RL  0,acts-9,N,784,14,27.027,0.0
L1MAXMIN|MAXMIN|BOUNDARY,OTHER  LANES,N_E,<10-G,LOW  SPEED,NO  PEDESTRIAN,RL  0,acts-9,N,784,14,28.028,0.0
L1MAXMIN|MAXMIN|BOUNDARY,OTHER  LANES,N_E,<10-G,LOW  SPEED,NO  PEDESTRIAN,RL  0,acts-9,N,784,14,29.029,0.0
L1MAXMIN|MAXMIN|BOUNDARY,OTHER  LANES,N_E,<10-G,LOW  SPEED,NO  PEDESTRIAN,RL  0,acts-9,N,784,14,30.03,0.0
L1MAXMIN|MAXMIN|BOUNDARY,OTHER  LANES,N_E,<10-G,LOW  SPEED,NO  PEDESTRIAN,RL  0,acts-9,N,784,14,31.031,0.0
L1MAXMIN|MAXMIN|BOUNDARY,OTHER  LANES,N_E,<10-G,LOW  SPEED,NO  PEDESTRIAN,RL  0,acts-9,N,784,14,32.032,0.0
L1MAXMIN|MAXMIN|BOUNDARY,OTHER  LANES,N_E,<10-G,LOW  SPEED,NO  PEDESTRIAN,RL  0,acts-9,Y,784,14,33.033,0.0
L1MAXMIN|MAXMIN|BOUNDARY,OTHER  LANES,N_E,<10-G,LOW  SPEED,NO  PEDESTRIAN,RL  0,acts-9,N,784,161,211.7115,0.0
L1MAXMIN|MAXMIN|BOUNDARY,OTHER  LANES,N_E,<10-G,LOW  SPEED,NO  PEDESTRIAN,RL  0,acts-9,N,784,161,212.7125,0.0
L1MAXMIN|MAXMIN|BOUNDARY,OTHER  LANES,N_E,<10-G,LOW  SPEED,NO  PEDESTRIAN,RL  0,acts-9,N,784,161,213.7135,0
L1MAXMIN|MAXMIN|BOUNDARY,OTHER  LANES,N_E,<10-G,LOW  SPEED,NO  PEDESTRIAN,RL  0,acts-9,N,784,161,214.7145,0.0
L1MAXMIN|MAXMIN|BOUNDARY,OTHER  LANES,N_E,<10-G,LOW  SPEED,NO  PEDESTRIAN,RL  0,acts-9,N,784,161,215.7155,0.0
L1MAXMIN|MAXMIN|BOUNDARY,OTHER  LANES,N_E,<10-G,LOW  SPEED,NO  PEDESTRIAN,RL  0,acts-9,N,784,161,216.7165,0.0
L1MAXMIN|MAXMIN|BOUNDARY,OTHER  LANES,N_E,<10-G,LOW  SPEED,NO  PEDESTRIAN,RL  0,acts-9,N,784,161,217.7175,0.0
L1MAXMIN|MAXMIN|BOUNDARY,OTHER  LANES,N_E,<10-G,LOW  SPEED,NO  PEDESTRIAN,RL  0,acts-9,N,784,161,218.7185,0.0
L1MAXMIN|MAXMIN|BOUNDARY,OTHER  LANES,N_E,<10-G,LOW  SPEED,NO  PEDESTRIAN,RL  0,acts-9,N,784,161,219.7195,0
L1MAXMIN|MAXMIN|BOUNDARY,OTHER  LANES,N_E,<10-G,LOW  SPEED,NO  PEDESTRIAN,RL  0,acts-9,Y,784,161,220.7205,0
L1MAXMIN|MAXMIN|BOUNDARY,OTHER  LANES,N_E,>EQ  10-Y/R,LOW  SPEED,NO  PEDESTRIAN,RL  0,acts-1,Y,784,14,34.034,0.004257000000000066
L1MAXMIN|MAXMIN|BOUNDARY,OTHER  LANES,N_E,>EQ  10-Y/R,LOW  SPEED,NO  PEDESTRIAN,RL  0,acts-1,Y,784,38,37.704333,0
L1MAXMIN|MAXMIN|BOUNDARY,OTHER  LANES,N_E,>EQ  10-Y/R,LOW  SPEED,NO  PEDESTRIAN,RL  0,acts-1,Y,784,38,38.705333,0
L1MAXMIN|MAXMIN|BOUNDARY,OTHER  LANES,N_E,>EQ  10-Y/R,LOW  SPEED,NO  PEDESTRIAN,RL  0,acts-1,Y,784,161,221.7215,0.0004030000000000422
L1MAXMIN|MAXMIN|BOUNDARY,OTHER  LANES,N_E,>EQ  10-Y/R,LOW  SPEED,NO  PEDESTRIAN,RL  0,acts-1,N,784,208,225.391833,0
L1MAXMIN|MAXMIN|BOUNDARY,OTHER  LANES,N_E,>EQ  10-G,LOW  SPEED,NO  PEDESTRIAN,RL  0,acts-9,N,784,14,0,0.0
L1MAXMIN|MAXMIN|BOUNDARY,OTHER  LANES,N_E,>EQ  10-G,LOW  SPEED,NO  PEDESTRIAN,RL  0,acts-9,N,784,14,1.001,0.0
L1MAXMIN|MAXMIN|BOUNDARY,OTHER  LANES,N_E,>EQ  10-G,LOW  SPEED,NO  PEDESTRIAN,RL  0,acts-9,N,784,14,10.01,0.0
L1MAXMIN|MAXMIN|BOUNDARY,OTHER  LANES,N_E,>EQ  10-G,LOW  SPEED,NO  PEDESTRIAN,RL  0,acts-9,N,784,14,11.011,0.0
L1MAXMIN|MAXMIN|BOUNDARY,OTHER  LANES,N_E,>EQ  10-G,LOW  SPEED,NO  PEDESTRIAN,RL  0,acts-9,N,784,14,12.012,0.0
L1MAXMIN|MAXMIN|BOUNDARY,OTHER  LANES,N_E,>EQ  10-G,LOW  SPEED,NO  PEDESTRIAN,RL  0,acts-9,N,784,14,13.013,0.0
L1MAXMIN|MAXMIN|BOUNDARY,OTHER  LANES,N_E,>EQ  10-G,LOW  SPEED,NO  PEDESTRIAN,RL  0,acts-9,N,784,14,14.014,0.0
L1MAXMIN|MAXMIN|BOUNDARY,OTHER  LANES,N_E,>EQ  10-G,LOW  SPEED,NO  PEDESTRIAN,RL  0,acts-9,N,784,14,15.015,0.0
L1MAXMIN|MAXMIN|BOUNDARY,OTHER  LANES,N_E,>EQ  10-G,LOW  SPEED,NO  PEDESTRIAN,RL  0,acts-9,N,784,14,16.016,0.0
L1MAXMIN|MAXMIN|BOUNDARY,OTHER  LANES,N_E,>EQ  10-G,LOW  SPEED,NO  PEDESTRIAN,RL  0,acts-9,N,784,14,17.017,0.0
L1MAXMIN|MAXMIN|BOUNDARY,OTHER  LANES,N_E,>EQ  10-G,LOW  SPEED,NO  PEDESTRIAN,RL  0,acts-9,N,784,14,18.018,0.0
L1MAXMIN|MAXMIN|BOUNDARY,OTHER  LANES,N_E,>EQ  10-G,LOW  SPEED,NO  PEDESTRIAN,RL  0,acts-9,N,784,14,19.019,0.0
L1MAXMIN|MAXMIN|BOUNDARY,OTHER  LANES,N_E,>EQ  10-G,LOW  SPEED,NO  PEDESTRIAN,RL  0,acts-9,N,784,14,2.002,0.0
L1MAXMIN|MAXMIN|BOUNDARY,OTHER  LANES,N_E,>EQ  10-G,LOW  SPEED,NO  PEDESTRIAN,RL  0,acts-9,N,784,14,20.02,0.0
L1MAXMIN|MAXMIN|BOUNDARY,OTHER  LANES,N_E,>EQ  10-G,LOW  SPEED,NO  PEDESTRIAN,RL  0,acts-9,N,784,14,21.021,0.0
L1MAXMIN|MAXMIN|BOUNDARY,OTHER  LANES,N_E,>EQ  10-G,LOW  SPEED,NO  PEDESTRIAN,RL  0,acts-9,N,784,14,22.022,0.0
L1MAXMIN|MAXMIN|BOUNDARY,OTHER  LANES,N_E,>EQ  10-G,LOW  SPEED,NO  PEDESTRIAN,RL  0,acts-9,N,784,14,23.023,0.0
L1MAXMIN|MAXMIN|BOUNDARY,OTHER  LANES,N_E,>EQ  10-G,LOW  SPEED,NO  PEDESTRIAN,RL  0,acts-9,N,784,14,3.003,0.0
L1MAXMIN|MAXMIN|BOUNDARY,OTHER  LANES,N_E,>EQ  10-G,LOW  SPEED,NO  PEDESTRIAN,RL  0,acts-9,N,784,14,4.004,0.0
L1MAXMIN|MAXMIN|BOUNDARY,OTHER  LANES,N_E,>EQ  10-G,LOW  SPEED,NO  PEDESTRIAN,RL  0,acts-9,N,784,14,5.005,0.0
L1MAXMIN|MAXMIN|BOUNDARY,OTHER  LANES,N_E,>EQ  10-G,LOW  SPEED,NO  PEDESTRIAN,RL  0,acts-9,N,784,14,6.006,0.0
L1MAXMIN|MAXMIN|BOUNDARY,OTHER  LANES,N_E,>EQ  10-G,LOW  SPEED,NO  PEDESTRIAN,RL  0,acts-9,N,784,14,7.007,0.0
L1MAXMIN|MAXMIN|BOUNDARY,OTHER  LANES,N_E,>EQ  10-G,LOW  SPEED,NO  PEDESTRIAN,RL  0,acts-9,N,784,14,8.008,0.0
L1MAXMIN|MAXMIN|BOUNDARY,OTHER  LANES,N_E,>EQ  10-G,LOW  SPEED,NO  PEDESTRIAN,RL  0,acts-9,N,784,14,9.009,0.0
L1MAXMIN|MAXMIN|BOUNDARY,OTHER  LANES,N_E,>EQ  10-G,LOW  SPEED,NO  PEDESTRIAN,RL  0,acts-9,N,784,161,174.6745,0.0
L1MAXMIN|MAXMIN|BOUNDARY,OTHER  LANES,N_E,>EQ  10-G,LOW  SPEED,NO  PEDESTRIAN,RL  0,acts-9,N,784,161,175.6755,0.0
L1MAXMIN|MAXMIN|BOUNDARY,OTHER  LANES,N_E,>EQ  10-G,LOW  SPEED,NO  PEDESTRIAN,RL  0,acts-9,N,784,161,176.6765,0.0
L1MAXMIN|MAXMIN|BOUNDARY,OTHER  LANES,N_E,>EQ  10-G,LOW  SPEED,NO  PEDESTRIAN,RL  0,acts-9,N,784,161,177.6775,0
L1MAXMIN|MAXMIN|BOUNDARY,OTHER  LANES,N_E,>EQ  10-G,LOW  SPEED,NO  PEDESTRIAN,RL  0,acts-9,N,784,161,178.6785,0
L1MAXMIN|MAXMIN|BOUNDARY,OTHER  LANES,N_E,>EQ  10-G,LOW  SPEED,NO  PEDESTRIAN,RL  0,acts-9,N,784,161,179.6795,0.0
L1MAXMIN|MAXMIN|BOUNDARY,OTHER  LANES,N_E,>EQ  10-G,LOW  SPEED,NO  PEDESTRIAN,RL  0,acts-9,N,784,161,180.6805,0.0
L1MAXMIN|MAXMIN|BOUNDARY,OTHER  LANES,N_E,>EQ  10-G,LOW  SPEED,NO  PEDESTRIAN,RL  0,acts-9,N,784,161,181.6815,0.0
L1MAXMIN|MAXMIN|BOUNDARY,OTHER  LANES,N_E,>EQ  10-G,LOW  SPEED,NO  PEDESTRIAN,RL  0,acts-9,N,784,161,182.6825,0.0
L1MAXMIN|MAXMIN|BOUNDARY,OTHER  LANES,N_E,>EQ  10-G,LOW  SPEED,NO  PEDESTRIAN,RL  0,acts-9,N,784,161,183.6835,0
L1MAXMIN|MAXMIN|BOUNDARY,OTHER  LANES,N_E,>EQ  10-G,LOW  SPEED,NO  PEDESTRIAN,RL  0,acts-9,N,784,161,184.6845,0
L1MAXMIN|MAXMIN|BOUNDARY,OTHER  LANES,N_E,>EQ  10-G,LOW  SPEED,NO  PEDESTRIAN,RL  0,acts-9,N,784,161,185.6855,0.0
L1MAXMIN|MAXMIN|BOUNDARY,OTHER  LANES,N_E,>EQ  10-G,LOW  SPEED,NO  PEDESTRIAN,RL  0,acts-9,N,784,161,186.6865,0.0
L1MAXMIN|MAXMIN|BOUNDARY,OTHER  LANES,N_E,>EQ  10-G,LOW  SPEED,NO  PEDESTRIAN,RL  0,acts-9,N,784,161,187.6875,0.0
L1MAXMIN|MAXMIN|BOUNDARY,OTHER  LANES,N_E,>EQ  10-G,LOW  SPEED,NO  PEDESTRIAN,RL  0,acts-9,N,784,161,188.6885,0.0
L1MAXMIN|MAXMIN|BOUNDARY,OTHER  LANES,N_E,>EQ  10-G,LOW  SPEED,NO  PEDESTRIAN,RL  0,acts-9,N,784,161,189.6895,0
L1MAXMIN|MAXMIN|BOUNDARY,OTHER  LANES,N_E,>EQ  10-G,LOW  SPEED,NO  PEDESTRIAN,RL  0,acts-9,N,784,161,190.6905,0.0
L1MAXMIN|MAXMIN|BOUNDARY,OTHER  LANES,N_E,>EQ  10-G,LOW  SPEED,NO  PEDESTRIAN,RL  0,acts-9,N,784,161,191.6915,0.0
L1MAXMIN|MAXMIN|BOUNDARY,OTHER  LANES,N_E,>EQ  10-G,LOW  SPEED,NO  PEDESTRIAN,RL  0,acts-9,N,784,161,192.6925,0.0
L1MAXMIN|MAXMIN|BOUNDARY,OTHER  LANES,N_E,>EQ  10-G,LOW  SPEED,NO  PEDESTRIAN,RL  0,acts-9,N,784,161,193.6935,0.0
L1MAXMIN|MAXMIN|BOUNDARY,OTHER  LANES,N_E,>EQ  10-G,LOW  SPEED,NO  PEDESTRIAN,RL  0,acts-9,N,784,161,194.6945,0.0
L1MAXMIN|MAXMIN|BOUNDARY,OTHER  LANES,N_E,>EQ  10-G,LOW  SPEED,NO  PEDESTRIAN,RL  0,acts-9,N,784,161,195.6955,0
L1MAXMIN|MAXMIN|BOUNDARY,OTHER  LANES,N_E,>EQ  10-G,LOW  SPEED,NO  PEDESTRIAN,RL  0,acts-9,N,784,161,196.6965,0.0
L1MAXMIN|MAXMIN|BOUNDARY,OTHER  LANES,N_E,>EQ  10-G,LOW  SPEED,NO  PEDESTRIAN,RL  0,acts-9,N,784,161,197.6975,0.0
L1MAXMIN|MAXMIN|BOUNDARY,OTHER  LANES,N_E,>EQ  10-G,LOW  SPEED,NO  PEDESTRIAN,RL  0,acts-9,N,784,161,198.6985,0.0
L1MAXMIN|MAXMIN|BOUNDARY,OTHER  LANES,N_E,>EQ  10-G,LOW  SPEED,NO  PEDESTRIAN,RL  0,acts-9,N,784,161,199.6995,0.0
L1MAXMIN|MAXMIN|BOUNDARY,OTHER  LANES,N_E,>EQ  10-G,LOW  SPEED,NO  PEDESTRIAN,RL  0,acts-9,N,784,161,200.7005,0.0
L1MAXMIN|MAXMIN|BOUNDARY,OTHER  LANES,N_E,>EQ  10-G,LOW  SPEED,NO  PEDESTRIAN,RL  0,acts-9,N,784,161,201.7015,0
L1MAXMIN|MAXMIN|BOUNDARY,OTHER  LANES,N_E,>EQ  10-G,LOW  SPEED,NO  PEDESTRIAN,RL  0,acts-9,N,784,161,202.7025,0.0
L1MAXMIN|MAXMIN|BOUNDARY,OTHER  LANES,N_E,>EQ  10-G,LOW  SPEED,NO  PEDESTRIAN,RL  0,acts-9,N,784,161,203.7035,0.0
L1MAXMIN|MAXMIN|BOUNDARY,OTHER  LANES,N_E,>EQ  10-G,LOW  SPEED,NO  PEDESTRIAN,RL  0,acts-9,N,784,161,204.7045,0.0
L1MAXMIN|MAXMIN|BOUNDARY,OTHER  LANES,N_E,>EQ  10-G,LOW  SPEED,NO  PEDESTRIAN,RL  0,acts-9,N,784,161,205.7055,0.0
L1MAXMIN|MAXMIN|BOUNDARY,OTHER  LANES,N_E,>EQ  10-G,LOW  SPEED,NO  PEDESTRIAN,RL  0,acts-9,N,784,161,206.7065,0.0
L1MAXMIN|MAXMIN|BOUNDARY,OTHER  LANES,N_E,>EQ  10-G,LOW  SPEED,NO  PEDESTRIAN,RL  0,acts-9,N,784,161,207.7075,0
L1MAXMIN|MAXMIN|BOUNDARY,OTHER  LANES,N_E,>EQ  10-G,LOW  SPEED,NO  PEDESTRIAN,RL  0,acts-9,N,784,161,208.7085,0.0
L1MAXMIN|MAXMIN|BOUNDARY,OTHER  LANES,N_E,>EQ  10-G,LOW  SPEED,NO  PEDESTRIAN,RL  0,acts-9,N,784,161,209.7095,0.0
L1MAXMIN|MAXMIN|BOUNDARY,OTHER  LANES,N_E,>EQ  10-G,LOW  SPEED,NO  PEDESTRIAN,RL  0,acts-9,N,784,161,210.7105,0.0
L1MAXMIN|MAXMIN|BOUNDARY,OTHER  LANES,W_N,<10-Y/R,LOW  SPEED,NO  PEDESTRIAN,  RL  <EQ  2,acts-1,Y,784,9,12.012,0.22608299999999998
L1MAXMIN|MAXMIN|BOUNDARY,OTHER  LANES,W_N,<10-Y/R,LOW  SPEED,NO  PEDESTRIAN,  RL  >  2,acts-1,N,784,9,10.01,0.13576
L1MAXMIN|MAXMIN|BOUNDARY,OTHER  LANES,W_N,<10-Y/R,LOW  SPEED,NO  PEDESTRIAN,  RL  >  2,acts-1,N,784,9,4.004,0.11686999999999997
L1MAXMIN|MAXMIN|BOUNDARY,OTHER  LANES,W_N,<10-Y/R,LOW  SPEED,NO  PEDESTRIAN,  RL  >  2,acts-1,N,784,9,5.005,0.119205
L1MAXMIN|MAXMIN|BOUNDARY,OTHER  LANES,W_N,<10-Y/R,LOW  SPEED,NO  PEDESTRIAN,  RL  >  2,acts-1,N,784,9,6.006,0.405305
L1MAXMIN|MAXMIN|BOUNDARY,OTHER  LANES,W_N,<10-Y/R,LOW  SPEED,NO  PEDESTRIAN,  RL  >  2,acts-1,N,784,9,7.007,0.04450299999999996
L1MAXMIN|MAXMIN|BOUNDARY,OTHER  LANES,W_N,<10-Y/R,LOW  SPEED,NO  PEDESTRIAN,  RL  >  2,acts-1,N,784,9,8.008,0.033808000000000005
L1MAXMIN|MAXMIN|BOUNDARY,OTHER  LANES,W_N,<10-Y/R,LOW  SPEED,NO  PEDESTRIAN,  RL  >  2,acts-1,N,784,9,9.009,0.06087500000000001
L1MAXMIN|MAXMIN|BOUNDARY,OTHER  LANES,W_N,<10-G,LOW  SPEED,PEDESTRIAN,RL  0,acts-9,N,784,124,164.330833,0.0
L1MAXMIN|MAXMIN|BOUNDARY,OTHER  LANES,W_N,<10-G,LOW  SPEED,PEDESTRIAN,RL  0,acts-9,N,784,124,165.331833,0.0
L1MAXMIN|MAXMIN|BOUNDARY,OTHER  LANES,W_N,<10-G,LOW  SPEED,PEDESTRIAN,RL  0,acts-9,N,784,124,166.332833,0.0
L1MAXMIN|MAXMIN|BOUNDARY,OTHER  LANES,W_N,<10-G,LOW  SPEED,PEDESTRIAN,RL  0,acts-9,N,784,124,167.333833,0.0
L1MAXMIN|MAXMIN|BOUNDARY,OTHER  LANES,W_N,<10-G,LOW  SPEED,PEDESTRIAN,RL  0,acts-9,N,784,124,168.334833,0
L1MAXMIN|MAXMIN|BOUNDARY,OTHER  LANES,W_N,<10-G,LOW  SPEED,PEDESTRIAN,RL  0,acts-9,N,784,124,169.335833,0.0
L1MAXMIN|MAXMIN|BOUNDARY,OTHER  LANES,W_N,<10-G,LOW  SPEED,PEDESTRIAN,RL  0,acts-9,N,784,124,170.336833,0.0
L1MAXMIN|MAXMIN|BOUNDARY,OTHER  LANES,W_N,<10-G,LOW  SPEED,PEDESTRIAN,RL  0,acts-9,N,784,124,171.337833,0.0
L1MAXMIN|MAXMIN|BOUNDARY,OTHER  LANES,W_N,<10-G,LOW  SPEED,PEDESTRIAN,RL  0,acts-9,N,784,124,172.338833,0.0
L1MAXMIN|MAXMIN|BOUNDARY,OTHER  LANES,W_N,<10-G,LOW  SPEED,PEDESTRIAN,RL  0,acts-9,N,784,124,173.339833,0.0
L1MAXMIN|MAXMIN|BOUNDARY,OTHER  LANES,W_N,<10-G,LOW  SPEED,PEDESTRIAN,RL  0,acts-9,N,784,204,264.097167,0
L1MAXMIN|MAXMIN|BOUNDARY,OTHER  LANES,W_N,<10-G,LOW  SPEED,PEDESTRIAN,RL  0,acts-9,N,784,204,265.098167,0.0
L1MAXMIN|MAXMIN|BOUNDARY,OTHER  LANES,W_N,<10-G,LOW  SPEED,PEDESTRIAN,RL  0,acts-9,N,784,204,266.099167,0
L1MAXMIN|MAXMIN|BOUNDARY,OTHER  LANES,W_N,<10-G,LOW  SPEED,PEDESTRIAN,RL  0,acts-9,N,784,204,267.100167,0.0
L1MAXMIN|MAXMIN|BOUNDARY,OTHER  LANES,W_N,<10-G,LOW  SPEED,PEDESTRIAN,RL  0,acts-9,N,784,204,268.101167,0
L1MAXMIN|MAXMIN|BOUNDARY,OTHER  LANES,W_N,<10-G,LOW  SPEED,PEDESTRIAN,RL  0,acts-9,N,784,204,269.102167,0
L1MAXMIN|MAXMIN|BOUNDARY,OTHER  LANES,W_N,<10-G,LOW  SPEED,PEDESTRIAN,RL  0,acts-9,N,784,204,270.103167,0.0
L1MAXMIN|MAXMIN|BOUNDARY,OTHER  LANES,W_N,<10-G,LOW  SPEED,PEDESTRIAN,RL  0,acts-9,N,784,204,271.104167,0
L1MAXMIN|MAXMIN|BOUNDARY,OTHER  LANES,W_N,<10-G,LOW  SPEED,PEDESTRIAN,RL  0,acts-9,N,784,204,272.105167,0.0
L1MAXMIN|MAXMIN|BOUNDARY,OTHER  LANES,W_N,<10-G,LOW  SPEED,PEDESTRIAN,RL  0,acts-9,N,784,204,273.106167,0.0
L1MAXMIN|MAXMIN|BOUNDARY,OTHER  LANES,W_N,>EQ  10-Y/R,LOW  SPEED,PEDESTRIAN,RL  0,acts-1,Y,784,124,174.340833,0
L1MAXMIN|MAXMIN|BOUNDARY,OTHER  LANES,W_N,>EQ  10-Y/R,LOW  SPEED,PEDESTRIAN,RL  0,acts-1,Y,784,124,175.341833,0
L1MAXMIN|MAXMIN|BOUNDARY,OTHER  LANES,W_N,>EQ  10-Y/R,LOW  SPEED,PEDESTRIAN,RL  0,acts-1,Y,784,124,176.342833,0
L1MAXMIN|MAXMIN|BOUNDARY,OTHER  LANES,W_N,>EQ  10-Y/R,LOW  SPEED,PEDESTRIAN,RL  0,acts-1,Y,784,137,180.847333,0
L1MAXMIN|MAXMIN|BOUNDARY,OTHER  LANES,W_N,>EQ  10-Y/R,LOW  SPEED,NO  PEDESTRIAN,  RL  >  2,acts-1,Y,784,72,77.077,0.11339199999999999
L1MAXMIN|MAXMIN|BOUNDARY,OTHER  LANES,W_N,>EQ  10-G,LOW  SPEED,PEDESTRIAN,RL  0,acts-9,Y,784,124,130.296833,0
L1MAXMIN|MAXMIN|BOUNDARY,OTHER  LANES,W_N,>EQ  10-G,LOW  SPEED,PEDESTRIAN,RL  0,acts-9,N,784,124,131.297833,0.0
L1MAXMIN|MAXMIN|BOUNDARY,OTHER  LANES,W_N,>EQ  10-G,LOW  SPEED,PEDESTRIAN,RL  0,acts-9,N,784,124,132.298833,0.0
L1MAXMIN|MAXMIN|BOUNDARY,OTHER  LANES,W_N,>EQ  10-G,LOW  SPEED,PEDESTRIAN,RL  0,acts-9,N,784,124,133.299833,0.0
L1MAXMIN|MAXMIN|BOUNDARY,OTHER  LANES,W_N,>EQ  10-G,LOW  SPEED,PEDESTRIAN,RL  0,acts-9,N,784,124,134.300833,0.0
L1MAXMIN|MAXMIN|BOUNDARY,OTHER  LANES,W_N,>EQ  10-G,LOW  SPEED,PEDESTRIAN,RL  0,acts-9,N,784,124,135.301833,0.0
L1MAXMIN|MAXMIN|BOUNDARY,OTHER  LANES,W_N,>EQ  10-G,LOW  SPEED,PEDESTRIAN,RL  0,acts-9,N,784,124,136.302833,0.0
L1MAXMIN|MAXMIN|BOUNDARY,OTHER  LANES,W_N,>EQ  10-G,LOW  SPEED,PEDESTRIAN,RL  0,acts-9,N,784,124,137.303833,0.0
L1MAXMIN|MAXMIN|BOUNDARY,OTHER  LANES,W_N,>EQ  10-G,LOW  SPEED,PEDESTRIAN,RL  0,acts-9,N,784,124,138.304833,0
L1MAXMIN|MAXMIN|BOUNDARY,OTHER  LANES,W_N,>EQ  10-G,LOW  SPEED,PEDESTRIAN,RL  0,acts-9,N,784,124,139.305833,0.0
L1MAXMIN|MAXMIN|BOUNDARY,OTHER  LANES,W_N,>EQ  10-G,LOW  SPEED,PEDESTRIAN,RL  0,acts-9,N,784,124,140.306833,0.0
L1MAXMIN|MAXMIN|BOUNDARY,OTHER  LANES,W_N,>EQ  10-G,LOW  SPEED,PEDESTRIAN,RL  0,acts-9,N,784,124,141.307833,0.0
L1MAXMIN|MAXMIN|BOUNDARY,OTHER  LANES,W_N,>EQ  10-G,LOW  SPEED,PEDESTRIAN,RL  0,acts-9,N,784,124,142.308833,0.0
L1MAXMIN|MAXMIN|BOUNDARY,OTHER  LANES,W_N,>EQ  10-G,LOW  SPEED,PEDESTRIAN,RL  0,acts-9,N,784,124,143.309833,0.0
L1MAXMIN|MAXMIN|BOUNDARY,OTHER  LANES,W_N,>EQ  10-G,LOW  SPEED,PEDESTRIAN,RL  0,acts-9,N,784,124,144.310833,0
L1MAXMIN|MAXMIN|BOUNDARY,OTHER  LANES,W_N,>EQ  10-G,LOW  SPEED,PEDESTRIAN,RL  0,acts-9,N,784,124,145.311833,0.0
L1MAXMIN|MAXMIN|BOUNDARY,OTHER  LANES,W_N,>EQ  10-G,LOW  SPEED,PEDESTRIAN,RL  0,acts-9,N,784,124,146.312833,0.0
L1MAXMIN|MAXMIN|BOUNDARY,OTHER  LANES,W_N,>EQ  10-G,LOW  SPEED,PEDESTRIAN,RL  0,acts-9,N,784,124,147.313833,0.0
L1MAXMIN|MAXMIN|BOUNDARY,OTHER  LANES,W_N,>EQ  10-G,LOW  SPEED,PEDESTRIAN,RL  0,acts-9,N,784,124,148.314833,0.0
L1MAXMIN|MAXMIN|BOUNDARY,OTHER  LANES,W_N,>EQ  10-G,LOW  SPEED,PEDESTRIAN,RL  0,acts-9,N,784,124,149.315833,0.0
L1MAXMIN|MAXMIN|BOUNDARY,OTHER  LANES,W_N,>EQ  10-G,LOW  SPEED,PEDESTRIAN,RL  0,acts-9,N,784,124,150.316833,0
L1MAXMIN|MAXMIN|BOUNDARY,OTHER  LANES,W_N,>EQ  10-G,LOW  SPEED,PEDESTRIAN,RL  0,acts-9,N,784,124,151.317833,0.0
L1MAXMIN|MAXMIN|BOUNDARY,OTHER  LANES,W_N,>EQ  10-G,LOW  SPEED,PEDESTRIAN,RL  0,acts-9,N,784,124,152.318833,0.0
L1MAXMIN|MAXMIN|BOUNDARY,OTHER  LANES,W_N,>EQ  10-G,LOW  SPEED,PEDESTRIAN,RL  0,acts-9,N,784,124,153.319833,0.0
L1MAXMIN|MAXMIN|BOUNDARY,OTHER  LANES,W_N,>EQ  10-G,LOW  SPEED,PEDESTRIAN,RL  0,acts-9,N,784,124,154.320833,0.0
L1MAXMIN|MAXMIN|BOUNDARY,OTHER  LANES,W_N,>EQ  10-G,LOW  SPEED,PEDESTRIAN,RL  0,acts-9,N,784,124,155.321833,0.0
L1MAXMIN|MAXMIN|BOUNDARY,OTHER  LANES,W_N,>EQ  10-G,LOW  SPEED,PEDESTRIAN,RL  0,acts-9,N,784,124,156.322833,0
L1MAXMIN|MAXMIN|BOUNDARY,OTHER  LANES,W_N,>EQ  10-G,LOW  SPEED,PEDESTRIAN,RL  0,acts-9,N,784,124,157.323833,0.0
L1MAXMIN|MAXMIN|BOUNDARY,OTHER  LANES,W_N,>EQ  10-G,LOW  SPEED,PEDESTRIAN,RL  0,acts-9,N,784,124,158.324833,0.0
L1MAXMIN|MAXMIN|BOUNDARY,OTHER  LANES,W_N,>EQ  10-G,LOW  SPEED,PEDESTRIAN,RL  0,acts-9,N,784,124,159.325833,0.0
L1MAXMIN|MAXMIN|BOUNDARY,OTHER  LANES,W_N,>EQ  10-G,LOW  SPEED,PEDESTRIAN,RL  0,acts-9,N,784,124,160.326833,0.0
L1MAXMIN|MAXMIN|BOUNDARY,OTHER  LANES,W_N,>EQ  10-G,LOW  SPEED,PEDESTRIAN,RL  0,acts-9,N,784,124,161.327833,0.0
L1MAXMIN|MAXMIN|BOUNDARY,OTHER  LANES,W_N,>EQ  10-G,LOW  SPEED,PEDESTRIAN,RL  0,acts-9,N,784,124,162.328833,0
L1MAXMIN|MAXMIN|BOUNDARY,OTHER  LANES,W_N,>EQ  10-G,LOW  SPEED,PEDESTRIAN,RL  0,acts-9,N,784,124,163.329833,0.0
L1MAXMIN|MAXMIN|BOUNDARY,OTHER  LANES,W_N,>EQ  10-G,LOW  SPEED,PEDESTRIAN,RL  0,acts-9,Y,784,204,221.054167,0
L1MAXMIN|MAXMIN|BOUNDARY,OTHER  LANES,W_N,>EQ  10-G,LOW  SPEED,PEDESTRIAN,RL  0,acts-9,Y,784,204,222.055167,0
L1MAXMIN|MAXMIN|BOUNDARY,OTHER  LANES,W_N,>EQ  10-G,LOW  SPEED,PEDESTRIAN,RL  0,acts-9,Y,784,204,223.056167,0.0
L1MAXMIN|MAXMIN|BOUNDARY,OTHER  LANES,W_N,>EQ  10-G,LOW  SPEED,PEDESTRIAN,RL  0,acts-9,N,784,204,224.057167,0.0
L1MAXMIN|MAXMIN|BOUNDARY,OTHER  LANES,W_N,>EQ  10-G,LOW  SPEED,PEDESTRIAN,RL  0,acts-9,N,784,204,225.058167,0.0
L1MAXMIN|MAXMIN|BOUNDARY,OTHER  LANES,W_N,>EQ  10-G,LOW  SPEED,PEDESTRIAN,RL  0,acts-9,N,784,204,226.059167,0.0
L1MAXMIN|MAXMIN|BOUNDARY,OTHER  LANES,W_N,>EQ  10-G,LOW  SPEED,PEDESTRIAN,RL  0,acts-9,N,784,204,227.060167,0.0
L1MAXMIN|MAXMIN|BOUNDARY,OTHER  LANES,W_N,>EQ  10-G,LOW  SPEED,PEDESTRIAN,RL  0,acts-9,N,784,204,228.061167,0.0
L1MAXMIN|MAXMIN|BOUNDARY,OTHER  LANES,W_N,>EQ  10-G,LOW  SPEED,PEDESTRIAN,RL  0,acts-9,N,784,204,229.062167,0
L1MAXMIN|MAXMIN|BOUNDARY,OTHER  LANES,W_N,>EQ  10-G,LOW  SPEED,PEDESTRIAN,RL  0,acts-9,N,784,204,230.063167,0
L1MAXMIN|MAXMIN|BOUNDARY,OTHER  LANES,W_N,>EQ  10-G,LOW  SPEED,PEDESTRIAN,RL  0,acts-9,N,784,204,231.064167,0.0
L1MAXMIN|MAXMIN|BOUNDARY,OTHER  LANES,W_N,>EQ  10-G,LOW  SPEED,PEDESTRIAN,RL  0,acts-9,N,784,204,232.065167,0.0
L1MAXMIN|MAXMIN|BOUNDARY,OTHER  LANES,W_N,>EQ  10-G,LOW  SPEED,PEDESTRIAN,RL  0,acts-9,N,784,204,233.066167,0.0
L1MAXMIN|MAXMIN|BOUNDARY,OTHER  LANES,W_N,>EQ  10-G,LOW  SPEED,PEDESTRIAN,RL  0,acts-9,N,784,204,234.067167,0.0
L1MAXMIN|MAXMIN|BOUNDARY,OTHER  LANES,W_N,>EQ  10-G,LOW  SPEED,PEDESTRIAN,RL  0,acts-9,N,784,204,235.068167,0
L1MAXMIN|MAXMIN|BOUNDARY,OTHER  LANES,W_N,>EQ  10-G,LOW  SPEED,PEDESTRIAN,RL  0,acts-9,N,784,204,236.069167,0
L1MAXMIN|MAXMIN|BOUNDARY,OTHER  LANES,W_N,>EQ  10-G,LOW  SPEED,PEDESTRIAN,RL  0,acts-9,N,784,204,237.070167,0.0
L1MAXMIN|MAXMIN|BOUNDARY,OTHER  LANES,W_N,>EQ  10-G,LOW  SPEED,PEDESTRIAN,RL  0,acts-9,N,784,204,238.071167,0.0
L1MAXMIN|MAXMIN|BOUNDARY,OTHER  LANES,W_N,>EQ  10-G,LOW  SPEED,PEDESTRIAN,RL  0,acts-9,N,784,204,239.072167,0.0
L1MAXMIN|MAXMIN|BOUNDARY,OTHER  LANES,W_N,>EQ  10-G,LOW  SPEED,PEDESTRIAN,RL  0,acts-9,N,784,204,240.073167,0.0
L1MAXMIN|MAXMIN|BOUNDARY,OTHER  LANES,W_N,>EQ  10-G,LOW  SPEED,PEDESTRIAN,RL  0,acts-9,N,784,204,241.074167,0
L1MAXMIN|MAXMIN|BOUNDARY,OTHER  LANES,W_N,>EQ  10-G,LOW  SPEED,PEDESTRIAN,RL  0,acts-9,N,784,204,242.075167,0
L1MAXMIN|MAXMIN|BOUNDARY,OTHER  LANES,W_N,>EQ  10-G,LOW  SPEED,PEDESTRIAN,RL  0,acts-9,N,784,204,243.076167,0.0
L1MAXMIN|MAXMIN|BOUNDARY,OTHER  LANES,W_N,>EQ  10-G,LOW  SPEED,PEDESTRIAN,RL  0,acts-9,N,784,204,244.077167,0.0
L1MAXMIN|MAXMIN|BOUNDARY,OTHER  LANES,W_N,>EQ  10-G,LOW  SPEED,PEDESTRIAN,RL  0,acts-9,N,784,204,245.078167,0.0
L1MAXMIN|MAXMIN|BOUNDARY,OTHER  LANES,W_N,>EQ  10-G,LOW  SPEED,PEDESTRIAN,RL  0,acts-9,N,784,204,246.079167,0.0
L1MAXMIN|MAXMIN|BOUNDARY,OTHER  LANES,W_N,>EQ  10-G,LOW  SPEED,PEDESTRIAN,RL  0,acts-9,N,784,204,247.080167,0
L1MAXMIN|MAXMIN|BOUNDARY,OTHER  LANES,W_N,>EQ  10-G,LOW  SPEED,PEDESTRIAN,RL  0,acts-9,N,784,204,248.081167,0.0
L1MAXMIN|MAXMIN|BOUNDARY,OTHER  LANES,W_N,>EQ  10-G,LOW  SPEED,PEDESTRIAN,RL  0,acts-9,N,784,204,249.082167,0.0
L1MAXMIN|MAXMIN|BOUNDARY,OTHER  LANES,W_N,>EQ  10-G,LOW  SPEED,PEDESTRIAN,RL  0,acts-9,N,784,204,250.083167,0.0
L1MAXMIN|MAXMIN|BOUNDARY,OTHER  LANES,W_N,>EQ  10-G,LOW  SPEED,PEDESTRIAN,RL  0,acts-9,N,784,204,251.084167,0.0
L1MAXMIN|MAXMIN|BOUNDARY,OTHER  LANES,W_N,>EQ  10-G,LOW  SPEED,PEDESTRIAN,RL  0,acts-9,N,784,204,252.085167,0
L1MAXMIN|MAXMIN|BOUNDARY,OTHER  LANES,W_N,>EQ  10-G,LOW  SPEED,PEDESTRIAN,RL  0,acts-9,N,784,204,253.086167,0.0
L1MAXMIN|MAXMIN|BOUNDARY,OTHER  LANES,W_N,>EQ  10-G,LOW  SPEED,PEDESTRIAN,RL  0,acts-9,N,784,204,254.087167,0.0
L1MAXMIN|MAXMIN|BOUNDARY,OTHER  LANES,W_N,>EQ  10-G,LOW  SPEED,PEDESTRIAN,RL  0,acts-9,N,784,204,255.088167,0.0
L1MAXMIN|MAXMIN|BOUNDARY,OTHER  LANES,W_N,>EQ  10-G,LOW  SPEED,PEDESTRIAN,RL  0,acts-9,N,784,204,256.089167,0
L1MAXMIN|MAXMIN|BOUNDARY,OTHER  LANES,W_N,>EQ  10-G,LOW  SPEED,PEDESTRIAN,RL  0,acts-9,N,784,204,257.090167,0
L1MAXMIN|MAXMIN|BOUNDARY,OTHER  LANES,W_N,>EQ  10-G,LOW  SPEED,PEDESTRIAN,RL  0,acts-9,N,784,204,258.091167,0.0
L1MAXMIN|MAXMIN|BOUNDARY,OTHER  LANES,W_N,>EQ  10-G,LOW  SPEED,PEDESTRIAN,RL  0,acts-9,N,784,204,259.092167,0
L1MAXMIN|MAXMIN|BOUNDARY,OTHER  LANES,W_N,>EQ  10-G,LOW  SPEED,PEDESTRIAN,RL  0,acts-9,N,784,204,260.093167,0.0
L1MAXMIN|MAXMIN|BOUNDARY,OTHER  LANES,W_N,>EQ  10-G,LOW  SPEED,PEDESTRIAN,RL  0,acts-9,N,784,204,261.094167,0
L1MAXMIN|MAXMIN|BOUNDARY,OTHER  LANES,W_N,>EQ  10-G,LOW  SPEED,PEDESTRIAN,RL  0,acts-9,N,784,204,262.095167,0
L1MAXMIN|MAXMIN|BOUNDARY,OTHER  LANES,W_N,>EQ  10-G,LOW  SPEED,PEDESTRIAN,RL  0,acts-9,N,784,204,263.096167,0.0
L1MAXMIN|MAXMIN|BOUNDARY,OTHER  LANES,W_N,>EQ  10-G,LOW  SPEED,NO  PEDESTRIAN,RL  0,acts-9,Y,784,124,125.291833,0.0
L1MAXMIN|MAXMIN|BOUNDARY,OTHER  LANES,W_N,>EQ  10-G,LOW  SPEED,NO  PEDESTRIAN,RL  0,acts-9,N,784,124,126.292833,0.0
L1MAXMIN|MAXMIN|BOUNDARY,OTHER  LANES,W_N,>EQ  10-G,LOW  SPEED,NO  PEDESTRIAN,RL  0,acts-9,Y,784,124,127.293833,0
L1MAXMIN|MAXMIN|BOUNDARY,OTHER  LANES,W_N,>EQ  10-G,LOW  SPEED,NO  PEDESTRIAN,RL  0,acts-9,Y,784,124,128.294833,0.0
L1MAXMIN|MAXMIN|BOUNDARY,OTHER  LANES,W_N,>EQ  10-G,LOW  SPEED,NO  PEDESTRIAN,RL  0,acts-9,Y,784,124,129.295833,0.0
L1MAXMIN|MAXMIN|BOUNDARY,OTHER  LANES,S_E,<10-Y/R,LOW  SPEED,NO  PEDESTRIAN,RL  0,acts-8,Y,784,158,165.999167,0.028834000000000026
L1MAXMIN|MAXMIN|BOUNDARY,OTHER  LANES,S_E,<10-Y/R,MEDIUM  SPEED,NO  PEDESTRIAN,RL  0,acts-8,Y,784,158,164.998167,0.018167000000000044
L1MAXMIN|MAXMIN|BOUNDARY,OTHER  LANES,S_E,<10-G,LOW  SPEED,NO  PEDESTRIAN,RL  0,acts-8,Y,784,103,108.274833,0.024841000000000002
L1MAXMIN|MAXMIN|BOUNDARY,OTHER  LANES,S_E,<10-G,LOW  SPEED,NO  PEDESTRIAN,  RL  <EQ  2,acts-8,Y,784,103,107.273833,0.004054000000000002
L1MAXMIN|MAXMIN|BOUNDARY,OTHER  LANES,S_E,>EQ  10-Y/R,LOW  SPEED,NO  PEDESTRIAN,RL  0,acts-8,Y,784,33,31.698333,0
L1MAXMIN|MAXMIN|BOUNDARY,OTHER  LANES,S_E,>EQ  10-Y/R,LOW  SPEED,NO  PEDESTRIAN,RL  0,acts-8,Y,784,33,32.699333,0
L1MAXMIN|MAXMIN|BOUNDARY,OTHER  LANES,S_E,>EQ  10-Y/R,LOW  SPEED,NO  PEDESTRIAN,  RL  <EQ  2,acts-8,N,784,219,233.7335,0.005979000000000068
L1MAXMIN|MAXMIN|BOUNDARY,OTHER  LANES,S_E,>EQ  10-G,LOW  SPEED,PEDESTRIAN,RL  0,acts-5,N,784,171,213.213,0.022692999999999963
L1MAXMIN|MAXMIN|BOUNDARY,OTHER  LANES,S_E,>EQ  10-G,LOW  SPEED,PEDESTRIAN,  RL  <EQ  2,acts-5,N,784,80,89.756333,0.0013330000000000286
L1MAXMIN|MAXMIN|BOUNDARY,OTHER  LANES,S_E,>EQ  10-G,LOW  SPEED,PEDESTRIAN,  RL  <EQ  2,acts-5,N,784,80,91.758333,0
L1MAXMIN|MAXMIN|BOUNDARY,OTHER  LANES,S_E,>EQ  10-G,LOW  SPEED,PEDESTRIAN,  RL  <EQ  2,acts-5,N,784,171,195.195,0.007989000000000024
L1MAXMIN|MAXMIN|BOUNDARY,OTHER  LANES,S_E,>EQ  10-G,LOW  SPEED,PEDESTRIAN,  RL  <EQ  2,acts-5,N,784,171,196.196,0.005122000000000071
L1MAXMIN|MAXMIN|BOUNDARY,OTHER  LANES,S_E,>EQ  10-G,LOW  SPEED,PEDESTRIAN,  RL  <EQ  2,acts-5,N,784,171,199.199,0.0018409999999999815
L1MAXMIN|MAXMIN|BOUNDARY,OTHER  LANES,S_E,>EQ  10-G,LOW  SPEED,PEDESTRIAN,  RL  <EQ  2,acts-5,N,784,171,202.202,0.001443000000000083
L1MAXMIN|MAXMIN|BOUNDARY,OTHER  LANES,S_E,>EQ  10-G,LOW  SPEED,PEDESTRIAN,  RL  <EQ  2,acts-5,N,784,171,206.206,0.007425000000000015
L1MAXMIN|MAXMIN|BOUNDARY,OTHER  LANES,S_E,>EQ  10-G,LOW  SPEED,PEDESTRIAN,  RL  <EQ  2,acts-5,N,784,171,207.207,0.0004630000000001022
L1MAXMIN|MAXMIN|BOUNDARY,OTHER  LANES,S_E,>EQ  10-G,LOW  SPEED,PEDESTRIAN,  RL  <EQ  2,acts-5,N,784,171,208.208,0.0006349999999999412
L1MAXMIN|MAXMIN|BOUNDARY,OTHER  LANES,S_E,>EQ  10-G,LOW  SPEED,PEDESTRIAN,  RL  <EQ  2,acts-5,N,784,171,209.209,0.0008170000000000677
L1MAXMIN|MAXMIN|BOUNDARY,OTHER  LANES,S_E,>EQ  10-G,LOW  SPEED,PEDESTRIAN,  RL  >  2,acts-5,N,784,80,84.751333,0.0031730000000000924
L1MAXMIN|MAXMIN|BOUNDARY,OTHER  LANES,S_E,>EQ  10-G,LOW  SPEED,PEDESTRIAN,  RL  >  2,acts-5,Y,784,80,85.752333,0.0046000000000000485
L1MAXMIN|MAXMIN|BOUNDARY,OTHER  LANES,S_E,>EQ  10-G,LOW  SPEED,PEDESTRIAN,  RL  >  2,acts-5,Y,784,80,86.753333,0.0006259999999999044
L1MAXMIN|MAXMIN|BOUNDARY,OTHER  LANES,S_E,>EQ  10-G,LOW  SPEED,PEDESTRIAN,  RL  >  2,acts-5,N,784,80,87.754333,0.0019770000000000065
L1MAXMIN|MAXMIN|BOUNDARY,OTHER  LANES,S_E,>EQ  10-G,LOW  SPEED,PEDESTRIAN,  RL  >  2,acts-5,N,784,80,88.755333,0.00469799999999998
L1MAXMIN|MAXMIN|BOUNDARY,OTHER  LANES,S_E,>EQ  10-G,LOW  SPEED,PEDESTRIAN,  RL  >  2,acts-5,N,784,80,90.757333,0.003137999999999974
L1MAXMIN|MAXMIN|BOUNDARY,OTHER  LANES,S_E,>EQ  10-G,LOW  SPEED,PEDESTRIAN,  RL  >  2,acts-5,N,784,171,198.198,0.0009000000000000119
L1MAXMIN|MAXMIN|BOUNDARY,OTHER  LANES,S_E,>EQ  10-G,LOW  SPEED,NO  PEDESTRIAN,  RL  <EQ  2,acts-8,N,784,80,92.759333,0
L1MAXMIN|MAXMIN|BOUNDARY,OTHER  LANES,S_E,>EQ  10-G,LOW  SPEED,NO  PEDESTRIAN,  RL  <EQ  2,acts-8,N,784,80,94.761333,0
L1MAXMIN|MAXMIN|BOUNDARY,OTHER  LANES,S_E,>EQ  10-G,LOW  SPEED,NO  PEDESTRIAN,  RL  <EQ  2,acts-8,N,784,80,95.762333,0.0018569999999999975
L1MAXMIN|MAXMIN|BOUNDARY,OTHER  LANES,S_E,>EQ  10-G,LOW  SPEED,NO  PEDESTRIAN,  RL  >  2,acts-8,N,784,80,93.760333,0.00025799999999998047
L1MAXMIN|MAXMIN|BOUNDARY,OTHER  LANES,S_E,>EQ  10-G,LOW  SPEED,NO  PEDESTRIAN,  RL  >  2,acts-8,Y,784,171,185.185,0.002990000000000048
L1MAXMIN|MAXMIN|BOUNDARY,OTHER  LANES,S_E,>EQ  10-G,LOW  SPEED,NO  PEDESTRIAN,  RL  >  2,acts-8,Y,784,171,186.186,0.003694000000000086
L1MAXMIN|MAXMIN|BOUNDARY,OTHER  LANES,S_E,>EQ  10-G,LOW  SPEED,NO  PEDESTRIAN,  RL  >  2,acts-8,Y,784,171,187.187,0.0005640000000000089
L1MAXMIN|MAXMIN|BOUNDARY,OTHER  LANES,S_E,>EQ  10-G,LOW  SPEED,NO  PEDESTRIAN,  RL  >  2,acts-8,Y,784,171,188.188,0.00031199999999997896
L1MAXMIN|MAXMIN|BOUNDARY,OTHER  LANES,S_E,>EQ  10-G,LOW  SPEED,NO  PEDESTRIAN,  RL  >  2,acts-8,N,784,171,189.189,0.0007049999999999557
L1MAXMIN|MAXMIN|BOUNDARY,OTHER  LANES,E_S,<10-Y/R,MEDIUM  SPEED,NO  PEDESTRIAN,RL  0,acts-1,Y,784,20,5.171833,0.0008289999999999687
L1MAXMIN|MAXMIN|BOUNDARY,OTHER  LANES,E_S,<10-G,LOW  SPEED,PEDESTRIAN,RL  0,acts-9,Y,784,199,271.604667,0.0
L1MAXMIN|MAXMIN|BOUNDARY,OTHER  LANES,E_S,<10-G,LOW  SPEED,PEDESTRIAN,RL  0,acts-9,N,784,199,272.605667,0.0
L1MAXMIN|MAXMIN|BOUNDARY,OTHER  LANES,E_S,<10-G,LOW  SPEED,PEDESTRIAN,RL  0,acts-9,N,784,199,273.606667,0.0
L1MAXMIN|MAXMIN|BOUNDARY,OTHER  LANES,E_S,<10-G,LOW  SPEED,NO  PEDESTRIAN,RL  0,acts-9,N,784,199,264.597667,0.0
L1MAXMIN|MAXMIN|BOUNDARY,OTHER  LANES,E_S,<10-G,LOW  SPEED,NO  PEDESTRIAN,RL  0,acts-9,N,784,199,265.598667,0
L1MAXMIN|MAXMIN|BOUNDARY,OTHER  LANES,E_S,<10-G,LOW  SPEED,NO  PEDESTRIAN,RL  0,acts-9,N,784,199,266.599667,0
L1MAXMIN|MAXMIN|BOUNDARY,OTHER  LANES,E_S,<10-G,LOW  SPEED,NO  PEDESTRIAN,RL  0,acts-9,N,784,199,267.600667,0.0
L1MAXMIN|MAXMIN|BOUNDARY,OTHER  LANES,E_S,<10-G,LOW  SPEED,NO  PEDESTRIAN,RL  0,acts-9,N,784,199,268.601667,0
L1MAXMIN|MAXMIN|BOUNDARY,OTHER  LANES,E_S,<10-G,LOW  SPEED,NO  PEDESTRIAN,RL  0,acts-9,N,784,199,269.602667,0.0
L1MAXMIN|MAXMIN|BOUNDARY,OTHER  LANES,E_S,<10-G,LOW  SPEED,NO  PEDESTRIAN,RL  0,acts-9,N,784,199,270.603667,0.0
L1MAXMIN|MAXMIN|BOUNDARY,OTHER  LANES,E_S,>EQ  10-Y/R,MEDIUM  SPEED,NO  PEDESTRIAN,  RL  >  2,acts-1,N,784,175,188.521667,0.02726400000000001
L1MAXMIN|MAXMIN|BOUNDARY,OTHER  LANES,E_S,>EQ  10-G,LOW  SPEED,NO  PEDESTRIAN,RL  0,acts-9,N,784,199,221.554667,0.0
L1MAXMIN|MAXMIN|BOUNDARY,OTHER  LANES,E_S,>EQ  10-G,LOW  SPEED,NO  PEDESTRIAN,RL  0,acts-9,N,784,199,222.555667,0.0
L1MAXMIN|MAXMIN|BOUNDARY,OTHER  LANES,E_S,>EQ  10-G,LOW  SPEED,NO  PEDESTRIAN,RL  0,acts-9,N,784,199,223.556667,0.0
L1MAXMIN|MAXMIN|BOUNDARY,OTHER  LANES,E_S,>EQ  10-G,LOW  SPEED,NO  PEDESTRIAN,RL  0,acts-9,N,784,199,224.557667,0.0
L1MAXMIN|MAXMIN|BOUNDARY,OTHER  LANES,E_S,>EQ  10-G,LOW  SPEED,NO  PEDESTRIAN,RL  0,acts-9,N,784,199,225.558667,0.0
L1MAXMIN|MAXMIN|BOUNDARY,OTHER  LANES,E_S,>EQ  10-G,LOW  SPEED,NO  PEDESTRIAN,RL  0,acts-9,N,784,199,226.559667,0
L1MAXMIN|MAXMIN|BOUNDARY,OTHER  LANES,E_S,>EQ  10-G,LOW  SPEED,NO  PEDESTRIAN,RL  0,acts-9,N,784,199,227.560667,0.0
L1MAXMIN|MAXMIN|BOUNDARY,OTHER  LANES,E_S,>EQ  10-G,LOW  SPEED,NO  PEDESTRIAN,RL  0,acts-9,N,784,199,228.561667,0.0
L1MAXMIN|MAXMIN|BOUNDARY,OTHER  LANES,E_S,>EQ  10-G,LOW  SPEED,NO  PEDESTRIAN,RL  0,acts-9,N,784,199,229.562667,0.0
L1MAXMIN|MAXMIN|BOUNDARY,OTHER  LANES,E_S,>EQ  10-G,LOW  SPEED,NO  PEDESTRIAN,RL  0,acts-9,N,784,199,230.563667,0.0
L1MAXMIN|MAXMIN|BOUNDARY,OTHER  LANES,E_S,>EQ  10-G,LOW  SPEED,NO  PEDESTRIAN,RL  0,acts-9,N,784,199,231.564667,0.0
L1MAXMIN|MAXMIN|BOUNDARY,OTHER  LANES,E_S,>EQ  10-G,LOW  SPEED,NO  PEDESTRIAN,RL  0,acts-9,N,784,199,232.565667,0
L1MAXMIN|MAXMIN|BOUNDARY,OTHER  LANES,E_S,>EQ  10-G,LOW  SPEED,NO  PEDESTRIAN,RL  0,acts-9,N,784,199,233.566667,0.0
L1MAXMIN|MAXMIN|BOUNDARY,OTHER  LANES,E_S,>EQ  10-G,LOW  SPEED,NO  PEDESTRIAN,RL  0,acts-9,N,784,199,234.567667,0.0
L1MAXMIN|MAXMIN|BOUNDARY,OTHER  LANES,E_S,>EQ  10-G,LOW  SPEED,NO  PEDESTRIAN,RL  0,acts-9,N,784,199,235.568667,0.0
L1MAXMIN|MAXMIN|BOUNDARY,OTHER  LANES,E_S,>EQ  10-G,LOW  SPEED,NO  PEDESTRIAN,RL  0,acts-9,N,784,199,236.569667,0.0
L1MAXMIN|MAXMIN|BOUNDARY,OTHER  LANES,E_S,>EQ  10-G,LOW  SPEED,NO  PEDESTRIAN,RL  0,acts-9,N,784,199,237.570667,0.0
L1MAXMIN|MAXMIN|BOUNDARY,OTHER  LANES,E_S,>EQ  10-G,LOW  SPEED,NO  PEDESTRIAN,RL  0,acts-9,N,784,199,238.571667,0
L1MAXMIN|MAXMIN|BOUNDARY,OTHER  LANES,E_S,>EQ  10-G,LOW  SPEED,NO  PEDESTRIAN,RL  0,acts-9,N,784,199,239.572667,0.0
L1MAXMIN|MAXMIN|BOUNDARY,OTHER  LANES,E_S,>EQ  10-G,LOW  SPEED,NO  PEDESTRIAN,RL  0,acts-9,N,784,199,240.573667,0.0
L1MAXMIN|MAXMIN|BOUNDARY,OTHER  LANES,E_S,>EQ  10-G,LOW  SPEED,NO  PEDESTRIAN,RL  0,acts-9,N,784,199,241.574667,0.0
L1MAXMIN|MAXMIN|BOUNDARY,OTHER  LANES,E_S,>EQ  10-G,LOW  SPEED,NO  PEDESTRIAN,RL  0,acts-9,N,784,199,242.575667,0.0
L1MAXMIN|MAXMIN|BOUNDARY,OTHER  LANES,E_S,>EQ  10-G,LOW  SPEED,NO  PEDESTRIAN,RL  0,acts-9,N,784,199,243.576667,0.0
L1MAXMIN|MAXMIN|BOUNDARY,OTHER  LANES,E_S,>EQ  10-G,LOW  SPEED,NO  PEDESTRIAN,RL  0,acts-9,N,784,199,244.577667,0
L1MAXMIN|MAXMIN|BOUNDARY,OTHER  LANES,E_S,>EQ  10-G,LOW  SPEED,NO  PEDESTRIAN,RL  0,acts-9,N,784,199,245.578667,0.0
L1MAXMIN|MAXMIN|BOUNDARY,OTHER  LANES,E_S,>EQ  10-G,LOW  SPEED,NO  PEDESTRIAN,RL  0,acts-9,N,784,199,246.579667,0.0
L1MAXMIN|MAXMIN|BOUNDARY,OTHER  LANES,E_S,>EQ  10-G,LOW  SPEED,NO  PEDESTRIAN,RL  0,acts-9,N,784,199,247.580667,0.0
L1MAXMIN|MAXMIN|BOUNDARY,OTHER  LANES,E_S,>EQ  10-G,LOW  SPEED,NO  PEDESTRIAN,RL  0,acts-9,N,784,199,248.581667,0.0
L1MAXMIN|MAXMIN|BOUNDARY,OTHER  LANES,E_S,>EQ  10-G,LOW  SPEED,NO  PEDESTRIAN,RL  0,acts-9,N,784,199,249.582667,0.0
L1MAXMIN|MAXMIN|BOUNDARY,OTHER  LANES,E_S,>EQ  10-G,LOW  SPEED,NO  PEDESTRIAN,RL  0,acts-9,N,784,199,250.583667,0
L1MAXMIN|MAXMIN|BOUNDARY,OTHER  LANES,E_S,>EQ  10-G,LOW  SPEED,NO  PEDESTRIAN,RL  0,acts-9,N,784,199,251.584667,0.0
L1MAXMIN|MAXMIN|BOUNDARY,OTHER  LANES,E_S,>EQ  10-G,LOW  SPEED,NO  PEDESTRIAN,RL  0,acts-9,N,784,199,252.585667,0.0
L1MAXMIN|MAXMIN|BOUNDARY,OTHER  LANES,E_S,>EQ  10-G,LOW  SPEED,NO  PEDESTRIAN,RL  0,acts-9,N,784,199,253.586667,0.0
L1MAXMIN|MAXMIN|BOUNDARY,OTHER  LANES,E_S,>EQ  10-G,LOW  SPEED,NO  PEDESTRIAN,RL  0,acts-9,N,784,199,254.587667,0
L1MAXMIN|MAXMIN|BOUNDARY,OTHER  LANES,E_S,>EQ  10-G,LOW  SPEED,NO  PEDESTRIAN,RL  0,acts-9,N,784,199,255.588667,0.0
L1MAXMIN|MAXMIN|BOUNDARY,OTHER  LANES,E_S,>EQ  10-G,LOW  SPEED,NO  PEDESTRIAN,RL  0,acts-9,N,784,199,256.589667,0
L1MAXMIN|MAXMIN|BOUNDARY,OTHER  LANES,E_S,>EQ  10-G,LOW  SPEED,NO  PEDESTRIAN,RL  0,acts-9,N,784,199,257.590667,0.0
L1MAXMIN|MAXMIN|BOUNDARY,OTHER  LANES,E_S,>EQ  10-G,LOW  SPEED,NO  PEDESTRIAN,RL  0,acts-9,N,784,199,258.591667,0
L1MAXMIN|MAXMIN|BOUNDARY,OTHER  LANES,E_S,>EQ  10-G,LOW  SPEED,NO  PEDESTRIAN,RL  0,acts-9,N,784,199,259.592667,0
L1MAXMIN|MAXMIN|BOUNDARY,OTHER  LANES,E_S,>EQ  10-G,LOW  SPEED,NO  PEDESTRIAN,RL  0,acts-9,N,784,199,260.593667,0.0
L1MAXMIN|MAXMIN|BOUNDARY,OTHER  LANES,E_S,>EQ  10-G,LOW  SPEED,NO  PEDESTRIAN,RL  0,acts-9,N,784,199,261.594667,0
L1MAXMIN|MAXMIN|BOUNDARY,OTHER  LANES,E_S,>EQ  10-G,LOW  SPEED,NO  PEDESTRIAN,RL  0,acts-9,N,784,199,262.595667,0.0
L1MAXMIN|MAXMIN|BOUNDARY,OTHER  LANES,E_S,>EQ  10-G,LOW  SPEED,NO  PEDESTRIAN,RL  0,acts-9,N,784,199,263.596667,0
L1MAXMIN|MAXMIN|BOUNDARY,prep-right-turn,W_S,<10-Y/R,LOW  SPEED,PEDESTRIAN,RL  0,acts-5,N,784,106,112.946167,0
L1MAXMIN|MAXMIN|BOUNDARY,prep-right-turn,W_S,<10-G,LOW  SPEED,PEDESTRIAN,RL  0,acts-5,Y,784,65,70.904167,5.2000000000052005e-05
L1MAXMIN|MAXMIN|BOUNDARY,prep-right-turn,W_S,<10-G,LOW  SPEED,PEDESTRIAN,RL  0,acts-5,Y,784,65,71.905167,0.0004170000000000007
L1MAXMIN|MAXMIN|BOUNDARY,prep-right-turn,W_S,<10-G,LOW  SPEED,NO  PEDESTRIAN,RL  0,acts-1,N,784,154,168.835333,0.03687800000000008
L1MAXMIN|MAXMIN|BOUNDARY,prep-right-turn,W_S,<10-G,LOW  SPEED,NO  PEDESTRIAN,RL  0,acts-1,N,784,154,169.836333,0.0003189999999999582
L1MAXMIN|MAXMIN|BOUNDARY,prep-right-turn,W_S,<10-G,LOW  SPEED,NO  PEDESTRIAN,RL  0,acts-1,Y,784,154,170.837333,0.00020100000000000673
L1MAXMIN|MAXMIN|BOUNDARY,prep-right-turn,W_S,<10-G,LOW  SPEED,NO  PEDESTRIAN,RL  0,acts-1,Y,784,154,171.838333,0
L1MAXMIN|MAXMIN|BOUNDARY,prep-right-turn,W_S,<10-G,LOW  SPEED,NO  PEDESTRIAN,RL  0,acts-1,Y,784,154,172.839333,0.0012119999999999909
L1MAXMIN|MAXMIN|BOUNDARY,prep-right-turn,W_S,>EQ  10-Y/R,LOW  SPEED,PEDESTRIAN,  RL  <EQ  2,acts-11,N,784,185,200.867333,0.0008409999999999807
L1MAXMIN|MAXMIN|BOUNDARY,prep-right-turn,W_S,>EQ  10-Y/R,LOW  SPEED,NO  PEDESTRIAN,RL  0,acts-1,N,784,87,94.761333,0.00013900000000000023
L1MAXMIN|MAXMIN|BOUNDARY,prep-right-turn,W_S,>EQ  10-Y/R,LOW  SPEED,NO  PEDESTRIAN,RL  0,acts-1,Y,784,162,176.342833,0.0004979999999999984
L1MAXMIN|MAXMIN|BOUNDARY,prep-right-turn,W_S,>EQ  10-G,LOW  SPEED,PEDESTRIAN,  RL  <EQ  2,acts-5,N,784,133,137.804333,0.009099999999999997
L1MAXMIN|MAXMIN|BOUNDARY,prep-right-turn,W_S,>EQ  10-G,LOW  SPEED,PEDESTRIAN,  RL  >  2,acts-5,Y,784,198,221.221,0.281826
L1MAXMIN|MAXMIN|BOUNDARY,prep-right-turn,W_S,>EQ  10-G,LOW  SPEED,PEDESTRIAN,  RL  >  2,acts-5,Y,784,198,222.222,0.006896000000000013
L1MAXMIN|MAXMIN|BOUNDARY,prep-right-turn,W_S,>EQ  10-G,LOW  SPEED,NO  PEDESTRIAN,RL  0,acts-1,Y,784,31,29.5295,0.0007340000000000124
L1MAXMIN|MAXMIN|BOUNDARY,prep-right-turn,W_S,>EQ  10-G,LOW  SPEED,NO  PEDESTRIAN,RL  0,acts-1,Y,784,62,60.727333,0
L1MAXMIN|MAXMIN|BOUNDARY,prep-right-turn,W_S,>EQ  10-G,LOW  SPEED,NO  PEDESTRIAN,RL  0,acts-1,Y,784,133,145.812333,0.00014999999999998348
L1MAXMIN|MAXMIN|BOUNDARY,prep-right-turn,W_S,>EQ  10-G,LOW  SPEED,NO  PEDESTRIAN,  RL  <EQ  2,acts-1,N,784,133,140.807333,0
L1MAXMIN|MAXMIN|BOUNDARY,prep-right-turn,W_S,>EQ  10-G,LOW  SPEED,NO  PEDESTRIAN,  RL  <EQ  2,acts-1,N,784,133,141.808333,0.01435199999999992
L1MAXMIN|MAXMIN|BOUNDARY,prep-right-turn,W_S,>EQ  10-G,LOW  SPEED,NO  PEDESTRIAN,  RL  <EQ  2,acts-1,N,784,133,142.809333,0.38115799999999994
L1MAXMIN|MAXMIN|BOUNDARY,prep-right-turn,S_E,<10-Y/R,LOW  SPEED,NO  PEDESTRIAN,RL  0,acts-1,N,784,158,167.000167,0
L1MAXMIN|MAXMIN|BOUNDARY,prep-right-turn,S_E,<10-G,LOW  SPEED,NO  PEDESTRIAN,RL  0,acts-1,Y,784,103,109.275833,0.0305160000000001
L1MAXMIN|MAXMIN|BOUNDARY,prep-right-turn,S_E,<10-G,LOW  SPEED,NO  PEDESTRIAN,RL  0,acts-1,Y,784,103,110.276833,0.03320400000000001
L1MAXMIN|MAXMIN|BOUNDARY,prep-right-turn,S_E,<10-G,LOW  SPEED,NO  PEDESTRIAN,RL  0,acts-1,Y,784,103,111.277833,0.003705999999999987
L1MAXMIN|MAXMIN|BOUNDARY,prep-right-turn,S_E,<10-G,LOW  SPEED,NO  PEDESTRIAN,RL  0,acts-1,Y,784,103,112.278833,0
L1MAXMIN|MAXMIN|BOUNDARY,prep-right-turn,S_E,<10-G,LOW  SPEED,NO  PEDESTRIAN,RL  0,acts-1,Y,784,103,113.279833,0.0049719999999999764
L1MAXMIN|MAXMIN|BOUNDARY,prep-right-turn,S_E,>EQ  10-Y/R,LOW  SPEED,NO  PEDESTRIAN,RL  0,acts-1,N,784,33,33.700333,0.029927000000000037
L1MAXMIN|MAXMIN|BOUNDARY,prep-right-turn,S_E,>EQ  10-G,LOW  SPEED,PEDESTRIAN,RL  0,acts-5,N,784,171,214.214,0.01141700000000001
L1MAXMIN|MAXMIN|BOUNDARY,prep-right-turn,S_E,>EQ  10-G,LOW  SPEED,PEDESTRIAN,RL  0,acts-5,Y,784,171,215.215,0
L1MAXMIN|MAXMIN|BOUNDARY,prep-right-turn,S_E,>EQ  10-G,LOW  SPEED,PEDESTRIAN,RL  0,acts-5,N,784,171,216.216,0
L1MAXMIN|MAXMIN|BOUNDARY,prep-right-turn,S_E,>EQ  10-G,LOW  SPEED,PEDESTRIAN,RL  0,acts-5,Y,784,171,217.217,0.0013999999999999568
L1MAXMIN|MAXMIN|BOUNDARY,prep-right-turn,S_E,>EQ  10-G,LOW  SPEED,NO  PEDESTRIAN,  RL  <EQ  2,acts-1,N,784,80,102.769333,0
L1MAXMIN|MAXMIN|BOUNDARY,prep-right-turn,S_E,>EQ  10-G,LOW  SPEED,NO  PEDESTRIAN,  RL  <EQ  2,acts-1,N,784,80,98.765333,0
L1MAXMIN|MAXMIN|BOUNDARY,prep-right-turn,S_E,>EQ  10-G,LOW  SPEED,NO  PEDESTRIAN,  RL  <EQ  2,acts-1,N,784,80,99.766333,0.0004190000000000582
L1MAXMIN|MAXMIN|BOUNDARY,prep-right-turn,S_E,>EQ  10-G,LOW  SPEED,NO  PEDESTRIAN,  RL  >  2,acts-1,N,784,80,100.767333,0
L1MAXMIN|MAXMIN|BOUNDARY,prep-right-turn,S_E,>EQ  10-G,LOW  SPEED,NO  PEDESTRIAN,  RL  >  2,acts-1,N,784,80,101.768333,0
L1MAXMIN|MAXMIN|BOUNDARY,prep-right-turn,S_E,>EQ  10-G,LOW  SPEED,NO  PEDESTRIAN,  RL  >  2,acts-1,Y,784,80,103.770333,0.010272000000000059
L1MAXMIN|MAXMIN|BOUNDARY,prep-right-turn,S_E,>EQ  10-G,LOW  SPEED,NO  PEDESTRIAN,  RL  >  2,acts-1,Y,784,80,104.771333,4.499999999996174e-05
L1MAXMIN|MAXMIN|BOUNDARY,prep-right-turn,S_E,>EQ  10-G,LOW  SPEED,NO  PEDESTRIAN,  RL  >  2,acts-1,Y,784,80,105.772333,0.005615999999999954
L1MAXMIN|MAXMIN|BOUNDARY,prep-right-turn,S_E,>EQ  10-G,LOW  SPEED,NO  PEDESTRIAN,  RL  >  2,acts-1,Y,784,80,96.763333,0.006420000000000092
L1MAXMIN|MAXMIN|BOUNDARY,prep-right-turn,S_E,>EQ  10-G,LOW  SPEED,NO  PEDESTRIAN,  RL  >  2,acts-1,N,784,80,97.764333,0
L1MAXMIN|MAXMIN|BOUNDARY,exec-right-turn,W_S,<10-Y/R,LOW  SPEED,PEDESTRIAN,RL  0,acts-1,Y,784,101,106.439667,0
L1MAXMIN|MAXMIN|BOUNDARY,exec-right-turn,W_S,<10-Y/R,LOW  SPEED,PEDESTRIAN,RL  0,acts-1,N,784,101,107.440667,0.0043839999999999435
L1MAXMIN|MAXMIN|BOUNDARY,exec-right-turn,W_S,<10-Y/R,LOW  SPEED,PEDESTRIAN,  RL  <EQ  2,acts-1,Y,784,192,209.375833,0
L1MAXMIN|MAXMIN|BOUNDARY,exec-right-turn,W_S,<10-Y/R,MEDIUM  SPEED,PEDESTRIAN,RL  0,acts-1,Y,784,192,210.376833,0.0028730000000000144
L1MAXMIN|MAXMIN|BOUNDARY,exec-right-turn,W_S,<10-G,LOW  SPEED,PEDESTRIAN,RL  0,acts-1,Y,784,65,72.906167,0.00029300000000009874
L1MAXMIN|MAXMIN|BOUNDARY,exec-right-turn,W_S,<10-G,LOW  SPEED,PEDESTRIAN,RL  0,acts-1,Y,784,65,73.907167,0.0017210000000000836
L1MAXMIN|MAXMIN|BOUNDARY,exec-right-turn,W_S,<10-G,LOW  SPEED,NO  PEDESTRIAN,RL  0,acts-1,Y,784,154,173.840333,0
L1MAXMIN|MAXMIN|BOUNDARY,exec-right-turn,W_S,>EQ  10-Y/R,LOW  SPEED,PEDESTRIAN,RL  0,acts-1,Y,784,78,88.088,0
L1MAXMIN|MAXMIN|BOUNDARY,exec-right-turn,W_S,>EQ  10-Y/R,LOW  SPEED,PEDESTRIAN,RL  0,acts-1,N,784,78,89.089,0.0023529999999999385
L1MAXMIN|MAXMIN|BOUNDARY,exec-right-turn,W_S,>EQ  10-Y/R,LOW  SPEED,PEDESTRIAN,RL  0,acts-1,Y,784,182,200.7005,0.0023660000000000903
L1MAXMIN|MAXMIN|BOUNDARY,exec-right-turn,W_S,>EQ  10-Y/R,LOW  SPEED,PEDESTRIAN,RL  0,acts-1,N,784,185,202.869333,0.0009000000000000119
L1MAXMIN|MAXMIN|BOUNDARY,exec-right-turn,W_S,>EQ  10-Y/R,LOW  SPEED,NO  PEDESTRIAN,RL  0,acts-1,Y,784,87,95.762333,0
L1MAXMIN|MAXMIN|BOUNDARY,exec-right-turn,W_S,>EQ  10-Y/R,LOW  SPEED,NO  PEDESTRIAN,RL  0,acts-1,Y,784,154,174.841333,0
L1MAXMIN|MAXMIN|BOUNDARY,exec-right-turn,W_S,>EQ  10-Y/R,LOW  SPEED,NO  PEDESTRIAN,RL  0,acts-1,Y,784,162,177.343833,0.00036400000000003097
L1MAXMIN|MAXMIN|BOUNDARY,exec-right-turn,W_S,>EQ  10-Y/R,LOW  SPEED,NO  PEDESTRIAN,RL  0,acts-1,Y,784,162,178.344833,0
L1MAXMIN|MAXMIN|BOUNDARY,exec-right-turn,W_S,>EQ  10-Y/R,MEDIUM  SPEED,PEDESTRIAN,RL  0,acts-1,Y,784,82,91.257833,0.0030999999999999917
L1MAXMIN|MAXMIN|BOUNDARY,exec-right-turn,W_S,>EQ  10-G,LOW  SPEED,PEDESTRIAN,RL  0,acts-1,Y,784,106,113.947167,0
L1MAXMIN|MAXMIN|BOUNDARY,exec-right-turn,W_S,>EQ  10-G,LOW  SPEED,PEDESTRIAN,RL  0,acts-1,Y,784,106,114.948167,0.0009339999999999904
L1MAXMIN|MAXMIN|BOUNDARY,exec-right-turn,W_S,>EQ  10-G,LOW  SPEED,PEDESTRIAN,  RL  >  2,acts-1,Y,784,198,223.223,0.025687000000000015
L1MAXMIN|MAXMIN|BOUNDARY,exec-right-turn,W_S,>EQ  10-G,LOW  SPEED,PEDESTRIAN,  RL  >  2,acts-1,Y,784,198,224.224,0.0008540000000000214
L1MAXMIN|MAXMIN|BOUNDARY,exec-right-turn,W_S,>EQ  10-G,LOW  SPEED,NO  PEDESTRIAN,RL  0,acts-1,Y,784,62,61.728333,0.00041399999999991444
L1MAXMIN|MAXMIN|BOUNDARY,exec-right-turn,W_S,>EQ  10-G,LOW  SPEED,NO  PEDESTRIAN,RL  0,acts-1,N,784,62,62.729333,0.0020239999999999148
L1MAXMIN|MAXMIN|BOUNDARY,exec-right-turn,W_S,>EQ  10-G,LOW  SPEED,NO  PEDESTRIAN,RL  0,acts-1,Y,784,133,146.813333,0.005237999999999965
L1MAXMIN|MAXMIN|BOUNDARY,exec-right-turn,W_S,>EQ  10-G,LOW  SPEED,NO  PEDESTRIAN,RL  0,acts-1,Y,784,133,147.814333,0
L1MAXMIN|MAXMIN|BOUNDARY,exec-right-turn,W_S,>EQ  10-G,MEDIUM  SPEED,NO  PEDESTRIAN,RL  0,acts-1,Y,784,31,30.5305,0.00026100000000006673
L1MAXMIN|MAXMIN|BOUNDARY,exec-right-turn,S_E,<10-Y/R,LOW  SPEED,NO  PEDESTRIAN,RL  0,acts-1,Y,784,158,168.001167,0
L1MAXMIN|MAXMIN|BOUNDARY,exec-right-turn,S_E,<10-Y/R,MEDIUM  SPEED,NO  PEDESTRIAN,RL  0,acts-1,Y,784,158,169.002167,0
L1MAXMIN|MAXMIN|BOUNDARY,exec-right-turn,S_E,<10-G,LOW  SPEED,NO  PEDESTRIAN,RL  0,acts-1,Y,784,103,114.280833,0
L1MAXMIN|MAXMIN|BOUNDARY,exec-right-turn,S_E,<10-G,LOW  SPEED,NO  PEDESTRIAN,RL  0,acts-1,Y,784,103,115.281833,0
L1MAXMIN|MAXMIN|BOUNDARY,exec-right-turn,S_E,>EQ  10-Y/R,LOW  SPEED,NO  PEDESTRIAN,RL  0,acts-1,Y,784,33,36.703333,0.0031439999999999246
L1MAXMIN|MAXMIN|BOUNDARY,exec-right-turn,S_E,>EQ  10-Y/R,LOW  SPEED,NO  PEDESTRIAN,RL  0,acts-1,Y,784,103,116.282833,0.00036800000000003497
L1MAXMIN|MAXMIN|BOUNDARY,exec-right-turn,S_E,>EQ  10-Y/R,LOW  SPEED,NO  PEDESTRIAN,RL  0,acts-1,Y,784,144,145.311833,0
L1MAXMIN|MAXMIN|BOUNDARY,exec-right-turn,S_E,>EQ  10-Y/R,LOW  SPEED,NO  PEDESTRIAN,RL  0,acts-1,Y,784,219,238.7385,0
L1MAXMIN|MAXMIN|BOUNDARY,exec-right-turn,S_E,>EQ  10-Y/R,MEDIUM  SPEED,NO  PEDESTRIAN,RL  0,acts-1,Y,784,125,128.294833,0
L1MAXMIN|MAXMIN|BOUNDARY,exec-right-turn,S_E,>EQ  10-G,LOW  SPEED,NO  PEDESTRIAN,RL  0,acts-1,Y,784,171,218.218,0.008857000000000004
L1MAXMIN|MAXMIN|BOUNDARY,exec-right-turn,S_E,>EQ  10-G,LOW  SPEED,NO  PEDESTRIAN,RL  0,acts-1,Y,784,171,219.219,0
