EQ_TYPE,SEGMENT,TASK,NEXT_CHANGE,SPEED,PEDESTRIAN,RELEV_VEHICLE,ACTIONS,AGGRESSIVE,FILE_ID,TRACK_ID,TIME,ON_EQ
L1MAXMIN|BASELINE_ONLY,prep-left-turn,S_W,<10-Y/R,LOW  SPEED,NO  PEDESTRIAN,RL  0,acts-1,Y,784,207,258.7585,0
L1MAXMIN|BASELINE_ONLY,prep-left-turn,S_W,>EQ  10-Y/R,LOW  SPEED,NO  PEDESTRIAN,RL  0,acts-1,Y,784,8,23.023,0
L1MAXMIN|BASELINE_ONLY,prep-left-turn,S_W,>EQ  10-Y/R,LOW  SPEED,NO  PEDESTRIAN,RL  0,acts-1,N,784,8,24.024,0.004620999999999986
L1MAXMIN|BASELINE_ONLY,prep-left-turn,S_W,>EQ  10-Y/R,LOW  SPEED,NO  PEDESTRIAN,RL  0,acts-1,N,784,207,250.7505,0.07906400000000002
L1MAXMIN|BASELINE_ONLY,prep-left-turn,S_W,>EQ  10-Y/R,LOW  SPEED,NO  PEDESTRIAN,  RL  <EQ  2,acts-1,N,784,40,44.711333,0.10972500000000002
L1MAXMIN|BASELINE_ONLY,prep-left-turn,S_W,>EQ  10-Y/R,LOW  SPEED,NO  PEDESTRIAN,  RL  <EQ  2,acts-1,N,784,40,45.712333,0
L1MAXMIN|BASELINE_ONLY,prep-left-turn,S_W,>EQ  10-Y/R,LOW  SPEED,NO  PEDESTRIAN,  RL  <EQ  2,acts-1,N,784,40,46.713333,0.06561499999999998
L1MAXMIN|BASELINE_ONLY,prep-left-turn,S_W,>EQ  10-Y/R,LOW  SPEED,NO  PEDESTRIAN,  RL  <EQ  2,acts-1,N,784,207,244.7445,0.24274299999999993
L1MAXMIN|BASELINE_ONLY,prep-left-turn,S_W,>EQ  10-Y/R,LOW  SPEED,NO  PEDESTRIAN,  RL  <EQ  2,acts-1,N,784,207,246.7465,0.42252500000000004
L1MAXMIN|BASELINE_ONLY,prep-left-turn,S_W,>EQ  10-Y/R,LOW  SPEED,NO  PEDESTRIAN,  RL  <EQ  2,acts-1,N,784,207,247.7475,0
L1MAXMIN|BASELINE_ONLY,prep-left-turn,S_W,>EQ  10-Y/R,LOW  SPEED,NO  PEDESTRIAN,  RL  <EQ  2,acts-1,N,784,207,253.7535,0.41333200000000003
L1MAXMIN|BASELINE_ONLY,prep-left-turn,S_W,>EQ  10-Y/R,LOW  SPEED,NO  PEDESTRIAN,  RL  <EQ  2,acts-1,N,784,207,254.7545,0.44997400000000004
L1MAXMIN|BASELINE_ONLY,prep-left-turn,S_W,>EQ  10-Y/R,LOW  SPEED,NO  PEDESTRIAN,  RL  <EQ  2,acts-1,Y,784,207,255.7555,0
L1MAXMIN|BASELINE_ONLY,prep-left-turn,S_W,>EQ  10-Y/R,LOW  SPEED,NO  PEDESTRIAN,  RL  <EQ  2,acts-2,N,784,47,49.883167,0
L1MAXMIN|BASELINE_ONLY,prep-left-turn,S_W,>EQ  10-Y/R,LOW  SPEED,NO  PEDESTRIAN,  RL  <EQ  2,acts-2,N,784,47,52.886167,0.0
L1MAXMIN|BASELINE_ONLY,prep-left-turn,S_W,>EQ  10-Y/R,LOW  SPEED,NO  PEDESTRIAN,  RL  >  2,acts-1,N,784,40,41.708333,0.04609599999999997
L1MAXMIN|BASELINE_ONLY,prep-left-turn,S_W,>EQ  10-Y/R,LOW  SPEED,NO  PEDESTRIAN,  RL  >  2,acts-1,Y,784,40,42.709333,0.06047600000000003
L1MAXMIN|BASELINE_ONLY,prep-left-turn,S_W,>EQ  10-Y/R,LOW  SPEED,NO  PEDESTRIAN,  RL  >  2,acts-1,N,784,40,43.710333,0.03556799999999999
L1MAXMIN|BASELINE_ONLY,prep-left-turn,S_W,>EQ  10-Y/R,LOW  SPEED,NO  PEDESTRIAN,  RL  >  2,acts-1,N,784,207,241.7415,0
L1MAXMIN|BASELINE_ONLY,prep-left-turn,S_W,>EQ  10-Y/R,LOW  SPEED,NO  PEDESTRIAN,  RL  >  2,acts-1,Y,784,207,242.7425,0.06979099999999999
L1MAXMIN|BASELINE_ONLY,prep-left-turn,S_W,>EQ  10-Y/R,LOW  SPEED,NO  PEDESTRIAN,  RL  >  2,acts-1,N,784,207,243.7435,0
L1MAXMIN|BASELINE_ONLY,prep-left-turn,S_W,>EQ  10-Y/R,LOW  SPEED,NO  PEDESTRIAN,  RL  >  2,acts-1,N,784,207,245.7455,0.0
L1MAXMIN|BASELINE_ONLY,prep-left-turn,N_E,>EQ  10-Y/R,LOW  SPEED,NO  PEDESTRIAN,RL  0,acts-1,N,784,14,35.035,0.008989999999999942
L1MAXMIN|BASELINE_ONLY,prep-left-turn,N_E,>EQ  10-Y/R,LOW  SPEED,NO  PEDESTRIAN,RL  0,acts-1,Y,784,14,36.036,0
L1MAXMIN|BASELINE_ONLY,prep-left-turn,N_E,>EQ  10-Y/R,LOW  SPEED,NO  PEDESTRIAN,RL  0,acts-1,Y,784,115,121.6215,0.08169599999999999
L1MAXMIN|BASELINE_ONLY,prep-left-turn,N_E,>EQ  10-Y/R,LOW  SPEED,NO  PEDESTRIAN,RL  0,acts-1,Y,784,115,122.6225,0.08332499999999998
L1MAXMIN|BASELINE_ONLY,prep-left-turn,N_E,>EQ  10-Y/R,LOW  SPEED,NO  PEDESTRIAN,RL  0,acts-1,Y,784,143,140.974167,0.07953600000000005
L1MAXMIN|BASELINE_ONLY,prep-left-turn,N_E,>EQ  10-Y/R,LOW  SPEED,NO  PEDESTRIAN,RL  0,acts-1,Y,784,161,222.7225,0
L1MAXMIN|BASELINE_ONLY,prep-left-turn,N_E,>EQ  10-Y/R,LOW  SPEED,NO  PEDESTRIAN,RL  0,acts-1,Y,784,161,223.7235,0.0049000000000000155
L1MAXMIN|BASELINE_ONLY,prep-left-turn,N_E,>EQ  10-Y/R,LOW  SPEED,NO  PEDESTRIAN,RL  0,acts-1,Y,784,217,234.567667,0.07237099999999996
L1MAXMIN|BASELINE_ONLY,prep-left-turn,N_E,>EQ  10-Y/R,LOW  SPEED,NO  PEDESTRIAN,RL  0,acts-1,Y,784,217,235.568667,0.07500600000000002
L1MAXMIN|BASELINE_ONLY,prep-left-turn,W_N,<10-Y/R,LOW  SPEED,NO  PEDESTRIAN,RL  0,acts-1,Y,784,184,213.546667,0.0009860000000000424
L1MAXMIN|BASELINE_ONLY,prep-left-turn,W_N,<10-Y/R,LOW  SPEED,NO  PEDESTRIAN,  RL  <EQ  2,acts-1,N,784,184,210.543667,0.012062000000000017
L1MAXMIN|BASELINE_ONLY,prep-left-turn,W_N,<10-Y/R,LOW  SPEED,NO  PEDESTRIAN,  RL  <EQ  2,acts-1,Y,784,184,211.544667,0
L1MAXMIN|BASELINE_ONLY,prep-left-turn,W_N,<10-Y/R,LOW  SPEED,NO  PEDESTRIAN,  RL  >  2,acts-1,N,784,184,204.537667,0.15292299999999998
L1MAXMIN|BASELINE_ONLY,prep-left-turn,W_N,<10-Y/R,LOW  SPEED,NO  PEDESTRIAN,  RL  >  2,acts-1,N,784,184,205.538667,0.09591699999999997
L1MAXMIN|BASELINE_ONLY,prep-left-turn,W_N,<10-Y/R,LOW  SPEED,NO  PEDESTRIAN,  RL  >  2,acts-1,N,784,184,206.539667,0.423421
L1MAXMIN|BASELINE_ONLY,prep-left-turn,W_N,<10-Y/R,LOW  SPEED,NO  PEDESTRIAN,  RL  >  2,acts-1,N,784,184,207.540667,0
L1MAXMIN|BASELINE_ONLY,prep-left-turn,W_N,<10-Y/R,LOW  SPEED,NO  PEDESTRIAN,  RL  >  2,acts-1,N,784,184,208.541667,0.07603599999999999
L1MAXMIN|BASELINE_ONLY,prep-left-turn,W_N,<10-Y/R,LOW  SPEED,NO  PEDESTRIAN,  RL  >  2,acts-1,N,784,184,209.542667,0.143584
L1MAXMIN|BASELINE_ONLY,prep-left-turn,W_N,>EQ  10-Y/R,LOW  SPEED,PEDESTRIAN,RL  0,acts-3,N,784,124,177.343833,0.075596
L1MAXMIN|BASELINE_ONLY,prep-left-turn,W_N,>EQ  10-Y/R,LOW  SPEED,PEDESTRIAN,RL  0,acts-3,N,784,124,177.343833,0.075596
L1MAXMIN|BASELINE_ONLY,prep-left-turn,W_N,>EQ  10-Y/R,LOW  SPEED,NO  PEDESTRIAN,  RL  <EQ  2,acts-1,N,784,72,84.084,0.04633900000000002
L1MAXMIN|BASELINE_ONLY,prep-left-turn,W_N,>EQ  10-Y/R,LOW  SPEED,NO  PEDESTRIAN,  RL  <EQ  2,acts-1,N,784,72,85.085,0
L1MAXMIN|BASELINE_ONLY,prep-left-turn,W_N,>EQ  10-Y/R,LOW  SPEED,NO  PEDESTRIAN,  RL  >  2,acts-1,Y,784,72,82.082,0.09321299999999999
L1MAXMIN|BASELINE_ONLY,prep-left-turn,W_N,>EQ  10-Y/R,LOW  SPEED,NO  PEDESTRIAN,  RL  >  2,acts-1,N,784,72,83.083,0.023514000000000035
L1MAXMIN|BASELINE_ONLY,prep-left-turn,W_N,>EQ  10-Y/R,LOW  SPEED,NO  PEDESTRIAN,  RL  >  2,acts-1,Y,784,184,202.535667,0.06939500000000004
L1MAXMIN|BASELINE_ONLY,prep-left-turn,W_N,>EQ  10-Y/R,LOW  SPEED,NO  PEDESTRIAN,  RL  >  2,acts-1,Y,784,184,203.536667,0
L1MAXMIN|BASELINE_ONLY,prep-left-turn,E_S,<10-Y/R,LOW  SPEED,NO  PEDESTRIAN,  RL  <EQ  2,acts-1,Y,784,20,10.176833,0
L1MAXMIN|BASELINE_ONLY,prep-left-turn,E_S,>EQ  10-Y/R,LOW  SPEED,PEDESTRIAN,  RL  <EQ  2,acts-3,N,784,175,196.529667,0
L1MAXMIN|BASELINE_ONLY,prep-left-turn,E_S,>EQ  10-Y/R,LOW  SPEED,PEDESTRIAN,  RL  <EQ  2,acts-3,N,784,175,196.529667,0.0
L1MAXMIN|BASELINE_ONLY,prep-left-turn,E_S,>EQ  10-Y/R,LOW  SPEED,PEDESTRIAN,  RL  <EQ  2,acts-3,N,784,175,197.530667,0.0
L1MAXMIN|BASELINE_ONLY,prep-left-turn,E_S,>EQ  10-Y/R,LOW  SPEED,PEDESTRIAN,  RL  <EQ  2,acts-3,N,784,175,197.530667,0.0
L1MAXMIN|BASELINE_ONLY,prep-left-turn,E_S,>EQ  10-Y/R,LOW  SPEED,PEDESTRIAN,  RL  >  2,acts-3,N,784,175,195.528667,0.07711800000000002
L1MAXMIN|BASELINE_ONLY,prep-left-turn,E_S,>EQ  10-Y/R,LOW  SPEED,PEDESTRIAN,  RL  >  2,acts-3,N,784,175,195.528667,0.07711800000000002
L1MAXMIN|BASELINE_ONLY,prep-left-turn,E_S,>EQ  10-Y/R,LOW  SPEED,NO  PEDESTRIAN,  RL  >  2,acts-1,Y,784,175,193.526667,0.08449600000000002
L1MAXMIN|BASELINE_ONLY,prep-left-turn,E_S,>EQ  10-Y/R,LOW  SPEED,NO  PEDESTRIAN,  RL  >  2,acts-1,Y,784,175,194.527667,0.064384
L1MAXMIN|BASELINE_ONLY,exec-left-turn,S_W,<10-Y/R,LOW  SPEED,NO  PEDESTRIAN,RL  0,acts-1,N,784,207,259.7595,0
L1MAXMIN|BASELINE_ONLY,exec-left-turn,S_W,<10-Y/R,LOW  SPEED,NO  PEDESTRIAN,RL  0,acts-1,Y,784,207,260.7605,0.0011430000000000051
L1MAXMIN|BASELINE_ONLY,exec-left-turn,S_W,<10-Y/R,LOW  SPEED,NO  PEDESTRIAN,RL  0,acts-1,Y,784,207,261.7615,0.002666999999999975
L1MAXMIN|BASELINE_ONLY,exec-left-turn,S_W,<10-Y/R,LOW  SPEED,NO  PEDESTRIAN,RL  0,acts-1,Y,784,207,262.7625,0.0011420000000000874
L1MAXMIN|BASELINE_ONLY,exec-left-turn,S_W,<10-Y/R,LOW  SPEED,NO  PEDESTRIAN,RL  0,acts-1,N,784,207,263.7635,0.0011410000000000586
L1MAXMIN|BASELINE_ONLY,exec-left-turn,S_W,<10-Y/R,MEDIUM  SPEED,NO  PEDESTRIAN,RL  0,acts-1,Y,784,47,57.891167,3.199999999992098e-05
L1MAXMIN|BASELINE_ONLY,exec-left-turn,S_W,>EQ  10-Y/R,LOW  SPEED,NO  PEDESTRIAN,RL  0,acts-1,N,784,8,25.025,0.0020419999999999883
L1MAXMIN|BASELINE_ONLY,exec-left-turn,S_W,>EQ  10-Y/R,LOW  SPEED,NO  PEDESTRIAN,RL  0,acts-1,Y,784,8,26.026,0.002923000000000009
L1MAXMIN|BASELINE_ONLY,exec-left-turn,S_W,>EQ  10-Y/R,LOW  SPEED,NO  PEDESTRIAN,RL  0,acts-1,Y,784,40,50.717333,0
L1MAXMIN|BASELINE_ONLY,exec-left-turn,S_W,>EQ  10-Y/R,LOW  SPEED,NO  PEDESTRIAN,RL  0,acts-1,Y,784,40,51.718333,0.005403000000000047
L1MAXMIN|BASELINE_ONLY,exec-left-turn,S_W,>EQ  10-Y/R,LOW  SPEED,NO  PEDESTRIAN,RL  0,acts-1,Y,784,40,52.719333,0.001726999999999923
L1MAXMIN|BASELINE_ONLY,exec-left-turn,S_W,>EQ  10-Y/R,LOW  SPEED,NO  PEDESTRIAN,RL  0,acts-1,Y,784,47,55.889167,0
L1MAXMIN|BASELINE_ONLY,exec-left-turn,S_W,>EQ  10-Y/R,LOW  SPEED,NO  PEDESTRIAN,RL  0,acts-1,Y,784,47,56.890167,0.002074999999999938
L1MAXMIN|BASELINE_ONLY,exec-left-turn,S_W,>EQ  10-Y/R,LOW  SPEED,NO  PEDESTRIAN,  RL  <EQ  2,acts-1,N,784,40,47.714333,0
L1MAXMIN|BASELINE_ONLY,exec-left-turn,S_W,>EQ  10-Y/R,MEDIUM  SPEED,NO  PEDESTRIAN,RL  0,acts-1,Y,784,8,27.027,0
L1MAXMIN|BASELINE_ONLY,exec-left-turn,S_W,>EQ  10-Y/R,MEDIUM  SPEED,NO  PEDESTRIAN,RL  0,acts-1,Y,784,40,53.720333,0
L1MAXMIN|BASELINE_ONLY,exec-left-turn,N_E,>EQ  10-Y/R,LOW  SPEED,PEDESTRIAN,RL  0,acts-3,Y,784,217,249.582667,0
L1MAXMIN|BASELINE_ONLY,exec-left-turn,N_E,>EQ  10-Y/R,LOW  SPEED,PEDESTRIAN,RL  0,acts-3,Y,784,217,250.583667,0
L1MAXMIN|BASELINE_ONLY,exec-left-turn,N_E,>EQ  10-Y/R,LOW  SPEED,PEDESTRIAN,RL  0,acts-3,Y,784,217,251.584667,0
L1MAXMIN|BASELINE_ONLY,exec-left-turn,N_E,>EQ  10-Y/R,LOW  SPEED,PEDESTRIAN,RL  0,acts-3,Y,784,217,252.585667,0.011075999999999975
L1MAXMIN|BASELINE_ONLY,exec-left-turn,N_E,>EQ  10-Y/R,LOW  SPEED,PEDESTRIAN,RL  0,acts-3,Y,784,217,253.586667,0.00593100000000002
L1MAXMIN|BASELINE_ONLY,exec-left-turn,N_E,>EQ  10-Y/R,LOW  SPEED,PEDESTRIAN,RL  0,acts-3,Y,784,217,254.587667,0.004425000000000012
L1MAXMIN|BASELINE_ONLY,exec-left-turn,N_E,>EQ  10-Y/R,LOW  SPEED,NO  PEDESTRIAN,RL  0,acts-1,Y,784,14,37.037,0
L1MAXMIN|BASELINE_ONLY,exec-left-turn,N_E,>EQ  10-Y/R,LOW  SPEED,NO  PEDESTRIAN,RL  0,acts-1,Y,784,115,123.6235,0.027687999999999935
L1MAXMIN|BASELINE_ONLY,exec-left-turn,N_E,>EQ  10-Y/R,LOW  SPEED,NO  PEDESTRIAN,RL  0,acts-1,Y,784,115,124.6245,0.01811700000000005
L1MAXMIN|BASELINE_ONLY,exec-left-turn,N_E,>EQ  10-Y/R,LOW  SPEED,NO  PEDESTRIAN,RL  0,acts-1,N,784,115,125.6255,0.019537000000000027
L1MAXMIN|BASELINE_ONLY,exec-left-turn,N_E,>EQ  10-Y/R,LOW  SPEED,NO  PEDESTRIAN,RL  0,acts-1,N,784,115,126.6265,0.024538999999999977
L1MAXMIN|BASELINE_ONLY,exec-left-turn,N_E,>EQ  10-Y/R,LOW  SPEED,NO  PEDESTRIAN,RL  0,acts-1,N,784,115,127.6275,0.025065000000000004
L1MAXMIN|BASELINE_ONLY,exec-left-turn,N_E,>EQ  10-Y/R,LOW  SPEED,NO  PEDESTRIAN,RL  0,acts-1,N,784,115,128.6285,6.700000000003925e-05
L1MAXMIN|BASELINE_ONLY,exec-left-turn,N_E,>EQ  10-Y/R,LOW  SPEED,NO  PEDESTRIAN,RL  0,acts-1,Y,784,115,129.6295,0.00048800000000004395
L1MAXMIN|BASELINE_ONLY,exec-left-turn,N_E,>EQ  10-Y/R,LOW  SPEED,NO  PEDESTRIAN,RL  0,acts-1,Y,784,115,130.6305,0.002997999999999945
L1MAXMIN|BASELINE_ONLY,exec-left-turn,N_E,>EQ  10-Y/R,LOW  SPEED,NO  PEDESTRIAN,RL  0,acts-1,Y,784,115,131.6315,0
L1MAXMIN|BASELINE_ONLY,exec-left-turn,N_E,>EQ  10-Y/R,LOW  SPEED,NO  PEDESTRIAN,RL  0,acts-1,Y,784,115,132.6325,0.0028599999999999737
L1MAXMIN|BASELINE_ONLY,exec-left-turn,N_E,>EQ  10-Y/R,LOW  SPEED,NO  PEDESTRIAN,RL  0,acts-1,Y,784,115,133.6335,0.008116000000000012
L1MAXMIN|BASELINE_ONLY,exec-left-turn,N_E,>EQ  10-Y/R,LOW  SPEED,NO  PEDESTRIAN,RL  0,acts-1,Y,784,115,134.6345,0.0017819999999999503
L1MAXMIN|BASELINE_ONLY,exec-left-turn,N_E,>EQ  10-Y/R,LOW  SPEED,NO  PEDESTRIAN,RL  0,acts-1,Y,784,143,141.975167,0.05007500000000009
L1MAXMIN|BASELINE_ONLY,exec-left-turn,N_E,>EQ  10-Y/R,LOW  SPEED,NO  PEDESTRIAN,RL  0,acts-1,Y,784,143,142.976167,0.04811399999999999
L1MAXMIN|BASELINE_ONLY,exec-left-turn,N_E,>EQ  10-Y/R,LOW  SPEED,NO  PEDESTRIAN,RL  0,acts-1,Y,784,143,143.977167,0.009975000000000067
L1MAXMIN|BASELINE_ONLY,exec-left-turn,N_E,>EQ  10-Y/R,LOW  SPEED,NO  PEDESTRIAN,RL  0,acts-1,Y,784,143,144.978167,0.0028960000000000097
L1MAXMIN|BASELINE_ONLY,exec-left-turn,N_E,>EQ  10-Y/R,LOW  SPEED,NO  PEDESTRIAN,RL  0,acts-1,Y,784,161,224.7245,0
L1MAXMIN|BASELINE_ONLY,exec-left-turn,N_E,>EQ  10-Y/R,LOW  SPEED,NO  PEDESTRIAN,RL  0,acts-1,Y,784,161,225.7255,0
L1MAXMIN|BASELINE_ONLY,exec-left-turn,N_E,>EQ  10-Y/R,LOW  SPEED,NO  PEDESTRIAN,RL  0,acts-1,Y,784,217,236.569667,0.027961000000000014
L1MAXMIN|BASELINE_ONLY,exec-left-turn,N_E,>EQ  10-Y/R,LOW  SPEED,NO  PEDESTRIAN,RL  0,acts-1,Y,784,217,237.570667,0.014814999999999912
L1MAXMIN|BASELINE_ONLY,exec-left-turn,N_E,>EQ  10-Y/R,LOW  SPEED,NO  PEDESTRIAN,RL  0,acts-1,N,784,217,238.571667,0.02294700000000005
L1MAXMIN|BASELINE_ONLY,exec-left-turn,N_E,>EQ  10-Y/R,LOW  SPEED,NO  PEDESTRIAN,RL  0,acts-1,N,784,217,239.572667,0.02411399999999997
L1MAXMIN|BASELINE_ONLY,exec-left-turn,N_E,>EQ  10-Y/R,LOW  SPEED,NO  PEDESTRIAN,RL  0,acts-1,N,784,217,240.573667,0.026378000000000013
L1MAXMIN|BASELINE_ONLY,exec-left-turn,N_E,>EQ  10-Y/R,LOW  SPEED,NO  PEDESTRIAN,RL  0,acts-1,N,784,217,241.574667,0.02392700000000003
L1MAXMIN|BASELINE_ONLY,exec-left-turn,N_E,>EQ  10-Y/R,LOW  SPEED,NO  PEDESTRIAN,RL  0,acts-1,N,784,217,242.575667,0.025922
L1MAXMIN|BASELINE_ONLY,exec-left-turn,N_E,>EQ  10-Y/R,LOW  SPEED,NO  PEDESTRIAN,RL  0,acts-1,N,784,217,243.576667,0.022800000000000042
L1MAXMIN|BASELINE_ONLY,exec-left-turn,N_E,>EQ  10-Y/R,LOW  SPEED,NO  PEDESTRIAN,RL  0,acts-1,N,784,217,244.577667,0.022665000000000046
L1MAXMIN|BASELINE_ONLY,exec-left-turn,N_E,>EQ  10-Y/R,LOW  SPEED,NO  PEDESTRIAN,RL  0,acts-1,N,784,217,245.578667,0.0002710000000000212
L1MAXMIN|BASELINE_ONLY,exec-left-turn,N_E,>EQ  10-Y/R,LOW  SPEED,NO  PEDESTRIAN,RL  0,acts-1,Y,784,217,246.579667,0
L1MAXMIN|BASELINE_ONLY,exec-left-turn,N_E,>EQ  10-Y/R,LOW  SPEED,NO  PEDESTRIAN,RL  0,acts-1,Y,784,217,247.580667,0.006284999999999985
L1MAXMIN|BASELINE_ONLY,exec-left-turn,N_E,>EQ  10-Y/R,LOW  SPEED,NO  PEDESTRIAN,RL  0,acts-1,Y,784,217,248.581667,0.002794000000000074
L1MAXMIN|BASELINE_ONLY,exec-left-turn,N_E,>EQ  10-Y/R,MEDIUM  SPEED,NO  PEDESTRIAN,RL  0,acts-1,Y,784,38,41.708333,0.004504999999999981
L1MAXMIN|BASELINE_ONLY,exec-left-turn,N_E,>EQ  10-Y/R,MEDIUM  SPEED,NO  PEDESTRIAN,RL  0,acts-1,Y,784,38,42.709333,0.003373999999999988
L1MAXMIN|BASELINE_ONLY,exec-left-turn,N_E,>EQ  10-Y/R,MEDIUM  SPEED,NO  PEDESTRIAN,RL  0,acts-1,Y,784,115,135.6355,0.003298000000000023
L1MAXMIN|BASELINE_ONLY,exec-left-turn,N_E,>EQ  10-Y/R,MEDIUM  SPEED,NO  PEDESTRIAN,RL  0,acts-1,Y,784,161,226.7265,0
L1MAXMIN|BASELINE_ONLY,exec-left-turn,N_E,>EQ  10-Y/R,MEDIUM  SPEED,NO  PEDESTRIAN,RL  0,acts-1,Y,784,161,227.7275,0.00025700000000006273
L1MAXMIN|BASELINE_ONLY,exec-left-turn,W_N,<10-Y/R,LOW  SPEED,PEDESTRIAN,RL  0,acts-5,N,784,184,216.549667,0.043995000000000006
L1MAXMIN|BASELINE_ONLY,exec-left-turn,W_N,<10-Y/R,LOW  SPEED,PEDESTRIAN,RL  0,acts-5,Y,784,184,217.550667,0.0018460000000000143
L1MAXMIN|BASELINE_ONLY,exec-left-turn,W_N,<10-Y/R,LOW  SPEED,PEDESTRIAN,RL  0,acts-5,Y,784,184,218.551667,0
L1MAXMIN|BASELINE_ONLY,exec-left-turn,W_N,<10-Y/R,LOW  SPEED,NO  PEDESTRIAN,RL  0,acts-6,Y,784,9,18.018,0
L1MAXMIN|BASELINE_ONLY,exec-left-turn,W_N,<10-Y/R,LOW  SPEED,NO  PEDESTRIAN,RL  0,acts-6,Y,784,9,19.019,0.0004929999999999657
L1MAXMIN|BASELINE_ONLY,exec-left-turn,W_N,<10-Y/R,LOW  SPEED,NO  PEDESTRIAN,RL  0,acts-6,Y,784,184,214.547667,0.0011459999999999804
L1MAXMIN|BASELINE_ONLY,exec-left-turn,W_N,<10-Y/R,LOW  SPEED,NO  PEDESTRIAN,RL  0,acts-6,Y,784,184,215.548667,0
L1MAXMIN|BASELINE_ONLY,exec-left-turn,W_N,>EQ  10-Y/R,LOW  SPEED,PEDESTRIAN,RL  0,acts-3,N,784,124,178.344833,0.04393199999999997
L1MAXMIN|BASELINE_ONLY,exec-left-turn,W_N,>EQ  10-Y/R,LOW  SPEED,PEDESTRIAN,RL  0,acts-3,N,784,124,178.344833,0.04393199999999997
L1MAXMIN|BASELINE_ONLY,exec-left-turn,W_N,>EQ  10-Y/R,LOW  SPEED,PEDESTRIAN,RL  0,acts-3,N,784,124,179.345833,0.0004870000000000152
L1MAXMIN|BASELINE_ONLY,exec-left-turn,W_N,>EQ  10-Y/R,LOW  SPEED,PEDESTRIAN,RL  0,acts-3,Y,784,124,180.346833,0
L1MAXMIN|BASELINE_ONLY,exec-left-turn,W_N,>EQ  10-Y/R,LOW  SPEED,PEDESTRIAN,RL  0,acts-3,Y,784,124,181.347833,0.01778599999999997
L1MAXMIN|BASELINE_ONLY,exec-left-turn,W_N,>EQ  10-Y/R,LOW  SPEED,PEDESTRIAN,RL  0,acts-3,Y,784,124,181.347833,0.01778599999999997
L1MAXMIN|BASELINE_ONLY,exec-left-turn,W_N,>EQ  10-Y/R,LOW  SPEED,PEDESTRIAN,RL  0,acts-3,Y,784,130,182.849333,0.018927999999999945
L1MAXMIN|BASELINE_ONLY,exec-left-turn,W_N,>EQ  10-Y/R,LOW  SPEED,PEDESTRIAN,RL  0,acts-3,Y,784,130,182.849333,0.018927999999999945
L1MAXMIN|BASELINE_ONLY,exec-left-turn,W_N,>EQ  10-Y/R,LOW  SPEED,NO  PEDESTRIAN,RL  0,acts-1,Y,784,72,88.088,0
L1MAXMIN|BASELINE_ONLY,exec-left-turn,W_N,>EQ  10-Y/R,LOW  SPEED,NO  PEDESTRIAN,RL  0,acts-1,Y,784,72,89.089,0.0007610000000000117
L1MAXMIN|BASELINE_ONLY,exec-left-turn,W_N,>EQ  10-Y/R,LOW  SPEED,NO  PEDESTRIAN,RL  0,acts-1,Y,784,72,90.09,0
L1MAXMIN|BASELINE_ONLY,exec-left-turn,W_N,>EQ  10-Y/R,MEDIUM  SPEED,PEDESTRIAN,RL  0,acts-3,N,784,137,184.851333,0.018158999999999925
L1MAXMIN|BASELINE_ONLY,exec-left-turn,W_N,>EQ  10-Y/R,MEDIUM  SPEED,PEDESTRIAN,RL  0,acts-3,N,784,137,184.851333,0.018158999999999925
L1MAXMIN|BASELINE_ONLY,exec-left-turn,W_N,>EQ  10-Y/R,MEDIUM  SPEED,PEDESTRIAN,RL  0,acts-3,Y,784,157,186.352833,0.018479000000000023
L1MAXMIN|BASELINE_ONLY,exec-left-turn,W_N,>EQ  10-Y/R,MEDIUM  SPEED,PEDESTRIAN,RL  0,acts-3,Y,784,157,186.352833,0.018479000000000023
L1MAXMIN|BASELINE_ONLY,exec-left-turn,W_N,>EQ  10-Y/R,MEDIUM  SPEED,NO  PEDESTRIAN,RL  0,acts-1,N,784,72,91.091,0.015591000000000022
L1MAXMIN|BASELINE_ONLY,exec-left-turn,W_N,>EQ  10-G,LOW  SPEED,NO  PEDESTRIAN,RL  0,acts-6,N,784,9,21.021,0.0006319999999999659
L1MAXMIN|BASELINE_ONLY,exec-left-turn,W_N,>EQ  10-G,LOW  SPEED,NO  PEDESTRIAN,  RL  <EQ  2,acts-6,Y,784,9,20.02,0
L1MAXMIN|BASELINE_ONLY,exec-left-turn,E_S,<10-Y/R,LOW  SPEED,PEDESTRIAN,RL  0,acts-3,N,784,175,211.544667,0.010545999999999944
L1MAXMIN|BASELINE_ONLY,exec-left-turn,E_S,<10-Y/R,LOW  SPEED,PEDESTRIAN,RL  0,acts-3,N,784,175,211.544667,0.010545999999999944
L1MAXMIN|BASELINE_ONLY,exec-left-turn,E_S,<10-Y/R,LOW  SPEED,PEDESTRIAN,RL  0,acts-3,N,784,175,212.545667,0.014492999999999978
L1MAXMIN|BASELINE_ONLY,exec-left-turn,E_S,<10-Y/R,LOW  SPEED,PEDESTRIAN,RL  0,acts-3,N,784,175,212.545667,0.014492999999999978
L1MAXMIN|BASELINE_ONLY,exec-left-turn,E_S,<10-Y/R,LOW  SPEED,PEDESTRIAN,RL  0,acts-3,N,784,175,213.546667,0.007117999999999958
L1MAXMIN|BASELINE_ONLY,exec-left-turn,E_S,<10-Y/R,LOW  SPEED,PEDESTRIAN,RL  0,acts-5,Y,784,175,214.547667,0.005861000000000005
L1MAXMIN|BASELINE_ONLY,exec-left-turn,E_S,<10-Y/R,LOW  SPEED,PEDESTRIAN,RL  0,acts-5,Y,784,175,215.548667,0
L1MAXMIN|BASELINE_ONLY,exec-left-turn,E_S,<10-Y/R,LOW  SPEED,PEDESTRIAN,RL  0,acts-5,Y,784,175,216.549667,0.001815000000000011
L1MAXMIN|BASELINE_ONLY,exec-left-turn,E_S,<10-Y/R,LOW  SPEED,PEDESTRIAN,RL  0,acts-5,Y,784,175,217.550667,0.0016420000000000323
L1MAXMIN|BASELINE_ONLY,exec-left-turn,E_S,<10-Y/R,LOW  SPEED,PEDESTRIAN,  RL  <EQ  2,acts-3,N,784,175,205.538667,0.083947
L1MAXMIN|BASELINE_ONLY,exec-left-turn,E_S,<10-Y/R,LOW  SPEED,PEDESTRIAN,  RL  <EQ  2,acts-3,N,784,175,205.538667,0.083947
L1MAXMIN|BASELINE_ONLY,exec-left-turn,E_S,<10-Y/R,LOW  SPEED,PEDESTRIAN,  RL  <EQ  2,acts-3,N,784,175,206.539667,0.021652000000000005
L1MAXMIN|BASELINE_ONLY,exec-left-turn,E_S,<10-Y/R,LOW  SPEED,PEDESTRIAN,  RL  <EQ  2,acts-3,N,784,175,206.539667,0.021652000000000005
L1MAXMIN|BASELINE_ONLY,exec-left-turn,E_S,<10-Y/R,LOW  SPEED,PEDESTRIAN,  RL  <EQ  2,acts-3,N,784,175,207.540667,0.10483500000000001
L1MAXMIN|BASELINE_ONLY,exec-left-turn,E_S,<10-Y/R,LOW  SPEED,PEDESTRIAN,  RL  <EQ  2,acts-3,N,784,175,207.540667,0.10483500000000001
L1MAXMIN|BASELINE_ONLY,exec-left-turn,E_S,<10-Y/R,LOW  SPEED,NO  PEDESTRIAN,RL  0,acts-6,Y,784,197,220.386833,0.000268000000000046
L1MAXMIN|BASELINE_ONLY,exec-left-turn,E_S,<10-Y/R,MEDIUM  SPEED,NO  PEDESTRIAN,RL  0,acts-6,N,784,20,13.179833,0
L1MAXMIN|BASELINE_ONLY,exec-left-turn,E_S,<10-Y/R,MEDIUM  SPEED,NO  PEDESTRIAN,RL  0,acts-6,Y,784,175,218.551667,8.399999999997299e-05
L1MAXMIN|BASELINE_ONLY,exec-left-turn,E_S,<10-Y/R,MEDIUM  SPEED,NO  PEDESTRIAN,RL  0,acts-6,N,784,175,219.552667,0
L1MAXMIN|BASELINE_ONLY,exec-left-turn,E_S,<10-Y/R,MEDIUM  SPEED,NO  PEDESTRIAN,  RL  <EQ  2,acts-1,Y,784,20,11.177833,0.00011600000000000499
L1MAXMIN|BASELINE_ONLY,exec-left-turn,E_S,>EQ  10-Y/R,MEDIUM  SPEED,NO  PEDESTRIAN,RL  0,acts-1,N,784,4,0,0
L1MAXMIN|BASELINE_ONLY,exec-left-turn,E_S,>EQ  10-Y/R,MEDIUM  SPEED,NO  PEDESTRIAN,RL  0,acts-1,Y,784,13,2.002,0
L1MAXMIN|BASELINE_ONLY,exec-left-turn,E_S,>EQ  10-G,MEDIUM  SPEED,NO  PEDESTRIAN,RL  0,acts-6,Y,784,197,221.387833,0.0006450000000000067
L1MAXMIN|BASELINE_ONLY,OTHER  LANES,W_S,<10-Y/R,LOW  SPEED,PEDESTRIAN,RL  0,acts-5,N,784,101,105.438667,0.05132300000000001
L1MAXMIN|BASELINE_ONLY,OTHER  LANES,W_S,<10-Y/R,LOW  SPEED,PEDESTRIAN,RL  0,acts-5,Y,784,106,111.945167,0.04640199999999994
L1MAXMIN|BASELINE_ONLY,OTHER  LANES,W_S,<10-Y/R,LOW  SPEED,PEDESTRIAN,  RL  <EQ  2,acts-5,Y,784,192,208.374833,0.03232099999999993
L1MAXMIN|BASELINE_ONLY,OTHER  LANES,W_S,<10-Y/R,LOW  SPEED,PEDESTRIAN,  RL  <EQ  2,acts-5,Y,784,198,212.212,0
L1MAXMIN|BASELINE_ONLY,OTHER  LANES,W_S,<10-Y/R,LOW  SPEED,PEDESTRIAN,  RL  <EQ  2,acts-5,Y,784,198,213.213,0.0
L1MAXMIN|BASELINE_ONLY,OTHER  LANES,W_S,<10-Y/R,MEDIUM  SPEED,PEDESTRIAN,RL  0,acts-5,N,784,106,108.942167,0.0
L1MAXMIN|BASELINE_ONLY,OTHER  LANES,W_S,<10-Y/R,MEDIUM  SPEED,PEDESTRIAN,RL  0,acts-5,Y,784,106,109.943167,0.0
L1MAXMIN|BASELINE_ONLY,OTHER  LANES,W_S,<10-Y/R,MEDIUM  SPEED,PEDESTRIAN,RL  0,acts-5,Y,784,106,110.944167,0.023177000000000003
L1MAXMIN|BASELINE_ONLY,OTHER  LANES,W_S,<10-Y/R,MEDIUM  SPEED,PEDESTRIAN,  RL  <EQ  2,acts-5,Y,784,192,207.373833,0.02614699999999992
L1MAXMIN|BASELINE_ONLY,OTHER  LANES,W_S,<10-Y/R,MEDIUM  SPEED,PEDESTRIAN,  RL  >  2,acts-5,Y,784,198,211.211,0
L1MAXMIN|BASELINE_ONLY,OTHER  LANES,W_S,<10-Y/R,MEDIUM  SPEED,NO  PEDESTRIAN,RL  0,acts-8,Y,784,101,102.435667,0
L1MAXMIN|BASELINE_ONLY,OTHER  LANES,W_S,<10-Y/R,MEDIUM  SPEED,NO  PEDESTRIAN,RL  0,acts-8,Y,784,101,103.436667,0.0
L1MAXMIN|BASELINE_ONLY,OTHER  LANES,W_S,<10-Y/R,MEDIUM  SPEED,NO  PEDESTRIAN,RL  0,acts-8,Y,784,101,104.437667,0.023158000000000012
L1MAXMIN|BASELINE_ONLY,OTHER  LANES,W_S,<10-G,LOW  SPEED,PEDESTRIAN,RL  0,acts-5,N,784,65,64.898167,0
L1MAXMIN|BASELINE_ONLY,OTHER  LANES,W_S,<10-G,LOW  SPEED,PEDESTRIAN,RL  0,acts-5,Y,784,65,65.899167,0.014183000000000057
L1MAXMIN|BASELINE_ONLY,OTHER  LANES,W_S,<10-G,LOW  SPEED,PEDESTRIAN,RL  0,acts-5,Y,784,65,66.900167,0.014488000000000056
L1MAXMIN|BASELINE_ONLY,OTHER  LANES,W_S,<10-G,LOW  SPEED,PEDESTRIAN,RL  0,acts-5,N,784,65,67.901167,0.018913999999999986
L1MAXMIN|BASELINE_ONLY,OTHER  LANES,W_S,<10-G,LOW  SPEED,PEDESTRIAN,RL  0,acts-5,N,784,65,68.902167,0.00824999999999998
L1MAXMIN|BASELINE_ONLY,OTHER  LANES,W_S,<10-G,LOW  SPEED,PEDESTRIAN,RL  0,acts-5,Y,784,65,69.903167,0.001739000000000046
L1MAXMIN|BASELINE_ONLY,OTHER  LANES,W_S,<10-G,LOW  SPEED,NO  PEDESTRIAN,RL  0,acts-8,Y,784,154,164.831333,0.013538999999999968
L1MAXMIN|BASELINE_ONLY,OTHER  LANES,W_S,<10-G,LOW  SPEED,NO  PEDESTRIAN,RL  0,acts-8,Y,784,154,165.832333,0.01945399999999997
L1MAXMIN|BASELINE_ONLY,OTHER  LANES,W_S,<10-G,LOW  SPEED,NO  PEDESTRIAN,RL  0,acts-8,Y,784,154,166.833333,0.034561000000000064
L1MAXMIN|BASELINE_ONLY,OTHER  LANES,W_S,<10-G,LOW  SPEED,NO  PEDESTRIAN,RL  0,acts-8,Y,784,154,167.834333,0.018513
L1MAXMIN|BASELINE_ONLY,OTHER  LANES,W_S,<10-G,LOW  SPEED,NO  PEDESTRIAN,RL  0,acts-8,Y,784,162,173.339833,0.0
L1MAXMIN|BASELINE_ONLY,OTHER  LANES,W_S,>EQ  10-Y/R,LOW  SPEED,PEDESTRIAN,RL  0,acts-5,Y,784,78,83.083,0.04613299999999998
L1MAXMIN|BASELINE_ONLY,OTHER  LANES,W_S,>EQ  10-Y/R,LOW  SPEED,PEDESTRIAN,RL  0,acts-5,N,784,78,84.084,0.0
L1MAXMIN|BASELINE_ONLY,OTHER  LANES,W_S,>EQ  10-Y/R,LOW  SPEED,PEDESTRIAN,RL  0,acts-5,N,784,78,85.085,0.0005490000000000217
L1MAXMIN|BASELINE_ONLY,OTHER  LANES,W_S,>EQ  10-Y/R,LOW  SPEED,PEDESTRIAN,RL  0,acts-5,N,784,78,86.086,0.027700000000000058
L1MAXMIN|BASELINE_ONLY,OTHER  LANES,W_S,>EQ  10-Y/R,LOW  SPEED,PEDESTRIAN,RL  0,acts-5,N,784,78,87.087,0.050629000000000035
L1MAXMIN|BASELINE_ONLY,OTHER  LANES,W_S,>EQ  10-Y/R,LOW  SPEED,PEDESTRIAN,RL  0,acts-5,N,784,82,88.254833,0.023661000000000043
L1MAXMIN|BASELINE_ONLY,OTHER  LANES,W_S,>EQ  10-Y/R,LOW  SPEED,NO  PEDESTRIAN,RL  0,acts-8,Y,784,87,92.759333,0.030928000000000067
L1MAXMIN|BASELINE_ONLY,OTHER  LANES,W_S,>EQ  10-Y/R,LOW  SPEED,NO  PEDESTRIAN,RL  0,acts-8,N,784,87,93.760333,0.04310899999999995
L1MAXMIN|BASELINE_ONLY,OTHER  LANES,W_S,>EQ  10-Y/R,LOW  SPEED,NO  PEDESTRIAN,RL  0,acts-8,Y,784,162,174.340833,0.020257999999999998
L1MAXMIN|BASELINE_ONLY,OTHER  LANES,W_S,>EQ  10-Y/R,LOW  SPEED,NO  PEDESTRIAN,RL  0,acts-8,N,784,162,175.341833,0.04043400000000008
L1MAXMIN|BASELINE_ONLY,OTHER  LANES,W_S,>EQ  10-Y/R,MEDIUM  SPEED,PEDESTRIAN,RL  0,acts-5,N,784,87,90.757333,0
L1MAXMIN|BASELINE_ONLY,OTHER  LANES,W_S,>EQ  10-Y/R,MEDIUM  SPEED,PEDESTRIAN,RL  0,acts-5,Y,784,87,91.758333,0
L1MAXMIN|BASELINE_ONLY,OTHER  LANES,W_S,>EQ  10-G,LOW  SPEED,PEDESTRIAN,RL  0,acts-5,Y,784,65,63.897167,0
L1MAXMIN|BASELINE_ONLY,OTHER  LANES,W_S,>EQ  10-G,LOW  SPEED,PEDESTRIAN,  RL  <EQ  2,acts-5,Y,784,133,133.800333,0.02308600000000005
L1MAXMIN|BASELINE_ONLY,OTHER  LANES,W_S,>EQ  10-G,LOW  SPEED,PEDESTRIAN,  RL  <EQ  2,acts-5,Y,784,133,134.801333,0.03912300000000002
L1MAXMIN|BASELINE_ONLY,OTHER  LANES,W_S,>EQ  10-G,LOW  SPEED,PEDESTRIAN,  RL  <EQ  2,acts-5,Y,784,133,135.802333,0.017649000000000026
L1MAXMIN|BASELINE_ONLY,OTHER  LANES,W_S,>EQ  10-G,LOW  SPEED,PEDESTRIAN,  RL  <EQ  2,acts-5,N,784,198,218.218,0
L1MAXMIN|BASELINE_ONLY,OTHER  LANES,W_S,>EQ  10-G,LOW  SPEED,PEDESTRIAN,  RL  <EQ  2,acts-5,N,784,198,219.219,0.038344000000000045
L1MAXMIN|BASELINE_ONLY,OTHER  LANES,W_S,>EQ  10-G,LOW  SPEED,PEDESTRIAN,  RL  >  2,acts-5,Y,784,133,130.797333,0.04471700000000001
L1MAXMIN|BASELINE_ONLY,OTHER  LANES,W_S,>EQ  10-G,LOW  SPEED,PEDESTRIAN,  RL  >  2,acts-5,Y,784,133,132.799333,0.0
L1MAXMIN|BASELINE_ONLY,OTHER  LANES,W_S,>EQ  10-G,LOW  SPEED,NO  PEDESTRIAN,RL  0,acts-8,N,784,31,27.5275,0.016438000000000064
L1MAXMIN|BASELINE_ONLY,OTHER  LANES,W_S,>EQ  10-G,LOW  SPEED,NO  PEDESTRIAN,RL  0,acts-8,N,784,31,28.5285,0
L1MAXMIN|BASELINE_ONLY,OTHER  LANES,W_S,>EQ  10-G,LOW  SPEED,NO  PEDESTRIAN,RL  0,acts-8,Y,784,62,56.723333,0
L1MAXMIN|BASELINE_ONLY,OTHER  LANES,W_S,>EQ  10-G,LOW  SPEED,NO  PEDESTRIAN,RL  0,acts-8,Y,784,62,57.724333,0.013647999999999993
L1MAXMIN|BASELINE_ONLY,OTHER  LANES,W_S,>EQ  10-G,LOW  SPEED,NO  PEDESTRIAN,RL  0,acts-8,N,784,62,58.725333,0.02224399999999993
L1MAXMIN|BASELINE_ONLY,OTHER  LANES,W_S,>EQ  10-G,LOW  SPEED,NO  PEDESTRIAN,RL  0,acts-8,Y,784,62,59.726333,0
L1MAXMIN|BASELINE_ONLY,OTHER  LANES,W_S,>EQ  10-G,LOW  SPEED,NO  PEDESTRIAN,RL  0,acts-8,Y,784,65,62.896167,0.0343699999999999
L1MAXMIN|BASELINE_ONLY,OTHER  LANES,W_S,>EQ  10-G,LOW  SPEED,NO  PEDESTRIAN,RL  0,acts-8,Y,784,154,161.828333,0.046587000000000045
L1MAXMIN|BASELINE_ONLY,OTHER  LANES,W_S,>EQ  10-G,LOW  SPEED,NO  PEDESTRIAN,RL  0,acts-8,N,784,154,162.829333,0
L1MAXMIN|BASELINE_ONLY,OTHER  LANES,W_S,>EQ  10-G,LOW  SPEED,NO  PEDESTRIAN,RL  0,acts-8,N,784,154,163.830333,0
L1MAXMIN|BASELINE_ONLY,OTHER  LANES,W_S,>EQ  10-G,MEDIUM  SPEED,PEDESTRIAN,  RL  >  2,acts-5,Y,784,133,131.798333,0
L1MAXMIN|BASELINE_ONLY,OTHER  LANES,W_S,>EQ  10-G,MEDIUM  SPEED,NO  PEDESTRIAN,RL  0,acts-8,Y,784,31,25.5255,0
L1MAXMIN|BASELINE_ONLY,OTHER  LANES,W_S,>EQ  10-G,MEDIUM  SPEED,NO  PEDESTRIAN,RL  0,acts-8,Y,784,31,26.5265,0
L1MAXMIN|BASELINE_ONLY,OTHER  LANES,S_W,<10-G,LOW  SPEED,PEDESTRIAN,RL  0,acts-9,N,784,207,223.7235,0.0
L1MAXMIN|BASELINE_ONLY,OTHER  LANES,S_W,<10-G,LOW  SPEED,PEDESTRIAN,RL  0,acts-9,Y,784,207,224.7245,0.0
L1MAXMIN|BASELINE_ONLY,OTHER  LANES,S_W,<10-G,LOW  SPEED,PEDESTRIAN,RL  0,acts-9,Y,784,207,225.7255,0.0
L1MAXMIN|BASELINE_ONLY,OTHER  LANES,S_W,<10-G,LOW  SPEED,PEDESTRIAN,RL  0,acts-9,N,784,207,226.7265,0.0
L1MAXMIN|BASELINE_ONLY,OTHER  LANES,S_W,<10-G,LOW  SPEED,PEDESTRIAN,RL  0,acts-9,N,784,207,227.7275,0.0
L1MAXMIN|BASELINE_ONLY,OTHER  LANES,S_W,<10-G,LOW  SPEED,PEDESTRIAN,RL  0,acts-9,N,784,207,228.7285,0.0
L1MAXMIN|BASELINE_ONLY,OTHER  LANES,S_W,<10-G,LOW  SPEED,PEDESTRIAN,RL  0,acts-9,N,784,207,229.7295,0.0
L1MAXMIN|BASELINE_ONLY,OTHER  LANES,S_W,<10-G,LOW  SPEED,PEDESTRIAN,RL  0,acts-9,N,784,207,230.7305,0.0
L1MAXMIN|BASELINE_ONLY,OTHER  LANES,S_W,<10-G,LOW  SPEED,PEDESTRIAN,RL  0,acts-9,N,784,207,231.7315,0.0
L1MAXMIN|BASELINE_ONLY,OTHER  LANES,S_W,<10-G,LOW  SPEED,PEDESTRIAN,RL  0,acts-9,N,784,207,232.7325,0.0
L1MAXMIN|BASELINE_ONLY,OTHER  LANES,S_W,<10-G,LOW  SPEED,NO  PEDESTRIAN,RL  0,acts-9,N,784,8,10.01,0.0
L1MAXMIN|BASELINE_ONLY,OTHER  LANES,S_W,<10-G,LOW  SPEED,NO  PEDESTRIAN,RL  0,acts-9,N,784,8,11.011,0.0
L1MAXMIN|BASELINE_ONLY,OTHER  LANES,S_W,<10-G,LOW  SPEED,NO  PEDESTRIAN,RL  0,acts-9,N,784,8,12.012,0.0
L1MAXMIN|BASELINE_ONLY,OTHER  LANES,S_W,<10-G,LOW  SPEED,NO  PEDESTRIAN,RL  0,acts-9,N,784,8,13.013,0.0
L1MAXMIN|BASELINE_ONLY,OTHER  LANES,S_W,<10-G,LOW  SPEED,NO  PEDESTRIAN,RL  0,acts-9,N,784,8,14.014,0.0
L1MAXMIN|BASELINE_ONLY,OTHER  LANES,S_W,<10-G,LOW  SPEED,NO  PEDESTRIAN,RL  0,acts-9,N,784,8,15.015,0.0
L1MAXMIN|BASELINE_ONLY,OTHER  LANES,S_W,<10-G,LOW  SPEED,NO  PEDESTRIAN,RL  0,acts-9,N,784,8,16.016,0.0
L1MAXMIN|BASELINE_ONLY,OTHER  LANES,S_W,<10-G,LOW  SPEED,NO  PEDESTRIAN,RL  0,acts-9,N,784,8,17.017,0.0
L1MAXMIN|BASELINE_ONLY,OTHER  LANES,S_W,<10-G,LOW  SPEED,NO  PEDESTRIAN,RL  0,acts-9,N,784,8,18.018,0.0
L1MAXMIN|BASELINE_ONLY,OTHER  LANES,S_W,<10-G,LOW  SPEED,NO  PEDESTRIAN,RL  0,acts-9,N,784,8,19.019,0.0
L1MAXMIN|BASELINE_ONLY,OTHER  LANES,S_W,>EQ  10-Y/R,LOW  SPEED,PEDESTRIAN,  RL  <EQ  2,acts-1,N,784,207,235.7355,0
L1MAXMIN|BASELINE_ONLY,OTHER  LANES,S_W,>EQ  10-Y/R,LOW  SPEED,PEDESTRIAN,  RL  <EQ  2,acts-1,N,784,207,236.7365,0
L1MAXMIN|BASELINE_ONLY,OTHER  LANES,S_W,>EQ  10-Y/R,LOW  SPEED,PEDESTRIAN,  RL  <EQ  2,acts-1,N,784,207,237.7375,0
L1MAXMIN|BASELINE_ONLY,OTHER  LANES,S_W,>EQ  10-Y/R,LOW  SPEED,PEDESTRIAN,  RL  <EQ  2,acts-1,N,784,207,239.7395,0
L1MAXMIN|BASELINE_ONLY,OTHER  LANES,S_W,>EQ  10-Y/R,LOW  SPEED,NO  PEDESTRIAN,RL  0,acts-1,N,784,8,20.02,0.0017479999999999718
L1MAXMIN|BASELINE_ONLY,OTHER  LANES,S_W,>EQ  10-Y/R,LOW  SPEED,NO  PEDESTRIAN,RL  0,acts-1,Y,784,8,21.021,0
L1MAXMIN|BASELINE_ONLY,OTHER  LANES,S_W,>EQ  10-Y/R,LOW  SPEED,NO  PEDESTRIAN,RL  0,acts-1,Y,784,8,22.022,0.0027719999999999967
L1MAXMIN|BASELINE_ONLY,OTHER  LANES,S_W,>EQ  10-Y/R,LOW  SPEED,NO  PEDESTRIAN,RL  0,acts-1,Y,784,28,24.691333,0
L1MAXMIN|BASELINE_ONLY,OTHER  LANES,S_W,>EQ  10-Y/R,LOW  SPEED,NO  PEDESTRIAN,  RL  <EQ  2,acts-1,Y,784,47,47.881167,0
L1MAXMIN|BASELINE_ONLY,OTHER  LANES,S_W,>EQ  10-Y/R,LOW  SPEED,NO  PEDESTRIAN,  RL  >  2,acts-10,N,784,47,41.875167,0
L1MAXMIN|BASELINE_ONLY,OTHER  LANES,S_W,>EQ  10-Y/R,LOW  SPEED,NO  PEDESTRIAN,  RL  >  2,acts-10,Y,784,47,46.880167,0
L1MAXMIN|BASELINE_ONLY,OTHER  LANES,S_W,>EQ  10-G,LOW  SPEED,NO  PEDESTRIAN,RL  0,acts-9,N,784,8,0,0.0
L1MAXMIN|BASELINE_ONLY,OTHER  LANES,S_W,>EQ  10-G,LOW  SPEED,NO  PEDESTRIAN,RL  0,acts-9,N,784,8,1.001,0.0
L1MAXMIN|BASELINE_ONLY,OTHER  LANES,S_W,>EQ  10-G,LOW  SPEED,NO  PEDESTRIAN,RL  0,acts-9,N,784,8,2.002,0.0
L1MAXMIN|BASELINE_ONLY,OTHER  LANES,S_W,>EQ  10-G,LOW  SPEED,NO  PEDESTRIAN,RL  0,acts-9,N,784,8,3.003,0.0
L1MAXMIN|BASELINE_ONLY,OTHER  LANES,S_W,>EQ  10-G,LOW  SPEED,NO  PEDESTRIAN,RL  0,acts-9,N,784,8,4.004,0.0
L1MAXMIN|BASELINE_ONLY,OTHER  LANES,S_W,>EQ  10-G,LOW  SPEED,NO  PEDESTRIAN,RL  0,acts-9,N,784,8,5.005,0.0
L1MAXMIN|BASELINE_ONLY,OTHER  LANES,S_W,>EQ  10-G,LOW  SPEED,NO  PEDESTRIAN,RL  0,acts-9,N,784,8,6.006,0.0
L1MAXMIN|BASELINE_ONLY,OTHER  LANES,S_W,>EQ  10-G,LOW  SPEED,NO  PEDESTRIAN,RL  0,acts-9,N,784,8,7.007,0.0
L1MAXMIN|BASELINE_ONLY,OTHER  LANES,S_W,>EQ  10-G,LOW  SPEED,NO  PEDESTRIAN,RL  0,acts-9,N,784,8,8.008,0.0
L1MAXMIN|BASELINE_ONLY,OTHER  LANES,S_W,>EQ  10-G,LOW  SPEED,NO  PEDESTRIAN,RL  0,acts-9,N,784,8,9.009,0.0
L1MAXMIN|BASELINE_ONLY,OTHER  LANES,N_E,<10-G,LOW  SPEED,NO  PEDESTRIAN,RL  0,acts-9,N,784,14,24.024,0.0
L1MAXMIN|BASELINE_ONLY,OTHER  LANES,N_E,<10-G,LOW  SPEED,NO  PEDESTRIAN,RL  0,acts-9,N,784,14,25.025,0.0
L1MAXMIN|BASELINE_ONLY,OTHER  LANES,N_E,<10-G,LOW  SPEED,NO  PEDESTRIAN,RL  0,acts-9,N,784,14,26.026,0.0
L1MAXMIN|BASELINE_ONLY,OTHER  LANES,N_E,<10-G,LOW  SPEED,NO  PEDESTRIAN,RL  0,acts-9,N,784,14,27.027,0.0
L1MAXMIN|BASELINE_ONLY,OTHER  LANES,N_E,<10-G,LOW  SPEED,NO  PEDESTRIAN,RL  0,acts-9,N,784,14,28.028,0.0
L1MAXMIN|BASELINE_ONLY,OTHER  LANES,N_E,<10-G,LOW  SPEED,NO  PEDESTRIAN,RL  0,acts-9,N,784,14,29.029,0.0
L1MAXMIN|BASELINE_ONLY,OTHER  LANES,N_E,<10-G,LOW  SPEED,NO  PEDESTRIAN,RL  0,acts-9,N,784,14,30.03,0.0
L1MAXMIN|BASELINE_ONLY,OTHER  LANES,N_E,<10-G,LOW  SPEED,NO  PEDESTRIAN,RL  0,acts-9,N,784,14,31.031,0.0
L1MAXMIN|BASELINE_ONLY,OTHER  LANES,N_E,<10-G,LOW  SPEED,NO  PEDESTRIAN,RL  0,acts-9,N,784,14,32.032,0.0
L1MAXMIN|BASELINE_ONLY,OTHER  LANES,N_E,<10-G,LOW  SPEED,NO  PEDESTRIAN,RL  0,acts-9,Y,784,14,33.033,0
L1MAXMIN|BASELINE_ONLY,OTHER  LANES,N_E,<10-G,LOW  SPEED,NO  PEDESTRIAN,RL  0,acts-9,N,784,161,211.7115,0.0
L1MAXMIN|BASELINE_ONLY,OTHER  LANES,N_E,<10-G,LOW  SPEED,NO  PEDESTRIAN,RL  0,acts-9,N,784,161,212.7125,0.0
L1MAXMIN|BASELINE_ONLY,OTHER  LANES,N_E,<10-G,LOW  SPEED,NO  PEDESTRIAN,RL  0,acts-9,N,784,161,213.7135,0.0
L1MAXMIN|BASELINE_ONLY,OTHER  LANES,N_E,<10-G,LOW  SPEED,NO  PEDESTRIAN,RL  0,acts-9,N,784,161,214.7145,0.0
L1MAXMIN|BASELINE_ONLY,OTHER  LANES,N_E,<10-G,LOW  SPEED,NO  PEDESTRIAN,RL  0,acts-9,N,784,161,215.7155,0.0
L1MAXMIN|BASELINE_ONLY,OTHER  LANES,N_E,<10-G,LOW  SPEED,NO  PEDESTRIAN,RL  0,acts-9,N,784,161,216.7165,0.0
L1MAXMIN|BASELINE_ONLY,OTHER  LANES,N_E,<10-G,LOW  SPEED,NO  PEDESTRIAN,RL  0,acts-9,N,784,161,217.7175,0.0
L1MAXMIN|BASELINE_ONLY,OTHER  LANES,N_E,<10-G,LOW  SPEED,NO  PEDESTRIAN,RL  0,acts-9,N,784,161,218.7185,0.0
L1MAXMIN|BASELINE_ONLY,OTHER  LANES,N_E,<10-G,LOW  SPEED,NO  PEDESTRIAN,RL  0,acts-9,N,784,161,219.7195,0.0
L1MAXMIN|BASELINE_ONLY,OTHER  LANES,N_E,<10-G,LOW  SPEED,NO  PEDESTRIAN,RL  0,acts-9,Y,784,161,220.7205,0
L1MAXMIN|BASELINE_ONLY,OTHER  LANES,N_E,>EQ  10-Y/R,LOW  SPEED,NO  PEDESTRIAN,RL  0,acts-1,Y,784,14,34.034,0.0005989999999999052
L1MAXMIN|BASELINE_ONLY,OTHER  LANES,N_E,>EQ  10-Y/R,LOW  SPEED,NO  PEDESTRIAN,RL  0,acts-1,Y,784,38,37.704333,0.0041839999999999655
L1MAXMIN|BASELINE_ONLY,OTHER  LANES,N_E,>EQ  10-Y/R,LOW  SPEED,NO  PEDESTRIAN,RL  0,acts-1,Y,784,38,38.705333,0
L1MAXMIN|BASELINE_ONLY,OTHER  LANES,N_E,>EQ  10-Y/R,LOW  SPEED,NO  PEDESTRIAN,RL  0,acts-1,Y,784,161,221.7215,0.00046599999999996644
L1MAXMIN|BASELINE_ONLY,OTHER  LANES,N_E,>EQ  10-Y/R,LOW  SPEED,NO  PEDESTRIAN,RL  0,acts-1,N,784,208,225.391833,0
L1MAXMIN|BASELINE_ONLY,OTHER  LANES,N_E,>EQ  10-G,LOW  SPEED,NO  PEDESTRIAN,RL  0,acts-9,N,784,14,0,0.0
L1MAXMIN|BASELINE_ONLY,OTHER  LANES,N_E,>EQ  10-G,LOW  SPEED,NO  PEDESTRIAN,RL  0,acts-9,N,784,14,1.001,0.0
L1MAXMIN|BASELINE_ONLY,OTHER  LANES,N_E,>EQ  10-G,LOW  SPEED,NO  PEDESTRIAN,RL  0,acts-9,N,784,14,10.01,0.0
L1MAXMIN|BASELINE_ONLY,OTHER  LANES,N_E,>EQ  10-G,LOW  SPEED,NO  PEDESTRIAN,RL  0,acts-9,N,784,14,11.011,0.0
L1MAXMIN|BASELINE_ONLY,OTHER  LANES,N_E,>EQ  10-G,LOW  SPEED,NO  PEDESTRIAN,RL  0,acts-9,N,784,14,12.012,0.0
L1MAXMIN|BASELINE_ONLY,OTHER  LANES,N_E,>EQ  10-G,LOW  SPEED,NO  PEDESTRIAN,RL  0,acts-9,N,784,14,13.013,0.0
L1MAXMIN|BASELINE_ONLY,OTHER  LANES,N_E,>EQ  10-G,LOW  SPEED,NO  PEDESTRIAN,RL  0,acts-9,N,784,14,14.014,0.0
L1MAXMIN|BASELINE_ONLY,OTHER  LANES,N_E,>EQ  10-G,LOW  SPEED,NO  PEDESTRIAN,RL  0,acts-9,N,784,14,15.015,0.0
L1MAXMIN|BASELINE_ONLY,OTHER  LANES,N_E,>EQ  10-G,LOW  SPEED,NO  PEDESTRIAN,RL  0,acts-9,N,784,14,16.016,0.0
L1MAXMIN|BASELINE_ONLY,OTHER  LANES,N_E,>EQ  10-G,LOW  SPEED,NO  PEDESTRIAN,RL  0,acts-9,N,784,14,17.017,0.0
L1MAXMIN|BASELINE_ONLY,OTHER  LANES,N_E,>EQ  10-G,LOW  SPEED,NO  PEDESTRIAN,RL  0,acts-9,N,784,14,18.018,0.0
L1MAXMIN|BASELINE_ONLY,OTHER  LANES,N_E,>EQ  10-G,LOW  SPEED,NO  PEDESTRIAN,RL  0,acts-9,N,784,14,19.019,0.0
L1MAXMIN|BASELINE_ONLY,OTHER  LANES,N_E,>EQ  10-G,LOW  SPEED,NO  PEDESTRIAN,RL  0,acts-9,N,784,14,2.002,0.0
L1MAXMIN|BASELINE_ONLY,OTHER  LANES,N_E,>EQ  10-G,LOW  SPEED,NO  PEDESTRIAN,RL  0,acts-9,N,784,14,20.02,0.0
L1MAXMIN|BASELINE_ONLY,OTHER  LANES,N_E,>EQ  10-G,LOW  SPEED,NO  PEDESTRIAN,RL  0,acts-9,N,784,14,21.021,0.0
L1MAXMIN|BASELINE_ONLY,OTHER  LANES,N_E,>EQ  10-G,LOW  SPEED,NO  PEDESTRIAN,RL  0,acts-9,N,784,14,22.022,0.0
L1MAXMIN|BASELINE_ONLY,OTHER  LANES,N_E,>EQ  10-G,LOW  SPEED,NO  PEDESTRIAN,RL  0,acts-9,N,784,14,23.023,0.0
L1MAXMIN|BASELINE_ONLY,OTHER  LANES,N_E,>EQ  10-G,LOW  SPEED,NO  PEDESTRIAN,RL  0,acts-9,N,784,14,3.003,0.0
L1MAXMIN|BASELINE_ONLY,OTHER  LANES,N_E,>EQ  10-G,LOW  SPEED,NO  PEDESTRIAN,RL  0,acts-9,N,784,14,4.004,0.0
L1MAXMIN|BASELINE_ONLY,OTHER  LANES,N_E,>EQ  10-G,LOW  SPEED,NO  PEDESTRIAN,RL  0,acts-9,N,784,14,5.005,0.0
L1MAXMIN|BASELINE_ONLY,OTHER  LANES,N_E,>EQ  10-G,LOW  SPEED,NO  PEDESTRIAN,RL  0,acts-9,N,784,14,6.006,0.0
L1MAXMIN|BASELINE_ONLY,OTHER  LANES,N_E,>EQ  10-G,LOW  SPEED,NO  PEDESTRIAN,RL  0,acts-9,N,784,14,7.007,0.0
L1MAXMIN|BASELINE_ONLY,OTHER  LANES,N_E,>EQ  10-G,LOW  SPEED,NO  PEDESTRIAN,RL  0,acts-9,N,784,14,8.008,0.0
L1MAXMIN|BASELINE_ONLY,OTHER  LANES,N_E,>EQ  10-G,LOW  SPEED,NO  PEDESTRIAN,RL  0,acts-9,N,784,14,9.009,0.0
L1MAXMIN|BASELINE_ONLY,OTHER  LANES,N_E,>EQ  10-G,LOW  SPEED,NO  PEDESTRIAN,RL  0,acts-9,N,784,161,174.6745,0.0
L1MAXMIN|BASELINE_ONLY,OTHER  LANES,N_E,>EQ  10-G,LOW  SPEED,NO  PEDESTRIAN,RL  0,acts-9,N,784,161,175.6755,0.0
L1MAXMIN|BASELINE_ONLY,OTHER  LANES,N_E,>EQ  10-G,LOW  SPEED,NO  PEDESTRIAN,RL  0,acts-9,N,784,161,176.6765,0.0
L1MAXMIN|BASELINE_ONLY,OTHER  LANES,N_E,>EQ  10-G,LOW  SPEED,NO  PEDESTRIAN,RL  0,acts-9,N,784,161,177.6775,0.0
L1MAXMIN|BASELINE_ONLY,OTHER  LANES,N_E,>EQ  10-G,LOW  SPEED,NO  PEDESTRIAN,RL  0,acts-9,N,784,161,178.6785,0.0
L1MAXMIN|BASELINE_ONLY,OTHER  LANES,N_E,>EQ  10-G,LOW  SPEED,NO  PEDESTRIAN,RL  0,acts-9,N,784,161,179.6795,0.0
L1MAXMIN|BASELINE_ONLY,OTHER  LANES,N_E,>EQ  10-G,LOW  SPEED,NO  PEDESTRIAN,RL  0,acts-9,N,784,161,180.6805,0.0
L1MAXMIN|BASELINE_ONLY,OTHER  LANES,N_E,>EQ  10-G,LOW  SPEED,NO  PEDESTRIAN,RL  0,acts-9,N,784,161,181.6815,0.0
L1MAXMIN|BASELINE_ONLY,OTHER  LANES,N_E,>EQ  10-G,LOW  SPEED,NO  PEDESTRIAN,RL  0,acts-9,N,784,161,182.6825,0.0
L1MAXMIN|BASELINE_ONLY,OTHER  LANES,N_E,>EQ  10-G,LOW  SPEED,NO  PEDESTRIAN,RL  0,acts-9,N,784,161,183.6835,0.0
L1MAXMIN|BASELINE_ONLY,OTHER  LANES,N_E,>EQ  10-G,LOW  SPEED,NO  PEDESTRIAN,RL  0,acts-9,N,784,161,184.6845,0.0
L1MAXMIN|BASELINE_ONLY,OTHER  LANES,N_E,>EQ  10-G,LOW  SPEED,NO  PEDESTRIAN,RL  0,acts-9,N,784,161,185.6855,0.0
L1MAXMIN|BASELINE_ONLY,OTHER  LANES,N_E,>EQ  10-G,LOW  SPEED,NO  PEDESTRIAN,RL  0,acts-9,N,784,161,186.6865,0.0
L1MAXMIN|BASELINE_ONLY,OTHER  LANES,N_E,>EQ  10-G,LOW  SPEED,NO  PEDESTRIAN,RL  0,acts-9,N,784,161,187.6875,0.0
L1MAXMIN|BASELINE_ONLY,OTHER  LANES,N_E,>EQ  10-G,LOW  SPEED,NO  PEDESTRIAN,RL  0,acts-9,N,784,161,188.6885,0.0
L1MAXMIN|BASELINE_ONLY,OTHER  LANES,N_E,>EQ  10-G,LOW  SPEED,NO  PEDESTRIAN,RL  0,acts-9,N,784,161,189.6895,0.0
L1MAXMIN|BASELINE_ONLY,OTHER  LANES,N_E,>EQ  10-G,LOW  SPEED,NO  PEDESTRIAN,RL  0,acts-9,N,784,161,190.6905,0.0
L1MAXMIN|BASELINE_ONLY,OTHER  LANES,N_E,>EQ  10-G,LOW  SPEED,NO  PEDESTRIAN,RL  0,acts-9,N,784,161,191.6915,0.0
L1MAXMIN|BASELINE_ONLY,OTHER  LANES,N_E,>EQ  10-G,LOW  SPEED,NO  PEDESTRIAN,RL  0,acts-9,N,784,161,192.6925,0.0
L1MAXMIN|BASELINE_ONLY,OTHER  LANES,N_E,>EQ  10-G,LOW  SPEED,NO  PEDESTRIAN,RL  0,acts-9,N,784,161,193.6935,0.0
L1MAXMIN|BASELINE_ONLY,OTHER  LANES,N_E,>EQ  10-G,LOW  SPEED,NO  PEDESTRIAN,RL  0,acts-9,N,784,161,194.6945,0.0
L1MAXMIN|BASELINE_ONLY,OTHER  LANES,N_E,>EQ  10-G,LOW  SPEED,NO  PEDESTRIAN,RL  0,acts-9,N,784,161,195.6955,0.0
L1MAXMIN|BASELINE_ONLY,OTHER  LANES,N_E,>EQ  10-G,LOW  SPEED,NO  PEDESTRIAN,RL  0,acts-9,N,784,161,196.6965,0.0
L1MAXMIN|BASELINE_ONLY,OTHER  LANES,N_E,>EQ  10-G,LOW  SPEED,NO  PEDESTRIAN,RL  0,acts-9,N,784,161,197.6975,0.0
L1MAXMIN|BASELINE_ONLY,OTHER  LANES,N_E,>EQ  10-G,LOW  SPEED,NO  PEDESTRIAN,RL  0,acts-9,N,784,161,198.6985,0.0
L1MAXMIN|BASELINE_ONLY,OTHER  LANES,N_E,>EQ  10-G,LOW  SPEED,NO  PEDESTRIAN,RL  0,acts-9,N,784,161,199.6995,0.0
L1MAXMIN|BASELINE_ONLY,OTHER  LANES,N_E,>EQ  10-G,LOW  SPEED,NO  PEDESTRIAN,RL  0,acts-9,N,784,161,200.7005,0.0
L1MAXMIN|BASELINE_ONLY,OTHER  LANES,N_E,>EQ  10-G,LOW  SPEED,NO  PEDESTRIAN,RL  0,acts-9,N,784,161,201.7015,0.0
L1MAXMIN|BASELINE_ONLY,OTHER  LANES,N_E,>EQ  10-G,LOW  SPEED,NO  PEDESTRIAN,RL  0,acts-9,N,784,161,202.7025,0.0
L1MAXMIN|BASELINE_ONLY,OTHER  LANES,N_E,>EQ  10-G,LOW  SPEED,NO  PEDESTRIAN,RL  0,acts-9,N,784,161,203.7035,0.0
L1MAXMIN|BASELINE_ONLY,OTHER  LANES,N_E,>EQ  10-G,LOW  SPEED,NO  PEDESTRIAN,RL  0,acts-9,N,784,161,204.7045,0.0
L1MAXMIN|BASELINE_ONLY,OTHER  LANES,N_E,>EQ  10-G,LOW  SPEED,NO  PEDESTRIAN,RL  0,acts-9,N,784,161,205.7055,0.0
L1MAXMIN|BASELINE_ONLY,OTHER  LANES,N_E,>EQ  10-G,LOW  SPEED,NO  PEDESTRIAN,RL  0,acts-9,N,784,161,206.7065,0.0
L1MAXMIN|BASELINE_ONLY,OTHER  LANES,N_E,>EQ  10-G,LOW  SPEED,NO  PEDESTRIAN,RL  0,acts-9,N,784,161,207.7075,0.0
L1MAXMIN|BASELINE_ONLY,OTHER  LANES,N_E,>EQ  10-G,LOW  SPEED,NO  PEDESTRIAN,RL  0,acts-9,N,784,161,208.7085,0.0
L1MAXMIN|BASELINE_ONLY,OTHER  LANES,N_E,>EQ  10-G,LOW  SPEED,NO  PEDESTRIAN,RL  0,acts-9,N,784,161,209.7095,0.0
L1MAXMIN|BASELINE_ONLY,OTHER  LANES,N_E,>EQ  10-G,LOW  SPEED,NO  PEDESTRIAN,RL  0,acts-9,N,784,161,210.7105,0.0
L1MAXMIN|BASELINE_ONLY,OTHER  LANES,W_N,<10-Y/R,LOW  SPEED,NO  PEDESTRIAN,  RL  <EQ  2,acts-1,Y,784,9,12.012,0.014653000000000027
L1MAXMIN|BASELINE_ONLY,OTHER  LANES,W_N,<10-Y/R,LOW  SPEED,NO  PEDESTRIAN,  RL  >  2,acts-1,N,784,9,10.01,0.136164
L1MAXMIN|BASELINE_ONLY,OTHER  LANES,W_N,<10-Y/R,LOW  SPEED,NO  PEDESTRIAN,  RL  >  2,acts-1,N,784,9,4.004,0.061504999999999976
L1MAXMIN|BASELINE_ONLY,OTHER  LANES,W_N,<10-Y/R,LOW  SPEED,NO  PEDESTRIAN,  RL  >  2,acts-1,N,784,9,5.005,0.049370000000000025
L1MAXMIN|BASELINE_ONLY,OTHER  LANES,W_N,<10-Y/R,LOW  SPEED,NO  PEDESTRIAN,  RL  >  2,acts-1,N,784,9,6.006,0.05229999999999996
L1MAXMIN|BASELINE_ONLY,OTHER  LANES,W_N,<10-Y/R,LOW  SPEED,NO  PEDESTRIAN,  RL  >  2,acts-1,N,784,9,7.007,0.08430900000000002
L1MAXMIN|BASELINE_ONLY,OTHER  LANES,W_N,<10-Y/R,LOW  SPEED,NO  PEDESTRIAN,  RL  >  2,acts-1,N,784,9,8.008,0
L1MAXMIN|BASELINE_ONLY,OTHER  LANES,W_N,<10-Y/R,LOW  SPEED,NO  PEDESTRIAN,  RL  >  2,acts-1,N,784,9,9.009,0.022724000000000022
L1MAXMIN|BASELINE_ONLY,OTHER  LANES,W_N,<10-G,LOW  SPEED,PEDESTRIAN,RL  0,acts-9,N,784,124,164.330833,0.0
L1MAXMIN|BASELINE_ONLY,OTHER  LANES,W_N,<10-G,LOW  SPEED,PEDESTRIAN,RL  0,acts-9,N,784,124,165.331833,0.0
L1MAXMIN|BASELINE_ONLY,OTHER  LANES,W_N,<10-G,LOW  SPEED,PEDESTRIAN,RL  0,acts-9,N,784,124,166.332833,0.0
L1MAXMIN|BASELINE_ONLY,OTHER  LANES,W_N,<10-G,LOW  SPEED,PEDESTRIAN,RL  0,acts-9,N,784,124,167.333833,0.0
L1MAXMIN|BASELINE_ONLY,OTHER  LANES,W_N,<10-G,LOW  SPEED,PEDESTRIAN,RL  0,acts-9,N,784,124,168.334833,0.0
L1MAXMIN|BASELINE_ONLY,OTHER  LANES,W_N,<10-G,LOW  SPEED,PEDESTRIAN,RL  0,acts-9,N,784,124,169.335833,0.0
L1MAXMIN|BASELINE_ONLY,OTHER  LANES,W_N,<10-G,LOW  SPEED,PEDESTRIAN,RL  0,acts-9,N,784,124,170.336833,0.0
L1MAXMIN|BASELINE_ONLY,OTHER  LANES,W_N,<10-G,LOW  SPEED,PEDESTRIAN,RL  0,acts-9,N,784,124,171.337833,0.0
L1MAXMIN|BASELINE_ONLY,OTHER  LANES,W_N,<10-G,LOW  SPEED,PEDESTRIAN,RL  0,acts-9,N,784,124,172.338833,0.0
L1MAXMIN|BASELINE_ONLY,OTHER  LANES,W_N,<10-G,LOW  SPEED,PEDESTRIAN,RL  0,acts-9,N,784,124,173.339833,0.0
L1MAXMIN|BASELINE_ONLY,OTHER  LANES,W_N,<10-G,LOW  SPEED,PEDESTRIAN,RL  0,acts-9,N,784,204,264.097167,0.0
L1MAXMIN|BASELINE_ONLY,OTHER  LANES,W_N,<10-G,LOW  SPEED,PEDESTRIAN,RL  0,acts-9,N,784,204,265.098167,0.0
L1MAXMIN|BASELINE_ONLY,OTHER  LANES,W_N,<10-G,LOW  SPEED,PEDESTRIAN,RL  0,acts-9,N,784,204,266.099167,0.0
L1MAXMIN|BASELINE_ONLY,OTHER  LANES,W_N,<10-G,LOW  SPEED,PEDESTRIAN,RL  0,acts-9,N,784,204,267.100167,0.0
L1MAXMIN|BASELINE_ONLY,OTHER  LANES,W_N,<10-G,LOW  SPEED,PEDESTRIAN,RL  0,acts-9,N,784,204,268.101167,0.0
L1MAXMIN|BASELINE_ONLY,OTHER  LANES,W_N,<10-G,LOW  SPEED,PEDESTRIAN,RL  0,acts-9,N,784,204,269.102167,0.0
L1MAXMIN|BASELINE_ONLY,OTHER  LANES,W_N,<10-G,LOW  SPEED,PEDESTRIAN,RL  0,acts-9,N,784,204,270.103167,0.0
L1MAXMIN|BASELINE_ONLY,OTHER  LANES,W_N,<10-G,LOW  SPEED,PEDESTRIAN,RL  0,acts-9,N,784,204,271.104167,0.0
L1MAXMIN|BASELINE_ONLY,OTHER  LANES,W_N,<10-G,LOW  SPEED,PEDESTRIAN,RL  0,acts-9,N,784,204,272.105167,0.0
L1MAXMIN|BASELINE_ONLY,OTHER  LANES,W_N,<10-G,LOW  SPEED,PEDESTRIAN,RL  0,acts-9,N,784,204,273.106167,0.0
L1MAXMIN|BASELINE_ONLY,OTHER  LANES,W_N,>EQ  10-Y/R,LOW  SPEED,PEDESTRIAN,RL  0,acts-1,Y,784,124,174.340833,0.001754999999999951
L1MAXMIN|BASELINE_ONLY,OTHER  LANES,W_N,>EQ  10-Y/R,LOW  SPEED,PEDESTRIAN,RL  0,acts-1,Y,784,124,175.341833,0.010883000000000087
L1MAXMIN|BASELINE_ONLY,OTHER  LANES,W_N,>EQ  10-Y/R,LOW  SPEED,PEDESTRIAN,RL  0,acts-1,Y,784,124,176.342833,0
L1MAXMIN|BASELINE_ONLY,OTHER  LANES,W_N,>EQ  10-Y/R,LOW  SPEED,PEDESTRIAN,RL  0,acts-1,Y,784,137,180.847333,0.0016079999999999428
L1MAXMIN|BASELINE_ONLY,OTHER  LANES,W_N,>EQ  10-Y/R,LOW  SPEED,NO  PEDESTRIAN,  RL  >  2,acts-1,Y,784,72,77.077,0
L1MAXMIN|BASELINE_ONLY,OTHER  LANES,W_N,>EQ  10-G,LOW  SPEED,PEDESTRIAN,RL  0,acts-9,Y,784,124,130.296833,0.0
L1MAXMIN|BASELINE_ONLY,OTHER  LANES,W_N,>EQ  10-G,LOW  SPEED,PEDESTRIAN,RL  0,acts-9,N,784,124,131.297833,0.0
L1MAXMIN|BASELINE_ONLY,OTHER  LANES,W_N,>EQ  10-G,LOW  SPEED,PEDESTRIAN,RL  0,acts-9,N,784,124,132.298833,0.0
L1MAXMIN|BASELINE_ONLY,OTHER  LANES,W_N,>EQ  10-G,LOW  SPEED,PEDESTRIAN,RL  0,acts-9,N,784,124,133.299833,0.0
L1MAXMIN|BASELINE_ONLY,OTHER  LANES,W_N,>EQ  10-G,LOW  SPEED,PEDESTRIAN,RL  0,acts-9,N,784,124,134.300833,0.0
L1MAXMIN|BASELINE_ONLY,OTHER  LANES,W_N,>EQ  10-G,LOW  SPEED,PEDESTRIAN,RL  0,acts-9,N,784,124,135.301833,0.0
L1MAXMIN|BASELINE_ONLY,OTHER  LANES,W_N,>EQ  10-G,LOW  SPEED,PEDESTRIAN,RL  0,acts-9,N,784,124,136.302833,0.0
L1MAXMIN|BASELINE_ONLY,OTHER  LANES,W_N,>EQ  10-G,LOW  SPEED,PEDESTRIAN,RL  0,acts-9,N,784,124,137.303833,0.0
L1MAXMIN|BASELINE_ONLY,OTHER  LANES,W_N,>EQ  10-G,LOW  SPEED,PEDESTRIAN,RL  0,acts-9,N,784,124,138.304833,0.0
L1MAXMIN|BASELINE_ONLY,OTHER  LANES,W_N,>EQ  10-G,LOW  SPEED,PEDESTRIAN,RL  0,acts-9,N,784,124,139.305833,0.0
L1MAXMIN|BASELINE_ONLY,OTHER  LANES,W_N,>EQ  10-G,LOW  SPEED,PEDESTRIAN,RL  0,acts-9,N,784,124,140.306833,0.0
L1MAXMIN|BASELINE_ONLY,OTHER  LANES,W_N,>EQ  10-G,LOW  SPEED,PEDESTRIAN,RL  0,acts-9,N,784,124,141.307833,0.0
L1MAXMIN|BASELINE_ONLY,OTHER  LANES,W_N,>EQ  10-G,LOW  SPEED,PEDESTRIAN,RL  0,acts-9,N,784,124,142.308833,0.0
L1MAXMIN|BASELINE_ONLY,OTHER  LANES,W_N,>EQ  10-G,LOW  SPEED,PEDESTRIAN,RL  0,acts-9,N,784,124,143.309833,0.0
L1MAXMIN|BASELINE_ONLY,OTHER  LANES,W_N,>EQ  10-G,LOW  SPEED,PEDESTRIAN,RL  0,acts-9,N,784,124,144.310833,0.0
L1MAXMIN|BASELINE_ONLY,OTHER  LANES,W_N,>EQ  10-G,LOW  SPEED,PEDESTRIAN,RL  0,acts-9,N,784,124,145.311833,0.0
L1MAXMIN|BASELINE_ONLY,OTHER  LANES,W_N,>EQ  10-G,LOW  SPEED,PEDESTRIAN,RL  0,acts-9,N,784,124,146.312833,0.0
L1MAXMIN|BASELINE_ONLY,OTHER  LANES,W_N,>EQ  10-G,LOW  SPEED,PEDESTRIAN,RL  0,acts-9,N,784,124,147.313833,0.0
L1MAXMIN|BASELINE_ONLY,OTHER  LANES,W_N,>EQ  10-G,LOW  SPEED,PEDESTRIAN,RL  0,acts-9,N,784,124,148.314833,0.0
L1MAXMIN|BASELINE_ONLY,OTHER  LANES,W_N,>EQ  10-G,LOW  SPEED,PEDESTRIAN,RL  0,acts-9,N,784,124,149.315833,0.0
L1MAXMIN|BASELINE_ONLY,OTHER  LANES,W_N,>EQ  10-G,LOW  SPEED,PEDESTRIAN,RL  0,acts-9,N,784,124,150.316833,0.0
L1MAXMIN|BASELINE_ONLY,OTHER  LANES,W_N,>EQ  10-G,LOW  SPEED,PEDESTRIAN,RL  0,acts-9,N,784,124,151.317833,0.0
L1MAXMIN|BASELINE_ONLY,OTHER  LANES,W_N,>EQ  10-G,LOW  SPEED,PEDESTRIAN,RL  0,acts-9,N,784,124,152.318833,0.0
L1MAXMIN|BASELINE_ONLY,OTHER  LANES,W_N,>EQ  10-G,LOW  SPEED,PEDESTRIAN,RL  0,acts-9,N,784,124,153.319833,0.0
L1MAXMIN|BASELINE_ONLY,OTHER  LANES,W_N,>EQ  10-G,LOW  SPEED,PEDESTRIAN,RL  0,acts-9,N,784,124,154.320833,0.0
L1MAXMIN|BASELINE_ONLY,OTHER  LANES,W_N,>EQ  10-G,LOW  SPEED,PEDESTRIAN,RL  0,acts-9,N,784,124,155.321833,0.0
L1MAXMIN|BASELINE_ONLY,OTHER  LANES,W_N,>EQ  10-G,LOW  SPEED,PEDESTRIAN,RL  0,acts-9,N,784,124,156.322833,0.0
L1MAXMIN|BASELINE_ONLY,OTHER  LANES,W_N,>EQ  10-G,LOW  SPEED,PEDESTRIAN,RL  0,acts-9,N,784,124,157.323833,0.0
L1MAXMIN|BASELINE_ONLY,OTHER  LANES,W_N,>EQ  10-G,LOW  SPEED,PEDESTRIAN,RL  0,acts-9,N,784,124,158.324833,0.0
L1MAXMIN|BASELINE_ONLY,OTHER  LANES,W_N,>EQ  10-G,LOW  SPEED,PEDESTRIAN,RL  0,acts-9,N,784,124,159.325833,0.0
L1MAXMIN|BASELINE_ONLY,OTHER  LANES,W_N,>EQ  10-G,LOW  SPEED,PEDESTRIAN,RL  0,acts-9,N,784,124,160.326833,0.0
L1MAXMIN|BASELINE_ONLY,OTHER  LANES,W_N,>EQ  10-G,LOW  SPEED,PEDESTRIAN,RL  0,acts-9,N,784,124,161.327833,0.0
L1MAXMIN|BASELINE_ONLY,OTHER  LANES,W_N,>EQ  10-G,LOW  SPEED,PEDESTRIAN,RL  0,acts-9,N,784,124,162.328833,0.0
L1MAXMIN|BASELINE_ONLY,OTHER  LANES,W_N,>EQ  10-G,LOW  SPEED,PEDESTRIAN,RL  0,acts-9,N,784,124,163.329833,0.0
L1MAXMIN|BASELINE_ONLY,OTHER  LANES,W_N,>EQ  10-G,LOW  SPEED,PEDESTRIAN,RL  0,acts-9,Y,784,204,221.054167,0.0
L1MAXMIN|BASELINE_ONLY,OTHER  LANES,W_N,>EQ  10-G,LOW  SPEED,PEDESTRIAN,RL  0,acts-9,Y,784,204,222.055167,0
L1MAXMIN|BASELINE_ONLY,OTHER  LANES,W_N,>EQ  10-G,LOW  SPEED,PEDESTRIAN,RL  0,acts-9,Y,784,204,223.056167,0
L1MAXMIN|BASELINE_ONLY,OTHER  LANES,W_N,>EQ  10-G,LOW  SPEED,PEDESTRIAN,RL  0,acts-9,N,784,204,224.057167,0.0
L1MAXMIN|BASELINE_ONLY,OTHER  LANES,W_N,>EQ  10-G,LOW  SPEED,PEDESTRIAN,RL  0,acts-9,N,784,204,225.058167,0.0
L1MAXMIN|BASELINE_ONLY,OTHER  LANES,W_N,>EQ  10-G,LOW  SPEED,PEDESTRIAN,RL  0,acts-9,N,784,204,226.059167,0.0
L1MAXMIN|BASELINE_ONLY,OTHER  LANES,W_N,>EQ  10-G,LOW  SPEED,PEDESTRIAN,RL  0,acts-9,N,784,204,227.060167,0.0
L1MAXMIN|BASELINE_ONLY,OTHER  LANES,W_N,>EQ  10-G,LOW  SPEED,PEDESTRIAN,RL  0,acts-9,N,784,204,228.061167,0.0
L1MAXMIN|BASELINE_ONLY,OTHER  LANES,W_N,>EQ  10-G,LOW  SPEED,PEDESTRIAN,RL  0,acts-9,N,784,204,229.062167,0.0
L1MAXMIN|BASELINE_ONLY,OTHER  LANES,W_N,>EQ  10-G,LOW  SPEED,PEDESTRIAN,RL  0,acts-9,N,784,204,230.063167,0.0
L1MAXMIN|BASELINE_ONLY,OTHER  LANES,W_N,>EQ  10-G,LOW  SPEED,PEDESTRIAN,RL  0,acts-9,N,784,204,231.064167,0.0
L1MAXMIN|BASELINE_ONLY,OTHER  LANES,W_N,>EQ  10-G,LOW  SPEED,PEDESTRIAN,RL  0,acts-9,N,784,204,232.065167,0.0
L1MAXMIN|BASELINE_ONLY,OTHER  LANES,W_N,>EQ  10-G,LOW  SPEED,PEDESTRIAN,RL  0,acts-9,N,784,204,233.066167,0.0
L1MAXMIN|BASELINE_ONLY,OTHER  LANES,W_N,>EQ  10-G,LOW  SPEED,PEDESTRIAN,RL  0,acts-9,N,784,204,234.067167,0.0
L1MAXMIN|BASELINE_ONLY,OTHER  LANES,W_N,>EQ  10-G,LOW  SPEED,PEDESTRIAN,RL  0,acts-9,N,784,204,235.068167,0.0
L1MAXMIN|BASELINE_ONLY,OTHER  LANES,W_N,>EQ  10-G,LOW  SPEED,PEDESTRIAN,RL  0,acts-9,N,784,204,236.069167,0.0
L1MAXMIN|BASELINE_ONLY,OTHER  LANES,W_N,>EQ  10-G,LOW  SPEED,PEDESTRIAN,RL  0,acts-9,N,784,204,237.070167,0.0
L1MAXMIN|BASELINE_ONLY,OTHER  LANES,W_N,>EQ  10-G,LOW  SPEED,PEDESTRIAN,RL  0,acts-9,N,784,204,238.071167,0.0
L1MAXMIN|BASELINE_ONLY,OTHER  LANES,W_N,>EQ  10-G,LOW  SPEED,PEDESTRIAN,RL  0,acts-9,N,784,204,239.072167,0.0
L1MAXMIN|BASELINE_ONLY,OTHER  LANES,W_N,>EQ  10-G,LOW  SPEED,PEDESTRIAN,RL  0,acts-9,N,784,204,240.073167,0.0
L1MAXMIN|BASELINE_ONLY,OTHER  LANES,W_N,>EQ  10-G,LOW  SPEED,PEDESTRIAN,RL  0,acts-9,N,784,204,241.074167,0.0
L1MAXMIN|BASELINE_ONLY,OTHER  LANES,W_N,>EQ  10-G,LOW  SPEED,PEDESTRIAN,RL  0,acts-9,N,784,204,242.075167,0.0
L1MAXMIN|BASELINE_ONLY,OTHER  LANES,W_N,>EQ  10-G,LOW  SPEED,PEDESTRIAN,RL  0,acts-9,N,784,204,243.076167,0.0
L1MAXMIN|BASELINE_ONLY,OTHER  LANES,W_N,>EQ  10-G,LOW  SPEED,PEDESTRIAN,RL  0,acts-9,N,784,204,244.077167,0.0
L1MAXMIN|BASELINE_ONLY,OTHER  LANES,W_N,>EQ  10-G,LOW  SPEED,PEDESTRIAN,RL  0,acts-9,N,784,204,245.078167,0.0
L1MAXMIN|BASELINE_ONLY,OTHER  LANES,W_N,>EQ  10-G,LOW  SPEED,PEDESTRIAN,RL  0,acts-9,N,784,204,246.079167,0.0
L1MAXMIN|BASELINE_ONLY,OTHER  LANES,W_N,>EQ  10-G,LOW  SPEED,PEDESTRIAN,RL  0,acts-9,N,784,204,247.080167,0.0
L1MAXMIN|BASELINE_ONLY,OTHER  LANES,W_N,>EQ  10-G,LOW  SPEED,PEDESTRIAN,RL  0,acts-9,N,784,204,248.081167,0.0
L1MAXMIN|BASELINE_ONLY,OTHER  LANES,W_N,>EQ  10-G,LOW  SPEED,PEDESTRIAN,RL  0,acts-9,N,784,204,249.082167,0.0
L1MAXMIN|BASELINE_ONLY,OTHER  LANES,W_N,>EQ  10-G,LOW  SPEED,PEDESTRIAN,RL  0,acts-9,N,784,204,250.083167,0.0
L1MAXMIN|BASELINE_ONLY,OTHER  LANES,W_N,>EQ  10-G,LOW  SPEED,PEDESTRIAN,RL  0,acts-9,N,784,204,251.084167,0.0
L1MAXMIN|BASELINE_ONLY,OTHER  LANES,W_N,>EQ  10-G,LOW  SPEED,PEDESTRIAN,RL  0,acts-9,N,784,204,252.085167,0.0
L1MAXMIN|BASELINE_ONLY,OTHER  LANES,W_N,>EQ  10-G,LOW  SPEED,PEDESTRIAN,RL  0,acts-9,N,784,204,253.086167,0.0
L1MAXMIN|BASELINE_ONLY,OTHER  LANES,W_N,>EQ  10-G,LOW  SPEED,PEDESTRIAN,RL  0,acts-9,N,784,204,254.087167,0.0
L1MAXMIN|BASELINE_ONLY,OTHER  LANES,W_N,>EQ  10-G,LOW  SPEED,PEDESTRIAN,RL  0,acts-9,N,784,204,255.088167,0.0
L1MAXMIN|BASELINE_ONLY,OTHER  LANES,W_N,>EQ  10-G,LOW  SPEED,PEDESTRIAN,RL  0,acts-9,N,784,204,256.089167,0.0
L1MAXMIN|BASELINE_ONLY,OTHER  LANES,W_N,>EQ  10-G,LOW  SPEED,PEDESTRIAN,RL  0,acts-9,N,784,204,257.090167,0.0
L1MAXMIN|BASELINE_ONLY,OTHER  LANES,W_N,>EQ  10-G,LOW  SPEED,PEDESTRIAN,RL  0,acts-9,N,784,204,258.091167,0.0
L1MAXMIN|BASELINE_ONLY,OTHER  LANES,W_N,>EQ  10-G,LOW  SPEED,PEDESTRIAN,RL  0,acts-9,N,784,204,259.092167,0.0
L1MAXMIN|BASELINE_ONLY,OTHER  LANES,W_N,>EQ  10-G,LOW  SPEED,PEDESTRIAN,RL  0,acts-9,N,784,204,260.093167,0.0
L1MAXMIN|BASELINE_ONLY,OTHER  LANES,W_N,>EQ  10-G,LOW  SPEED,PEDESTRIAN,RL  0,acts-9,N,784,204,261.094167,0.0
L1MAXMIN|BASELINE_ONLY,OTHER  LANES,W_N,>EQ  10-G,LOW  SPEED,PEDESTRIAN,RL  0,acts-9,N,784,204,262.095167,0.0
L1MAXMIN|BASELINE_ONLY,OTHER  LANES,W_N,>EQ  10-G,LOW  SPEED,PEDESTRIAN,RL  0,acts-9,N,784,204,263.096167,0.0
L1MAXMIN|BASELINE_ONLY,OTHER  LANES,W_N,>EQ  10-G,LOW  SPEED,NO  PEDESTRIAN,RL  0,acts-9,Y,784,124,125.291833,0.0
L1MAXMIN|BASELINE_ONLY,OTHER  LANES,W_N,>EQ  10-G,LOW  SPEED,NO  PEDESTRIAN,RL  0,acts-9,N,784,124,126.292833,0.0
L1MAXMIN|BASELINE_ONLY,OTHER  LANES,W_N,>EQ  10-G,LOW  SPEED,NO  PEDESTRIAN,RL  0,acts-9,Y,784,124,127.293833,0
L1MAXMIN|BASELINE_ONLY,OTHER  LANES,W_N,>EQ  10-G,LOW  SPEED,NO  PEDESTRIAN,RL  0,acts-9,Y,784,124,128.294833,0
L1MAXMIN|BASELINE_ONLY,OTHER  LANES,W_N,>EQ  10-G,LOW  SPEED,NO  PEDESTRIAN,RL  0,acts-9,Y,784,124,129.295833,0.0
L1MAXMIN|BASELINE_ONLY,OTHER  LANES,S_E,<10-Y/R,LOW  SPEED,NO  PEDESTRIAN,RL  0,acts-8,Y,784,158,165.999167,0.03562299999999996
L1MAXMIN|BASELINE_ONLY,OTHER  LANES,S_E,<10-Y/R,MEDIUM  SPEED,NO  PEDESTRIAN,RL  0,acts-8,Y,784,158,164.998167,0.025141999999999998
L1MAXMIN|BASELINE_ONLY,OTHER  LANES,S_E,<10-G,LOW  SPEED,NO  PEDESTRIAN,RL  0,acts-8,Y,784,103,108.274833,0.031127999999999934
L1MAXMIN|BASELINE_ONLY,OTHER  LANES,S_E,<10-G,LOW  SPEED,NO  PEDESTRIAN,  RL  <EQ  2,acts-8,Y,784,103,107.273833,0.019313000000000025
L1MAXMIN|BASELINE_ONLY,OTHER  LANES,S_E,>EQ  10-Y/R,LOW  SPEED,NO  PEDESTRIAN,RL  0,acts-8,Y,784,33,31.698333,0.00019800000000003148
L1MAXMIN|BASELINE_ONLY,OTHER  LANES,S_E,>EQ  10-Y/R,LOW  SPEED,NO  PEDESTRIAN,RL  0,acts-8,Y,784,33,32.699333,0
L1MAXMIN|BASELINE_ONLY,OTHER  LANES,S_E,>EQ  10-Y/R,LOW  SPEED,NO  PEDESTRIAN,  RL  <EQ  2,acts-8,N,784,219,233.7335,0.008167999999999953
L1MAXMIN|BASELINE_ONLY,OTHER  LANES,S_E,>EQ  10-G,LOW  SPEED,PEDESTRIAN,RL  0,acts-5,N,784,171,213.213,0.0222460000000001
L1MAXMIN|BASELINE_ONLY,OTHER  LANES,S_E,>EQ  10-G,LOW  SPEED,PEDESTRIAN,  RL  <EQ  2,acts-5,N,784,80,89.756333,0.014893000000000045
L1MAXMIN|BASELINE_ONLY,OTHER  LANES,S_E,>EQ  10-G,LOW  SPEED,PEDESTRIAN,  RL  <EQ  2,acts-5,N,784,80,91.758333,0
L1MAXMIN|BASELINE_ONLY,OTHER  LANES,S_E,>EQ  10-G,LOW  SPEED,PEDESTRIAN,  RL  <EQ  2,acts-5,N,784,171,195.195,0.013237999999999972
L1MAXMIN|BASELINE_ONLY,OTHER  LANES,S_E,>EQ  10-G,LOW  SPEED,PEDESTRIAN,  RL  <EQ  2,acts-5,N,784,171,196.196,0.01960200000000001
L1MAXMIN|BASELINE_ONLY,OTHER  LANES,S_E,>EQ  10-G,LOW  SPEED,PEDESTRIAN,  RL  <EQ  2,acts-5,N,784,171,199.199,0.01461800000000002
L1MAXMIN|BASELINE_ONLY,OTHER  LANES,S_E,>EQ  10-G,LOW  SPEED,PEDESTRIAN,  RL  <EQ  2,acts-5,N,784,171,202.202,0.013064999999999993
L1MAXMIN|BASELINE_ONLY,OTHER  LANES,S_E,>EQ  10-G,LOW  SPEED,PEDESTRIAN,  RL  <EQ  2,acts-5,N,784,171,206.206,0.012190000000000034
L1MAXMIN|BASELINE_ONLY,OTHER  LANES,S_E,>EQ  10-G,LOW  SPEED,PEDESTRIAN,  RL  <EQ  2,acts-5,N,784,171,207.207,0.01961400000000002
L1MAXMIN|BASELINE_ONLY,OTHER  LANES,S_E,>EQ  10-G,LOW  SPEED,PEDESTRIAN,  RL  <EQ  2,acts-5,N,784,171,208.208,0.015090999999999966
L1MAXMIN|BASELINE_ONLY,OTHER  LANES,S_E,>EQ  10-G,LOW  SPEED,PEDESTRIAN,  RL  <EQ  2,acts-5,N,784,171,209.209,0.017098999999999975
L1MAXMIN|BASELINE_ONLY,OTHER  LANES,S_E,>EQ  10-G,LOW  SPEED,PEDESTRIAN,  RL  >  2,acts-5,N,784,80,84.751333,0.010558999999999985
L1MAXMIN|BASELINE_ONLY,OTHER  LANES,S_E,>EQ  10-G,LOW  SPEED,PEDESTRIAN,  RL  >  2,acts-5,Y,784,80,85.752333,0.02626600000000001
L1MAXMIN|BASELINE_ONLY,OTHER  LANES,S_E,>EQ  10-G,LOW  SPEED,PEDESTRIAN,  RL  >  2,acts-5,Y,784,80,86.753333,0.005982999999999961
L1MAXMIN|BASELINE_ONLY,OTHER  LANES,S_E,>EQ  10-G,LOW  SPEED,PEDESTRIAN,  RL  >  2,acts-5,N,784,80,87.754333,0.017032999999999965
L1MAXMIN|BASELINE_ONLY,OTHER  LANES,S_E,>EQ  10-G,LOW  SPEED,PEDESTRIAN,  RL  >  2,acts-5,N,784,80,88.755333,0.007383000000000028
L1MAXMIN|BASELINE_ONLY,OTHER  LANES,S_E,>EQ  10-G,LOW  SPEED,PEDESTRIAN,  RL  >  2,acts-5,N,784,80,90.757333,0.012368999999999963
L1MAXMIN|BASELINE_ONLY,OTHER  LANES,S_E,>EQ  10-G,LOW  SPEED,PEDESTRIAN,  RL  >  2,acts-5,N,784,171,198.198,0.00941000000000003
L1MAXMIN|BASELINE_ONLY,OTHER  LANES,S_E,>EQ  10-G,LOW  SPEED,NO  PEDESTRIAN,  RL  <EQ  2,acts-8,N,784,80,92.759333,0.007965999999999918
L1MAXMIN|BASELINE_ONLY,OTHER  LANES,S_E,>EQ  10-G,LOW  SPEED,NO  PEDESTRIAN,  RL  <EQ  2,acts-8,N,784,80,94.761333,0
L1MAXMIN|BASELINE_ONLY,OTHER  LANES,S_E,>EQ  10-G,LOW  SPEED,NO  PEDESTRIAN,  RL  <EQ  2,acts-8,N,784,80,95.762333,0.025015999999999927
L1MAXMIN|BASELINE_ONLY,OTHER  LANES,S_E,>EQ  10-G,LOW  SPEED,NO  PEDESTRIAN,  RL  >  2,acts-8,N,784,80,93.760333,0.0008219999999999894
L1MAXMIN|BASELINE_ONLY,OTHER  LANES,S_E,>EQ  10-G,LOW  SPEED,NO  PEDESTRIAN,  RL  >  2,acts-8,Y,784,171,185.185,0.01598199999999994
L1MAXMIN|BASELINE_ONLY,OTHER  LANES,S_E,>EQ  10-G,LOW  SPEED,NO  PEDESTRIAN,  RL  >  2,acts-8,Y,784,171,186.186,0.01630799999999999
L1MAXMIN|BASELINE_ONLY,OTHER  LANES,S_E,>EQ  10-G,LOW  SPEED,NO  PEDESTRIAN,  RL  >  2,acts-8,Y,784,171,187.187,0.007803000000000004
L1MAXMIN|BASELINE_ONLY,OTHER  LANES,S_E,>EQ  10-G,LOW  SPEED,NO  PEDESTRIAN,  RL  >  2,acts-8,Y,784,171,188.188,0.007037999999999989
L1MAXMIN|BASELINE_ONLY,OTHER  LANES,S_E,>EQ  10-G,LOW  SPEED,NO  PEDESTRIAN,  RL  >  2,acts-8,N,784,171,189.189,0.008796000000000026
L1MAXMIN|BASELINE_ONLY,OTHER  LANES,E_S,<10-Y/R,MEDIUM  SPEED,NO  PEDESTRIAN,RL  0,acts-1,Y,784,20,5.171833,0.00404199999999999
L1MAXMIN|BASELINE_ONLY,OTHER  LANES,E_S,<10-G,LOW  SPEED,PEDESTRIAN,RL  0,acts-9,Y,784,199,271.604667,0.0
L1MAXMIN|BASELINE_ONLY,OTHER  LANES,E_S,<10-G,LOW  SPEED,PEDESTRIAN,RL  0,acts-9,N,784,199,272.605667,0.0
L1MAXMIN|BASELINE_ONLY,OTHER  LANES,E_S,<10-G,LOW  SPEED,PEDESTRIAN,RL  0,acts-9,N,784,199,273.606667,0.0
L1MAXMIN|BASELINE_ONLY,OTHER  LANES,E_S,<10-G,LOW  SPEED,NO  PEDESTRIAN,RL  0,acts-9,N,784,199,264.597667,0.0
L1MAXMIN|BASELINE_ONLY,OTHER  LANES,E_S,<10-G,LOW  SPEED,NO  PEDESTRIAN,RL  0,acts-9,N,784,199,265.598667,0.0
L1MAXMIN|BASELINE_ONLY,OTHER  LANES,E_S,<10-G,LOW  SPEED,NO  PEDESTRIAN,RL  0,acts-9,N,784,199,266.599667,0.0
L1MAXMIN|BASELINE_ONLY,OTHER  LANES,E_S,<10-G,LOW  SPEED,NO  PEDESTRIAN,RL  0,acts-9,N,784,199,267.600667,0.0
L1MAXMIN|BASELINE_ONLY,OTHER  LANES,E_S,<10-G,LOW  SPEED,NO  PEDESTRIAN,RL  0,acts-9,N,784,199,268.601667,0.0
L1MAXMIN|BASELINE_ONLY,OTHER  LANES,E_S,<10-G,LOW  SPEED,NO  PEDESTRIAN,RL  0,acts-9,N,784,199,269.602667,0.0
L1MAXMIN|BASELINE_ONLY,OTHER  LANES,E_S,<10-G,LOW  SPEED,NO  PEDESTRIAN,RL  0,acts-9,N,784,199,270.603667,0.0
L1MAXMIN|BASELINE_ONLY,OTHER  LANES,E_S,>EQ  10-Y/R,MEDIUM  SPEED,NO  PEDESTRIAN,  RL  >  2,acts-1,N,784,175,188.521667,0.012189000000000005
L1MAXMIN|BASELINE_ONLY,OTHER  LANES,E_S,>EQ  10-G,LOW  SPEED,NO  PEDESTRIAN,RL  0,acts-9,N,784,199,221.554667,0.0
L1MAXMIN|BASELINE_ONLY,OTHER  LANES,E_S,>EQ  10-G,LOW  SPEED,NO  PEDESTRIAN,RL  0,acts-9,N,784,199,222.555667,0.0
L1MAXMIN|BASELINE_ONLY,OTHER  LANES,E_S,>EQ  10-G,LOW  SPEED,NO  PEDESTRIAN,RL  0,acts-9,N,784,199,223.556667,0.0
L1MAXMIN|BASELINE_ONLY,OTHER  LANES,E_S,>EQ  10-G,LOW  SPEED,NO  PEDESTRIAN,RL  0,acts-9,N,784,199,224.557667,0.0
L1MAXMIN|BASELINE_ONLY,OTHER  LANES,E_S,>EQ  10-G,LOW  SPEED,NO  PEDESTRIAN,RL  0,acts-9,N,784,199,225.558667,0.0
L1MAXMIN|BASELINE_ONLY,OTHER  LANES,E_S,>EQ  10-G,LOW  SPEED,NO  PEDESTRIAN,RL  0,acts-9,N,784,199,226.559667,0.0
L1MAXMIN|BASELINE_ONLY,OTHER  LANES,E_S,>EQ  10-G,LOW  SPEED,NO  PEDESTRIAN,RL  0,acts-9,N,784,199,227.560667,0.0
L1MAXMIN|BASELINE_ONLY,OTHER  LANES,E_S,>EQ  10-G,LOW  SPEED,NO  PEDESTRIAN,RL  0,acts-9,N,784,199,228.561667,0.0
L1MAXMIN|BASELINE_ONLY,OTHER  LANES,E_S,>EQ  10-G,LOW  SPEED,NO  PEDESTRIAN,RL  0,acts-9,N,784,199,229.562667,0.0
L1MAXMIN|BASELINE_ONLY,OTHER  LANES,E_S,>EQ  10-G,LOW  SPEED,NO  PEDESTRIAN,RL  0,acts-9,N,784,199,230.563667,0.0
L1MAXMIN|BASELINE_ONLY,OTHER  LANES,E_S,>EQ  10-G,LOW  SPEED,NO  PEDESTRIAN,RL  0,acts-9,N,784,199,231.564667,0.0
L1MAXMIN|BASELINE_ONLY,OTHER  LANES,E_S,>EQ  10-G,LOW  SPEED,NO  PEDESTRIAN,RL  0,acts-9,N,784,199,232.565667,0.0
L1MAXMIN|BASELINE_ONLY,OTHER  LANES,E_S,>EQ  10-G,LOW  SPEED,NO  PEDESTRIAN,RL  0,acts-9,N,784,199,233.566667,0.0
L1MAXMIN|BASELINE_ONLY,OTHER  LANES,E_S,>EQ  10-G,LOW  SPEED,NO  PEDESTRIAN,RL  0,acts-9,N,784,199,234.567667,0.0
L1MAXMIN|BASELINE_ONLY,OTHER  LANES,E_S,>EQ  10-G,LOW  SPEED,NO  PEDESTRIAN,RL  0,acts-9,N,784,199,235.568667,0.0
L1MAXMIN|BASELINE_ONLY,OTHER  LANES,E_S,>EQ  10-G,LOW  SPEED,NO  PEDESTRIAN,RL  0,acts-9,N,784,199,236.569667,0.0
L1MAXMIN|BASELINE_ONLY,OTHER  LANES,E_S,>EQ  10-G,LOW  SPEED,NO  PEDESTRIAN,RL  0,acts-9,N,784,199,237.570667,0.0
L1MAXMIN|BASELINE_ONLY,OTHER  LANES,E_S,>EQ  10-G,LOW  SPEED,NO  PEDESTRIAN,RL  0,acts-9,N,784,199,238.571667,0.0
L1MAXMIN|BASELINE_ONLY,OTHER  LANES,E_S,>EQ  10-G,LOW  SPEED,NO  PEDESTRIAN,RL  0,acts-9,N,784,199,239.572667,0.0
L1MAXMIN|BASELINE_ONLY,OTHER  LANES,E_S,>EQ  10-G,LOW  SPEED,NO  PEDESTRIAN,RL  0,acts-9,N,784,199,240.573667,0.0
L1MAXMIN|BASELINE_ONLY,OTHER  LANES,E_S,>EQ  10-G,LOW  SPEED,NO  PEDESTRIAN,RL  0,acts-9,N,784,199,241.574667,0.0
L1MAXMIN|BASELINE_ONLY,OTHER  LANES,E_S,>EQ  10-G,LOW  SPEED,NO  PEDESTRIAN,RL  0,acts-9,N,784,199,242.575667,0.0
L1MAXMIN|BASELINE_ONLY,OTHER  LANES,E_S,>EQ  10-G,LOW  SPEED,NO  PEDESTRIAN,RL  0,acts-9,N,784,199,243.576667,0.0
L1MAXMIN|BASELINE_ONLY,OTHER  LANES,E_S,>EQ  10-G,LOW  SPEED,NO  PEDESTRIAN,RL  0,acts-9,N,784,199,244.577667,0.0
L1MAXMIN|BASELINE_ONLY,OTHER  LANES,E_S,>EQ  10-G,LOW  SPEED,NO  PEDESTRIAN,RL  0,acts-9,N,784,199,245.578667,0.0
L1MAXMIN|BASELINE_ONLY,OTHER  LANES,E_S,>EQ  10-G,LOW  SPEED,NO  PEDESTRIAN,RL  0,acts-9,N,784,199,246.579667,0.0
L1MAXMIN|BASELINE_ONLY,OTHER  LANES,E_S,>EQ  10-G,LOW  SPEED,NO  PEDESTRIAN,RL  0,acts-9,N,784,199,247.580667,0.0
L1MAXMIN|BASELINE_ONLY,OTHER  LANES,E_S,>EQ  10-G,LOW  SPEED,NO  PEDESTRIAN,RL  0,acts-9,N,784,199,248.581667,0.0
L1MAXMIN|BASELINE_ONLY,OTHER  LANES,E_S,>EQ  10-G,LOW  SPEED,NO  PEDESTRIAN,RL  0,acts-9,N,784,199,249.582667,0.0
L1MAXMIN|BASELINE_ONLY,OTHER  LANES,E_S,>EQ  10-G,LOW  SPEED,NO  PEDESTRIAN,RL  0,acts-9,N,784,199,250.583667,0.0
L1MAXMIN|BASELINE_ONLY,OTHER  LANES,E_S,>EQ  10-G,LOW  SPEED,NO  PEDESTRIAN,RL  0,acts-9,N,784,199,251.584667,0.0
L1MAXMIN|BASELINE_ONLY,OTHER  LANES,E_S,>EQ  10-G,LOW  SPEED,NO  PEDESTRIAN,RL  0,acts-9,N,784,199,252.585667,0.0
L1MAXMIN|BASELINE_ONLY,OTHER  LANES,E_S,>EQ  10-G,LOW  SPEED,NO  PEDESTRIAN,RL  0,acts-9,N,784,199,253.586667,0.0
L1MAXMIN|BASELINE_ONLY,OTHER  LANES,E_S,>EQ  10-G,LOW  SPEED,NO  PEDESTRIAN,RL  0,acts-9,N,784,199,254.587667,0.0
L1MAXMIN|BASELINE_ONLY,OTHER  LANES,E_S,>EQ  10-G,LOW  SPEED,NO  PEDESTRIAN,RL  0,acts-9,N,784,199,255.588667,0.0
L1MAXMIN|BASELINE_ONLY,OTHER  LANES,E_S,>EQ  10-G,LOW  SPEED,NO  PEDESTRIAN,RL  0,acts-9,N,784,199,256.589667,0.0
L1MAXMIN|BASELINE_ONLY,OTHER  LANES,E_S,>EQ  10-G,LOW  SPEED,NO  PEDESTRIAN,RL  0,acts-9,N,784,199,257.590667,0.0
L1MAXMIN|BASELINE_ONLY,OTHER  LANES,E_S,>EQ  10-G,LOW  SPEED,NO  PEDESTRIAN,RL  0,acts-9,N,784,199,258.591667,0.0
L1MAXMIN|BASELINE_ONLY,OTHER  LANES,E_S,>EQ  10-G,LOW  SPEED,NO  PEDESTRIAN,RL  0,acts-9,N,784,199,259.592667,0.0
L1MAXMIN|BASELINE_ONLY,OTHER  LANES,E_S,>EQ  10-G,LOW  SPEED,NO  PEDESTRIAN,RL  0,acts-9,N,784,199,260.593667,0.0
L1MAXMIN|BASELINE_ONLY,OTHER  LANES,E_S,>EQ  10-G,LOW  SPEED,NO  PEDESTRIAN,RL  0,acts-9,N,784,199,261.594667,0.0
L1MAXMIN|BASELINE_ONLY,OTHER  LANES,E_S,>EQ  10-G,LOW  SPEED,NO  PEDESTRIAN,RL  0,acts-9,N,784,199,262.595667,0.0
L1MAXMIN|BASELINE_ONLY,OTHER  LANES,E_S,>EQ  10-G,LOW  SPEED,NO  PEDESTRIAN,RL  0,acts-9,N,784,199,263.596667,0.0
L1MAXMIN|BASELINE_ONLY,prep-right-turn,W_S,<10-Y/R,LOW  SPEED,PEDESTRIAN,RL  0,acts-5,N,784,106,112.946167,0.0003380000000000605
L1MAXMIN|BASELINE_ONLY,prep-right-turn,W_S,<10-G,LOW  SPEED,PEDESTRIAN,RL  0,acts-5,Y,784,65,70.904167,0
L1MAXMIN|BASELINE_ONLY,prep-right-turn,W_S,<10-G,LOW  SPEED,PEDESTRIAN,RL  0,acts-5,Y,784,65,71.905167,0.00024100000000004673
L1MAXMIN|BASELINE_ONLY,prep-right-turn,W_S,<10-G,LOW  SPEED,NO  PEDESTRIAN,RL  0,acts-1,N,784,154,168.835333,0.04965799999999998
L1MAXMIN|BASELINE_ONLY,prep-right-turn,W_S,<10-G,LOW  SPEED,NO  PEDESTRIAN,RL  0,acts-1,N,784,154,169.836333,0
L1MAXMIN|BASELINE_ONLY,prep-right-turn,W_S,<10-G,LOW  SPEED,NO  PEDESTRIAN,RL  0,acts-1,Y,784,154,170.837333,0
L1MAXMIN|BASELINE_ONLY,prep-right-turn,W_S,<10-G,LOW  SPEED,NO  PEDESTRIAN,RL  0,acts-1,Y,784,154,171.838333,0
L1MAXMIN|BASELINE_ONLY,prep-right-turn,W_S,<10-G,LOW  SPEED,NO  PEDESTRIAN,RL  0,acts-1,Y,784,154,172.839333,0
L1MAXMIN|BASELINE_ONLY,prep-right-turn,W_S,>EQ  10-Y/R,LOW  SPEED,PEDESTRIAN,  RL  <EQ  2,acts-11,N,784,185,200.867333,0.0
L1MAXMIN|BASELINE_ONLY,prep-right-turn,W_S,>EQ  10-Y/R,LOW  SPEED,NO  PEDESTRIAN,RL  0,acts-1,N,784,87,94.761333,9.300000000000974e-05
L1MAXMIN|BASELINE_ONLY,prep-right-turn,W_S,>EQ  10-Y/R,LOW  SPEED,NO  PEDESTRIAN,RL  0,acts-1,Y,784,162,176.342833,7.2000000000072e-05
L1MAXMIN|BASELINE_ONLY,prep-right-turn,W_S,>EQ  10-G,LOW  SPEED,PEDESTRIAN,  RL  <EQ  2,acts-5,N,784,133,137.804333,0.05479299999999998
L1MAXMIN|BASELINE_ONLY,prep-right-turn,W_S,>EQ  10-G,LOW  SPEED,PEDESTRIAN,  RL  >  2,acts-5,Y,784,198,221.221,0.319628
L1MAXMIN|BASELINE_ONLY,prep-right-turn,W_S,>EQ  10-G,LOW  SPEED,PEDESTRIAN,  RL  >  2,acts-5,Y,784,198,222.222,0.20825900000000003
L1MAXMIN|BASELINE_ONLY,prep-right-turn,W_S,>EQ  10-G,LOW  SPEED,NO  PEDESTRIAN,RL  0,acts-1,Y,784,31,29.5295,0
L1MAXMIN|BASELINE_ONLY,prep-right-turn,W_S,>EQ  10-G,LOW  SPEED,NO  PEDESTRIAN,RL  0,acts-1,Y,784,62,60.727333,0
L1MAXMIN|BASELINE_ONLY,prep-right-turn,W_S,>EQ  10-G,LOW  SPEED,NO  PEDESTRIAN,RL  0,acts-1,Y,784,133,145.812333,0
L1MAXMIN|BASELINE_ONLY,prep-right-turn,W_S,>EQ  10-G,LOW  SPEED,NO  PEDESTRIAN,  RL  <EQ  2,acts-1,N,784,133,140.807333,0
L1MAXMIN|BASELINE_ONLY,prep-right-turn,W_S,>EQ  10-G,LOW  SPEED,NO  PEDESTRIAN,  RL  <EQ  2,acts-1,N,784,133,141.808333,0.055777999999999994
L1MAXMIN|BASELINE_ONLY,prep-right-turn,W_S,>EQ  10-G,LOW  SPEED,NO  PEDESTRIAN,  RL  <EQ  2,acts-1,N,784,133,142.809333,0.188639
L1MAXMIN|BASELINE_ONLY,prep-right-turn,S_E,<10-Y/R,LOW  SPEED,NO  PEDESTRIAN,RL  0,acts-1,N,784,158,167.000167,0.0072990000000000554
L1MAXMIN|BASELINE_ONLY,prep-right-turn,S_E,<10-G,LOW  SPEED,NO  PEDESTRIAN,RL  0,acts-1,Y,784,103,109.275833,0.029178999999999955
L1MAXMIN|BASELINE_ONLY,prep-right-turn,S_E,<10-G,LOW  SPEED,NO  PEDESTRIAN,RL  0,acts-1,Y,784,103,110.276833,0.023340000000000027
L1MAXMIN|BASELINE_ONLY,prep-right-turn,S_E,<10-G,LOW  SPEED,NO  PEDESTRIAN,RL  0,acts-1,Y,784,103,111.277833,0.0017530000000000046
L1MAXMIN|BASELINE_ONLY,prep-right-turn,S_E,<10-G,LOW  SPEED,NO  PEDESTRIAN,RL  0,acts-1,Y,784,103,112.278833,0
L1MAXMIN|BASELINE_ONLY,prep-right-turn,S_E,<10-G,LOW  SPEED,NO  PEDESTRIAN,RL  0,acts-1,Y,784,103,113.279833,0
L1MAXMIN|BASELINE_ONLY,prep-right-turn,S_E,>EQ  10-Y/R,LOW  SPEED,NO  PEDESTRIAN,RL  0,acts-1,N,784,33,33.700333,0.03975699999999993
L1MAXMIN|BASELINE_ONLY,prep-right-turn,S_E,>EQ  10-G,LOW  SPEED,PEDESTRIAN,RL  0,acts-5,N,784,171,214.214,0.0016209999999999836
L1MAXMIN|BASELINE_ONLY,prep-right-turn,S_E,>EQ  10-G,LOW  SPEED,PEDESTRIAN,RL  0,acts-5,Y,784,171,215.215,0
L1MAXMIN|BASELINE_ONLY,prep-right-turn,S_E,>EQ  10-G,LOW  SPEED,PEDESTRIAN,RL  0,acts-5,N,784,171,216.216,0
L1MAXMIN|BASELINE_ONLY,prep-right-turn,S_E,>EQ  10-G,LOW  SPEED,PEDESTRIAN,RL  0,acts-5,Y,784,171,217.217,0.0023490000000000455
L1MAXMIN|BASELINE_ONLY,prep-right-turn,S_E,>EQ  10-G,LOW  SPEED,NO  PEDESTRIAN,  RL  <EQ  2,acts-1,N,784,80,102.769333,0
L1MAXMIN|BASELINE_ONLY,prep-right-turn,S_E,>EQ  10-G,LOW  SPEED,NO  PEDESTRIAN,  RL  <EQ  2,acts-1,N,784,80,98.765333,0.023048999999999986
L1MAXMIN|BASELINE_ONLY,prep-right-turn,S_E,>EQ  10-G,LOW  SPEED,NO  PEDESTRIAN,  RL  <EQ  2,acts-1,N,784,80,99.766333,0
L1MAXMIN|BASELINE_ONLY,prep-right-turn,S_E,>EQ  10-G,LOW  SPEED,NO  PEDESTRIAN,  RL  >  2,acts-1,N,784,80,100.767333,0.017604000000000064
L1MAXMIN|BASELINE_ONLY,prep-right-turn,S_E,>EQ  10-G,LOW  SPEED,NO  PEDESTRIAN,  RL  >  2,acts-1,N,784,80,101.768333,0.0
L1MAXMIN|BASELINE_ONLY,prep-right-turn,S_E,>EQ  10-G,LOW  SPEED,NO  PEDESTRIAN,  RL  >  2,acts-1,Y,784,80,103.770333,0
L1MAXMIN|BASELINE_ONLY,prep-right-turn,S_E,>EQ  10-G,LOW  SPEED,NO  PEDESTRIAN,  RL  >  2,acts-1,Y,784,80,104.771333,0.00040600000000001746
L1MAXMIN|BASELINE_ONLY,prep-right-turn,S_E,>EQ  10-G,LOW  SPEED,NO  PEDESTRIAN,  RL  >  2,acts-1,Y,784,80,105.772333,0
L1MAXMIN|BASELINE_ONLY,prep-right-turn,S_E,>EQ  10-G,LOW  SPEED,NO  PEDESTRIAN,  RL  >  2,acts-1,Y,784,80,96.763333,0
L1MAXMIN|BASELINE_ONLY,prep-right-turn,S_E,>EQ  10-G,LOW  SPEED,NO  PEDESTRIAN,  RL  >  2,acts-1,N,784,80,97.764333,0.0009529999999999816
L1MAXMIN|BASELINE_ONLY,exec-right-turn,W_S,<10-Y/R,LOW  SPEED,PEDESTRIAN,RL  0,acts-1,Y,784,101,106.439667,0.001546999999999965
L1MAXMIN|BASELINE_ONLY,exec-right-turn,W_S,<10-Y/R,LOW  SPEED,PEDESTRIAN,RL  0,acts-1,N,784,101,107.440667,0.014840999999999993
L1MAXMIN|BASELINE_ONLY,exec-right-turn,W_S,<10-Y/R,LOW  SPEED,PEDESTRIAN,  RL  <EQ  2,acts-1,Y,784,192,209.375833,0
L1MAXMIN|BASELINE_ONLY,exec-right-turn,W_S,<10-Y/R,MEDIUM  SPEED,PEDESTRIAN,RL  0,acts-1,Y,784,192,210.376833,0.01091399999999998
L1MAXMIN|BASELINE_ONLY,exec-right-turn,W_S,<10-G,LOW  SPEED,PEDESTRIAN,RL  0,acts-1,Y,784,65,72.906167,0
L1MAXMIN|BASELINE_ONLY,exec-right-turn,W_S,<10-G,LOW  SPEED,PEDESTRIAN,RL  0,acts-1,Y,784,65,73.907167,0.008566999999999991
L1MAXMIN|BASELINE_ONLY,exec-right-turn,W_S,<10-G,LOW  SPEED,NO  PEDESTRIAN,RL  0,acts-1,Y,784,154,173.840333,0.00017100000000003224
L1MAXMIN|BASELINE_ONLY,exec-right-turn,W_S,>EQ  10-Y/R,LOW  SPEED,PEDESTRIAN,RL  0,acts-1,Y,784,78,88.088,0.00050400000000006
L1MAXMIN|BASELINE_ONLY,exec-right-turn,W_S,>EQ  10-Y/R,LOW  SPEED,PEDESTRIAN,RL  0,acts-1,N,784,78,89.089,0.01842099999999991
L1MAXMIN|BASELINE_ONLY,exec-right-turn,W_S,>EQ  10-Y/R,LOW  SPEED,PEDESTRIAN,RL  0,acts-1,Y,784,182,200.7005,0.00043599999999999195
L1MAXMIN|BASELINE_ONLY,exec-right-turn,W_S,>EQ  10-Y/R,LOW  SPEED,PEDESTRIAN,RL  0,acts-1,N,784,185,202.869333,0.00791799999999998
L1MAXMIN|BASELINE_ONLY,exec-right-turn,W_S,>EQ  10-Y/R,LOW  SPEED,NO  PEDESTRIAN,RL  0,acts-1,Y,784,87,95.762333,0
L1MAXMIN|BASELINE_ONLY,exec-right-turn,W_S,>EQ  10-Y/R,LOW  SPEED,NO  PEDESTRIAN,RL  0,acts-1,Y,784,154,174.841333,0
L1MAXMIN|BASELINE_ONLY,exec-right-turn,W_S,>EQ  10-Y/R,LOW  SPEED,NO  PEDESTRIAN,RL  0,acts-1,Y,784,162,177.343833,4.300000000001525e-05
L1MAXMIN|BASELINE_ONLY,exec-right-turn,W_S,>EQ  10-Y/R,LOW  SPEED,NO  PEDESTRIAN,RL  0,acts-1,Y,784,162,178.344833,0
L1MAXMIN|BASELINE_ONLY,exec-right-turn,W_S,>EQ  10-Y/R,MEDIUM  SPEED,PEDESTRIAN,RL  0,acts-1,Y,784,82,91.257833,0.011212999999999917
L1MAXMIN|BASELINE_ONLY,exec-right-turn,W_S,>EQ  10-G,LOW  SPEED,PEDESTRIAN,RL  0,acts-1,Y,784,106,113.947167,0
L1MAXMIN|BASELINE_ONLY,exec-right-turn,W_S,>EQ  10-G,LOW  SPEED,PEDESTRIAN,RL  0,acts-1,Y,784,106,114.948167,0.0009620000000000184
L1MAXMIN|BASELINE_ONLY,exec-right-turn,W_S,>EQ  10-G,LOW  SPEED,PEDESTRIAN,  RL  >  2,acts-1,Y,784,198,223.223,0.20561200000000002
L1MAXMIN|BASELINE_ONLY,exec-right-turn,W_S,>EQ  10-G,LOW  SPEED,PEDESTRIAN,  RL  >  2,acts-1,Y,784,198,224.224,0.0007270000000000332
L1MAXMIN|BASELINE_ONLY,exec-right-turn,W_S,>EQ  10-G,LOW  SPEED,NO  PEDESTRIAN,RL  0,acts-1,Y,784,62,61.728333,0.0016019999999999923
L1MAXMIN|BASELINE_ONLY,exec-right-turn,W_S,>EQ  10-G,LOW  SPEED,NO  PEDESTRIAN,RL  0,acts-1,N,784,62,62.729333,0.0009580000000000144
L1MAXMIN|BASELINE_ONLY,exec-right-turn,W_S,>EQ  10-G,LOW  SPEED,NO  PEDESTRIAN,RL  0,acts-1,Y,784,133,146.813333,0.0006610000000000227
L1MAXMIN|BASELINE_ONLY,exec-right-turn,W_S,>EQ  10-G,LOW  SPEED,NO  PEDESTRIAN,RL  0,acts-1,Y,784,133,147.814333,5.299999999996974e-05
L1MAXMIN|BASELINE_ONLY,exec-right-turn,W_S,>EQ  10-G,MEDIUM  SPEED,NO  PEDESTRIAN,RL  0,acts-1,Y,784,31,30.5305,0.00018399999999996197
L1MAXMIN|BASELINE_ONLY,exec-right-turn,S_E,<10-Y/R,LOW  SPEED,NO  PEDESTRIAN,RL  0,acts-1,Y,784,158,168.001167,0
L1MAXMIN|BASELINE_ONLY,exec-right-turn,S_E,<10-Y/R,MEDIUM  SPEED,NO  PEDESTRIAN,RL  0,acts-1,Y,784,158,169.002167,0.00597700000000001
L1MAXMIN|BASELINE_ONLY,exec-right-turn,S_E,<10-G,LOW  SPEED,NO  PEDESTRIAN,RL  0,acts-1,Y,784,103,114.280833,0.0037279999999999536
L1MAXMIN|BASELINE_ONLY,exec-right-turn,S_E,<10-G,LOW  SPEED,NO  PEDESTRIAN,RL  0,acts-1,Y,784,103,115.281833,0.0010839999999999739
L1MAXMIN|BASELINE_ONLY,exec-right-turn,S_E,>EQ  10-Y/R,LOW  SPEED,NO  PEDESTRIAN,RL  0,acts-1,Y,784,33,36.703333,0.012056999999999984
L1MAXMIN|BASELINE_ONLY,exec-right-turn,S_E,>EQ  10-Y/R,LOW  SPEED,NO  PEDESTRIAN,RL  0,acts-1,Y,784,103,116.282833,0
L1MAXMIN|BASELINE_ONLY,exec-right-turn,S_E,>EQ  10-Y/R,LOW  SPEED,NO  PEDESTRIAN,RL  0,acts-1,Y,784,144,145.311833,0.004562999999999984
L1MAXMIN|BASELINE_ONLY,exec-right-turn,S_E,>EQ  10-Y/R,LOW  SPEED,NO  PEDESTRIAN,RL  0,acts-1,Y,784,219,238.7385,0.005587000000000009
L1MAXMIN|BASELINE_ONLY,exec-right-turn,S_E,>EQ  10-Y/R,MEDIUM  SPEED,NO  PEDESTRIAN,RL  0,acts-1,Y,784,125,128.294833,0.007831000000000032
L1MAXMIN|BASELINE_ONLY,exec-right-turn,S_E,>EQ  10-G,LOW  SPEED,NO  PEDESTRIAN,RL  0,acts-1,Y,784,171,218.218,0.00866699999999998
L1MAXMIN|BASELINE_ONLY,exec-right-turn,S_E,>EQ  10-G,LOW  SPEED,NO  PEDESTRIAN,RL  0,acts-1,Y,784,171,219.219,0
